pred	succ	p-cen	s-cen	p_q-score	p_s-score	s_q-score	s_s-score
1j5r	1o2d	8	8	1.0	1.0	1.0	0
1j5r	1o2d	9	9	0.606	0.536	0.504	0.446
1j5r	1o2d	11	11	0.409	0.618	0.419	0.573
1j5r	1o2d	12	12	0.463	0.276	0.481	0.317
1j5r	1o2d	13	13	0.475	0.587	0.437	0.559
1j5r	1o2d	14	14	0.884	0.882	0.885	0.871
1j5r	1o2d	15	15	0.758	0.867	0.767	0.873
1j5r	1o2d	16	16	0.247	0.409	0.265	0.265
1j5r	1o2d	17	17	0.871	0.941	0.904	0.955
1j5r	1o2d	18	18	0.857	0.879	0.867	0.887
1j5r	1o2d	19	19	0.789	0.856	0.811	0.863
1j5r	1o2d	20	20	1.0	0	1.0	0
1j5r	1o2d	21	21	0.833	0.533	0.833	0.533
1j5r	1o2d	22	22	0.35	0.399	0.339	0.399
1j5r	1o2d	23	23	0.765	0.848	0.765	0.848
1j5r	1o2d	24	24	1.0	0	1.0	0
1j5r	1o2d	25	25	0.571	0.576	0.502	0.578
1j5r	1o2d	26	26	0.833	0.9	0.75	0.85
1j5r	1o2d	27	27	0.175	0.191	0.234	0.241
1j5r	1o2d	28	28	0.689	0.567	0.689	0.567
1j5r	1o2d	29	29	0.0	0.0	0.0	0.0
1j5r	1o2d	30	30	0.802	0.725	0.806	0.726
1j5r	1o2d	31	31	1.0	0	1.0	0
1j5r	1o2d	32	32	0.0	0.0	0.0	0.0
1j5r	1o2d	33	33	0.0	0.015	0.0	0.076
1j5r	1o2d	34	34	0.175	0.174	0.222	0.18
1j5r	1o2d	35	35	0.05	0.126	0.052	0.09
1j5r	1o2d	36	36	0.446	0.684	0.487	0.589
1j5r	1o2d	37	37	0.36	0.478	0.379	0.44
1j5r	1o2d	38	38	0.761	0.807	0.766	0.796
1j5r	1o2d	39	39	0.046	0.022	0.04	0.006
1j5r	1o2d	40	40	0.144	0.093	0.14	0.296
1j5r	1o2d	41	41	0.851	0.79	0.819	0.704
1j5r	1o2d	42	42	0.864	0.622	0.863	0.861
1j5r	1o2d	43	43	0.239	0.204	0.3	0.435
1j5r	1o2d	44	44	0.623	0.609	0.616	0.586
1j5r	1o2d	45	45	0.754	0.721	0.744	0.875
1j5r	1o2d	46	46	0.7	0.622	0.641	0.814
1j5r	1o2d	47	47	0.563	0.772	0.571	0.463
1j5r	1o2d	48	48	0.0	0.008	0.0	0.009
1j5r	1o2d	49	49	0.0	0.0	0.0	0.0
1j5r	1o2d	50	50	0.046	0.103	0.054	0.137
1j5r	1o2d	51	51	0.264	0.302	0.268	0.281
1j5r	1o2d	52	52	0.261	0.132	0.274	0.52
1j5r	1o2d	53	53	0.085	0.09	0.082	0.075
1j5r	1o2d	54	54	0.304	0.31	0.31	0.383
1j5r	1o2d	55	55	0.672	0.715	0.668	0.768
1j5r	1o2d	56	56	0.299	0.198	0.295	0.179
1j5r	1o2d	57	57	0.628	0.837	0.622	0.646
1j5r	1o2d	58	58	0.0	0.0	0.0	0.0
1j5r	1o2d	59	59	0.009	0.005	0.009	0.012
1j5r	1o2d	60	60	0.236	0.218	0.219	0.156
1j5r	1o2d	61	61	0.478	0.727	0.511	0.722
1j5r	1o2d	62	62	0.122	0.171	0.14	0.217
1j5r	1o2d	63	63	0.0	0.0	0.0	0.0
1j5r	1o2d	64	64	0.113	0.123	0.126	0.135
1j5r	1o2d	65	65	0.302	0.604	0.315	0.348
1j5r	1o2d	66	66	0.0	0.018	0.0	0.003
1j5r	1o2d	67	67	0.002	0.001	0.0	0.007
1j5r	1o2d	68	68	0.0	0.0	0.0	0.001
1j5r	1o2d	70	70	0.02	0.017	0.022	0.051
1j5r	1o2d	71	71	0.222	0.151	0.261	0.337
1j5r	1o2d	72	72	0.032	0.025	0.035	0.031
1j5r	1o2d	73	73	0.691	0.567	0.691	0.53
1j5r	1o2d	74	74	0.359	0.489	0.372	0.429
1j5r	1o2d	75	75	0.446	0.442	0.438	0.615
1j5r	1o2d	76	76	0.461	0.389	0.485	0.382
1j5r	1o2d	77	77	0.445	0.327	0.433	0.531
1j5r	1o2d	78	78	0.217	0.261	0.226	0.208
1j5r	1o2d	79	79	0.743	0.856	0.736	0.856
1j5r	1o2d	80	80	0.586	0.625	0.589	0.627
1j5r	1o2d	81	81	0.07	0.079	0.062	0.045
1j5r	1o2d	82	82	0.193	0.478	0.211	0.5
1j5r	1o2d	83	83	0.204	0.223	0.206	0.212
1j5r	1o2d	84	84	0.304	0.408	0.295	0.296
1j5r	1o2d	85	85	0.585	0.649	0.593	0.525
1j5r	1o2d	86	86	0.0	0.0	0.0	0.0
1j5r	1o2d	87	87	0.119	0.136	0.113	0.092
1j5r	1o2d	88	88	0.043	0.108	0.053	0.095
1j5r	1o2d	89	89	0.164	0.228	0.165	0.157
1j5r	1o2d	90	90	0.029	0.06	0.088	0.13
1j5r	1o2d	92	92	0.321	0.188	0.303	0.349
1j5r	1o2d	93	93	0.161	0.262	0.198	0.272
1j5r	1o2d	94	94	0.168	0.154	0.116	0.102
1j5r	1o2d	95	95	0.0	0.0	0.0	0.0
1j5r	1o2d	96	96	0.144	0.193	0.109	0.141
1j5r	1o2d	97	97	0.607	0.665	0.611	0.688
1j5r	1o2d	98	98	0.787	0.897	0.777	0.699
1j5r	1o2d	99	99	0.3	0.285	0.316	0.248
1j5r	1o2d	100	100	0.0	0.004	0.005	0.01
1j5r	1o2d	101	101	0.038	0.027	0.064	0.052
1j5r	1o2d	102	102	0.438	0.483	0.441	0.384
1j5r	1o2d	103	103	0.358	0.352	0.438	0.426
1j5r	1o2d	104	104	0.613	0.449	0.655	0.674
1j5r	1o2d	105	105	0.596	0.692	0.609	0.616
1j5r	1o2d	106	106	0.15	0.225	0.131	0.202
1j5r	1o2d	107	107	0.134	0.068	0.047	0.114
1j5r	1o2d	108	108	0.162	0.107	0.16	0.177
1j5r	1o2d	109	109	0.307	0.236	0.266	0.183
1j5r	1o2d	111	111	0.386	0.455	0.352	0.523
1j5r	1o2d	112	112	0.755	0.774	0.726	0.748
1j5r	1o2d	113	113	0.215	0.158	0.709	0.636
1j5r	1o2d	114	114	0.924	0.832	0.919	0.827
1j5r	1o2d	115	115	0.803	0.835	0.792	0.77
1j5r	1o2d	116	116	0.323	0.39	0.3	0.376
1j5r	1o2d	117	117	0.0	0.0	0.0	0.0
1j5r	1o2d	118	118	0.008	0.009	0.0	0.0
1j5r	1o2d	119	119	0.07	0.066	0.079	0.089
1j5r	1o2d	120	120	0.168	0.203	0.132	0.209
1j5r	1o2d	121	121	0.068	0.196	0.053	0.158
1j5r	1o2d	122	122	0.0	0.0	0.0	0.0
1j5r	1o2d	123	123	0.4	0.367	0.421	0.403
1j5r	1o2d	124	124	0.334	0.473	0.29	0.28
1j5r	1o2d	125	125	0.228	0.311	0.185	0.151
1j5r	1o2d	126	126	0.0	0.0	0.0	0.0
1j5r	1o2d	127	127	0.573	0.621	0.546	0.548
1j5r	1o2d	128	128	0.3	0.307	0.346	0.377
1j5r	1o2d	129	129	0.377	0.459	0.388	0.368
1j5r	1o2d	130	130	0.126	0.206	0.128	0.246
1j5r	1o2d	131	131	0.315	0.303	0.291	0.335
1j5r	1o2d	132	132	0.455	0.581	0.407	0.555
1j5r	1o2d	133	133	0.459	0.507	0.445	0.484
1j5r	1o2d	135	135	0.22	0.209	0.142	0.073
1j5r	1o2d	137	137	0.0	0.0	0.069	0.173
1j5r	1o2d	138	138	0.033	0.126	0.169	0.14
1j5r	1o2d	141	141	0.129	0.046	0.156	0.144
1j5r	1o2d	143	143	0.941	0.562	0.0	0.015
1j5r	1o2d	144	144	0.208	0.317	0.196	0.202
1j5r	1o2d	145	145	0.762	0.818	0.87	0.843
1j5r	1o2d	146	146	0.87	0.702	0.872	0.707
1j5r	1o2d	147	147	0.338	0.398	0.344	0.4
1j5r	1o2d	148	148	0.284	0.32	0.288	0.313
1j5r	1o2d	149	149	0.395	0.429	0.392	0.428
1j5r	1o2d	150	150	0.0	0.0	0.0	0.0
1j5r	1o2d	151	151	0.0	0.0	0.0	0.0
1j5r	1o2d	152	152	0.0	0.0	0.0	0.001
1j5r	1o2d	153	153	0.201	0.303	0.179	0.156
1j5r	1o2d	154	154	0.101	0.067	0.089	0.07
1j5r	1o2d	155	155	0.171	0.36	0.154	0.119
1j5r	1o2d	156	156	0.314	0.374	0.286	0.267
1j5r	1o2d	157	157	0.0	0.0	0.0	0.0
1j5r	1o2d	161	161	0.021	0.002	0.178	0.198
1j5r	1o2d	162	162	0.416	0.446	0.389	0.43
1j5r	1o2d	163	163	0.741	0.767	0.726	0.772
1j5r	1o2d	165	165	0.597	0.553	0.602	0.722
1j5r	1o2d	166	166	0.182	0.161	0.141	0.109
1j5r	1o2d	167	167	0.764	0.864	0.771	0.86
1j5r	1o2d	168	168	0.591	0.651	0.594	0.651
1j5r	1o2d	169	169	0.0	0.0	0.0	0.0
1j5r	1o2d	171	171	0.017	0.016	0.066	0.103
1j5r	1o2d	172	172	0.262	0.258	0.274	0.324
1j5r	1o2d	174	174	0.0	0.0	0.0	0.0
1j5r	1o2d	175	175	0.525	0.509	0.567	0.52
1j5r	1o2d	176	176	0.695	0.678	0.615	0.632
1j5r	1o2d	177	177	0.119	0.115	0.03	0.032
1j5r	1o2d	178	178	0.019	0.021	0.03	0.042
1j5r	1o2d	179	179	0.346	0.345	0.332	0.342
1j5r	1o2d	180	180	0.0	0.0	0.0	0.0
1j5r	1o2d	181	181	0.0	0.0	0.0	0.0
1j5r	1o2d	182	182	0.0	0.0	0.0	0.0
1j5r	1o2d	183	183	0.117	0.094	0.137	0.191
1j5r	1o2d	184	184	0.0	0.049	0.0	0.026
1j5r	1o2d	185	185	0.395	0.349	0.393	0.431
1j5r	1o2d	186	186	0.009	0.017	0.016	0.027
1j5r	1o2d	187	187	0.0	0.003	0.0	0.006
1j5r	1o2d	188	188	0.465	0.6	0.371	0.638
1j5r	1o2d	192	192	0.0	0.0	0.0	0.0
1j5r	1o2d	193	193	0.0	0.0	0.0	0.0
1j5r	1o2d	194	194	0.063	0.048	0.111	0.098
1j5r	1o2d	195	195	0.681	0.576	0.656	0.588
1j5r	1o2d	196	196	0.046	0.045	0.039	0.022
1j5r	1o2d	197	197	0.085	0.093	0.052	0.049
1j5r	1o2d	198	198	0.0	0.0	0.0	0.0
1j5r	1o2d	199	199	0.669	0.901	0.642	0.615
1j5r	1o2d	200	200	0.622	0.753	0.577	0.615
1j5r	1o2d	202	202	0.242	0.185	0.209	0.193
1j5r	1o2d	203	203	0.0	0.0	0.0	0.0
1j5r	1o2d	204	204	0.0	0.0	0.0	0.0
1j5r	1o2d	205	205	0.248	0.335	0.229	0.33
1j5r	1o2d	206	206	0.02	0.048	0.028	0.073
1j5r	1o2d	207	207	0.0	0.0	0.0	0.0
1j5r	1o2d	209	209	0.076	0.085	0.042	0.043
1j5r	1o2d	210	210	0.022	0.022	0.068	0.062
1j5r	1o2d	211	211	0.0	0.0	0.0	0.0
1j5r	1o2d	212	212	0.447	0.62	0.469	0.548
1j5r	1o2d	213	213	0.448	0.526	0.446	0.526
1j5r	1o2d	214	214	0.105	0.1	0.138	0.136
1j5r	1o2d	215	215	0.571	0.703	0.483	0.572
1j5r	1o2d	216	216	0.84	0.825	0.811	0.777
1j5r	1o2d	217	217	0.036	0.035	0.024	0.022
1j5r	1o2d	222	222	0.067	0.07	0.06	0.088
1j5r	1o2d	223	223	0.014	0.028	0.029	0.032
1j5r	1o2d	224	224	0.0	0.0	0.0	0.0
1j5r	1o2d	225	225	0.275	0.328	0.305	0.317
1j5r	1o2d	226	226	0.48	0.478	0.401	0.406
1j5r	1o2d	227	227	0.382	0.352	0.355	0.36
1j5r	1o2d	228	228	0.805	0.867	0.792	0.796
1j5r	1o2d	229	229	0.016	0.056	0.003	0.046
1j5r	1o2d	230	230	0.206	0.28	0.189	0.19
1j5r	1o2d	231	231	0.279	0.404	0.245	0.247
1j5r	1o2d	232	232	0.857	0.916	0.85	0.896
1j5r	1o2d	233	233	0.335	0.363	0.227	0.339
1j5r	1o2d	234	234	0.503	0.493	0.541	0.588
1j5r	1o2d	235	235	0.659	0.61	0.641	0.719
1j5r	1o2d	236	236	0.872	0.895	0.874	0.895
1j5r	1o2d	237	237	0.939	0.994	0.924	0.994
1j5r	1o2d	238	238	0.166	0.137	0.149	0.322
1j5r	1o2d	239	239	0.184	0.21	0.151	0.164
1j5r	1o2d	240	240	0.0	0.0	0.0	0.0
1j5r	1o2d	241	241	0.157	0.194	0.168	0.136
1j5r	1o2d	244	244	0.7	0.918	0.713	0.655
1j5r	1o2d	246	246	0.192	0.255	0.179	0.185
1j5r	1o2d	247	247	0.383	0.317	0.384	0.317
1j5r	1o2d	248	248	0.718	0.753	0.725	0.745
1j5r	1o2d	249	249	0.577	0.755	0.565	0.713
1j5r	1o2d	250	250	0.226	0.332	0.226	0.346
1j5r	1o2d	251	251	0.762	0.706	0.784	0.706
1j5r	1o2d	253	253	0.0	0.0	0.0	0.0
1j5r	1o2d	254	254	0.431	0.508	0.414	0.59
1j5r	1o2d	255	255	0.48	0.533	0.519	0.56
1j5r	1o2d	256	256	0.356	0.378	0.39	0.408
1j5r	1o2d	257	257	0.218	0.173	0.173	0.238
1j5r	1o2d	261	261	0.185	0.366	0.238	0.384
1j5r	1o2d	262	262	0.538	0.663	0.515	0.546
1j5r	1o2d	263	263	0.695	0.616	0.682	0.744
1j5r	1o2d	265	265	0.833	1.0	0.833	1.0
1j5r	1o2d	266	266	0.902	0.98	0.897	0.987
1j5r	1o2d	267	267	0.785	0.753	0.796	0.799
1j5r	1o2d	268	268	0.798	0.791	0.779	0.775
1j5r	1o2d	269	269	0.51	0.499	0.478	0.451
1j5r	1o2d	270	270	0.805	0.762	0.74	0.693
1j5r	1o2d	271	271	0.212	0.275	0.24	0.226
1j5r	1o2d	274	274	0.73	0.726	0.732	0.778
1j5r	1o2d	275	275	0.058	0.042	0.126	0.131
1j5r	1o2d	277	277	0.879	0.996	0.853	0.655
1j5r	1o2d	278	278	0.175	0.182	0.243	0.226
1j5r	1o2d	280	280	0.769	0.655	0.743	0.716
1j5r	1o2d	283	283	0.0	0.015	0.0	0.026
1j5r	1o2d	284	284	0.17	0.222	0.153	0.307
1j5r	1o2d	285	285	0.174	0.137	0.2	0.199
1j5r	1o2d	286	286	0.023	0.033	0.072	0.124
1j5r	1o2d	289	289	0.28	0.283	0.275	0.272
1j5r	1o2d	290	290	0.0	0.0	0.0	0.0
1j5r	1o2d	291	291	0.037	0.015	0.016	0.026
1j5r	1o2d	292	292	0.22	0.101	0.237	0.271
1j5r	1o2d	294	294	0.0	0.017	0.0	0.011
1j5r	1o2d	295	295	0.366	0.37	0.28	0.283
1j5r	1o2d	296	296	0.81	0.704	0.816	0.7
1j5r	1o2d	297	297	0.022	0.022	0.081	0.084
1j5r	1o2d	298	298	0.182	0.155	0.158	0.137
1j5r	1o2d	299	299	0.533	0.567	0.561	0.615
1j5r	1o2d	300	300	0.532	0.537	0.515	0.708
1j5r	1o2d	301	301	0.0	0.0	0.0	0.0
1j5r	1o2d	302	302	0.0	0.0	0.0	0.0
1j5r	1o2d	303	303	0.0	0.0	0.0	0.0
1j5r	1o2d	304	304	0.025	0.022	0.087	0.091
1j5r	1o2d	305	305	0.0	0.0	0.0	0.0
1j5r	1o2d	306	306	0.0	0.0	0.0	0.0
1j5r	1o2d	307	307	0.0	0.0	0.0	0.0
1j5r	1o2d	310	310	0.088	0.066	0.106	0.154
1j5r	1o2d	311	311	0.065	0.15	0.056	0.107
1j5r	1o2d	312	312	0.758	0.647	0.751	0.638
1j5r	1o2d	313	313	0.0	0.007	0.0	0.004
1j5r	1o2d	316	316	0.706	0.96	0.757	0.812
1j5r	1o2d	317	317	0.0	0.001	0.0	0.007
1j5r	1o2d	318	318	0.611	0.596	0.599	0.581
1j5r	1o2d	319	319	0.609	0.304	0.617	0.355
1j5r	1o2d	320	320	0.426	0.304	0.393	0.329
1j5r	1o2d	321	321	0.603	0.685	0.672	0.771
1j5r	1o2d	322	322	0.772	0.775	0.777	0.775
1j5r	1o2d	323	323	0.193	0.188	0.198	0.194
1j5r	1o2d	324	324	0.882	0.849	0.901	0.72
1j5r	1o2d	325	325	0.9	0.816	0.858	0.878
1j5r	1o2d	326	326	0.225	0.268	0.268	0.398
1j5r	1o2d	329	329	0.364	0.377	0.408	0.455
1j5r	1o2d	330	330	0.673	0.761	0.652	0.795
1j5r	1o2d	331	331	0.197	0.216	0.226	0.256
1j5r	1o2d	332	332	0.0	0.0	0.41	0.427
1j5r	1o2d	333	333	0.729	0.768	0.709	0.754
1j5r	1o2d	334	334	0.467	0.559	0.384	0.381
1j5r	1o2d	335	335	0.0	0.0	0.0	0.0
1j5r	1o2d	336	336	0.0	0.0	0.0	0.0
1j5r	1o2d	337	337	0.357	0.363	0.419	0.439
1j5r	1o2d	338	338	0.0	0.021	0.0	0.027
1j5r	1o2d	339	339	0.0	0.023	0.0	0.002
1j5r	1o2d	340	340	0.102	0.134	0.064	0.098
1j5r	1o2d	341	341	0.258	0.283	0.292	0.477
1j5r	1o2d	342	342	0.246	0.231	0.159	0.107
1j5r	1o2d	343	343	0.747	0.526	0.733	0.722
1j5r	1o2d	344	344	0.716	0.736	0.759	0.824
1j5r	1o2d	345	345	0.0	0.0	0.0	0.0
1j5r	1o2d	346	346	0.16	0.219	0.165	0.22
1j5r	1o2d	348	348	0.232	0.365	0.236	0.397
1j5r	1o2d	351	351	0.787	0.631	0.887	0.66
1j5r	1o2d	352	352	0.807	0.807	0.835	0.896
1j5r	1o2d	353	353	0.679	0.695	0.7	0.756
1j5r	1o2d	354	354	0.375	0.329	0.379	0.389
1j5r	1o2d	356	356	0.653	0.526	0.716	0.588
1j5r	1o2d	357	357	0.92	0.987	0.894	0.735
1j5r	1o2d	360	360	0.46	0.502	0.405	0.346
1j5r	1o2d	361	361	0.898	0.779	0.883	0.79
1j5r	1o2d	362	362	0.595	0.846	0.602	0.789
1j5r	1o2d	363	363	0.0	0.0	0.376	0.358
1j5r	1o2d	364	364	0.33	0.377	0.309	0.308
1j5r	1o2d	366	366	0.083	0.081	0.037	0.013
1j5r	1o2d	367	367	0.679	0.769	0.684	0.766
1j5r	1o2d	368	368	0.07	0.159	0.061	0.1
1j5r	1o2d	369	369	0.254	0.257	0.258	0.262
1j5r	1o2d	370	370	0.0	0.004	0.0	0.001
1j5r	1o2d	371	371	0.583	0.512	0.581	0.537
1j5r	1o2d	372	372	0.778	0.683	0.807	0.7
1j5r	1o2d	373	373	0.488	0.475	0.48	0.475
1j5r	1o2d	374	374	0.501	0.444	0.531	0.506
1j5r	1o2d	376	376	0.442	0.405	0.431	0.388
1j5r	1o2d	377	377	0.0	0.0	0.0	0.0
1j5r	1o2d	378	378	0.0	0.021	0.0	0.031
1j5r	1o2d	379	379	0.074	0.088	0.078	0.153
1j5r	1o2d	380	380	0.837	0.97	0.829	0.82
1j5r	1o2d	381	381	0.823	0.818	0.816	0.83
1j5r	1o2d	382	382	0.0	0.0	0.0	0.0
1j5r	1o2d	383	383	0.238	0.362	0.229	0.204
1j5r	1o2d	384	384	0.598	0.688	0.387	0.464
1j5r	1o2d	385	385	0.4	0.315	0.349	0.404
1j5r	1o2d	387	387	0.0	0.0	0.0	0.0
1j5r	1o2d	388	388	0.0	0.0	0.0	0.0
1j5r	1o2d	389	389	0.0	0.008	0.0	0.01
1j5r	1o2d	391	391	0.0	0.0	0.0	0.0
1j5r	1o2d	392	392	0.0	0.0	0.0	0.0
1j5r	1o2d	393	393	0.0	0.0	0.0	0.0
1j5r	1o2d	394	394	0.0	0.049	0.0	0.034
1j5r	1o2d	395	395	0.445	0.418	0.438	0.398
1j5r	1o2d	396	396	0.0	0.0	0.0	0.003
1j5r	1o2d	397	397	0.146	0.152	0.153	0.275
1j5r	1o2d	398	398	0.11	0.191	0.124	0.165
1j5r	1o2d	399	399	0.228	0.375	0.182	0.222
1j5r	1o2d	400	400	0.37	0.642	0.368	0.47
1j5r	1o2d	401	401	0.12	0.148	0.174	0.189
1j5r	1o2d	402	402	0.218	0.219	0.211	0.258
1j5r	1o2d	403	403	0.081	0.176	0.113	0.194
1j5r	1o2d	405	405	0.773	0.759	0.86	0.942
1j5r	1o2d	406	406	0.103	0.106	0.065	0.078
1j5r	1o2d	408	408	0.0	0.006	0.0	0.003
1j5r	1o2d	411	411	0.235	0.238	0.23	0.296
1j5r	1o2d	412	412	0.002	0.007	0.0	0.0
1j5r	1o2d	414	414	0.465	0.402	0.465	0.415
1j5r	1o2d	415	415	0.383	0.298	0.413	0.358
1j5r	1o2d	416	416	0.0	0.006	0.0	0.006
1j5r	1o2d	417	417	0.074	0.073	0.007	0.039
1j5r	1o2d	418	418	0.522	0.562	0.516	0.47
1j5r	1o2d	419	419	0.135	0.092	0.106	0.124
1j5r	1o2d	420	420	0.264	0.329	0.202	0.29
1j5r	1o2d	421	421	0.291	0.288	0.32	0.303
1j5r	1o2d	422	422	0.0	0.0	0.0	0.0
1j5r	1o2d	423	423	0.13	0.143	0.19	0.197
1j5r	1o2d	424	424	0.564	0.514	0.576	0.578
1j5r	1o2d	425	425	0.649	0.7	0.689	0.731
1j5r	1o2d	426	426	0.242	0.373	0.207	0.193
1j5r	1o2d	427	427	0.176	0.148	0.175	0.174
1j5r	1o2d	428	428	0.177	0.218	0.124	0.153
1j5r	1o2d	429	429	0.731	0.817	0.764	0.919
1j5r	1o2d	430	430	0.284	0.364	0.288	0.373
1j5r	1o2d	431	431	0.0	0.0	0.0	0.0
1j5r	1o2d	432	432	0.419	0.134	0.496	0.454
1j5r	1o2d	434	434	0.101	0.17	0.481	0.696
1j5r	1o2d	435	435	0.0	0.012	0.0	0.0
1j5r	1o2d	436	436	0.0	0.0	0.0	0.0
1j5r	1o2d	437	437	0.043	0.145	0.048	0.169
1j5r	1o2d	439	439	0.397	0.406	0.38	0.428
1j5r	1o2d	440	440	0.909	0.884	0.915	0.894
1j5r	1o2d	441	441	0.642	0.789	0.642	0.789
1j5r	1o2d	442	442	0.9	0.78	0.878	0.756
1j5r	1o2d	444	444	0.412	0.409	0.431	0.482
1j5r	1o2d	449	449	0.295	0.284	0.461	0.294
1j5r	1o2d	450	450	0.0	0.0	0.0	0.0
1j5r	1o2d	451	451	0.176	0.184	0.227	0.237
1j5r	1o2d	454	454	0.396	0.394	0.386	0.377
1j5r	1o2d	455	455	0.002	0.011	0.014	0.071
1j5r	1o2d	457	457	0.0	0.027	0.0	0.016
1j5r	1o2d	459	459	0.0	0.003	0.0	0.001
1j5r	1o2d	461	461	0.0	0.0	0.0	0.003
1j5r	1o2d	462	462	0.019	0.06	0.011	0.043
1j5r	1o2d	463	463	0.178	0.118	0.139	0.125
1j5r	1o2d	464	464	0.505	0.511	0.526	0.501
1j5r	1o2d	465	465	0.157	0.13	0.164	0.137
1j5r	1o2d	466	466	0.0	0.0	0.0	0.0
1j5r	1o2d	468	468	0.592	0.815	0.58	0.872
1j5r	1o2d	470	470	0.659	0.487	0.662	0.524
1j5r	1o2d	473	473	0.469	0.629	0.459	0.63
1j5r	1o2d	474	474	0.65	0.575	0.645	0.575
1j5r	1o2d	475	475	0.386	0.5	0.409	0.439
1j5r	1o2d	476	476	0.0	0.0	0.0	0.0
1j5r	1o2d	478	478	0.112	0.124	0.128	0.231
1j5r	1o2d	479	479	0.537	0.551	0.4	0.479
1j5r	1o2d	480	480	0.586	0.659	0.578	0.746
1j5r	1o2d	481	481	0.0	0.0	0.0	0.0
1j5r	1o2d	483	483	0.344	0.302	0.307	0.424
1j5r	1o2d	485	485	0.0	0.0	0.0	0.0
1j5r	1o2d	486	486	0.0	0.0	0.0	0.0
1j5r	1o2d	487	487	0.495	0.531	0.496	0.429
1j5r	1o2d	488	488	0.203	0.255	0.184	0.299
1j5r	1o2d	489	489	0.165	0.15	0.171	0.159
1j5r	1o2d	493	493	0.275	0.302	0.351	0.374
1j5r	1o2d	494	494	0.0	0.0	0.0	0.0
1j5r	1o2d	496	496	0.406	0.474	0.386	0.331
1j5r	1o2d	497	497	0.028	0.053	0.008	0.089
1j5r	1o2d	498	498	0.44	0.4	0.378	0.371
1j5r	1o2d	499	499	0.11	0.14	0.127	0.147
1j5r	1o2d	500	500	0.638	0.7	0.635	0.694
1j5r	1o2d	501	501	0.82	0.835	0.78	0.802
1j5r	1o2d	502	502	0.754	0.603	0.779	0.765
1j5r	1o2d	503	503	0.02	0.037	0.0	0.0
1j5r	1o2d	504	504	0.03	0.097	0.029	0.028
1j5r	1o2d	505	505	0.318	0.399	0.334	0.442
1j5r	1o2d	506	506	0.355	0.326	0.372	0.427
1j5r	1o2d	507	507	0.787	0.87	0.786	0.806
1j5r	1o2d	509	509	0.584	0.524	0.054	0.011
1j5r	1o2d	510	510	0.467	0.502	0.457	0.373
1j5r	1o2d	511	511	0.549	0.795	0.517	0.513
1j5r	1o2d	512	512	0.781	0.677	0.776	0.676
1j5r	1o2d	514	514	0.762	0.676	0.742	0.652
1j5r	1o2d	516	516	0.9	0.925	0.875	0.925
1j5r	1o2d	517	517	0.877	0.856	0.841	0.86
1j5r	1o2d	518	518	0.215	0.214	0.252	0.261
1j5r	1o2d	519	519	0.491	0.661	0.611	0.66
1j5r	1o2d	521	521	0.73	0.889	0.742	0.891
1j5r	1o2d	522	522	0.0	0.0	0.0	0.0
1j5r	1o2d	523	523	0.528	0.624	0.511	0.766
1j5r	1o2d	525	525	0.326	0.506	0.308	0.473
1j5r	1o2d	526	526	0.729	0.641	0.735	0.641
1j5r	1o2d	527	527	0.6	0.6	0.6	0.6
1j5r	1o2d	529	529	0.863	0.184	0.856	0.167
1j5r	1o2d	530	530	0.417	0.442	0.412	0.442
1j5r	1o2d	531	531	0.886	0.692	0.877	0.694
1j5r	1o2d	532	532	0.673	0.56	0.688	0.569
1j5r	1o2d	534	534	0.769	0.578	0.766	0.578
1j5r	1o2d	535	535	0.035	0.117	0.031	0.059
1j5r	1o2d	536	536	0.795	0.793	0.821	0.801
1j5r	1o2d	537	537	0.625	0.66	0.662	0.709
1j5r	1o2d	538	538	0.0	0.0	0.0	0.0
1j5r	1o2d	539	539	0.357	0.43	0.345	0.427
1j5r	1o2d	540	540	0.68	0.586	0.625	0.606
1j5r	1o2d	541	541	0.239	0.261	0.249	0.238
1j5r	1o2d	542	542	0.596	0.797	0.584	0.767
1j5r	1o2d	543	543	0.042	0.097	0.021	0.023
1j5r	1o2d	544	544	0.14	0.156	0.128	0.149
1j5r	1o2d	545	545	0.129	0.142	0.073	0.128
1j5r	1o2d	546	546	0.12	0.157	0.127	0.196
1j5r	1o2d	547	547	0.309	0.36	0.344	0.359
1j5r	1o2d	548	548	0.147	0.168	0.159	0.203
1j5r	1o2d	549	549	0.405	0.635	0.323	0.34
1j5r	1o2d	550	550	0.482	0.638	0.47	0.42
1j5r	1o2d	551	551	0.231	0.24	0.249	0.266
1j5r	1o2d	552	552	0.727	0.651	0.724	0.657
1j5r	1o2d	553	553	0.89	0.818	0.897	0.839
1j5r	1o2d	555	555	0.0	0.0	0.0	0.0
1j5r	1o2d	556	556	0.805	0.795	0.823	0.812
1j5r	1o2d	557	557	0.512	0.594	0.502	0.594
1j5r	1o2d	559	559	0.405	0.495	0.386	0.495
1j5r	1o2d	560	560	0.224	0.192	0.234	0.208
1j5r	1o2d	561	561	0.658	0.929	0.613	0.603
1j5r	1o2d	562	562	0.666	0.616	0.624	0.729
1j5r	1o2d	563	563	0.53	0.473	0.539	0.748
1j5r	1o2d	564	564	0.336	0.374	0.315	0.286
1j5r	1o2d	565	565	0.0	0.029	0.0	0.046
1j5r	1o2d	566	566	0.026	0.054	0.026	0.112
1j5r	1o2d	567	567	0.109	0.195	0.111	0.18
1j5r	1o2d	568	568	0.297	0.299	0.292	0.301
1j5r	1o2d	569	569	0.108	0.109	0.108	0.214
1j5r	1o2d	570	570	0.7	0.806	0.753	0.782
1j5r	1o2d	571	571	0.369	0.344	0.341	0.409
1j5r	1o2d	572	572	0.304	0.347	0.294	0.389
1j5r	1o2d	573	573	0.792	0.76	0.795	0.76
1j5r	1o2d	574	574	0.771	0.89	0.748	0.89
1j5r	1o2d	575	575	0.745	0.696	0.746	0.696
1j5r	1o2d	577	577	0.459	0.528	0.463	0.529
1j5r	1o2d	578	578	0.0	0.0	0.0	0.0
1j5r	1o2d	582	582	0.281	0.183	0.298	0.217
1j5r	1o2d	583	583	0.0	0.0	0.0	0.0
1j5r	1o2d	584	584	0.029	0.048	0.022	0.046
1j5r	1o2d	585	585	0.405	0.464	0.408	0.474
1j5r	1o2d	586	586	0.288	0.296	0.15	0.211
1j5r	1o2d	587	587	0.5	0.476	0.528	0.478
1j5r	1o2d	588	588	0.321	0.524	0.355	0.508
1j5r	1o2d	589	589	0.378	0.426	0.401	0.434
1j5r	1o2d	590	590	0.365	0.435	0.434	0.539
1j5r	1o2d	591	591	0.528	0.659	0.538	0.68
1j5r	1o2d	592	592	1.0	0	1.0	0
1j5r	1o2d	593	593	1.0	0	1.0	0
1j5r	1o2d	594	594	0.618	0.751	0.655	0.801
1j5r	1o2d	595	595	0.584	0.524	0.586	0.524
1j5r	1o2d	596	596	0.784	0.806	0.775	0.299
1j5r	1o2d	597	597	0.762	0.802	0.788	0.78
1j5r	1o2d	598	598	0.745	0.848	0.744	0.85
1j5r	1o2d	599	599	0.562	0.632	0.587	0.55
1j5r	1o2d	600	600	0.865	0.827	0.858	0.945
1j5r	1o2d	601	601	0.359	0.303	0.361	0.382
1j5r	1o2d	602	602	0.88	0.987	0.879	0.985
1j5r	1o2d	603	603	0.054	0.097	0.04	0.06
1j5r	1o2d	604	604	0.559	0.564	0.602	0.805
1j5r	1o2d	605	605	0.196	0.22	0.21	0.149
1j5r	1o2d	606	606	0.336	0.427	0.36	0.497
1j5r	1o2d	607	607	0.692	0.67	0.685	0.675
1j5r	1o2d	608	608	0.291	0.661	0.316	0.309
1j5r	1o2d	609	609	0.0	0.059	0.149	0.305
1j5r	1o2d	610	610	0.286	0.458	0.266	0.395
1j5r	1o2d	612	612	0.833	0.667	0.833	0.667
1j5r	1o2d	613	613	0.0	0.002	0.0	0.004
1j5r	1o2d	614	614	0.89	0.79	0.877	0.79
1j5r	1o2d	615	615	0.71	0.361	0.682	0.399
1j5r	1o2d	616	616	0.266	0.254	0.305	0.304
1j5r	1o2d	617	617	0.678	0.703	0.651	0.674
1j5r	1o2d	618	618	0.785	0.718	0.788	0.718
1j5r	1o2d	619	619	0.428	0.426	0.429	0.422
1j5r	1o2d	620	620	0.584	0.741	0.566	0.856
1j5r	1o2d	621	621	0.371	0.47	0.348	0.605
1j5r	1o2d	622	622	0.414	0.38	0.38	0.298
1j5r	1o2d	623	623	0.821	0.897	0.814	0.893
1j5r	1o2d	624	624	0.801	0.788	0.8	0.794
1j5r	1o2d	625	625	0.083	0.082	0.113	0.103
1j5r	1o2d	626	626	0.242	0.25	0.246	0.258
1j5r	1o2d	627	627	0.139	0.164	0.14	0.163
1j5r	1o2d	628	628	0.463	0.667	0.495	0.746
1j5r	1o2d	629	629	0.737	0.723	0.697	0.688
1j5r	1o2d	630	630	0.9	0.693	0.903	0.958
1j5r	1o2d	631	631	0.36	0.324	0.347	0.308
1j5r	1o2d	632	632	0.925	1.0	0.94	0.98
1j5r	1o2d	633	633	0.0	0.0	0.0	0.0
1j5r	1o2d	634	634	0.515	0.312	0.458	0.272
1j5r	1o2d	635	635	0.267	0.267	0.257	0.392
1j5r	1o2d	636	636	0.349	0.42	0.316	0.389
1j5r	1o2d	637	637	0.351	0.394	0.385	0.399
1j5r	1o2d	639	639	1.0	0	1.0	0
1j5r	1o2d	640	640	0.173	0.193	0.165	0.151
1j5r	1o2d	641	641	0.033	0.032	0.082	0.084
1j5r	1o2d	642	642	0.0	0.0	0.0	0.0
1j5r	1o2d	643	643	0.415	0.434	0.409	0.399
1j5r	1o2d	644	644	0.765	0.881	0.774	0.932
1j5r	1o2d	645	645	0.376	0.342	0.389	0.388
1j5r	1o2d	646	646	0.007	0.014	0.012	0.021
1j5r	1o2d	647	647	0.063	0.063	0.017	0.024
1j5r	1o2d	649	649	0.148	0.2	0.14	0.13
1j5r	1o2d	650	650	0.219	0.225	0.291	0.273
1j5r	1o2d	651	651	0.025	0.035	0.021	0.019
1j5r	1o2d	652	652	0.134	0.216	0.116	0.142
1j5r	1o2d	653	653	0.184	0.152	0.162	0.199
1j5r	1o2d	654	654	0.198	0.296	0.264	0.273
1j5r	1o2d	655	655	0.091	0.091	0.073	0.071
1j5r	1o2d	656	656	0.471	0.419	0.462	0.419
1j5r	1o2d	657	657	0.907	0.969	0.929	0.902
1j5r	1o2d	658	658	0.791	0.691	0.784	0.691
1j5r	1o2d	659	659	0.019	0.018	0.0	0.0
1j5r	1o2d	660	660	0.025	0.141	0.029	0.087
1j5r	1o2d	661	661	0.042	0.055	0.009	0.104
1j5r	1o2d	662	662	0.169	0.303	0.161	0.222
1j5r	1o2d	663	663	0.661	0.626	0.62	0.488
1j5r	1o2d	664	664	0.0	0.0	0.002	0.002
1j5r	1o2d	665	665	0.416	0.512	0.456	0.627
1j5r	1o2d	666	666	0.191	0.361	0.187	0.05
1j5r	1o2d	667	667	0.392	0.456	0.373	0.522
1j5r	1o2d	668	668	0.196	0.218	0.176	0.205
1j5r	1o2d	669	669	0.515	0.544	0.518	0.544
1j5r	1o2d	670	670	0.134	0.076	0.104	0.073
1j5r	1o2d	671	671	0.342	0.4	0.364	0.324
1j5r	1o2d	672	672	0.0	0.0	0.0	0.0
1j5r	1o2d	673	673	0.137	0.316	0.126	0.111
1j5r	1o2d	675	675	0.0	0.001	0.0	0.018
1j5r	1o2d	679	679	0.006	0.026	0.009	0.001
1j5r	1o2d	680	680	0.55	0.542	0.458	0.616
1j5r	1o2d	681	681	0.154	0.125	0.136	0.164
1j5r	1o2d	682	682	0.0	0.001	0.0	0.003
1j5r	1o2d	683	683	0.285	0.301	0.286	0.266
1j5r	1o2d	684	684	0.133	0.137	0.139	0.151
1j5r	1o2d	685	685	0.0	0.061	0.046	0.101
1j5r	1o2d	686	686	0.551	0.641	0.54	0.546
1j5r	1o2d	687	687	0.552	0.553	0.597	0.684
1j5r	1o2d	689	689	0.426	0.355	0.428	0.357
1j5r	1o2d	691	691	0.855	0.86	0.883	0.898
1j5r	1o2d	692	692	0.344	0.414	0.364	0.502
1j5r	1o2d	693	693	0.081	0.087	0.082	0.084
1j5r	1o2d	696	696	0.247	0.285	0.287	0.443
1j5r	1o2d	697	697	0.569	0.677	0.579	0.492
1j5r	1o2d	698	698	0.54	0.533	0.514	0.547
1j5r	1o2d	699	699	0.395	0.411	0.369	0.348
1j5r	1o2d	700	700	0.933	0.867	0.933	0.867
1j5r	1o2d	702	702	0.0	0.0	0.0	0.0
1j5r	1o2d	703	703	0.0	0.0	0.0	0.0
1j5r	1o2d	704	704	0.13	0.141	0.106	0.102
1j5r	1o2d	705	705	0.27	0.342	0.263	0.346
1j5r	1o2d	707	707	0.0	0.0	0.0	0.0
1j5r	1o2d	708	708	0.013	0.09	0.0	0.0
1j5r	1o2d	709	709	0.382	0.375	0.372	0.374
1j5r	1o2d	710	710	0.432	0.538	0.415	0.555
1j5r	1o2d	711	711	0.208	0.227	0.118	0.135
1j5r	1o2d	712	712	0.752	0.735	0.705	0.5
1j5r	1o2d	714	714	0.06	0.074	0.139	0.117
1j5r	1o2d	716	716	0.129	0.214	0.154	0.13
1j5r	1o2d	717	717	0.729	0.689	0.727	0.689
1j5r	1o2d	718	718	0.424	0.541	0.312	0.41
1j5r	1o2d	720	720	0.0	0.0	0.0	0.005
1j5r	1o2d	721	721	0.231	0.307	0.282	0.318
1j5r	1o2d	722	722	0.088	0.235	0.091	0.106
1j5r	1o2d	723	723	0.255	0.244	0.269	0.29
1j5r	1o2d	724	724	0.022	0.194	0.027	0.136
1j5r	1o2d	726	726	0.484	0.642	0.484	0.639
1j5r	1o2d	727	727	0.5	0.55	0.505	0.55
1j5r	1o2d	728	728	0.526	0.634	0.457	0.58
1j5r	1o2d	729	729	0.473	0.565	0.452	0.431
1j5r	1o2d	730	730	0.642	0.6	0.633	0.6
1j5r	1o2d	731	731	0.0	0	0.0	0
1j5r	1o2d	732	732	0.733	0.889	0.733	0.889
1j5r	1o2d	734	734	0.767	0.883	0.75	0.883
1j5r	1o2d	735	735	0.735	0.892	0.709	0.855
1j5r	1o2d	737	737	0.837	0.821	0.837	0.821
1j5r	1o2d	738	738	0.609	0.58	0.552	0.519
1j5r	1o2d	739	739	0.111	0.113	0.118	0.111
1j5r	1o2d	741	741	0.138	0.132	0.122	0.11
1j5r	1o2d	742	742	0.0	0.0	0.0	0.0
1j5r	1o2d	743	743	0.385	0.259	0.371	0.215
1j5r	1o2d	746	746	0.855	0.868	0.809	0.791
1j5r	1o2d	747	747	0.562	0.703	0.58	0.628
1j5r	1o2d	748	748	0.0	0.0	0.0	0.0
1j5r	1o2d	749	749	0.0	0.0	0.0	0.0
1j5r	1o2d	750	750	0.01	0.003	0.017	0.018
1j5r	1o2d	753	753	0.266	0.264	0.373	0.388
1j5r	1o2d	754	754	0.058	0.07	0.049	0.093
1j5r	1o2d	755	755	0.228	0.263	0.205	0.251
1j5r	1o2d	757	757	0.295	0.331	0.301	0.332
1j5r	1o2d	758	758	0.318	0.294	0.324	0.497
1j5r	1o2d	759	759	0.159	0.171	0.1	0.144
1j5r	1o2d	760	760	0.0	0.001	0.0	0.005
1j5r	1o2d	761	761	0.057	0.084	0.053	0.082
1j5r	1o2d	762	762	0.527	0.742	0.515	0.814
1j5r	1o2d	763	763	0.0	0.0	0.0	0.0
1j5r	1o2d	764	764	0.0	0.0	0.0	0.0
1j5r	1o2d	765	765	0.0	0.0	0.0	0.0
1j5r	1o2d	766	766	0.02	0.022	0.035	0.046
1j5r	1o2d	767	767	0.0	0.004	0.0	0.0
1j5r	1o2d	768	768	0.0	0.0	0.0	0.0
1j5r	1o2d	769	769	0.0	0.0	0.0	0.0
1j5r	1o2d	770	770	0.0	0.0	0.0	0.0
1j5r	1o2d	771	771	0.0	0.0	0.0	0.0
1j5r	1o2d	772	772	0.286	0.336	0.244	0.261
1j5r	1o2d	774	774	0.516	0.514	0.48	0.432
1j5r	1o2d	775	775	0.0	0.0	0.0	0.0
1j5r	1o2d	776	776	0.0	0.016	0.0	0.0
1j5r	1o2d	778	778	0.51	0.537	0.508	0.727
1j5r	1o2d	779	779	0.042	0.033	0.085	0.035
1j5r	1o2d	781	781	0.0	0.0	0.0	0.0
1j5r	1o2d	782	782	0.02	0.036	0.021	0.049
1j5r	1o2d	784	784	0.752	0.677	0.767	0.858
1j5r	1o2d	785	785	0.721	0.77	0.691	0.735
1j5r	1o2d	788	788	0.34	0.37	0.282	0.353
1j5r	1o2d	789	789	0.0	0.0	0.0	0.002
1j5r	1o2d	790	790	0.0	0.0	0.0	0.0
1j5r	1o2d	791	791	0.516	0.452	0.496	0.51
1j5r	1o2d	792	792	0.391	0.389	0.4	0.546
1j5r	1o2d	793	793	0.239	0.194	0.254	0.298
1j5r	1o2d	794	794	0.545	0.714	0.51	0.703
1j5r	1o2d	796	796	0.267	0.197	0.08	0.118
1j5r	1o2d	800	800	0.747	0.676	0.779	0.84
1j5r	1o2d	801	801	0.676	0.642	0.692	0.633
1j5r	1o2d	802	802	0.014	0.015	0.027	0.028
1j5r	1o2d	803	803	0.222	0.211	0.21	0.344
1j5r	1o2d	804	804	0.014	0.014	0.013	0.051
1j5r	1o2d	805	805	0.293	0.375	0.309	0.411
1j5r	1o2d	806	806	0.217	0.371	0.199	0.249
1j5r	1o2d	807	807	0.735	0.516	0.715	0.911
1j5r	1o2d	808	808	0.247	0.423	0.256	0.447
1j5r	1o2d	809	809	0.106	0.122	0.121	0.141
1j5r	1o2d	810	810	0.08	0.123	0.078	0.161
1j5r	1o2d	811	811	0.68	0.713	0.687	0.619
1j5r	1o2d	812	812	0.238	0.342	0.206	0.229
1j5r	1o2d	813	813	0.786	0.863	0.756	0.825
1j5r	1o2d	814	814	0.727	0.725	0.685	0.69
1j5r	1o2d	816	816	0.512	0.613	0.522	0.76
1j5r	1o2d	817	817	0.366	0.354	0.343	0.347
1j5r	1o2d	818	818	0.547	0.497	0.523	0.46
1j5r	1o2d	822	822	0.0	0.005	0.0	0.0
1j5r	1o2d	823	823	0.138	0.14	0.107	0.11
1j5r	1o2d	825	825	0.0	0.0	0.0	0.0
1j5r	1o2d	826	826	0.424	0.553	0.392	0.467
1j5r	1o2d	827	827	0.258	0.214	0.243	0.319
1j5r	1o2d	828	828	0.408	0.553	0.419	0.536
1j5r	1o2d	829	829	0.0	0.0	0.0	0.0
1j5r	1o2d	830	830	0.02	0.013	0.03	0.021
1j5r	1o2d	831	831	0.008	0.023	0.0	0.159
1j5r	1o2d	832	832	0.082	0.1	0.048	0.126
1j5r	1o2d	833	833	0.169	0.066	0.157	0.117
1j5r	1o2d	834	834	0.046	0.066	0.046	0.175
1j5r	1o2d	835	835	0.541	0.623	0.577	0.652
1j5r	1o2d	836	836	0.209	0.166	0.176	0.165
1j5r	1o2d	837	837	0.012	0.031	0.022	0.05
1j5r	1o2d	839	839	0.347	0.308	0.348	0.288
1j5r	1o2d	841	841	0.0	0.0	0.006	0.004
1j5r	1o2d	842	842	0.125	0.14	0.188	0.117
1j5r	1o2d	843	843	0.179	0.281	0.186	0.281
1j5r	1o2d	844	844	0.361	0.452	0.357	0.445
1j5r	1o2d	845	845	0.135	0.085	0.14	0.129
1j5r	1o2d	846	846	0.201	0.204	0.125	0.199
1j5r	1o2d	847	847	0.679	0.943	0.733	0.925
1j5r	1o2d	848	848	0.051	0.062	0.08	0.088
1j5r	1o2d	849	849	0.0	0.0	0.0	0.0
1j5r	1o2d	850	850	0.037	0.047	0.039	0.06
1j5r	1o2d	851	851	0.0	0.0	0.0	0.0
1j5r	1o2d	852	852	0.315	0.308	0.374	0.371
1j5r	1o2d	853	853	0.761	0.828	0.767	0.934
1j5r	1o2d	854	854	0.291	0.279	0.213	0.222
1j5r	1o2d	856	856	0.187	0.227	0.205	0.229
1j5r	1o2d	858	858	0.608	0.624	0.608	0.629
1j5r	1o2d	860	860	0.764	0.697	0.722	0.72
1j5r	1o2d	861	861	0.0	0.0	0.0	0.0
1j5r	1o2d	862	862	0.0	0.0	0.0	0.0
1j5r	1o2d	863	863	0.103	0.161	0.083	0.079
1j5r	1o2d	864	864	0.244	0.247	0.244	0.292
1j5r	1o2d	865	865	0.343	0.338	0.351	0.354
1j5r	1o2d	866	866	0.41	0.442	0.398	0.425
1j5r	1o2d	867	867	0.293	0.38	0.246	0.226
1j5r	1o2d	868	868	0.572	0.57	0.598	0.611
1j5r	1o2d	869	869	0.163	0.154	0.129	0.151
1j5r	1o2d	870	870	0.149	0.199	0.19	0.218
1j5r	1o2d	872	872	0.262	0.316	0.238	0.296
1j5r	1o2d	873	873	0.477	0.725	0.403	0.441
1j5r	1o2d	874	874	0.878	0.885	0.843	0.922
1j5r	1o2d	875	875	0.435	0.522	0.403	0.464
1j5r	1o2d	876	876	0.662	0.616	0.637	0.629
1j5r	1o2d	877	877	0.338	0.518	0.311	0.566
1j5r	1o2d	878	878	0.0	0.0	0.0	0.0
1j5r	1o2d	879	879	0.608	0.635	0.652	0.647
1j5r	1o2d	880	880	0.369	0.507	0.364	0.506
1j5r	1o2d	881	881	0.766	0.858	0.776	0.779
1j5r	1o2d	882	882	0.926	0.689	0.893	0.825
1j5r	1o2d	883	883	0.022	0.025	0.0	0.0
1j5r	1o2d	884	884	0.662	0.686	0.666	0.731
1j5r	1o2d	885	885	0.199	0.233	0.179	0.227
1j5r	1o2d	886	886	0.638	0.744	0.657	0.821
1j5r	1o2d	887	887	0.503	0.396	0.512	0.537
1j5r	1o2d	888	888	0.209	0.234	0.198	0.398
1j5r	1o2d	891	891	0.168	0.023	0.151	0.149
1j5r	1o2d	892	892	0.0	0.0	0.0	0.0
1j5r	1o2d	893	893	0.491	0.482	0.493	0.483
1j5r	1o2d	894	894	0.16	0.195	0.147	0.185
1j5r	1o2d	895	895	0.562	0.713	0.563	0.715
1j5r	1o2d	897	897	0.029	0.036	0.016	0.02
1j5r	1o2d	899	899	0.282	0.344	0.287	0.347
1j5r	1o2d	900	900	0.356	0.366	0.231	0.173
1j5r	1o2d	901	901	0.168	0.5	0.271	0.344
1j5r	1o2d	902	902	0.0	0.009	0.024	0.432
1j5r	1o2d	905	905	0.832	0.759	0.911	0.908
1j5r	1o2d	906	906	0.818	0.961	0.818	0.961
1j5r	1o2d	907	907	0.84	0.868	0.77	0.787
1j5r	1o2d	908	908	0.812	0.775	0.812	0.775
1j5r	1o2d	910	910	0.462	0.428	0.528	0.503
1j5r	1o2d	911	911	0.773	0.79	0.793	0.815
1j5r	1o2d	916	916	0.776	0.842	0.74	0.853
1j5r	1o2d	917	917	0.945	0.679	0.94	0.517
1j5r	1o2d	918	918	0.596	0.743	0.597	0.705
1j5r	1o2d	919	919	0.725	0.652	0.694	0.754
1j5r	1o2d	920	920	0.754	0.777	0.765	0.875
1j5r	1o2d	921	921	0.302	0.316	0.341	0.347
1j5r	1o2d	923	923	0.083	0.392	0.093	0.228
1j5r	1o2d	924	924	0.24	0.256	0.26	0.266
1j5r	1o2d	925	925	0.546	0.569	0.523	0.619
1j5r	1o2d	926	926	0.207	0.298	0.204	0.247
1j5r	1o2d	927	927	0.0	0.0	0.0	0.0
1j5r	1o2d	928	928	0.239	0.323	0.283	0.473
1j5r	1o2d	929	929	0.568	0.562	0.552	0.537
1j5r	1o2d	930	930	0.14	0.408	0.146	0.284
1j5r	1o2d	931	931	0.07	0.059	0.058	0.063
1j5r	1o2d	932	932	0.626	0.516	0.551	0.52
1j5r	1o2d	934	934	0.237	0.239	0.249	0.245
1j5r	1o2d	935	935	0.112	0.143	0.09	0.096
1j5r	1o2d	936	936	0.352	0.551	0.396	0.576
1j5r	1o2d	937	937	0.123	0.172	0.124	0.175
1j5r	1o2d	938	938	0.74	0.17	0.74	0.17
1j5r	1o2d	939	939	0.311	0.28	0.283	0.142
1j5r	1o2d	940	940	0.0	0.009	0.0	0.003
1j5r	1o2d	941	941	0.023	0.009	0.022	0.018
1j5r	1o2d	942	942	0.066	0.046	0.066	0.042
1j5r	1o2d	943	943	0.759	0.713	0.74	0.747
1j5r	1o2d	945	945	0.478	0.458	0.488	0.487
1j5r	1o2d	946	946	0.495	0.475	0.469	0.554
1j5r	1o2d	948	948	0.0	0.0	0.0	0.0
1j5r	1o2d	950	950	0.304	0.384	0.303	0.335
1j5r	1o2d	951	951	0.856	0.889	0.847	0.78
1j5r	1o2d	952	952	0.0	0.005	0.0	0.05
1j5r	1o2d	953	953	0.0	0.038	0.0	0.104
1j5r	1o2d	954	954	0.233	0.175	0.262	0.172
1j5r	1o2d	955	955	0.057	0.086	0.044	0.219
1j5r	1o2d	956	956	0.162	0.118	0.153	0.116
1j5r	1o2d	957	957	0.814	0.857	0.814	0.857
1j5r	1o2d	958	958	1.0	0	1.0	0
1j5r	1o2d	959	959	0.939	0.632	0.94	0.997
1j5r	1o2d	960	960	0.21	0.315	0.174	0.274
1j5r	1o2d	961	961	0.0	0.067	0.001	0.02
1j5r	1o2d	962	962	0.097	0.052	0.082	0.062
1j5r	1o2d	963	963	0.041	0.102	0.069	0.138
1j5r	1o2d	964	964	0.336	0.466	0.35	0.349
1j5r	1o2d	965	965	0.339	0.366	0.322	0.296
1j5r	1o2d	966	966	0.801	0.814	0.804	0.73
1j5r	1o2d	969	969	0.622	0.673	0.618	0.635
1j5r	1o2d	970	970	0.564	0.654	0.526	0.621
1j5r	1o2d	971	971	0.588	0.566	0.582	0.566
1j5r	1o2d	972	972	0.262	0.455	0.328	0.325
1j5r	1o2d	973	973	0.69	0.737	0.724	0.712
1j5r	1o2d	974	974	0.206	0.237	0.224	0.168
1j5r	1o2d	975	975	0.02	0.057	0.021	0.036
1j5r	1o2d	976	976	0.397	0.55	0.41	0.507
1j5r	1o2d	977	977	0.045	0.04	0.046	0.035
1j5r	1o2d	978	978	0.162	0.209	0.131	0.252
1j5r	1o2d	979	979	0.107	0.102	0.122	0.12
1j5r	1o2d	981	981	0.259	0.256	0.245	0.255
1j5r	1o2d	982	982	0.0	0.0	0.0	0.0
1j5r	1o2d	983	983	0.039	0.027	0.054	0.069
1j5r	1o2d	984	984	0.251	0.289	0.294	0.363
1j5r	1o2d	986	986	0.0	0.0	0.0	0.0
1j5r	1o2d	987	987	0.674	0.513	0.659	0.567
1j5r	1o2d	988	988	0.221	0.259	0.243	0.254
1j5r	1o2d	990	990	0.199	0.207	0.162	0.164
1j5r	1o2d	991	991	0.0	0.0	0.0	0.0
1j5r	1o2d	992	992	0.802	0.8	0.727	0.766
1j5r	1o2d	993	993	0.012	0.033	0.0	0.033
1j5r	1o2d	994	994	0.0	0.0	0.0	0.0
1j5r	1o2d	995	995	0.201	0.129	0.162	0.134
1j5r	1o2d	996	996	0.033	0.06	0.006	0.023
1j5r	1o2d	997	997	0.161	0.298	0.178	0.278
1j5r	1o2d	998	998	0.177	0.298	0.055	0.066
1j5r	1o2d	999	999	0.607	0.298	0.645	0.841
1j5r	1o2d	1002	1002	0.0	0.0	0.0	0.0
1j5r	1o2d	1003	1003	0.279	0.369	0.271	0.289
1j5r	1o2d	1004	1004	0.846	0.793	0.827	0.718
1j5r	1o2d	1005	1005	0.59	0.755	0.56	0.588
1j5r	1o2d	1007	1007	0.063	0.066	0.063	0.131
1j5r	1o2d	1008	1008	0.395	0.394	0.441	0.52
1j5r	1o2d	1010	1010	0.065	0.145	0.058	0.094
1j5r	1o2d	1011	1011	0.0	0.0	0.0	0.0
1j5r	1o2d	1013	1013	0.149	0.214	0.225	0.267
1j5r	1o2d	1016	1016	0.0	0.0	0.0	0.0
1j5r	1o2d	1017	1017	0.0	0.048	0.0	0.006
1j5r	1o2d	1018	1018	0.248	0.262	0.269	0.253
1j5r	1o2d	1020	1020	0.063	0.039	0.077	0.029
1j5r	1o2d	1021	1021	0.317	0.127	0.523	0.306
1j5r	1o2d	1022	1022	0.3	0.348	0.309	0.227
1j5r	1o2d	1023	1023	0.751	0.858	0.749	0.858
1j5r	1o2d	1024	1024	0.016	0.017	0.009	0.012
1j5r	1o2d	1025	1025	0.249	0.274	0.211	0.214
1j5r	1o2d	1026	1026	0.0	0.0	0.0	0.0
1j5r	1o2d	1027	1027	0.101	0.132	0.128	0.157
1j5r	1o2d	1028	1028	0.574	0.608	0.574	0.611
1j5r	1o2d	1029	1029	0.432	0.449	0.736	0.784
1j5r	1o2d	1030	1030	0.373	0.344	0.351	0.318
1j5r	1o2d	1031	1031	0.239	0.237	0.241	0.239
1j5r	1o2d	1032	1032	0.621	0.666	0.588	0.624
1j5r	1o2d	1033	1033	0.768	0.74	0.768	0.74
1j5r	1o2d	1034	1034	0.564	0.588	0.544	0.583
1j5r	1o2d	1035	1035	0.0	0.0	0.0	0.0
1j5r	1o2d	1036	1036	0.0	0.014	0.0	0.004
1j5r	1o2d	1037	1037	0.33	0.339	0.358	0.381
1j5r	1o2d	1038	1038	0.087	0.021	0.1	0.184
1j5r	1o2d	1040	1040	0.088	0.094	0.016	0.022
1j5r	1o2d	1042	1042	0.802	0.806	0.78	0.795
1j5r	1o2d	1044	1044	0.0	0.0	0.0	0.0
1j5r	1o2d	1045	1045	0.207	0.204	0.183	0.183
1j5r	1o2d	1046	1046	0.005	0.005	0.005	0.005
1j5r	1o2d	1047	1047	0.0	0.0	0.0	0.0
1j5r	1o2d	1048	1048	0.0	0.0	0.0	0.0
1j5r	1o2d	1049	1049	0.559	0.633	0.562	0.555
1j5r	1o2d	1050	1050	0.0	0.012	0.003	0.008
1j5r	1o2d	1051	1051	0.108	0.115	0.027	0.035
1j5r	1o2d	1052	1052	0.0	0.0	0.0	0.002
1j5r	1o2d	1053	1053	0.03	0.029	0.029	0.025
1j5r	1o2d	1054	1054	0.084	0.259	0.08	0.267
1j5r	1o2d	1055	1055	0.389	0.509	0.389	0.509
1j5r	1o2d	1056	1056	0.147	0.272	0.157	0.326
1j5r	1o2d	1057	1057	0.724	0.676	0.692	0.819
1j5r	1o2d	1058	1058	0.0	0.0	0.0	0.0
1j5r	1o2d	1059	1059	0.736	0.752	0.739	0.757
1j5r	1o2d	1060	1060	0.541	0.591	0.489	0.546
1j5r	1o2d	1061	1061	0.038	0.025	0.044	0.051
1j5r	1o2d	1062	1062	0.015	0.046	0.009	0.008
1j5r	1o2d	1063	1063	0.136	0.118	0.139	0.146
1j5r	1o2d	1065	1065	0.653	0.7	0.662	0.632
1j5r	1o2d	1066	1066	0.411	0.572	0.373	0.482
1j5r	1o2d	1067	1067	0.791	0.841	0.753	0.591
1j5r	1o2d	1068	1068	0.423	0.45	0.415	0.44
1j5r	1o2d	1069	1069	0.333	0.272	0.309	0.283
1j5r	1o2d	1070	1070	0.348	0.42	0.362	0.49
1j5r	1o2d	1071	1071	0.395	0.418	0.416	0.426
1j5r	1o2d	1072	1072	0.0	0.0	0.0	0.0
1j5r	1o2d	1073	1073	0.191	0.209	0.179	0.244
1j5r	1o2d	1074	1074	0.055	0.117	0.047	0.083
1j5r	1o2d	1075	1075	0.0	0.0	0.0	0.0
1j5r	1o2d	1076	1076	0.31	0.398	0.302	0.251
1j5r	1o2d	1077	1077	0.165	0.225	0.188	0.353
1j5r	1o2d	1078	1078	0.173	0.163	0.147	0.117
1j5r	1o2d	1079	1079	0.211	0.272	0.186	0.161
1j5r	1o2d	1080	1080	0.0	0.0	0.0	0.0
1j5r	1o2d	1081	1081	0.21	0.201	0.23	0.289
1j5r	1o2d	1083	1083	0.0	0.0	0.0	0.0
1j5r	1o2d	1084	1084	0.0	0.0	0.0	0.0
1j5r	1o2d	1085	1085	0.0	0.0	0.0	0.0
1j5r	1o2d	1086	1086	0.0	0.0	0.399	0.45
1j5r	1o2d	1087	1087	0.0	0.0	0.0	0.0
1j5r	1o2d	1088	1088	0.0	0.0	0.0	0.0
1j5r	1o2d	1089	1089	0.0	0.0	0.0	0.0
1j5r	1o2d	1090	1090	0.246	0.249	0.212	0.228
1j5r	1o2d	1093	1093	0.021	0.007	0.027	0.043
1j5r	1o2d	1094	1094	0.0	0.0	0.0	0.0
1j5r	1o2d	1095	1095	0.779	0.707	0.753	0.766
1j5r	1o2d	1096	1096	0.112	0.111	0.104	0.199
1j5r	1o2d	1097	1097	0.018	0.013	0.061	0.06
1j5r	1o2d	1098	1098	0.0	0.0	0.0	0.0
1j5r	1o2d	1099	1099	0.0	0.0	0.025	0.037
1j5r	1o2d	1100	1100	0.0	0.001	0.0	0.0
1j5r	1o2d	1101	1101	0.0	0.0	0.0	0.0
1j5r	1o2d	1102	1102	0.0	0.0	0.0	0.0
1j5r	1o2d	1103	1103	0.025	0.022	0.013	0.017
1j5r	1o2d	1105	1105	0.101	0.099	0.197	0.202
1j5r	1o2d	1106	1106	0.0	0.0	0.0	0.0
1j5r	1o2d	1107	1107	0.405	0.333	0.379	0.335
1j5r	1o2d	1108	1108	0.0	0.0	0.0	0.0
1j5r	1o2d	1109	1109	0.001	0.003	0.0	0.0
1j5r	1o2d	1110	1110	0.141	0.146	0.157	0.153
1j5r	1o2d	1111	1111	0.441	0.51	0.395	0.467
1j5r	1o2d	1112	1112	0.917	0.78	0.918	0.765
1j5r	1o2d	1113	1113	0.0	0.0	0.0	0.0
1j5r	1o2d	1114	1114	0.0	0.0	0.0	0.0
1j5r	1o2d	1115	1115	0.016	0.028	0.01	0.049
1j5r	1o2d	1116	1116	0.015	0.011	0.02	0.03
1j5r	1o2d	1117	1117	0.591	0.629	0.585	0.755
1j5r	1o2d	1118	1118	0.798	0.894	0.798	0.705
1j5r	1o2d	1119	1119	0.936	0.882	0.95	0.78
1j5r	1o2d	1120	1120	0.405	0.279	0.421	0.285
1j5r	1o2d	1121	1121	0.777	0.726	0.827	0.769
1j5r	1o2d	1122	1122	0.52	0.542	0.505	0.538
1j5r	1o2d	1124	1124	0.248	0.322	0.269	0.373
1j5r	1o2d	1126	1126	0.38	0.385	0.439	0.439
1j5r	1o2d	1127	1127	0.0	0.012	0.0	0.01
1j5r	1o2d	1128	1128	0.0	0.0	0.0	0.0
1j5r	1o2d	1129	1129	0.002	0.02	0.015	0.027
1j5r	1o2d	1130	1130	0.209	0.388	0.159	0.268
1j5r	1o2d	1131	1131	0.0	0.024	0.0	0.057
1j5r	1o2d	1132	1132	0.0	0.013	0.003	0.006
1j5r	1o2d	1133	1133	0.235	0.282	0.28	0.26
1j5r	1o2d	1134	1134	0.64	0.733	0.722	0.795
1j5r	1o2d	1135	1135	0.197	0.234	0.3	0.372
1j5r	1o2d	1136	1136	0.416	0.508	0.416	0.503
1j5r	1o2d	1137	1137	0.951	0.978	0.945	0.978
1j5r	1o2d	1138	1138	0.0	0.008	0.0	0.005
1j5r	1o2d	1140	1140	0.481	0.545	0.413	0.416
1j5r	1o2d	1141	1141	0.042	0.113	0.015	0.053
1j5r	1o2d	1142	1142	0.405	0.449	0.37	0.373
1j5r	1o2d	1143	1143	0.185	0.188	0.174	0.177
1j5r	1o2d	1144	1144	0.0	0.0	0.0	0.0
1j5r	1o2d	1148	1148	0.111	0.107	0.091	0.095
1j5r	1o2d	1149	1149	0.147	0.138	0.068	0.062
1j5r	1o2d	1150	1150	0.104	0.101	0.441	0.43
1j5r	1o2d	1151	1151	0.004	0.006	0.252	0.241
1j5r	1o2d	1152	1152	0.241	0.254	0.252	0.269
1j5r	1o2d	1153	1153	0.523	0.642	0.519	0.641
1j5r	1o2d	1154	1154	0.417	0.401	0.448	0.443
1j5r	1o2d	1155	1155	0.592	0.578	0.565	0.583
1j5r	1o2d	1156	1156	0.039	0.054	0.015	0.017
1j5r	1o2d	1157	1157	0.0	0.0	0.0	0.0
1j5r	1o2d	1159	1159	0.251	0.252	0.291	0.55
1j5r	1o2d	1161	1161	0.317	0.289	0.427	0.414
1j5r	1o2d	1163	1163	0.594	0.635	0.566	0.564
1j5r	1o2d	1164	1164	0.15	0.148	0.142	0.162
1j5r	1o2d	1165	1165	0.0	0.0	0.0	0.0
1j5r	1o2d	1166	1166	0.0	0.0	0.0	0.0
1j5r	1o2d	1167	1167	0.0	0.0	0.0	0.001
1j5r	1o2d	1168	1168	0.0	0.0	0.0	0.0
1j5r	1o2d	1169	1169	0.198	0.182	0.191	0.172
1j5r	1o2d	1170	1170	0.257	0.264	0.285	0.304
1j5r	1o2d	1171	1171	0.617	0.599	0.656	0.653
1j5r	1o2d	1172	1172	0.153	0.177	0.152	0.183
1j5r	1o2d	1173	1173	1.0	0	1.0	0
1j5r	1o2d	1174	1174	0.091	0.09	0.023	0.017
1j5r	1o2d	1175	1175	0.0	0.0	0.0	0.0
1j5r	1o2d	1176	1176	0.779	0.793	0.767	0.79
1j5r	1o2d	1178	1178	0.0	0.0	0.016	0.021
1j5r	1o2d	1179	1179	0.0	0.0	0.0	0.0
1j5r	1o2d	1180	1180	0.776	0.854	0.558	0.643
1j5r	1o2d	1181	1181	0.163	0.174	0.155	0.142
1j5r	1o2d	1182	1182	0.295	0.272	0.176	0.172
1j5r	1o2d	1183	1183	0.0	0.0	0.0	0.0
1j5r	1o2d	1184	1184	0.0	0.0	0.0	0.0
1j5r	1o2d	1185	1185	0.669	0.666	0.673	0.61
1j5r	1o2d	1186	1186	0.367	0.438	0.334	0.383
1j5r	1o2d	1187	1187	0.497	0.586	0.499	0.603
1j5r	1o2d	1189	1189	0.142	0.208	0.14	0.165
1j5r	1o2d	1190	1190	0.293	0.359	0.262	0.316
1j5r	1o2d	1191	1191	0.557	0.604	0.542	0.601
1j5r	1o2d	1192	1192	0.455	0.551	0.41	0.364
1j5r	1o2d	1193	1193	0.127	0.061	0.17	0.233
1j5r	1o2d	1194	1194	0.712	0.666	0.712	0.774
1j5r	1o2d	1195	1195	0.376	0.408	0.374	0.419
1j5r	1o2d	1196	1196	0.662	0.722	0.682	0.699
1j5r	1o2d	1197	1197	0.86	0.792	0.742	0.643
1j5r	1o2d	1198	1198	0.725	0.818	0.724	0.843
1j5r	1o2d	1199	1199	0.053	0.162	0.09	0.06
1j5r	1o2d	1200	1200	0.019	0.015	0.022	0.002
1j5r	1o2d	1201	1201	0.163	0.123	0.257	0.27
1j5r	1o2d	1203	1203	0.914	0.233	0.9	0.18
1j5r	1o2d	1204	1204	0.16	0.127	0.188	0.11
1j5r	1o2d	1205	1205	0.861	0.865	0.817	0.815
1j5r	1o2d	1207	1207	0.0	0.0	0.0	0.0
1j5r	1o2d	1208	1208	0.0	0.003	0.0	0.0
1j5r	1o2d	1212	1212	0.0	0.0	0.0	0.0
1j5r	1o2d	1216	1216	0.0	0.0	0.074	0.093
1j5r	1o2d	1217	1217	0.0	0.001	0.0	0.0
1j5r	1o2d	1219	1219	0.431	0.656	0.414	0.478
1j5r	1o2d	1220	1220	0.33	0.373	0.329	0.373
1j5r	1o2d	1221	1221	0.428	0.43	0.397	0.402
1j5r	1o2d	1222	1222	0.907	0.93	0.907	0.93
1j5r	1o2d	1223	1223	0.412	0.498	0.385	0.401
1j5r	1o2d	1224	1224	1.0	1.0	1.0	1.0
1j5r	1o2d	1225	1225	0.721	0.736	0.721	0.736
1j5r	1o2d	1226	1226	0.0	0.0	0.0	0.001
1j5r	1o2d	1227	1227	0.261	0.205	0.268	0.212
1j5r	1o2d	1228	1228	0.65	0.66	0.641	0.651
1j5r	1o2d	1229	1229	0.535	0.545	0.565	0.547
1j5r	1o2d	1230	1230	0.451	0.488	0.454	0.507
1j5r	1o2d	1231	1231	0.031	0.045	0.051	0.064
1j5r	1o2d	1232	1232	0.323	0.469	0.426	0.492
1j5r	1o2d	1233	1233	0.027	0.018	0.0	0.0
1j5r	1o2d	1234	1234	0.0	0.0	0.0	0.0
1j5r	1o2d	1235	1235	0.404	0.431	0.382	0.463
1j5r	1o2d	1236	1236	0.077	0.078	0.0	0.0
1j5r	1o2d	1237	1237	0.652	0.679	0.655	0.687
1j5r	1o2d	1238	1238	0.376	0.365	0.376	0.365
1j5r	1o2d	1239	1239	0.0	0.0	0.0	0.0
1j5r	1o2d	1240	1240	0.864	0.888	0.867	0.894
1j5r	1o2d	1241	1241	0.038	0.028	0.032	0.03
1j5r	1o2d	1242	1242	0.249	0.292	0.237	0.318
1j5r	1o2d	1243	1243	0.044	0.031	0.014	0.009
1j5r	1o2d	1244	1244	0.0	0.0	0.0	0.0
1j5r	1o2d	1245	1245	0.157	0.178	0.166	0.181
1j5r	1o2d	1246	1246	0.331	0.4	0.292	0.348
1j5r	1o2d	1247	1247	0.704	0.734	0.703	0.732
1j5r	1o2d	1248	1248	0.0	0.0	0.0	0.0
1j5r	1o2d	1249	1249	0.007	0.007	0.0	0.002
1j5r	1o2d	1250	1250	0.009	0.01	0.01	0.013
1j5r	1o2d	1251	1251	0.114	0.157	0.137	0.293
1j5r	1o2d	1252	1252	0.475	0.363	0.48	0.561
1j5r	1o2d	1254	1254	0.214	0.187	0.194	0.192
1j5r	1o2d	1255	1255	0.0	0.012	0.0	0.009
1j5r	1o2d	1256	1256	0.561	0.654	0.561	0.649
1j5r	1o2d	1257	1257	0.0	0.0	0.0	0.0
1j5r	1o2d	1258	1258	0.0	0.0	0.0	0.0
1j5r	1o2d	1259	1259	0.406	0.426	0.443	0.423
1j5r	1o2d	1260	1260	0.165	0.172	0.124	0.148
1j5r	1o2d	1261	1261	0.059	0.066	0.051	0.052
1j5r	1o2d	1262	1262	0.348	0.447	0.347	0.408
1j5r	1o2d	1263	1263	0.502	0.817	0.469	0.302
1j5r	1o2d	1264	1264	0.559	0.676	0.543	0.638
1j5r	1o2d	1265	1265	0.61	0.641	0.586	0.727
1j5r	1o2d	1266	1266	0.515	0.455	0.491	0.604
1j5r	1o2d	1267	1267	0.882	0.763	0.883	0.767
1j5r	1o2d	1268	1268	0.867	0.864	0.797	0.75
1j5r	1o2d	1269	1269	0.051	0.083	0.002	0.026
1j5r	1o2d	1270	1270	0.031	0.065	0.0	0.009
1j5r	1o2d	1271	1271	0.213	0.234	0.038	0.095
1j5r	1o2d	1273	1273	0.652	0.69	0.628	0.567
1j5r	1o2d	1274	1274	0.0	0.0	0.0	0.0
1j5r	1o2d	1275	1275	0.514	0.604	0.483	0.533
1j5r	1o2d	1277	1277	0.038	0.045	0.071	0.074
1j5r	1o2d	1278	1278	0.566	0.714	0.558	0.715
1j5r	1o2d	1280	1280	0.069	0.063	0.201	0.245
1j5r	1o2d	1281	1281	0.0	0.001	0.001	0.001
1j5r	1o2d	1283	1283	0.199	0.265	0.191	0.196
1j5r	1o2d	1284	1284	0.627	0.22	0.651	0.762
1j5r	1o2d	1295	1299	1.0	1.0	1.0	1.0
1j5r	1o2d	1296	1300	0.574	0.466	0.592	0.586
1j5r	1o2d	1297	1301	0.602	0.612	0.415	0.376
1j5r	1o2d	1298	1302	0.345	0.486	0.391	0.534
1j5r	1o2d	1299	1303	0.454	0.336	0.455	0.35
1j5r	1o2d	1300	1304	0.394	0.503	0.494	0.486
1j5r	1o2d	1301	1305	0.925	0.934	0.894	0.904
1j5r	1o2d	1302	1306	0.765	0.865	0.768	0.882
1j5r	1o2d	1303	1307	0.289	0.346	0.272	0.449
1j5r	1o2d	1304	1308	0.864	0.831	0.853	0.876
1j5r	1o2d	1305	1309	0.875	0.894	0.875	0.894
1j5r	1o2d	1306	1310	0.805	0.863	0.776	0.847
1j5r	1o2d	1307	1311	1.0	0	1.0	0
1j5r	1o2d	1308	1312	0.833	0.533	0.833	0.533
1j5r	1o2d	1309	1313	0.363	0.41	0.341	0.338
1j5r	1o2d	1310	1314	0.778	0.853	0.785	0.855
1j5r	1o2d	1311	1315	1.0	0	1.0	0
1j5r	1o2d	1312	1316	0.511	0.587	0.564	0.597
1j5r	1o2d	1313	1317	0.75	0.85	0.8	0.85
1j5r	1o2d	1314	1318	0.207	0.253	0.214	0.239
1j5r	1o2d	1315	1319	0.678	0.567	0.678	0.567
1j5r	1o2d	1316	1320	0.0	0.0	0.0	0.0
1j5r	1o2d	1317	1321	0.815	0.732	0.81	0.727
1j5r	1o2d	1318	1322	1.0	0	1.0	0
1j5r	1o2d	1319	1323	0.0	0.0	0.0	0.0
1j5r	1o2d	1320	1324	0.0	0.071	0.0	0.033
1j5r	1o2d	1321	1325	0.182	0.113	0.182	0.077
1j5r	1o2d	1322	1326	0.08	0.099	0.072	0.098
1j5r	1o2d	1323	1327	0.493	0.545	0.553	0.803
1j5r	1o2d	1324	1328	0.369	0.432	0.39	0.587
1j5r	1o2d	1325	1329	0.9	0.994	0.9	0.982
1j5r	1o2d	1326	1330	0.04	0.002	0.038	0.004
1j5r	1o2d	1327	1331	0.11	0.037	0.125	0.111
1j5r	1o2d	1328	1332	0.841	0.792	0.828	0.712
1j5r	1o2d	1329	1333	0.858	0.577	0.811	0.56
1j5r	1o2d	1330	1334	0.228	0.553	0.278	0.392
1j5r	1o2d	1332	1336	0.74	0.721	0.717	0.814
1j5r	1o2d	1333	1337	0.747	0.698	0.66	0.658
1j5r	1o2d	1334	1338	0.37	0.366	0.555	0.612
1j5r	1o2d	1335	1339	0.0	0.0	0.0	0.004
1j5r	1o2d	1336	1340	0.0	0.0	0.0	0.0
1j5r	1o2d	1337	1341	0.061	0.148	0.081	0.124
1j5r	1o2d	1338	1342	0.248	0.261	0.215	0.219
1j5r	1o2d	1339	1343	0.167	0.159	0.181	0.15
1j5r	1o2d	1340	1344	0.088	0.091	0.078	0.071
1j5r	1o2d	1341	1345	0.298	0.417	0.298	0.188
1j5r	1o2d	1342	1346	0.676	0.766	0.633	0.712
1j5r	1o2d	1343	1347	0.327	0.469	0.305	0.302
1j5r	1o2d	1344	1348	0.696	0.742	0.656	0.781
1j5r	1o2d	1345	1349	0.024	0.023	0.016	0.015
1j5r	1o2d	1346	1350	0.024	0.016	0.015	0.01
1j5r	1o2d	1347	1351	0.24	0.194	0.231	0.199
1j5r	1o2d	1348	1352	0.488	0.668	0.521	0.654
1j5r	1o2d	1349	1353	0.116	0.223	0.118	0.206
1j5r	1o2d	1350	1354	0.0	0.0	0.0	0.0
1j5r	1o2d	1351	1355	0.155	0.25	0.099	0.201
1j5r	1o2d	1352	1356	0.812	0.891	0.803	0.783
1j5r	1o2d	1353	1357	0.253	0.27	0.218	0.272
1j5r	1o2d	1354	1358	0.018	0.009	0.003	0.021
1j5r	1o2d	1355	1359	0.0	0.0	0.0	0.0
1j5r	1o2d	1356	1360	0.0	0.0	0.0	0.0
1j5r	1o2d	1357	1361	0.306	0.377	0.357	0.349
1j5r	1o2d	1358	1362	0.293	0.344	0.321	0.364
1j5r	1o2d	1359	1363	0.106	0.111	0.13	0.162
1j5r	1o2d	1360	1364	0.688	0.505	0.682	0.475
1j5r	1o2d	1361	1365	0.492	0.579	0.484	0.619
1j5r	1o2d	1362	1366	0.417	0.481	0.377	0.513
1j5r	1o2d	1364	1368	0.455	0.369	0.46	0.054
1j5r	1o2d	1365	1369	0.459	0.245	0.471	0.341
1j5r	1o2d	1366	1370	0.414	0.684	0.387	0.89
1j5r	1o2d	1367	1371	0.665	0.657	0.641	0.748
1j5r	1o2d	1368	1372	0.036	0.049	0.091	0.239
1j5r	1o2d	1370	1374	0.204	0.229	0.21	0.206
1j5r	1o2d	1371	1375	0.349	0.333	0.341	0.472
1j5r	1o2d	1372	1376	0.58	0.642	0.551	0.602
1j5r	1o2d	1373	1377	0.077	0.152	0.052	0.046
1j5r	1o2d	1374	1378	0.182	0.297	0.126	0.138
1j5r	1o2d	1375	1379	0.051	0.077	0.051	0.054
1j5r	1o2d	1376	1380	0.166	0.203	0.144	0.188
1j5r	1o2d	1377	1381	0.057	0.161	0.061	0.101
1j5r	1o2d	1379	1383	0.362	0.561	0.335	0.362
1j5r	1o2d	1380	1384	0.151	0.311	0.176	0.298
1j5r	1o2d	1381	1385	0.148	0.145	0.089	0.095
1j5r	1o2d	1382	1386	0.0	0.001	0.0	0.0
1j5r	1o2d	1383	1387	0.148	0.181	0.15	0.157
1j5r	1o2d	1384	1388	0.616	0.576	0.59	0.643
1j5r	1o2d	1386	1390	0.354	0.355	0.374	0.385
1j5r	1o2d	1387	1391	0.0	0.006	0.001	0.011
1j5r	1o2d	1390	1394	0.184	0.254	0.233	0.188
1j5r	1o2d	1391	1395	0.557	0.659	0.512	0.375
1j5r	1o2d	1392	1396	0.549	0.614	0.605	0.65
1j5r	1o2d	1393	1397	0.211	0.146	0.216	0.073
1j5r	1o2d	1394	1398	0.0	0.004	0.0	0.003
1j5r	1o2d	1395	1399	0.048	0.035	0.043	0.036
1j5r	1o2d	1396	1400	0.161	0.126	0.159	0.138
1j5r	1o2d	1397	1401	0.0	0.005	0.0	0.003
1j5r	1o2d	1400	1404	0.191	0.15	0.186	0.17
1j5r	1o2d	1401	1405	0.767	0.852	0.794	0.885
1j5r	1o2d	1402	1406	0.76	0.637	0.774	0.697
1j5r	1o2d	1403	1407	0.671	0.626	0.711	0.672
1j5r	1o2d	1404	1408	0.0	0.0	0.0	0.0
1j5r	1o2d	1406	1410	0.094	0.102	0.075	0.083
1j5r	1o2d	1407	1411	0.122	0.222	0.123	0.201
1j5r	1o2d	1408	1412	0.05	0.117	0.062	0.104
1j5r	1o2d	1409	1413	0.0	0.0	0.0	0.0
1j5r	1o2d	1410	1414	0.639	0.61	0.631	0.648
1j5r	1o2d	1412	1416	0.185	0.2	0.193	0.166
1j5r	1o2d	1413	1417	0.0	0.0	0.0	0.0
1j5r	1o2d	1414	1418	0.576	0.796	0.547	0.596
1j5r	1o2d	1415	1419	0.288	0.257	0.282	0.28
1j5r	1o2d	1416	1420	0.417	0.515	0.407	0.518
1j5r	1o2d	1417	1421	0.137	0.283	0.122	0.263
1j5r	1o2d	1418	1422	0.347	0.341	0.359	0.471
1j5r	1o2d	1419	1423	0.494	0.657	0.403	0.565
1j5r	1o2d	1420	1424	0.449	0.51	0.458	0.489
1j5r	1o2d	1421	1425	0.873	0.648	0.853	0.796
1j5r	1o2d	1422	1426	0.125	0.147	0.148	0.116
1j5r	1o2d	1424	1428	0.0	0.029	0.0	0.031
1j5r	1o2d	1425	1429	0.043	0.036	0.013	0.07
1j5r	1o2d	1426	1430	0.234	0.221	0.137	0.173
1j5r	1o2d	1428	1432	0.112	0.065	0.104	0.03
1j5r	1o2d	1430	1434	0.885	0.954	0.822	0.63
1j5r	1o2d	1431	1435	0.165	0.211	0.222	0.282
1j5r	1o2d	1432	1436	0.778	0.619	0.763	0.512
1j5r	1o2d	1433	1437	0.486	0.28	0.532	0.397
1j5r	1o2d	1434	1438	0.332	0.422	0.418	0.497
1j5r	1o2d	1435	1439	0.293	0.313	0.295	0.314
1j5r	1o2d	1436	1440	0.396	0.431	0.393	0.428
1j5r	1o2d	1437	1441	0.0	0.0	0.0	0.0
1j5r	1o2d	1438	1442	0.0	0.0	0.0	0.0
1j5r	1o2d	1439	1443	0.0	0.004	0.0	0.0
1j5r	1o2d	1440	1444	0.192	0.301	0.168	0.286
1j5r	1o2d	1441	1445	0.093	0.168	0.139	0.109
1j5r	1o2d	1442	1446	0.532	0.567	0.646	0.556
1j5r	1o2d	1443	1447	0.341	0.432	0.464	0.543
1j5r	1o2d	1444	1448	0.0	0.0	0.0	0.0
1j5r	1o2d	1445	1449	0.0	0.0	0.0	0.0
1j5r	1o2d	1446	1450	0.0	0.0	0.0	0.0
1j5r	1o2d	1447	1451	0.009	0.015	0.0	0.0
1j5r	1o2d	1448	1452	0.0	0.0	0.0	0.0
1j5r	1o2d	1449	1453	0.449	0.384	0.434	0.303
1j5r	1o2d	1450	1454	0.724	0.773	0.728	0.885
1j5r	1o2d	1451	1455	0.756	0.807	0.795	0.911
1j5r	1o2d	1452	1456	0.568	0.566	0.601	0.631
1j5r	1o2d	1453	1457	0.202	0.23	0.117	0.091
1j5r	1o2d	1454	1458	0.761	0.885	0.753	0.885
1j5r	1o2d	1455	1459	0.48	0.759	0.482	0.755
1j5r	1o2d	1456	1460	0.0	0.0	0.0	0.0
1j5r	1o2d	1458	1462	0.0	0.0	0.0	0.0
1j5r	1o2d	1459	1463	0.325	0.322	0.295	0.326
1j5r	1o2d	1460	1464	0.285	0.27	0.285	0.394
1j5r	1o2d	1461	1465	0.0	0.0	0.0	0.0
1j5r	1o2d	1462	1466	0.55	0.53	0.512	0.509
1j5r	1o2d	1464	1468	0.051	0.067	0.121	0.124
1j5r	1o2d	1465	1469	0.013	0.008	0.009	0.026
1j5r	1o2d	1466	1470	0.468	0.458	0.423	0.421
1j5r	1o2d	1467	1471	0.0	0.0	0.0	0.0
1j5r	1o2d	1468	1472	0.0	0.0	0.0	0.0
1j5r	1o2d	1469	1473	0.0	0.0	0.0	0.0
1j5r	1o2d	1470	1474	0.137	0.152	0.104	0.347
1j5r	1o2d	1471	1475	0.0	0.065	0.0	0.045
1j5r	1o2d	1473	1477	0.004	0.017	0.0	0.003
1j5r	1o2d	1475	1479	0.753	0.68	0.698	0.681
1j5r	1o2d	1476	1480	0.0	0.0	0.0	0.0
1j5r	1o2d	1477	1481	0.0	0.0	0.0	0.003
1j5r	1o2d	1478	1482	0.0	0.0	0.0	0.0
1j5r	1o2d	1479	1483	0.0	0.0	0.0	0.0
1j5r	1o2d	1480	1484	0.0	0.0	0.0	0.0
1j5r	1o2d	1481	1485	0.03	0.046	0.074	0.071
1j5r	1o2d	1482	1486	0.073	0.107	0.078	0.074
1j5r	1o2d	1483	1487	0.0	0.001	0.0	0.0
1j5r	1o2d	1484	1488	0.111	0.103	0.071	0.063
1j5r	1o2d	1485	1489	0.0	0.0	0.0	0.0
1j5r	1o2d	1486	1490	0.828	0.809	0.84	0.736
1j5r	1o2d	1487	1491	0.648	0.673	0.555	0.556
1j5r	1o2d	1488	1492	0.516	0.675	0.567	0.67
1j5r	1o2d	1489	1493	0.222	0.218	0.169	0.182
1j5r	1o2d	1490	1494	0.0	0.0	0.0	0.0
1j5r	1o2d	1491	1495	0.0	0.0	0.0	0.0
1j5r	1o2d	1492	1496	0.054	0.086	0.064	0.12
1j5r	1o2d	1493	1497	0.016	0.064	0.04	0.049
1j5r	1o2d	1494	1498	0.0	0.0	0.0	0.0
1j5r	1o2d	1495	1499	0.0	0.0	0.0	0.0
1j5r	1o2d	1496	1500	0.281	0.262	0.383	0.298
1j5r	1o2d	1497	1501	0.032	0.027	0.049	0.05
1j5r	1o2d	1498	1502	0.0	0.0	0.0	0.0
1j5r	1o2d	1500	1504	0.8	0.562	0.447	0.533
1j5r	1o2d	1501	1505	0.124	0.125	0.096	0.101
1j5r	1o2d	1502	1506	0.589	0.675	0.603	0.763
1j5r	1o2d	1504	1508	0.028	0.024	0.037	0.024
1j5r	1o2d	1505	1509	0.446	0.504	0.389	0.413
1j5r	1o2d	1506	1510	0.341	0.333	0.33	0.334
1j5r	1o2d	1507	1511	0.388	0.39	0.378	0.378
1j5r	1o2d	1508	1512	0.391	0.409	0.403	0.41
1j5r	1o2d	1509	1513	0.081	0.126	0.111	0.123
1j5r	1o2d	1510	1514	0.02	0.059	0.026	0.095
1j5r	1o2d	1511	1515	0.0	0.0	0.0	0.0
1j5r	1o2d	1512	1516	0.152	0.301	0.159	0.159
1j5r	1o2d	1513	1517	0.419	0.449	0.408	0.444
1j5r	1o2d	1514	1518	0.384	0.531	0.318	0.388
1j5r	1o2d	1515	1519	0.672	0.804	0.773	0.76
1j5r	1o2d	1516	1520	0.014	0.034	0.018	0.042
1j5r	1o2d	1517	1521	0.17	0.167	0.195	0.206
1j5r	1o2d	1518	1522	0.289	0.265	0.293	0.339
1j5r	1o2d	1521	1525	0.715	0.666	0.692	0.687
1j5r	1o2d	1522	1526	0.508	0.535	0.505	0.509
1j5r	1o2d	1523	1527	0.829	0.8	0.805	0.793
1j5r	1o2d	1524	1528	0.92	0.997	0.913	0.997
1j5r	1o2d	1525	1529	0.282	0.331	0.261	0.274
1j5r	1o2d	1526	1530	0.191	0.182	0.166	0.168
1j5r	1o2d	1527	1531	0.0	0.0	0.0	0.0
1j5r	1o2d	1528	1532	0.155	0.176	0.178	0.18
1j5r	1o2d	1529	1533	0.285	0.308	0.284	0.308
1j5r	1o2d	1530	1534	0.055	0.057	0.068	0.166
1j5r	1o2d	1532	1536	0.504	0.665	0.524	0.675
1j5r	1o2d	1533	1537	0.219	0.342	0.227	0.322
1j5r	1o2d	1534	1538	0.402	0.321	0.398	0.318
1j5r	1o2d	1535	1539	0.74	0.74	0.734	0.783
1j5r	1o2d	1540	1544	0.0	0.0	0.0	0.0
1j5r	1o2d	1541	1545	0.408	0.511	0.394	0.393
1j5r	1o2d	1542	1546	0.453	0.608	0.494	0.518
1j5r	1o2d	1544	1548	0.255	0.362	0.273	0.234
1j5r	1o2d	1548	1552	0.242	0.254	0.189	0.2
1j5r	1o2d	1549	1553	0.521	0.583	0.512	0.52
1j5r	1o2d	1551	1555	0.248	0.164	0.258	0.102
1j5r	1o2d	1552	1556	0.883	1.0	0.883	1.0
1j5r	1o2d	1553	1557	0.905	0.974	0.892	0.986
1j5r	1o2d	1554	1558	0.745	0.78	0.757	0.791
1j5r	1o2d	1555	1559	0.8	0.777	0.788	0.89
1j5r	1o2d	1556	1560	0.43	0.424	0.532	0.537
1j5r	1o2d	1557	1561	0.767	0.717	0.765	0.714
1j5r	1o2d	1559	1563	0.645	0.717	0.726	0.552
1j5r	1o2d	1561	1565	0.778	0.781	0.737	0.74
1j5r	1o2d	1562	1566	0.086	0.052	0.115	0.076
1j5r	1o2d	1563	1567	0.586	0.26	0.581	0.589
1j5r	1o2d	1564	1568	0.823	0.721	0.923	0.777
1j5r	1o2d	1565	1569	0.181	0.211	0.18	0.199
1j5r	1o2d	1566	1570	0.832	0.777	0.808	0.853
1j5r	1o2d	1567	1571	0.745	0.719	0.749	0.933
1j5r	1o2d	1568	1572	0.081	0.096	0.091	0.093
1j5r	1o2d	1570	1574	0.0	0.013	0.0	0.009
1j5r	1o2d	1571	1575	0.167	0.232	0.171	0.158
1j5r	1o2d	1574	1578	0.0	0.001	0.0	0.001
1j5r	1o2d	1578	1582	0.015	0.019	0.017	0.061
1j5r	1o2d	1580	1584	0.06	0.213	0.03	0.062
1j5r	1o2d	1582	1586	0.419	0.408	0.45	0.471
1j5r	1o2d	1583	1587	0.661	0.602	0.661	0.602
1j5r	1o2d	1584	1588	0.069	0.069	0.102	0.088
1j5r	1o2d	1585	1589	0.428	0.472	0.453	0.429
1j5r	1o2d	1586	1590	0.718	0.737	0.722	0.684
1j5r	1o2d	1587	1591	0.381	0.489	0.33	0.354
1j5r	1o2d	1588	1592	0.0	0.0	0.0	0.0
1j5r	1o2d	1589	1593	0.0	0.0	0.0	0.0
1j5r	1o2d	1592	1596	0.0	0.0	0.0	0.0
1j5r	1o2d	1593	1597	0.0	0.0	0.0	0.0
1j5r	1o2d	1594	1598	0.0	0.0	0.0	0.0
1j5r	1o2d	1596	1600	0.501	0.536	0.503	0.708
1j5r	1o2d	1597	1601	0.564	0.645	0.585	0.551
1j5r	1o2d	1598	1602	0.157	0.144	0.191	0.275
1j5r	1o2d	1604	1608	0.0	0.005	0.024	0.047
1j5r	1o2d	1605	1609	0.622	0.658	0.762	0.793
1j5r	1o2d	1607	1611	0.455	0.5	0.521	0.443
1j5r	1o2d	1608	1612	0.639	0.727	0.628	0.658
1j5r	1o2d	1609	1613	0.783	0.78	0.78	0.78
1j5r	1o2d	1610	1614	0.199	0.217	0.218	0.188
1j5r	1o2d	1611	1615	0.892	0.865	0.877	0.741
1j5r	1o2d	1612	1616	0.855	0.386	0.9	0.76
1j5r	1o2d	1613	1617	0.224	0.241	0.273	0.274
1j5r	1o2d	1614	1618	0.482	0.497	0.507	0.38
1j5r	1o2d	1615	1619	0.751	0.723	0.765	0.845
1j5r	1o2d	1616	1620	0.389	0.392	0.413	0.414
1j5r	1o2d	1617	1621	0.693	0.646	0.681	0.589
1j5r	1o2d	1618	1622	0.354	0.637	0.342	0.317
1j5r	1o2d	1619	1623	0.526	0.574	0.525	0.526
1j5r	1o2d	1620	1624	0.434	0.481	0.462	0.529
1j5r	1o2d	1621	1625	0.409	0.528	0.487	0.572
1j5r	1o2d	1622	1626	0.0	0.0	0.0	0.0
1j5r	1o2d	1623	1627	0.0	0.001	0.0	0.002
1j5r	1o2d	1624	1628	0.358	0.511	0.311	0.42
1j5r	1o2d	1625	1629	0.0	0.016	0.0	0.009
1j5r	1o2d	1626	1630	0.0	0.0	0.0	0.0
1j5r	1o2d	1627	1631	0.038	0.079	0.064	0.11
1j5r	1o2d	1628	1632	0.235	0.251	0.273	0.303
1j5r	1o2d	1629	1633	0.2	0.127	0.265	0.243
1j5r	1o2d	1630	1634	0.742	0.453	0.746	0.728
1j5r	1o2d	1631	1635	0.788	0.855	0.764	0.859
1j5r	1o2d	1632	1636	0.0	0.0	0.0	0.0
1j5r	1o2d	1633	1637	0.156	0.223	0.158	0.228
1j5r	1o2d	1634	1638	0.193	0.15	0.178	0.185
1j5r	1o2d	1635	1639	0.278	0.28	0.234	0.319
1j5r	1o2d	1638	1642	0.877	0.575	0.901	0.688
1j5r	1o2d	1639	1643	0.836	0.841	0.785	0.788
1j5r	1o2d	1640	1644	0.681	0.64	0.688	0.662
1j5r	1o2d	1642	1646	0.643	0.799	0.637	0.631
1j5r	1o2d	1643	1647	0.635	0.751	0.662	0.512
1j5r	1o2d	1644	1648	0.88	1.0	0.894	0.735
1j5r	1o2d	1645	1649	0.618	0.564	0.615	0.434
1j5r	1o2d	1647	1651	0.428	0.485	0.41	0.428
1j5r	1o2d	1648	1652	0.863	0.664	0.878	0.723
1j5r	1o2d	1650	1654	0.0	0.001	0.404	0.392
1j5r	1o2d	1652	1656	0.161	0.162	0.116	0.22
1j5r	1o2d	1653	1657	0.166	0.166	0.146	0.156
1j5r	1o2d	1655	1659	0.038	0.131	0.055	0.162
1j5r	1o2d	1656	1660	0.297	0.293	0.292	0.295
1j5r	1o2d	1657	1661	0.0	0.006	0.0	0.005
1j5r	1o2d	1658	1662	0.582	0.602	0.544	0.476
1j5r	1o2d	1659	1663	0.761	0.683	0.803	0.712
1j5r	1o2d	1660	1664	0.485	0.475	0.482	0.475
1j5r	1o2d	1661	1665	0.72	0.719	0.676	0.703
1j5r	1o2d	1662	1666	0.21	0.389	0.167	0.308
1j5r	1o2d	1663	1667	0.313	0.284	0.452	0.458
1j5r	1o2d	1664	1668	0.131	0.171	0.122	0.187
1j5r	1o2d	1665	1669	0.047	0.141	0.02	0.081
1j5r	1o2d	1666	1670	0.29	0.118	0.283	0.337
1j5r	1o2d	1667	1671	0.839	0.853	0.851	0.821
1j5r	1o2d	1668	1672	0.688	0.728	0.688	0.913
1j5r	1o2d	1669	1673	0.0	0.0	0.0	0.0
1j5r	1o2d	1670	1674	0.243	0.173	0.248	0.246
1j5r	1o2d	1671	1675	0.0	0.048	0.0	0.022
1j5r	1o2d	1672	1676	0.411	0.539	0.361	0.449
1j5r	1o2d	1673	1677	0.0	0.0	0.0	0.0
1j5r	1o2d	1674	1678	0.0	0.0	0.0	0.0
1j5r	1o2d	1675	1679	0.0	0.0	0.0	0.0
1j5r	1o2d	1676	1680	0.0	0.061	0.0	0.008
1j5r	1o2d	1677	1681	0.422	0.532	0.452	0.423
1j5r	1o2d	1678	1682	0.0	0.0	0.0	0.0
1j5r	1o2d	1679	1683	0.0	0.0	0.0	0.0
1j5r	1o2d	1680	1684	0.0	0.0	0.0	0.0
1j5r	1o2d	1681	1685	0.503	0.546	0.493	0.572
1j5r	1o2d	1682	1686	0.336	0.547	0.328	0.393
1j5r	1o2d	1684	1688	0.152	0.422	0.156	0.044
1j5r	1o2d	1685	1689	0.131	0.191	0.129	0.231
1j5r	1o2d	1686	1690	0.198	0.26	0.223	0.242
1j5r	1o2d	1687	1691	0.217	0.187	0.187	0.112
1j5r	1o2d	1688	1692	0.377	0.492	0.362	0.632
1j5r	1o2d	1693	1697	0.108	0.099	0.179	0.215
1j5r	1o2d	1694	1698	0.01	0.078	0.011	0.04
1j5r	1o2d	1695	1699	0.0	0.012	0.0	0.012
1j5r	1o2d	1697	1701	0.749	0.883	0.756	0.752
1j5r	1o2d	1698	1702	0.517	0.708	0.522	0.496
1j5r	1o2d	1699	1703	0.0	0.001	0.0	0.001
1j5r	1o2d	1701	1705	0.369	0.391	0.384	0.459
1j5r	1o2d	1702	1706	0.308	0.356	0.303	0.376
1j5r	1o2d	1703	1707	0.0	0.009	0.0	0.009
1j5r	1o2d	1705	1709	0.094	0.117	0.178	0.105
1j5r	1o2d	1708	1712	0.378	0.354	0.357	0.358
1j5r	1o2d	1709	1713	0.0	0.0	0.0	0.0
1j5r	1o2d	1710	1714	0.188	0.18	0.162	0.149
1j5r	1o2d	1711	1715	0.54	0.442	0.528	0.466
1j5r	1o2d	1712	1716	0.638	0.833	0.669	0.811
1j5r	1o2d	1713	1717	0.311	0.396	0.3	0.479
1j5r	1o2d	1714	1718	0.187	0.195	0.189	0.15
1j5r	1o2d	1715	1719	0.155	0.187	0.193	0.187
1j5r	1o2d	1716	1720	0.766	0.903	0.789	0.871
1j5r	1o2d	1718	1722	0.0	0.001	0.0	0.001
1j5r	1o2d	1721	1725	0.576	0.86	0.559	0.857
1j5r	1o2d	1722	1726	0.0	0.001	0.0	0.0
1j5r	1o2d	1724	1728	0.095	0.254	0.039	0.16
1j5r	1o2d	1725	1729	0.0	0.0	0.0	0.005
1j5r	1o2d	1726	1730	0.395	0.423	0.386	0.395
1j5r	1o2d	1727	1731	0.91	0.907	0.931	0.83
1j5r	1o2d	1728	1732	0.725	0.619	0.707	0.6
1j5r	1o2d	1729	1733	0.279	0.375	0.257	0.263
1j5r	1o2d	1730	1734	0.312	0.305	0.341	0.356
1j5r	1o2d	1736	1740	0.356	0.296	0.509	0.295
1j5r	1o2d	1738	1742	0.159	0.166	0.241	0.279
1j5r	1o2d	1742	1746	0.006	0.013	0.004	0.02
1j5r	1o2d	1744	1748	0.041	0.069	0.051	0.091
1j5r	1o2d	1745	1749	0.0	0.036	0.0	0.021
1j5r	1o2d	1748	1752	0.0	0.026	0.006	0.032
1j5r	1o2d	1749	1753	0.004	0.057	0.003	0.056
1j5r	1o2d	1750	1754	0.186	0.332	0.145	0.131
1j5r	1o2d	1751	1755	0.961	0.911	0.927	0.555
1j5r	1o2d	1757	1761	0.767	0.709	0.76	0.7
1j5r	1o2d	1759	1763	0.52	0.627	0.509	0.525
1j5r	1o2d	1760	1764	0.457	0.63	0.463	0.628
1j5r	1o2d	1761	1765	0.6	0.575	0.579	0.553
1j5r	1o2d	1762	1766	0.335	0.317	0.402	0.523
1j5r	1o2d	1763	1767	0.0	0.0	0.0	0.0
1j5r	1o2d	1764	1768	0.0	0.001	0.0	0.012
1j5r	1o2d	1765	1769	0.462	0.671	0.43	0.421
1j5r	1o2d	1766	1770	0.368	0.461	0.37	0.439
1j5r	1o2d	1767	1771	0.607	0.665	0.605	0.666
1j5r	1o2d	1769	1773	0.617	0.458	0.616	0.457
1j5r	1o2d	1770	1774	0.302	0.428	0.281	0.338
1j5r	1o2d	1771	1775	0.701	0.741	0.705	0.737
1j5r	1o2d	1772	1776	0.0	0.0	0.0	0.0
1j5r	1o2d	1773	1777	0.0	0.0	0.0	0.0
1j5r	1o2d	1774	1778	0.522	0.63	0.477	0.444
1j5r	1o2d	1779	1783	0.433	0.536	0.452	0.581
1j5r	1o2d	1780	1784	0.293	0.334	0.351	0.359
1j5r	1o2d	1781	1785	0.0	0.0	0.0	0.0
1j5r	1o2d	1782	1786	0.035	0.032	0.046	0.072
1j5r	1o2d	1784	1788	0.028	0.068	0.027	0.09
1j5r	1o2d	1785	1789	0.46	0.451	0.378	0.371
1j5r	1o2d	1787	1791	0.65	0.704	0.632	0.701
1j5r	1o2d	1794	1798	0.738	0.799	0.794	0.83
1j5r	1o2d	1795	1799	0.683	0.724	0.712	0.795
1j5r	1o2d	1797	1801	0.474	0.304	0.515	0.405
1j5r	1o2d	1798	1802	0.617	0.792	0.479	0.5
1j5r	1o2d	1801	1805	0.766	0.621	0.747	0.673
1j5r	1o2d	1802	1806	0.28	0.27	0.29	0.285
1j5r	1o2d	1804	1808	0.861	0.859	0.866	0.889
1j5r	1o2d	1805	1809	0.234	0.194	0.277	0.275
1j5r	1o2d	1806	1810	0.429	0.516	0.604	0.687
1j5r	1o2d	1808	1812	0.718	0.844	0.718	0.869
1j5r	1o2d	1809	1813	0.0	0.0	0.0	0.0
1j5r	1o2d	1810	1814	0.534	0.548	0.522	0.592
1j5r	1o2d	1812	1816	0.316	0.501	0.307	0.504
1j5r	1o2d	1813	1817	0.729	0.641	0.729	0.641
1j5r	1o2d	1814	1818	0.6	0.6	0.55	0.6
1j5r	1o2d	1815	1819	0.465	0.582	0.513	0.556
1j5r	1o2d	1816	1820	0.876	0.252	0.876	0.252
1j5r	1o2d	1817	1821	0.421	0.442	0.417	0.442
1j5r	1o2d	1818	1822	0.886	0.692	0.879	0.698
1j5r	1o2d	1819	1823	0.667	0.56	0.688	0.569
1j5r	1o2d	1820	1824	1.0	0	1.0	0
1j5r	1o2d	1821	1825	0.776	0.578	0.772	0.572
1j5r	1o2d	1822	1826	0.055	0.086	0.07	0.108
1j5r	1o2d	1823	1827	0.81	0.815	0.804	0.786
1j5r	1o2d	1824	1828	0.634	0.709	0.644	0.792
1j5r	1o2d	1825	1829	0.0	0.0	0.0	0.0
1j5r	1o2d	1826	1830	0.357	0.428	0.349	0.429
1j5r	1o2d	1827	1831	0.666	0.7	0.672	0.656
1j5r	1o2d	1828	1832	0.223	0.273	0.256	0.302
1j5r	1o2d	1829	1833	0.613	0.563	0.59	0.46
1j5r	1o2d	1830	1834	0.035	0.049	0.011	0.038
1j5r	1o2d	1831	1835	0.158	0.209	0.101	0.104
1j5r	1o2d	1832	1836	0.084	0.238	0.109	0.112
1j5r	1o2d	1833	1837	0.142	0.131	0.142	0.124
1j5r	1o2d	1834	1838	0.377	0.502	0.292	0.399
1j5r	1o2d	1835	1839	0.057	0.074	0.039	0.051
1j5r	1o2d	1836	1840	0.299	0.316	0.32	0.347
1j5r	1o2d	1837	1841	0.094	0.094	0.148	0.192
1j5r	1o2d	1838	1842	0.248	0.265	0.251	0.354
1j5r	1o2d	1839	1843	0.716	0.665	0.717	0.665
1j5r	1o2d	1840	1844	0.876	0.779	0.892	0.808
1j5r	1o2d	1842	1846	0.0	0.0	0.0	0.0
1j5r	1o2d	1843	1847	0.735	0.707	0.752	0.751
1j5r	1o2d	1844	1848	0.512	0.594	0.507	0.594
1j5r	1o2d	1846	1850	1.0	0	1.0	0
1j5r	1o2d	1847	1851	0.68	0.524	0.686	0.667
1j5r	1o2d	1848	1852	0.505	0.501	0.416	0.433
1j5r	1o2d	1849	1853	0.74	0.915	0.66	0.815
1j5r	1o2d	1850	1854	0.621	0.735	0.579	0.738
1j5r	1o2d	1851	1855	0.089	0.062	0.077	0.113
1j5r	1o2d	1852	1856	0.0	0.001	0.0	0.001
1j5r	1o2d	1853	1857	0.025	0.025	0.038	0.036
1j5r	1o2d	1854	1858	0.107	0.107	0.116	0.099
1j5r	1o2d	1855	1859	0.345	0.487	0.357	0.264
1j5r	1o2d	1856	1860	0.104	0.237	0.124	0.214
1j5r	1o2d	1857	1861	0.756	0.861	0.692	0.879
1j5r	1o2d	1858	1862	0.327	0.235	0.36	0.594
1j5r	1o2d	1859	1863	0.299	0.441	0.275	0.279
1j5r	1o2d	1860	1864	0.794	0.76	0.793	0.76
1j5r	1o2d	1861	1865	0.778	0.787	0.776	0.796
1j5r	1o2d	1862	1866	0.743	0.723	0.746	0.726
1j5r	1o2d	1863	1867	0.739	0.94	0.743	0.261
1j5r	1o2d	1864	1868	0.461	0.535	0.468	0.521
1j5r	1o2d	1865	1869	0.0	0.0	0.0	0.0
1j5r	1o2d	1867	1871	0.808	0.802	0.808	0.802
1j5r	1o2d	1869	1873	0.317	0.367	0.285	0.279
1j5r	1o2d	1870	1874	0.0	0.0	0.0	0.0
1j5r	1o2d	1872	1876	0.362	0.399	0.451	0.533
1j5r	1o2d	1873	1877	0.308	0.333	0.252	0.283
1j5r	1o2d	1874	1878	0.5	0.477	0.511	0.479
1j5r	1o2d	1875	1879	0.344	0.537	0.353	0.527
1j5r	1o2d	1876	1880	0.363	0.396	0.37	0.417
1j5r	1o2d	1877	1881	0.51	0.677	0.508	0.653
1j5r	1o2d	1878	1882	0.576	0.72	0.542	0.674
1j5r	1o2d	1879	1883	1.0	0	1.0	0
1j5r	1o2d	1880	1884	1.0	0	1.0	0
1j5r	1o2d	1881	1885	0.643	0.651	0.619	0.754
1j5r	1o2d	1882	1886	0.575	0.522	0.611	0.545
1j5r	1o2d	1883	1887	0.807	0.422	0.722	0.465
1j5r	1o2d	1886	1890	0.599	0.561	0.553	0.65
1j5r	1o2d	1889	1893	0.885	0.847	0.878	0.993
1j5r	1o2d	1890	1894	0.045	0.066	0.064	0.138
1j5r	1o2d	1892	1896	0.18	0.113	0.216	0.147
1j5r	1o2d	1893	1897	0.336	0.33	0.296	0.456
1j5r	1o2d	1894	1898	0.663	0.63	0.694	0.657
1j5r	1o2d	1895	1899	0.319	0.306	0.306	0.447
1j5r	1o2d	1896	1900	0.0	0.044	0.009	0.043
1j5r	1o2d	1897	1901	0.288	0.402	0.297	0.342
1j5r	1o2d	1898	1902	0.114	0.146	0.159	0.124
1j5r	1o2d	1899	1903	0.833	0.667	0.833	0.667
1j5r	1o2d	1900	1904	0.0	0.004	0.0	0.001
1j5r	1o2d	1901	1905	0.894	0.79	0.881	0.797
1j5r	1o2d	1902	1906	0.713	0.338	0.73	0.368
1j5r	1o2d	1903	1907	0.067	0.019	0.052	0.038
1j5r	1o2d	1904	1908	0.652	0.679	0.664	0.752
1j5r	1o2d	1905	1909	0.699	0.797	0.7	0.797
1j5r	1o2d	1906	1910	0.721	0.84	0.714	0.848
1j5r	1o2d	1907	1911	0.651	0.814	0.623	0.709
1j5r	1o2d	1908	1912	0.395	0.412	0.416	0.603
1j5r	1o2d	1909	1913	0.344	0.376	0.354	0.367
1j5r	1o2d	1910	1914	0.821	0.897	0.823	0.897
1j5r	1o2d	1911	1915	0.788	0.796	0.784	0.792
1j5r	1o2d	1912	1916	0.105	0.116	0.187	0.17
1j5r	1o2d	1914	1918	0.481	0.447	0.528	0.529
1j5r	1o2d	1915	1919	0.419	0.402	0.476	0.305
1j5r	1o2d	1916	1920	0.746	0.734	0.755	0.738
1j5r	1o2d	1918	1922	0.33	0.309	0.326	0.293
1j5r	1o2d	1919	1923	0.624	0.378	0.596	0.358
1j5r	1o2d	1920	1924	0.0	0.0	0.0	0.0
1j5r	1o2d	1921	1925	0.673	0.457	0.65	0.698
1j5r	1o2d	1922	1926	0.239	0.247	0.234	0.357
1j5r	1o2d	1923	1927	0.229	0.223	0.336	0.406
1j5r	1o2d	1924	1928	0.401	0.371	0.411	0.454
1j5r	1o2d	1925	1929	0.156	0.167	0.143	0.2
1j5r	1o2d	1927	1931	0.378	0.362	0.424	0.566
1j5r	1o2d	1928	1932	0.106	0.11	0.047	0.052
1j5r	1o2d	1929	1933	0.0	0.0	0.0	0.0
1j5r	1o2d	1930	1934	0.435	0.448	0.398	0.384
1j5r	1o2d	1932	1936	0.414	0.372	0.418	0.477
1j5r	1o2d	1933	1937	0.0	0.0	0.001	0.004
1j5r	1o2d	1934	1938	0.071	0.07	0.065	0.054
1j5r	1o2d	1935	1939	0.788	0.776	0.228	0.275
1j5r	1o2d	1937	1941	0.206	0.211	0.267	0.244
1j5r	1o2d	1938	1942	0.017	0.01	0.0	0.009
1j5r	1o2d	1942	1946	0.059	0.055	0.065	0.088
1j5r	1o2d	1944	1948	0.944	0.929	0.919	0.837
1j5r	1o2d	1946	1950	0.0	0.0	0.016	0.023
1j5r	1o2d	1947	1951	0.009	0.04	0.016	0.083
1j5r	1o2d	1948	1952	0.013	0.035	0.031	0.069
1j5r	1o2d	1949	1953	0.165	0.279	0.159	0.32
1j5r	1o2d	1951	1955	0.005	0.006	0.012	0.012
1j5r	1o2d	1954	1958	0.388	0.458	0.387	0.473
1j5r	1o2d	1958	1962	0.365	0.358	0.323	0.312
1j5r	1o2d	1959	1963	0.0	0.0	0.0	0.0
1j5r	1o2d	1960	1964	0.131	0.22	0.138	0.188
1j5r	1o2d	1961	1965	0.375	0.335	0.427	0.452
1j5r	1o2d	1962	1966	0.0	0.032	0.0	0.007
1j5r	1o2d	1963	1967	0.645	0.67	0.705	0.727
1j5r	1o2d	1964	1968	0.26	0.303	0.307	0.32
1j5r	1o2d	1965	1969	0.904	0.848	0.943	0.848
1j5r	1o2d	1966	1970	0.016	0.042	0.003	0.047
1j5r	1o2d	1967	1971	0.511	0.664	0.446	0.416
1j5r	1o2d	1968	1972	0.114	0.111	0.144	0.133
1j5r	1o2d	1969	1973	0.0	0.003	0.0	0.034
1j5r	1o2d	1970	1974	0.106	0.229	0.121	0.217
1j5r	1o2d	1971	1975	0.194	0.231	0.161	0.183
1j5r	1o2d	1972	1976	0.0	0.081	0.0	0.033
1j5r	1o2d	1973	1977	0.52	0.375	0.55	0.555
1j5r	1o2d	1974	1978	0.518	0.504	0.554	0.711
1j5r	1o2d	1976	1980	0.436	0.36	0.436	0.36
1j5r	1o2d	1977	1981	0.827	0.929	0.824	0.929
1j5r	1o2d	1978	1982	0.858	0.774	0.908	0.937
1j5r	1o2d	1979	1983	0.336	0.382	0.332	0.4
1j5r	1o2d	1980	1984	0.137	0.14	0.083	0.084
1j5r	1o2d	1981	1985	0.0	0.0	0.0	0.0
1j5r	1o2d	1983	1987	0.36	0.384	0.281	0.445
1j5r	1o2d	1984	1988	0.544	0.271	0.542	0.578
1j5r	1o2d	1985	1989	0.487	0.471	0.521	0.6
1j5r	1o2d	1987	1991	1.0	0	1.0	0
1j5r	1o2d	1988	1992	0.737	0.655	0.708	0.732
1j5r	1o2d	1989	1993	0.0	0.0	0.0	0.0
1j5r	1o2d	1990	1994	0.0	0.0	0.0	0.0
1j5r	1o2d	1991	1995	0.12	0.115	0.12	0.122
1j5r	1o2d	1992	1996	0.262	0.361	0.254	0.367
1j5r	1o2d	1993	1997	0.167	0.153	0.133	0.121
1j5r	1o2d	1994	1998	0.0	0.0	0.0	0.0
1j5r	1o2d	1995	1999	0.0	0.0	0.0	0.0
1j5r	1o2d	1997	2001	0.426	0.496	0.432	0.595
1j5r	1o2d	1998	2002	0.208	0.195	0.173	0.19
1j5r	1o2d	1999	2003	0.787	0.713	0.75	0.874
1j5r	1o2d	2000	2004	0.287	0.339	0.289	0.394
1j5r	1o2d	2001	2005	0.003	0.012	0.022	0.023
1j5r	1o2d	2002	2006	0.564	0.797	0.582	0.586
1j5r	1o2d	2003	2007	0.194	0.249	0.16	0.167
1j5r	1o2d	2004	2008	0.737	0.687	0.733	0.687
1j5r	1o2d	2006	2010	0.038	0.047	0.039	0.045
1j5r	1o2d	2007	2011	0.062	0.064	0.068	0.083
1j5r	1o2d	2008	2012	0.336	0.292	0.323	0.348
1j5r	1o2d	2009	2013	0.518	0.642	0.496	0.501
1j5r	1o2d	2010	2014	0.127	0.296	0.126	0.134
1j5r	1o2d	2011	2015	0.025	0.157	0.023	0.028
1j5r	1o2d	2012	2016	0.628	0.624	0.62	0.624
1j5r	1o2d	2013	2017	0.479	0.628	0.475	0.633
1j5r	1o2d	2014	2018	0.495	0.538	0.489	0.538
1j5r	1o2d	2015	2019	0.519	0.637	0.485	0.615
1j5r	1o2d	2016	2020	0.479	0.64	0.503	0.654
1j5r	1o2d	2017	2021	0.642	0.608	0.642	0.608
1j5r	1o2d	2018	2022	0.0	0	0.0	0
1j5r	1o2d	2019	2023	0.733	0.889	0.733	0.889
1j5r	1o2d	2020	2024	0.506	0.595	0.455	0.537
1j5r	1o2d	2021	2025	0.75	0.883	0.733	0.883
1j5r	1o2d	2022	2026	0.444	0.429	0.408	0.391
1j5r	1o2d	2023	2027	0.003	0.012	0.005	0.008
1j5r	1o2d	2024	2028	0.812	0.8	0.828	0.811
1j5r	1o2d	2025	2029	0.574	0.597	0.54	0.629
1j5r	1o2d	2026	2030	0.156	0.158	0.228	0.232
1j5r	1o2d	2028	2032	0.133	0.123	0.135	0.177
1j5r	1o2d	2029	2033	0.0	0.0	0.0	0.0
1j5r	1o2d	2033	2037	0.825	0.817	0.874	0.585
1j5r	1o2d	2034	2038	0.596	0.702	0.543	0.588
1j5r	1o2d	2035	2039	0.0	0.0	0.0	0.0
1j5r	1o2d	2036	2040	0.0	0.0	0.0	0.0
1j5r	1o2d	2037	2041	0.009	0.004	0.012	0.034
1j5r	1o2d	2040	2044	0.267	0.26	0.279	0.278
1j5r	1o2d	2042	2046	0.223	0.238	0.222	0.292
1j5r	1o2d	2043	2047	0.315	0.331	0.313	0.297
1j5r	1o2d	2044	2048	0.311	0.35	0.287	0.281
1j5r	1o2d	2045	2049	0.334	0.383	0.213	0.199
1j5r	1o2d	2046	2050	0.133	0.114	0.125	0.114
1j5r	1o2d	2047	2051	0.0	0.0	0.0	0.0
1j5r	1o2d	2048	2052	0.047	0.081	0.051	0.126
1j5r	1o2d	2049	2053	0.467	0.583	0.531	0.765
1j5r	1o2d	2051	2055	0.0	0.0	0.0	0.0
1j5r	1o2d	2052	2056	0.0	0.0	0.0	0.0
1j5r	1o2d	2053	2057	0.057	0.06	0.056	0.044
1j5r	1o2d	2054	2058	0.0	0.003	0.0	0.003
1j5r	1o2d	2055	2059	0.0	0.004	0.0	0.0
1j5r	1o2d	2056	2060	0.0	0.0	0.0	0.0
1j5r	1o2d	2057	2061	0.0	0.0	0.0	0.0
1j5r	1o2d	2058	2062	0.0	0.0	0.0	0.0
1j5r	1o2d	2059	2063	0.291	0.442	0.275	0.358
1j5r	1o2d	2061	2065	0.409	0.477	0.467	0.49
1j5r	1o2d	2062	2066	0.0	0.0	0.0	0.0
1j5r	1o2d	2063	2067	0.0	0.008	0.0	0.002
1j5r	1o2d	2066	2070	0.092	0.059	0.098	0.085
1j5r	1o2d	2067	2071	0.891	0.917	0.872	0.928
1j5r	1o2d	2068	2072	0.0	0.0	0.0	0.0
1j5r	1o2d	2072	2076	0.672	0.629	0.636	0.634
1j5r	1o2d	2075	2079	0.297	0.326	0.35	0.446
1j5r	1o2d	2076	2080	0.0	0.008	0.0	0.0
1j5r	1o2d	2077	2081	0.0	0.0	0.0	0.0
1j5r	1o2d	2078	2082	0.545	0.545	0.53	0.612
1j5r	1o2d	2079	2083	0.338	0.39	0.388	0.484
1j5r	1o2d	2080	2084	0.1	0.094	0.192	0.206
1j5r	1o2d	2083	2087	0.467	0.632	0.154	0.2
1j5r	1o2d	2087	2091	0.744	0.562	0.741	0.668
1j5r	1o2d	2088	2092	0.652	0.659	0.682	0.589
1j5r	1o2d	2089	2093	0.0	0.0	0.006	0.006
1j5r	1o2d	2090	2094	0.066	0.079	0.067	0.053
1j5r	1o2d	2091	2095	0.0	0.0	0.0	0.0
1j5r	1o2d	2092	2096	0.487	0.606	0.504	0.772
1j5r	1o2d	2094	2098	0.006	0.021	0.012	0.008
1j5r	1o2d	2095	2099	0.258	0.408	0.239	0.465
1j5r	1o2d	2097	2101	0.116	0.128	0.139	0.106
1j5r	1o2d	2098	2102	0.711	0.716	0.714	0.737
1j5r	1o2d	2099	2103	0.328	0.346	0.319	0.317
1j5r	1o2d	2100	2104	0.802	0.835	0.76	0.759
1j5r	1o2d	2101	2105	0.663	0.663	0.736	0.796
1j5r	1o2d	2102	2106	0.0	0.0	0.0	0.0
1j5r	1o2d	2103	2107	0.504	0.57	0.536	0.732
1j5r	1o2d	2105	2109	0.866	0.836	0.869	0.836
1j5r	1o2d	2106	2110	0.041	0.044	0.149	0.157
1j5r	1o2d	2108	2112	0.649	0.881	0.577	0.327
1j5r	1o2d	2109	2113	0.0	0.001	0.324	0.32
1j5r	1o2d	2110	2114	0.11	0.117	0.129	0.115
1j5r	1o2d	2112	2116	0.0	0.0	0.0	0.0
1j5r	1o2d	2113	2117	0.45	0.534	0.42	0.396
1j5r	1o2d	2115	2119	0.808	0.875	0.823	0.869
1j5r	1o2d	2116	2120	0.0	0.0	0.0	0.0
1j5r	1o2d	2117	2121	0.0	0.0	0.0	0.0
1j5r	1o2d	2120	2124	0.087	0.104	0.079	0.218
1j5r	1o2d	2122	2126	0.532	0.66	0.59	0.747
1j5r	1o2d	2123	2127	0.274	0.33	0.165	0.133
1j5r	1o2d	2124	2128	0.029	0.068	0.029	0.131
1j5r	1o2d	2129	2133	0.149	0.097	0.131	0.143
1j5r	1o2d	2130	2134	0.173	0.302	0.195	0.268
1j5r	1o2d	2132	2136	0.222	0.192	0.221	0.196
1j5r	1o2d	2133	2137	0.156	0.184	0.156	0.142
1j5r	1o2d	2134	2138	0.697	0.768	0.687	0.751
1j5r	1o2d	2135	2139	0.094	0.112	0.033	0.042
1j5r	1o2d	2136	2140	0.0	0.0	0.0	0.0
1j5r	1o2d	2138	2142	0.0	0.0	0.0	0.0
1j5r	1o2d	2139	2143	0.266	0.28	0.279	0.278
1j5r	1o2d	2140	2144	0.733	0.803	0.713	0.835
1j5r	1o2d	2141	2145	0.305	0.284	0.256	0.236
1j5r	1o2d	2142	2146	0.46	0.607	0.45	0.587
1j5r	1o2d	2143	2147	0.188	0.21	0.169	0.207
1j5r	1o2d	2144	2148	0.049	0.061	0.04	0.045
1j5r	1o2d	2145	2149	0.605	0.623	0.601	0.623
1j5r	1o2d	2146	2150	0.277	0.335	0.277	0.331
1j5r	1o2d	2147	2151	0.798	0.544	0.808	0.563
1j5r	1o2d	2148	2152	0.0	0.0	0.0	0.0
1j5r	1o2d	2149	2153	0.0	0.0	0.0	0.0
1j5r	1o2d	2150	2154	0.109	0.124	0.134	0.149
1j5r	1o2d	2151	2155	0.262	0.176	0.251	0.248
1j5r	1o2d	2152	2156	0.325	0.317	0.338	0.39
1j5r	1o2d	2153	2157	0.388	0.418	0.404	0.519
1j5r	1o2d	2154	2158	0.314	0.346	0.313	0.425
1j5r	1o2d	2155	2159	0.668	0.668	0.527	0.529
1j5r	1o2d	2156	2160	0.132	0.123	0.092	0.097
1j5r	1o2d	2157	2161	0.142	0.17	0.161	0.22
1j5r	1o2d	2159	2163	0.223	0.213	0.204	0.238
1j5r	1o2d	2160	2164	0.411	0.536	0.419	0.647
1j5r	1o2d	2161	2165	0.883	0.978	0.861	0.927
1j5r	1o2d	2162	2166	0.467	0.476	0.449	0.442
1j5r	1o2d	2163	2167	0.588	0.521	0.641	0.62
1j5r	1o2d	2164	2168	0.335	0.546	0.32	0.268
1j5r	1o2d	2165	2169	0.0	0.0	0.0	0.0
1j5r	1o2d	2167	2171	0.36	0.502	0.399	0.561
1j5r	1o2d	2168	2172	0.826	0.892	0.772	0.755
1j5r	1o2d	2169	2173	0.895	0.772	0.906	0.855
1j5r	1o2d	2170	2174	0.035	0.04	0.02	0.033
1j5r	1o2d	2171	2175	0.665	0.702	0.673	0.716
1j5r	1o2d	2172	2176	0.168	0.193	0.222	0.159
1j5r	1o2d	2174	2178	0.493	0.497	0.486	0.702
1j5r	1o2d	2175	2179	0.213	0.256	0.219	0.249
1j5r	1o2d	2176	2180	0.251	0.53	0.286	0.374
1j5r	1o2d	2177	2181	0.225	0.33	0.232	0.302
1j5r	1o2d	2178	2182	0.11	0.154	0.089	0.004
1j5r	1o2d	2179	2183	0.0	0.0	0.0	0.0
1j5r	1o2d	2181	2185	0.228	0.342	0.225	0.351
1j5r	1o2d	2182	2186	0.577	0.713	0.565	0.71
1j5r	1o2d	2183	2187	0.184	0.13	0.196	0.153
1j5r	1o2d	2184	2188	0.014	0.055	0.042	0.051
1j5r	1o2d	2186	2190	0.313	0.34	0.317	0.355
1j5r	1o2d	2187	2191	0.766	0.81	0.737	0.746
1j5r	1o2d	2188	2192	0.039	0.087	0.041	0.054
1j5r	1o2d	2189	2193	0.0	0.0	0.0	0.0
1j5r	1o2d	2191	2195	0.283	0.378	0.313	0.356
1j5r	1o2d	2192	2196	0.663	0.698	0.664	0.696
1j5r	1o2d	2193	2197	0.808	0.958	0.815	0.959
1j5r	1o2d	2194	2198	0.783	0.787	0.777	0.787
1j5r	1o2d	2195	2199	0.812	0.775	0.812	0.775
1j5r	1o2d	2197	2201	0.864	0.869	0.892	0.828
1j5r	1o2d	2198	2202	0.792	0.832	0.734	0.744
1j5r	1o2d	2199	2203	0.0	0.0	0.0	0.005
1j5r	1o2d	2200	2204	0.134	0.14	0.148	0.211
1j5r	1o2d	2201	2205	0.023	0.05	0.029	0.119
1j5r	1o2d	2202	2206	0.446	0.522	0.445	0.373
1j5r	1o2d	2203	2207	0.771	0.883	0.75	0.876
1j5r	1o2d	2204	2208	0.909	0.915	0.922	0.709
1j5r	1o2d	2205	2209	0.666	0.755	0.628	0.721
1j5r	1o2d	2206	2210	0.734	0.623	0.736	0.587
1j5r	1o2d	2207	2211	0.597	0.548	0.531	0.558
1j5r	1o2d	2208	2212	0.314	0.374	0.367	0.426
1j5r	1o2d	2209	2213	0.933	0.0	0.933	0.0
1j5r	1o2d	2210	2214	0.089	0.036	0.071	0.057
1j5r	1o2d	2211	2215	0.274	0.302	0.238	0.258
1j5r	1o2d	2213	2217	0.302	0.297	0.293	0.289
1j5r	1o2d	2214	2218	0.0	0.0	0.0	0.0
1j5r	1o2d	2215	2219	0.325	0.486	0.293	0.52
1j5r	1o2d	2216	2220	0.535	0.561	0.538	0.398
1j5r	1o2d	2217	2221	0.165	0.38	0.148	0.311
1j5r	1o2d	2218	2222	0.056	0.061	0.043	0.044
1j5r	1o2d	2219	2223	0.599	0.633	0.598	0.591
1j5r	1o2d	2220	2224	0.0	0.0	0.0	0.003
1j5r	1o2d	2221	2225	0.275	0.289	0.308	0.315
1j5r	1o2d	2222	2226	0.083	0.099	0.092	0.126
1j5r	1o2d	2223	2227	0.324	0.25	0.387	0.309
1j5r	1o2d	2224	2228	0.12	0.163	0.121	0.172
1j5r	1o2d	2225	2229	0.8	0.18	0.79	0.97
1j5r	1o2d	2226	2230	0.34	0.242	0.316	0.191
1j5r	1o2d	2227	2231	0.016	0.042	0.026	0.063
1j5r	1o2d	2228	2232	0.038	0.074	0.05	0.057
1j5r	1o2d	2229	2233	0.085	0.09	0.086	0.121
1j5r	1o2d	2231	2235	0.205	0.208	0.286	0.326
1j5r	1o2d	2232	2236	0.258	0.254	0.299	0.306
1j5r	1o2d	2233	2237	0.462	0.559	0.472	0.46
1j5r	1o2d	2234	2238	0.0	0.0	0.0	0.0
1j5r	1o2d	2235	2239	0.0	0.0	0.0	0.0
1j5r	1o2d	2237	2241	0.273	0.482	0.266	0.316
1j5r	1o2d	2238	2242	0.816	0.959	0.832	0.911
1j5r	1o2d	2240	2244	0.007	0.04	0.0	0.038
1j5r	1o2d	2244	2248	0.8	0.857	0.786	0.857
1j5r	1o2d	2245	2249	1.0	0	1.0	0
1j5r	1o2d	2247	2251	0.199	0.217	0.139	0.108
1j5r	1o2d	2248	2252	0.0	0.034	0.039	0.08
1j5r	1o2d	2249	2253	0.068	0.102	0.036	0.119
1j5r	1o2d	2254	2258	0.657	0.707	0.645	0.723
1j5r	1o2d	2255	2259	0.365	0.428	0.381	0.456
1j5r	1o2d	2256	2260	0.622	0.676	0.626	0.678
1j5r	1o2d	2257	2261	0.564	0.658	0.558	0.654
1j5r	1o2d	2258	2262	0.589	0.566	0.593	0.563
1j5r	1o2d	2259	2263	0.299	0.474	0.287	0.449
1j5r	1o2d	2260	2264	0.7	0.686	0.785	0.854
1j5r	1o2d	2263	2267	0.286	0.273	0.268	0.329
1j5r	1o2d	2264	2268	0.022	0.024	0.004	0.005
1j5r	1o2d	2265	2269	0.161	0.186	0.152	0.278
1j5r	1o2d	2266	2270	0.118	0.053	0.113	0.126
1j5r	1o2d	2267	2271	0.677	0.708	0.665	0.694
1j5r	1o2d	2269	2273	0.0	0.0	0.0	0.0
1j5r	1o2d	2270	2274	0.026	0.041	0.026	0.062
1j5r	1o2d	2272	2276	0.032	0.07	0.03	0.106
1j5r	1o2d	2273	2277	0.0	0.0	0.0	0.0
1j5r	1o2d	2275	2279	0.228	0.247	0.228	0.231
1j5r	1o2d	2277	2281	0.084	0.083	0.143	0.13
1j5r	1o2d	2278	2282	0.0	0.001	0.0	0.003
1j5r	1o2d	2279	2283	0.756	0.78	0.778	0.771
1j5r	1o2d	2280	2284	0.036	0.166	0.045	0.118
1j5r	1o2d	2281	2285	0.0	0.0	0.0	0.0
1j5r	1o2d	2282	2286	0.333	0.4	0.357	0.371
1j5r	1o2d	2283	2287	0.013	0.033	0.013	0.019
1j5r	1o2d	2285	2289	0.107	0.11	0.034	0.042
1j5r	1o2d	2286	2290	0.244	0.266	0.206	0.143
1j5r	1o2d	2287	2291	0.515	0.398	0.576	0.696
1j5r	1o2d	2289	2293	0.0	0.0	0.13	0.136
1j5r	1o2d	2290	2294	0.287	0.278	0.294	0.279
1j5r	1o2d	2292	2296	0.574	0.545	0.601	0.585
1j5r	1o2d	2293	2297	0.114	0.165	0.177	0.184
1j5r	1o2d	2294	2298	0.105	0.228	0.15	0.228
1j5r	1o2d	2295	2299	0.403	0.421	0.414	0.408
1j5r	1o2d	2297	2301	0.074	0.102	0.071	0.111
1j5r	1o2d	2298	2302	0.0	0.0	0.0	0.0
1j5r	1o2d	2299	2303	0.0	0.0	0.0	0.001
1j5r	1o2d	2302	2306	0.045	0.109	0.014	0.074
1j5r	1o2d	2303	2307	0.0	0.0	0.0	0.0
1j5r	1o2d	2304	2308	0.0	0.002	0.0	0.0
1j5r	1o2d	2305	2309	0.335	0.403	0.297	0.345
1j5r	1o2d	2306	2310	0.091	0.115	0.091	0.134
1j5r	1o2d	2307	2311	0.053	0.062	0.08	0.048
1j5r	1o2d	2309	2313	0.287	0.285	0.266	0.233
1j5r	1o2d	2310	2314	0.762	0.862	0.754	0.862
1j5r	1o2d	2311	2315	0.007	0.009	0.011	0.114
1j5r	1o2d	2312	2316	0.199	0.189	0.251	0.254
1j5r	1o2d	2313	2317	0.0	0.0	0.0	0.002
1j5r	1o2d	2314	2318	0.109	0.13	0.11	0.112
1j5r	1o2d	2316	2320	0.634	0.596	0.572	0.629
1j5r	1o2d	2317	2321	0.437	0.443	0.4	0.371
1j5r	1o2d	2318	2322	0.158	0.153	0.203	0.191
1j5r	1o2d	2319	2323	0.65	0.649	0.642	0.637
1j5r	1o2d	2320	2324	0.75	0.736	0.752	0.737
1j5r	1o2d	2321	2325	0.543	0.662	0.525	0.398
1j5r	1o2d	2322	2326	0.0	0.0	0.0	0.0
1j5r	1o2d	2323	2327	0.048	0.098	0.078	0.119
1j5r	1o2d	2324	2328	0.314	0.42	0.391	0.315
1j5r	1o2d	2325	2329	0.106	0.168	0.081	0.03
1j5r	1o2d	2326	2330	0.22	0.274	0.215	0.397
1j5r	1o2d	2327	2331	0.03	0.027	0.063	0.068
1j5r	1o2d	2328	2332	0.297	0.219	0.232	0.202
1j5r	1o2d	2331	2335	0.0	0.0	0.0	0.0
1j5r	1o2d	2332	2336	0.158	0.16	0.178	0.127
1j5r	1o2d	2333	2337	0.717	0.76	0.653	0.761
1j5r	1o2d	2334	2338	0.0	0.0	0.0	0.0
1j5r	1o2d	2335	2339	0.0	0.0	0.0	0.001
1j5r	1o2d	2336	2340	0.589	0.475	0.607	0.552
1j5r	1o2d	2337	2341	0.0	0.006	0.0	0.001
1j5r	1o2d	2338	2342	0.035	0.034	0.112	0.104
1j5r	1o2d	2339	2343	0.0	0.001	0.0	0.0
1j5r	1o2d	2340	2344	0.042	0.105	0.026	0.091
1j5r	1o2d	2342	2346	0.376	0.509	0.377	0.508
1j5r	1o2d	2343	2347	0.148	0.33	0.172	0.339
1j5r	1o2d	2345	2349	0.0	0.0	0.0	0.0
1j5r	1o2d	2346	2350	0.74	0.752	0.744	0.752
1j5r	1o2d	2347	2351	0.523	0.522	0.52	0.496
1j5r	1o2d	2348	2352	0.03	0.016	0.023	0.021
1j5r	1o2d	2349	2353	0.017	0.04	0.009	0.015
1j5r	1o2d	2350	2354	0.118	0.179	0.186	0.213
1j5r	1o2d	2352	2356	0.659	0.941	0.649	0.718
1j5r	1o2d	2353	2357	0.382	0.39	0.375	0.5
1j5r	1o2d	2354	2358	0.771	0.659	0.764	0.75
1j5r	1o2d	2355	2359	0.443	0.446	0.406	0.418
1j5r	1o2d	2356	2360	0.307	0.254	0.304	0.317
1j5r	1o2d	2357	2361	0.394	0.328	0.354	0.545
1j5r	1o2d	2358	2362	0.33	0.423	0.308	0.29
1j5r	1o2d	2359	2363	0.0	0.0	0.0	0.0
1j5r	1o2d	2360	2364	0.0	0.0	0.0	0.0
1j5r	1o2d	2363	2367	0.312	0.414	0.306	0.41
1j5r	1o2d	2364	2368	0.092	0.146	0.095	0.271
1j5r	1o2d	2365	2369	0.176	0.204	0.182	0.324
1j5r	1o2d	2366	2370	0.221	0.24	0.254	0.395
1j5r	1o2d	2367	2371	0.0	0.0	0.0	0.0
1j5r	1o2d	2368	2372	0.242	0.346	0.264	0.313
1j5r	1o2d	2369	2373	0.545	0.668	0.524	0.431
1j5r	1o2d	2370	2374	0.0	0.0	0.0	0.0
1j5r	1o2d	2371	2375	0.0	0.0	0.0	0.0
1j5r	1o2d	2372	2376	0.0	0.0	0.0	0.0
1j5r	1o2d	2373	2377	0.342	0.356	0.393	0.43
1j5r	1o2d	2374	2378	0.0	0.0	0.0	0.0
1j5r	1o2d	2375	2379	0.0	0.0	0.0	0.0
1j5r	1o2d	2377	2381	0.239	0.229	0.244	0.369
1j5r	1o2d	2378	2382	0.715	0.623	0.694	0.858
1j5r	1o2d	2379	2383	0.13	0.149	0.308	0.34
1j5r	1o2d	2380	2384	0.004	0.023	0.031	0.103
1j5r	1o2d	2381	2385	0.0	0.0	0.0	0.0
1j5r	1o2d	2382	2386	0.508	0.555	0.584	0.61
1j5r	1o2d	2383	2387	0.0	0.03	0.0	0.076
1j5r	1o2d	2384	2388	0.031	0.029	0.015	0.025
1j5r	1o2d	2386	2390	0.053	0.068	0.071	0.09
1j5r	1o2d	2387	2391	0.0	0.01	0.0	0.013
1j5r	1o2d	2388	2392	0.0	0.0	0.0	0.0
1j5r	1o2d	2389	2393	0.0	0.0	0.0	0.0
1j5r	1o2d	2390	2394	0.0	0.0	0.0	0.0
1j5r	1o2d	2391	2395	0.0	0.0	0.0	0.0
1j5r	1o2d	2392	2396	0.16	0.142	0.173	0.17
1j5r	1o2d	2394	2398	0.403	0.413	0.426	0.353
1j5r	1o2d	2395	2399	0.0	0.0	0.0	0.0
1j5r	1o2d	2396	2400	0.0	0.014	0.0	0.01
1j5r	1o2d	2397	2401	0.0	0.007	0.0	0.05
1j5r	1o2d	2398	2402	0.428	0.558	0.168	0.282
1j5r	1o2d	2399	2403	0.931	0.771	0.934	0.655
1j5r	1o2d	2401	2405	0.0	0.0	0.0	0.0
1j5r	1o2d	2402	2406	0.005	0.014	0.012	0.014
1j5r	1o2d	2404	2408	0.548	0.577	0.519	0.64
1j5r	1o2d	2405	2409	0.856	0.854	0.789	0.654
1j5r	1o2d	2407	2411	0.748	0.764	0.741	0.712
1j5r	1o2d	2408	2412	0.772	0.806	0.831	0.832
1j5r	1o2d	2413	2417	0.374	0.352	0.423	0.431
1j5r	1o2d	2414	2418	0.02	0.051	0.0	0.006
1j5r	1o2d	2419	2423	0.001	0.001	0.0	0.011
1j5r	1o2d	2420	2424	0.264	0.271	0.267	0.306
1j5r	1o2d	2421	2425	0.736	0.686	0.702	0.686
1j5r	1o2d	2423	2427	0.431	0.509	0.42	0.536
1j5r	1o2d	2424	2428	0.917	0.896	0.921	0.895
1j5r	1o2d	2425	2429	0.0	0.002	0.0	0.002
1j5r	1o2d	2429	2433	0.373	0.449	0.375	0.318
1j5r	1o2d	2430	2434	0.229	0.226	0.24	0.233
1j5r	1o2d	2431	2435	0.0	0.0	0.0	0.0
1j5r	1o2d	2432	2436	0.212	0.231	0.269	0.272
1j5r	1o2d	2433	2437	0.559	0.512	0.602	0.577
1j5r	1o2d	2434	2438	0.435	0.414	0.428	0.47
1j5r	1o2d	2436	2440	0.07	0.078	0.07	0.06
1j5r	1o2d	2437	2441	0.544	0.922	0.361	0.471
1j5r	1o2d	2438	2442	0.239	0.236	0.224	0.235
1j5r	1o2d	2439	2443	0.242	0.238	0.24	0.238
1j5r	1o2d	2440	2444	0.514	0.642	0.519	0.642
1j5r	1o2d	2442	2446	0.047	0.046	0.027	0.022
1j5r	1o2d	2444	2448	0.0	0.0	0.0	0.0
1j5r	1o2d	2445	2449	0.372	0.383	0.365	0.438
1j5r	1o2d	2446	2450	0.206	0.285	0.253	0.343
1j5r	1o2d	2447	2451	0.283	0.347	0.296	0.497
1j5r	1o2d	2448	2452	0.341	0.329	0.314	0.28
1j5r	1o2d	2449	2453	0.0	0.0	0.0	0.0
1j5r	1o2d	2450	2454	0.607	0.554	0.58	0.593
1j5r	1o2d	2451	2455	0.169	0.188	0.117	0.135
1j5r	1o2d	2452	2456	0.0	0.0	0.0	0.0
1j5r	1o2d	2453	2457	0.0	0.0	0.0	0.0
1j5r	1o2d	2454	2458	0.0	0.001	0.0	0.009
1j5r	1o2d	2455	2459	0.0	0.006	0.0	0.001
1j5r	1o2d	2456	2460	0.222	0.23	0.215	0.289
1j5r	1o2d	2458	2462	0.594	0.585	0.616	0.634
1j5r	1o2d	2459	2463	0.158	0.192	0.146	0.192
1j5r	1o2d	2460	2464	1.0	0	1.0	0
1j5r	1o2d	2461	2465	0.022	0.02	0.094	0.102
1j5r	1o2d	2462	2466	0.0	0.0	0.0	0.0
1j5r	1o2d	2463	2467	0.816	0.783	0.831	0.787
1j5r	1o2d	2464	2468	0.451	0.608	0.569	0.553
1j5r	1o2d	2465	2469	0.0	0.0	0.0	0.0
1j5r	1o2d	2466	2470	0.0	0.0	0.0	0.0
1j5r	1o2d	2469	2473	0.185	0.19	0.263	0.252
1j5r	1o2d	2470	2474	0.0	0.0	0.0	0.0
1j5r	1o2d	2471	2475	0.0	0.0	0.0	0.0
1j5r	1o2d	2472	2476	0.689	0.747	0.609	0.687
1j5r	1o2d	2474	2478	0.562	0.642	0.572	0.672
1j5r	1o2d	2475	2479	0.452	0.382	0.49	0.492
1j5r	1o2d	2476	2480	0.125	0.126	0.139	0.166
1j5r	1o2d	2477	2481	0.32	0.373	0.267	0.271
1j5r	1o2d	2478	2482	0.004	0.018	0.019	0.013
1j5r	1o2d	2479	2483	0.371	0.595	0.422	0.437
1j5r	1o2d	2480	2484	0.23	0.211	0.163	0.128
1j5r	1o2d	2481	2485	0.637	0.884	0.7	0.538
1j5r	1o2d	2482	2486	0.409	0.505	0.479	0.49
1j5r	1o2d	2483	2487	0.663	0.641	0.602	0.648
1j5r	1o2d	2484	2488	0.776	0.963	0.773	0.959
1j5r	1o2d	2491	2495	0.449	0.373	0.439	0.402
1j5r	1o2d	2492	2496	0.771	0.584	0.769	0.567
1j5r	1o2d	2494	2498	0.0	0.0	0.0	0.0
1j5r	1o2d	2495	2499	0.016	0.024	0.024	0.029
1j5r	1o2d	2496	2500	0.42	0.419	0.436	0.375
1j5r	1o2d	2497	2501	0.189	0.209	0.202	0.246
1j5r	1o2d	2498	2502	0.059	0.076	0.043	0.041
1j5r	1o2d	2500	2504	0.0	0.0	0.0	0.001
1j5r	1o2d	2501	2505	0.201	0.29	0.023	0.039
1j5r	1o2d	2502	2506	0.393	0.529	0.017	0.007
1j5r	1o2d	2504	2508	0.403	0.505	0.369	0.446
1j5r	1o2d	2505	2509	0.809	0.711	0.79	0.943
1j5r	1o2d	2506	2510	0.392	0.474	0.379	0.444
1j5r	1o2d	2507	2511	0.332	0.372	0.332	0.372
1j5r	1o2d	2510	2514	0.374	0.545	0.386	0.405
1j5r	1o2d	2511	2515	1.0	1.0	1.0	1.0
1j5r	1o2d	2512	2516	0.683	0.692	0.707	0.736
1j5r	1o2d	2513	2517	0.0	0.0	0.0	0.0
1j5r	1o2d	2515	2519	0.675	0.654	0.678	0.658
1j5r	1o2d	2516	2520	0.555	0.531	0.545	0.292
1j5r	1o2d	2517	2521	0.48	0.42	0.215	0.099
1j5r	1o2d	2518	2522	0.069	0.089	0.069	0.142
1j5r	1o2d	2519	2523	0.174	0.302	0.165	0.147
1j5r	1o2d	2520	2524	0.0	0.0	0.0	0.0
1j5r	1o2d	2522	2526	0.555	0.523	0.633	0.667
1j5r	1o2d	2523	2527	0.0	0.0	0.0	0.0
1j5r	1o2d	2525	2529	0.0	0.0	0.0	0.0
1j5r	1o2d	2526	2530	0.0	0.0	0.0	0.0
1j5r	1o2d	2529	2533	0.0	0.0	0.0	0.0
1j5r	1o2d	2530	2534	0.059	0.147	0.009	0.004
1j5r	1o2d	2531	2535	0.0	0.0	0.0	0.0
1j5r	1o2d	2532	2536	0.145	0.181	0.154	0.155
1j5r	1o2d	2534	2538	0.694	0.727	0.682	0.73
1j5r	1o2d	2535	2539	0.0	0.0	0.0	0.0
1j5r	1o2d	2536	2540	0.026	0.019	0.0	0.0
1j5r	1o2d	2537	2541	0.017	0.084	0.013	0.008
1j5r	1o2d	2538	2542	0.095	0.192	0.117	0.206
1j5r	1o2d	2539	2543	0.808	0.767	0.799	0.841
1j5r	1o2d	2540	2544	0.071	0.089	0.089	0.075
1j5r	1o2d	2541	2545	0.024	0.032	0.013	0.04
1j5r	1o2d	2542	2546	0.338	0.521	0.367	0.501
1j5r	1o2d	2543	2547	0.109	0.143	0.136	0.247
1j5r	1o2d	2544	2548	0.0	0.0	0.0	0.0
1j5r	1o2d	2545	2549	0.296	0.302	0.0	0.0
1j5r	1o2d	2547	2551	0.159	0.209	0.155	0.132
1j5r	1o2d	2548	2552	0.066	0.068	0.023	0.027
1j5r	1o2d	2549	2553	0.573	0.616	0.597	0.546
1j5r	1o2d	2550	2554	0.458	0.724	0.412	0.789
1j5r	1o2d	2551	2555	0.486	0.417	0.497	0.675
1j5r	1o2d	2552	2556	0.598	0.773	0.647	0.565
1j5r	1o2d	2553	2557	0.477	0.54	0.411	0.407
1j5r	1o2d	2554	2558	0.804	0.719	0.875	0.765
1j5r	1o2d	2555	2559	0.833	0.833	0.799	0.815
1j5r	1o2d	2556	2560	0.0	0.0	0.0	0.0
1j5r	1o2d	2558	2562	0.199	0.199	0.271	0.259
1j5r	1o2d	2560	2564	0.612	0.675	0.589	0.677
1j5r	1o2d	2561	2565	0.0	0.0	0.0	0.0
1j5r	1o2d	2562	2566	0.584	0.666	0.55	0.594
1j5r	1o2d	2563	2567	0.788	0.892	0.738	0.685
1j5r	1o2d	2564	2568	0.018	0.014	0.03	0.032
1j5r	1o2d	2568	2572	0.0	0.001	0.014	0.002
1j5r	1o2d	2569	2573	0.308	0.425	0.331	0.383
