pred	succ	p-cen	s-cen	p_q-score	p_s-score	s_q-score	s_s-score
1rmw	2b82	1	1	0.8	0.9	0.8	0.9
1rmw	2b82	2	2	0.8	0.929	0.814	0.929
1rmw	2b82	3	3	0.767	0.967	0.8	0.967
1rmw	2b82	4	4	0.9	0.98	0.9	0.98
1rmw	2b82	5	5	1.0	0	1.0	0
1rmw	2b82	6	6	0.412	0.425	0.412	0.425
1rmw	2b82	7	7	0.838	0.923	0.846	0.915
1rmw	2b82	8	8	1.0	0	1.0	0
1rmw	2b82	9	9	0.761	0.768	0.776	0.768
1rmw	2b82	10	10	0.257	0.268	0.18	0.182
1rmw	2b82	11	11	0.123	0.121	0.124	0.118
1rmw	2b82	12	12	0.097	0.127	0.091	0.103
1rmw	2b82	13	13	0.381	0.426	0.379	0.396
1rmw	2b82	14	14	0.198	0.222	0.207	0.213
1rmw	2b82	15	15	0.82	0.82	0.827	0.827
1rmw	2b82	17	17	0.382	0.385	0.355	0.358
1rmw	2b82	18	18	0.0	0.0	0.0	0.0
1rmw	2b82	19	19	0.95	0.9	0.983	0.467
1rmw	2b82	20	20	0.06	0.104	0.063	0.112
1rmw	2b82	21	21	0.248	0.261	0.282	0.4
1rmw	2b82	22	22	0.163	0.15	0.148	0.143
1rmw	2b82	23	23	0.122	0.13	0.12	0.13
1rmw	2b82	24	24	0.551	0.563	0.553	0.563
1rmw	2b82	25	25	0.875	0.825	0.873	0.929
1rmw	2b82	26	26	0.321	0.335	0.338	0.338
1rmw	2b82	27	27	0.166	0.157	0.157	0.166
1rmw	2b82	28	28	0.388	0.157	0.353	0.045
1rmw	2b82	29	29	0.83	0.599	0.786	0.763
1rmw	2b82	30	30	0.499	0.531	0.455	0.543
1rmw	2b82	31	31	0.636	0.753	0.641	0.596
1rmw	2b82	32	32	0.624	0.617	0.61	0.594
1rmw	2b82	33	33	0.0	0.0	0.0	0.0
1rmw	2b82	34	34	0.562	0.846	0.537	0.525
1rmw	2b82	35	35	0.344	0.346	0.341	0.346
1rmw	2b82	36	36	0.74	0.736	0.746	0.752
1rmw	2b82	38	38	0.0	0.0	0.0	0.0
1rmw	2b82	39	39	0.328	0.346	0.331	0.479
1rmw	2b82	40	40	0.61	0.551	0.558	0.47
1rmw	2b82	41	41	0.527	0.581	0.532	0.528
1rmw	2b82	42	42	0.557	0.574	0.54	0.546
1rmw	2b82	43	43	0.44	0.329	0.446	0.539
1rmw	2b82	44	44	0.145	0.14	0.168	0.184
1rmw	2b82	45	45	0.207	0.243	0.192	0.372
1rmw	2b82	46	46	0.28	0.385	0.259	0.378
1rmw	2b82	47	47	0.03	0.074	0.014	0.065
1rmw	2b82	48	48	0.39	0.411	0.471	0.363
1rmw	2b82	49	49	0.688	0.656	0.663	0.925
1rmw	2b82	50	50	0.408	0.29	0.454	0.455
1rmw	2b82	51	51	0.213	0.213	0.221	0.291
1rmw	2b82	52	52	0.627	0.979	0.636	0.983
1rmw	2b82	53	53	0.834	0.841	0.817	0.994
1rmw	2b82	54	54	0.851	0.853	0.814	0.788
1rmw	2b82	55	55	0.644	0.719	0.722	0.284
1rmw	2b82	56	56	0.443	0.444	0.438	0.444
1rmw	2b82	57	57	0.298	0.296	0.334	0.325
1rmw	2b82	58	58	0.012	0.006	0.009	0.014
1rmw	2b82	59	59	0.579	0.621	0.85	0.676
1rmw	2b82	60	60	0.741	0.885	0.775	0.738
1rmw	2b82	61	61	0.631	0.632	0.605	0.519
1rmw	2b82	62	62	0.013	0.024	0.013	0.036
1rmw	2b82	63	63	0.838	0.655	0.882	0.944
1rmw	2b82	64	64	0.762	0.798	0.762	0.794
1rmw	2b82	65	65	0.006	0.022	0.0	0.011
1rmw	2b82	66	66	0.497	0.777	0.467	0.669
1rmw	2b82	68	68	0.573	0.753	0.586	0.755
1rmw	2b82	69	69	0.673	0.674	0.678	0.69
1rmw	2b82	70	70	0.775	0.847	0.782	0.765
1rmw	2b82	71	71	0.0	0.0	0.0	0.0
1rmw	2b82	72	72	0.431	0.427	0.394	0.386
1rmw	2b82	73	73	0.526	0.52	0.54	0.535
1rmw	2b82	74	74	0.736	0.634	0.723	0.785
1rmw	2b82	75	75	0.433	0.443	0.425	0.388
1rmw	2b82	76	76	0.336	0.373	0.3	0.315
1rmw	2b82	77	77	0.432	0.499	0.398	0.395
1rmw	2b82	78	78	0.0	0.0	0.0	0.0
1rmw	2b82	79	79	0.424	0.567	0.406	0.391
1rmw	2b82	80	80	0.372	0.461	0.396	0.511
1rmw	2b82	81	81	0.471	0.471	0.471	0.471
1rmw	2b82	82	82	0.064	0.063	0.128	0.111
1rmw	2b82	83	83	0.058	0.063	0.079	0.094
1rmw	2b82	84	84	0.0	0.0	0.0	0.0
1rmw	2b82	85	85	0.314	0.292	0.257	0.239
1rmw	2b82	86	86	0.158	0.2	0.151	0.164
1rmw	2b82	87	87	0.0	0.0	0.0	0.0
1rmw	2b82	88	88	0.178	0.191	0.225	0.225
1rmw	2b82	89	89	0.276	0.299	0.29	0.292
1rmw	2b82	90	90	0.406	0.402	0.395	0.391
1rmw	2b82	91	91	0.212	0.243	0.268	0.354
1rmw	2b82	92	92	0.053	0.053	0.076	0.08
1rmw	2b82	93	93	0.337	0.327	0.352	0.349
1rmw	2b82	94	94	0.225	0.223	0.192	0.178
1rmw	2b82	95	95	0.386	0.383	0.387	0.383
1rmw	2b82	96	96	0.274	0.274	0.326	0.367
1rmw	2b82	97	97	0.752	0.874	0.707	0.428
1rmw	2b82	98	98	0.0	0.0	0.0	0.0
1rmw	2b82	99	99	0.114	0.159	0.19	0.199
1rmw	2b82	100	100	0.631	0.624	0.637	0.624
1rmw	2b82	102	102	0.799	0.788	0.826	0.948
1rmw	2b82	103	103	0.452	0.503	0.454	0.503
1rmw	2b82	104	104	0.696	0.729	0.629	0.629
1rmw	2b82	106	106	0.122	0.145	0.121	0.119
1rmw	2b82	107	107	0.178	0.227	0.219	0.257
1rmw	2b82	109	109	0.711	0.7	0.74	0.73
1rmw	2b82	110	110	0.617	0.617	0.617	0.617
1rmw	2b82	111	111	0.475	0.378	0.589	0.459
1rmw	2b82	112	112	0.446	0.44	0.449	0.44
1rmw	2b82	113	113	0.695	0.709	0.68	0.721
1rmw	2b82	115	115	0.427	0.5	0.392	0.428
1rmw	2b82	116	116	0.886	1.0	0.95	0.75
1rmw	2b82	117	117	0.288	0.315	0.283	0.413
1rmw	2b82	118	118	0.47	0.485	0.472	0.484
1rmw	2b82	119	119	0.737	0.838	0.713	0.834
1rmw	2b82	120	120	0.543	0.561	0.576	0.567
1rmw	2b82	121	121	0.084	0.081	0.084	0.081
1rmw	2b82	122	122	0.243	0.107	0.254	0.253
1rmw	2b82	123	123	0.18	0.175	0.205	0.203
1rmw	2b82	124	124	0.547	0.543	0.556	0.56
1rmw	2b82	125	125	0.047	0.05	0.042	0.045
1rmw	2b82	126	126	0.18	0.172	0.18	0.172
1rmw	2b82	127	127	0.077	0.077	0.075	0.077
1rmw	2b82	128	128	0.094	0.094	0.125	0.132
1rmw	2b82	129	129	0.0	0.0	0.0	0.0
1rmw	2b82	130	130	0.056	0.071	0.044	0.041
1rmw	2b82	131	131	0.109	0.165	0.096	0.16
1rmw	2b82	132	132	0.105	0.234	0.136	0.239
1rmw	2b82	133	133	0.142	0.16	0.144	0.159
1rmw	2b82	134	134	0.805	0.862	0.812	0.878
1rmw	2b82	135	135	0.493	0.493	0.472	0.473
1rmw	2b82	136	136	0.398	0.396	0.369	0.371
1rmw	2b82	137	137	0.408	0.441	0.453	0.483
1rmw	2b82	138	138	0.665	0.728	0.652	0.709
1rmw	2b82	139	139	0.0	0.0	0.0	0.0
1rmw	2b82	140	140	0.164	0.204	0.139	0.146
1rmw	2b82	141	141	0.52	0.585	0.535	0.533
1rmw	2b82	142	142	0.32	0.327	0.304	0.318
1rmw	2b82	143	143	0.031	0.016	0.07	0.024
1rmw	2b82	144	144	0.179	0.181	0.198	0.196
1rmw	2b82	145	145	0.547	0.545	0.573	0.559
1rmw	2b82	146	146	0.452	0.47	0.474	0.477
1rmw	2b82	147	147	0.166	0.218	0.196	0.152
1rmw	2b82	148	148	0.105	0.114	0.097	0.143
1rmw	2b82	149	149	0.021	0.041	0.015	0.022
1rmw	2b82	150	150	0.403	0.461	0.399	0.34
1rmw	2b82	151	151	0.474	0.61	0.465	0.504
1rmw	2b82	152	152	0.171	0.136	0.168	0.125
1rmw	2b82	153	153	0.303	0.307	0.311	0.315
1rmw	2b82	154	154	0.75	0.75	0.75	0.75
1rmw	2b82	155	155	0.616	0.62	0.649	0.651
1rmw	2b82	156	156	0.754	0.862	0.778	0.837
1rmw	2b82	157	157	0.23	0.273	0.235	0.418
1rmw	2b82	158	158	0.847	0.848	0.817	0.838
1rmw	2b82	159	159	0.603	0.605	0.603	0.603
1rmw	2b82	160	160	0.22	0.219	0.221	0.219
1rmw	2b82	161	161	0.949	0.955	0.918	0.937
1rmw	2b82	162	162	0.921	0.906	0.921	0.906
1rmw	2b82	163	163	0.507	0.199	0.545	0.3
1rmw	2b82	164	164	0.387	0.367	0.352	0.38
1rmw	2b82	165	165	0.5	0.45	0.5	0.45
1rmw	2b82	166	166	0.038	0.022	0.029	0.015
1rmw	2b82	167	167	0.719	0.702	0.713	0.779
1rmw	2b82	168	168	0.464	0.445	0.465	0.445
1rmw	2b82	169	169	0.633	0.592	0.668	0.605
1rmw	2b82	170	170	0.532	0.735	0.523	0.737
1rmw	2b82	172	172	0.4	0.4	0.4	0.4
1rmw	2b82	173	173	0.662	0.344	0.622	0.496
1rmw	2b82	174	174	0.15	0.189	0.183	0.171
1rmw	2b82	175	175	0.0	0.0	0.0	0.0
1rmw	2b82	176	176	0.093	0.235	0.056	0.099
1rmw	2b82	177	177	0.172	0.158	0.237	0.259
1rmw	2b82	179	179	0.104	0.2	0.119	0.201
1rmw	2b82	180	180	0.0	0.0	0.0	0.0
1rmw	2b82	181	181	0.0	0.0	0.0	0.0
1rmw	2b82	182	182	0.0	0.003	0.0	0.003
1rmw	2b82	183	183	0.291	0.339	0.572	0.562
1rmw	2b82	184	184	0.63	0.635	0.664	0.774
1rmw	2b82	185	185	0.254	0.21	0.252	0.314
1rmw	2b82	186	186	0.0	0.0	0.0	0.0
1rmw	2b82	187	187	0.0	0.0	0.0	0.0
1rmw	2b82	188	188	0.086	0.081	0.109	0.105
1rmw	2b82	189	189	0.208	0.203	0.196	0.21
1rmw	2b82	190	190	0.523	0.26	0.51	0.799
1rmw	2b82	192	192	0.771	0.865	0.799	0.934
1rmw	2b82	194	194	0.586	0.819	0.589	0.697
1rmw	2b82	196	196	0.395	0.389	0.371	0.389
1rmw	2b82	197	197	0.727	0.719	0.725	0.735
1rmw	2b82	198	198	0.539	0.607	0.454	0.375
1rmw	2b82	199	199	0.536	0.62	0.455	0.708
1rmw	2b82	202	202	0.498	0.648	0.565	0.601
1rmw	2b82	203	203	0.259	0.304	0.278	0.271
1rmw	2b82	204	204	0.398	0.344	0.388	0.553
1rmw	2b82	205	205	0.62	0.659	0.644	0.681
1rmw	2b82	206	206	0.762	0.751	0.781	0.666
1rmw	2b82	207	207	0.007	0.008	0.0	0.0
1rmw	2b82	208	208	0.291	0.267	0.305	0.4
1rmw	2b82	209	209	0.541	0.537	0.562	0.682
1rmw	2b82	210	210	0.338	0.406	0.348	0.374
1rmw	2b82	211	211	0.0	0.0	0.0	0.0
1rmw	2b82	212	212	0.766	0.743	0.771	0.785
1rmw	2b82	213	213	0.0	0.055	0.004	0.016
1rmw	2b82	214	214	0.612	0.553	0.604	0.601
1rmw	2b82	215	215	0.311	0.309	0.296	0.277
1rmw	2b82	216	216	0.027	0.067	0.018	0.071
1rmw	2b82	217	217	0.0	0.0	0.0	0.0
1rmw	2b82	218	218	0.461	0.59	0.451	0.415
1rmw	2b82	219	219	0.065	0.079	0.034	0.04
1rmw	2b82	220	220	0.171	0.147	0.182	0.169
1rmw	2b82	221	221	0.027	0.033	0.03	0.019
1rmw	2b82	222	222	0.0	0.013	0.0	0.001
1rmw	2b82	223	223	0.0	0.001	0.0	0.004
1rmw	2b82	224	224	0.876	0.714	0.886	0.885
1rmw	2b82	226	226	0.332	0.363	0.362	0.36
1rmw	2b82	227	227	0.365	0.379	0.345	0.36
1rmw	2b82	228	228	0.678	0.683	0.634	0.647
1rmw	2b82	229	229	0.532	0.536	0.534	0.537
1rmw	2b82	231	231	0.6	0.6	0.6	0.6
1rmw	2b82	232	232	1.0	1.0	1.0	1.0
1rmw	2b82	233	233	0.33	0.328	0.274	0.275
1rmw	2b82	234	234	0.0	0.0	0.0	0.0
1rmw	2b82	235	235	0.63	0.605	0.631	0.611
1rmw	2b82	236	236	0.85	0.817	0.82	0.8
1rmw	2b82	237	237	0.533	0.57	0.437	0.421
1rmw	2b82	238	238	1.0	0	1.0	0
1rmw	2b82	239	239	0.9	0.9	0.9	0.9
1rmw	2b82	241	241	0.27	0.412	0.281	0.416
1rmw	2b82	242	242	0.286	0.489	0.287	0.451
1rmw	2b82	243	243	0.074	0.068	0.119	0.152
1rmw	2b82	244	244	0.289	0.382	0.23	0.27
1rmw	2b82	245	245	0.0	0.006	0.0	0.002
1rmw	2b82	246	246	0.023	0.023	0.029	0.066
1rmw	2b82	247	247	0.064	0.104	0.066	0.081
1rmw	2b82	248	248	0.174	0.161	0.135	0.143
1rmw	2b82	249	249	0.145	0.133	0.142	0.133
1rmw	2b82	250	250	0.0	0.0	0.0	0.0
1rmw	2b82	251	251	0.0	0.0	0.0	0.0
1rmw	2b82	252	252	0.633	0.633	0.633	0.633
1rmw	2b82	253	253	0.625	0.625	0.6	0.625
1rmw	2b82	255	255	0.872	0.813	0.867	0.679
1rmw	2b82	256	256	0.563	0.571	0.568	0.571
1rmw	2b82	257	257	0.673	0.678	0.682	0.689
1rmw	2b82	258	258	0.767	0.778	0.767	0.778
1rmw	2b82	259	259	0.253	0.243	0.253	0.243
1rmw	2b82	260	260	0.728	0.759	0.786	0.946
1rmw	2b82	261	261	0.747	0.825	0.702	0.72
1rmw	2b82	262	262	0.439	0.443	0.438	0.464
1rmw	2b82	263	263	0.747	0.75	0.748	0.747
1rmw	2b82	264	264	0.454	0.532	0.461	0.383
1rmw	2b82	265	265	0.646	0.639	0.672	0.777
1rmw	2b82	266	266	0.564	0.647	0.603	0.651
1rmw	2b82	267	267	0.0	0.005	0.0	0.001
1rmw	2b82	268	268	0.58	0.564	0.582	0.565
1rmw	2b82	269	269	0.566	0.56	0.568	0.561
1rmw	2b82	270	270	0.953	0.989	0.956	0.989
1rmw	2b82	271	271	0.835	0.819	0.835	0.847
1rmw	2b82	272	272	0.667	0.645	0.668	0.646
1rmw	2b82	273	273	0.631	0.636	0.634	0.636
1rmw	2b82	274	274	0.156	0.151	0.197	0.176
1rmw	2b82	275	275	0.431	0.42	0.435	0.484
1rmw	2b82	276	276	0.512	0.594	0.525	0.559
1rmw	2b82	277	277	0.555	0.616	0.624	0.579
1rmw	2b82	278	278	0.0	0.0	0.0	0.0
1rmw	2b82	279	279	0.271	0.407	0.285	0.34
1rmw	2b82	280	280	0.299	0.364	0.256	0.257
1rmw	2b82	281	281	0.519	0.582	0.554	0.59
1rmw	2b82	282	282	0.527	0.531	0.527	0.531
1rmw	2b82	283	283	0.136	0.203	0.133	0.2
1rmw	2b82	284	284	0.297	0.399	0.296	0.268
1rmw	2b82	285	285	0.064	0.083	0.078	0.109
1rmw	2b82	286	286	0.161	0.146	0.123	0.116
1rmw	2b82	287	287	0.496	0.481	0.485	0.487
1rmw	2b82	288	288	0.209	0.213	0.214	0.274
1rmw	2b82	289	289	0.868	0.918	0.859	0.913
1rmw	2b82	290	290	0.634	0.647	0.632	0.548
1rmw	2b82	291	291	0.584	0.571	0.641	0.749
1rmw	2b82	292	292	0.575	0.76	0.575	0.762
1rmw	2b82	293	293	0.087	0.092	0.148	0.183
1rmw	2b82	294	294	0.693	0.746	0.699	0.697
1rmw	2b82	296	296	0.487	0.827	0.497	0.776
1rmw	2b82	297	297	0.373	0.423	0.277	0.291
1rmw	2b82	298	298	0.682	0.645	0.64	0.764
1rmw	2b82	299	299	0.303	0.329	0.307	0.277
1rmw	2b82	301	301	0.0	0.006	0.0	0.0
1rmw	2b82	302	302	0.722	0.722	0.732	0.737
1rmw	2b82	304	304	0.0	0.0	0.0	0.0
1rmw	2b82	305	305	0.0	0.0	0.0	0.0
1rmw	2b82	306	306	0.819	0.87	0.795	0.822
1rmw	2b82	307	307	0.0	0.0	0.0	0.0
1rmw	2b82	308	308	0.0	0.0	0.0	0.0
1rmw	2b82	309	309	0.0	0.006	0.0	0.021
1rmw	2b82	310	310	0.027	0.042	0.019	0.063
1rmw	2b82	311	311	0.118	0.112	0.112	0.114
1rmw	2b82	312	312	0.129	0.132	0.085	0.088
1rmw	2b82	313	313	0.021	0.014	0.02	0.052
1rmw	2b82	314	314	0.0	0.006	0.0	0.01
1rmw	2b82	315	315	0.212	0.298	0.23	0.289
1rmw	2b82	316	316	0.564	0.552	0.49	0.424
1rmw	2b82	317	317	0.441	0.418	0.373	0.371
1rmw	2b82	318	318	0.0	0.0	0.0	0.0
1rmw	2b82	319	319	0.0	0.0	0.0	0.0
1rmw	2b82	320	320	0.29	0.284	0.29	0.294
1rmw	2b82	321	321	0.027	0.058	0.044	0.071
1rmw	2b82	322	322	0.419	0.421	0.42	0.421
1rmw	2b82	323	323	0.821	0.808	0.828	0.816
1rmw	2b82	324	324	0.558	0.529	0.509	0.516
1rmw	2b82	325	325	0.667	0.667	0.667	0.667
1rmw	2b82	326	326	0.027	0.029	0.012	0.012
1rmw	2b82	327	327	0.0	0.0	0.0	0.0
1rmw	2b82	328	328	0.619	0.7	0.577	0.606
1rmw	2b82	329	329	0.259	0.311	0.326	0.41
1rmw	2b82	330	330	0.0	0.0	0.0	0.0
1rmw	2b82	331	331	0.0	0.0	0.0	0.0
1rmw	2b82	332	332	0.023	0.02	0.069	0.068
1rmw	2b82	333	333	0.504	0.255	0.49	0.259
1rmw	2b82	334	334	0.398	0.496	0.394	0.47
1rmw	2b82	335	335	0.139	0.21	0.149	0.145
1rmw	2b82	336	336	0.032	0.17	0.027	0.2
1rmw	2b82	337	337	0.763	0.745	0.789	0.741
1rmw	2b82	338	338	0.939	0.924	0.905	0.9
1rmw	2b82	339	339	0.406	0.472	0.461	0.426
1rmw	2b82	340	340	0.484	0.482	0.445	0.57
1rmw	2b82	341	341	0.643	0.855	0.643	0.773
1rmw	2b82	342	342	0.625	0.665	0.594	0.638
1rmw	2b82	343	343	0.911	0.905	0.911	0.905
1rmw	2b82	344	344	0.0	0.0	0.0	0.0
1rmw	2b82	345	345	0.0	0.0	0.0	0.0
1rmw	2b82	346	346	0.157	0.193	0.147	0.187
1rmw	2b82	347	347	0.394	0.362	0.419	0.464
1rmw	2b82	348	348	0.582	0.661	0.583	0.818
1rmw	2b82	349	349	0.455	0.449	0.533	0.543
1rmw	2b82	350	350	0.179	0.396	0.207	0.201
1rmw	2b82	351	351	0.321	0.304	0.32	0.305
1rmw	2b82	352	352	0.805	0.786	0.777	0.767
1rmw	2b82	353	353	0.036	0.107	0.058	0.09
1rmw	2b82	354	354	0.484	0.484	0.452	0.456
1rmw	2b82	355	355	0.0	0.0	0.0	0.0
1rmw	2b82	356	356	0.734	0.554	0.752	0.688
1rmw	2b82	357	357	0.579	0.595	0.589	0.592
1rmw	2b82	358	358	0.0	0.006	0.0	0.001
1rmw	2b82	359	359	0.337	0.347	0.305	0.469
1rmw	2b82	360	360	0.048	0.071	0.048	0.055
1rmw	2b82	361	361	0.475	0.646	0.481	0.612
1rmw	2b82	363	363	0.695	0.708	0.698	0.866
1rmw	2b82	364	364	0.667	0.711	0.682	0.759
1rmw	2b82	365	365	0.044	0.048	0.033	0.035
1rmw	2b82	366	366	0.5	0.44	0.459	0.479
1rmw	2b82	367	367	0.75	0.733	0.75	0.733
1rmw	2b82	368	368	0.679	0.641	0.692	0.681
1rmw	2b82	369	369	0.871	0.865	0.865	0.865
1rmw	2b82	370	370	0.911	0.889	0.911	0.889
1rmw	2b82	371	371	0.713	0.705	0.745	0.699
1rmw	2b82	372	372	0.201	0.206	0.235	0.235
1rmw	2b82	373	373	0.435	0.448	0.444	0.526
1rmw	2b82	374	374	0.739	0.805	0.677	0.677
1rmw	2b82	375	375	0.066	0.203	0.069	0.266
1rmw	2b82	376	376	0.024	0.038	0.079	0.078
1rmw	2b82	377	377	0.198	0.176	0.165	0.167
1rmw	2b82	378	378	0.0	0.0	0.0	0.0
1rmw	2b82	379	379	0.0	0.004	0.0	0.014
1rmw	2b82	380	380	0.12	0.044	0.089	0.103
1rmw	2b82	381	381	0.098	0.073	0.066	0.041
1rmw	2b82	382	382	0.253	0.22	0.244	0.24
1rmw	2b82	383	383	0.566	0.548	0.554	0.608
1rmw	2b82	384	384	0.577	0.407	0.621	0.407
1rmw	2b82	385	385	0.493	0.466	0.473	0.539
1rmw	2b82	386	386	0.218	0.357	0.305	0.518
1rmw	2b82	387	387	0.8	0.758	0.879	0.932
1rmw	2b82	388	388	0.837	0.661	0.859	0.86
1rmw	2b82	389	389	0.669	0.826	0.594	0.604
1rmw	2b82	390	390	0.0	0.002	0.0	0.001
1rmw	2b82	391	391	0.653	0.516	0.679	0.761
1rmw	2b82	392	392	0.221	0.224	0.255	0.245
1rmw	2b82	393	393	0.198	0.197	0.18	0.303
1rmw	2b82	394	394	0.099	0.08	0.084	0.084
1rmw	2b82	395	395	0.272	0.193	0.37	0.371
1rmw	2b82	396	396	0.023	0.007	0.03	0.024
1rmw	2b82	397	397	0.561	0.559	0.567	0.779
1rmw	2b82	398	398	0.0	0.0	0.0	0.0
1rmw	2b82	399	399	0.771	0.754	0.775	0.754
1rmw	2b82	400	400	0.727	0.716	0.717	0.716
1rmw	2b82	401	401	0.006	0.004	0.014	0.013
1rmw	2b82	402	402	0.0	0.0	0.0	0.0
1rmw	2b82	403	403	0.0	0.002	0.001	0.007
1rmw	2b82	404	404	0.251	0.261	0.264	0.28
1rmw	2b82	405	405	0.0	0.0	0.0	0.0
1rmw	2b82	406	406	0.0	0.0	0.0	0.0
1rmw	2b82	407	407	0.0	0.0	0.0	0.0
1rmw	2b82	408	408	0.007	0.008	0.015	0.026
1rmw	2b82	409	409	0.888	0.892	0.893	0.811
1rmw	2b82	410	410	0.212	0.21	0.248	0.227
1rmw	2b82	411	411	0.188	0.151	0.15	0.113
1rmw	2b82	412	412	0.0	0.0	0.0	0.0
1rmw	2b82	413	413	0.0	0.0	0.0	0.0
1rmw	2b82	414	414	0.0	0.056	0.0	0.0
1rmw	2b82	415	415	0.0	0.004	0.0	0.015
1rmw	2b82	416	416	0.563	0.72	0.603	0.185
1rmw	2b82	417	417	0.789	0.805	0.8	0.805
1rmw	2b82	418	418	0.0	0.0	0.0	0.0
1rmw	2b82	419	419	0.035	0.032	0.043	0.032
1rmw	2b82	420	420	0.0	0.0	0.0	0.0
1rmw	2b82	421	421	0.552	0.559	0.554	0.559
1rmw	2b82	422	422	0.582	0.541	0.549	0.517
1rmw	2b82	423	423	0.711	0.797	0.337	0.277
1rmw	2b82	424	424	0.54	0.543	0.514	0.529
1rmw	2b82	425	425	0.033	0.158	0.021	0.08
1rmw	2b82	427	427	0.284	0.289	0.295	0.292
1rmw	2b82	428	428	0.915	0.913	0.914	0.912
1rmw	2b82	429	429	0.555	0.684	0.561	0.576
1rmw	2b82	430	430	0.078	0.069	0.081	0.104
1rmw	2b82	431	431	0.0	0.0	0.0	0.01
1rmw	2b82	432	432	0.0	0.0	0.0	0.0
1rmw	2b82	433	433	0.835	0.843	0.799	0.626
1rmw	2b82	434	434	0.516	0.528	0.511	0.511
1rmw	2b82	435	435	0.623	0.64	0.608	0.579
1rmw	2b82	436	436	0.816	0.7	0.828	0.894
1rmw	2b82	437	437	0.0	0.0	0.0	0.0
1rmw	2b82	438	438	0.222	0.245	0.173	0.246
1rmw	2b82	439	439	0.739	0.715	0.749	0.709
1rmw	2b82	440	440	0.0	0.013	0.0	0.013
1rmw	2b82	441	441	0.627	0.488	0.626	0.537
1rmw	2b82	442	442	0.844	0.865	0.814	0.874
1rmw	2b82	443	443	0.336	0.36	0.366	0.384
1rmw	2b82	444	444	0.0	0.0	0.0	0.0
1rmw	2b82	445	445	0.16	0.145	0.151	0.203
1rmw	2b82	446	446	0.504	0.362	0.551	0.553
1rmw	2b82	447	447	0.751	0.818	0.747	0.74
1rmw	2b82	448	448	0.719	0.725	0.721	0.725
1rmw	2b82	449	449	0.532	0.543	0.561	0.57
1rmw	2b82	450	450	0.617	0.606	0.617	0.606
1rmw	2b82	451	451	0.411	0.425	0.497	0.501
1rmw	2b82	452	452	0.0	0.0	0.0	0.0
1rmw	2b82	453	453	0.95	1.0	0.95	1.0
1rmw	2b82	454	454	0.019	0.071	0.047	0.092
1rmw	2b82	455	455	0.623	0.732	0.644	0.795
1rmw	2b82	456	456	0.023	0.036	0.074	0.069
1rmw	2b82	457	457	0.0	0.0	0.0	0.0
1rmw	2b82	458	458	0.346	0.424	0.371	0.43
1rmw	2b82	459	459	0.176	0.184	0.188	0.229
1rmw	2b82	460	460	0.197	0.242	0.172	0.164
1rmw	2b82	461	461	0.543	0.445	0.545	0.493
1rmw	2b82	462	462	0.529	0.691	0.538	0.78
1rmw	2b82	463	463	0.924	0.924	0.924	0.924
1rmw	2b82	464	464	0.547	0.438	0.555	0.54
1rmw	2b82	465	465	0.886	0.906	0.896	0.83
1rmw	2b82	467	467	0.207	0.17	0.194	0.174
1rmw	2b82	468	468	0.881	0.863	0.861	0.79
1rmw	2b82	469	469	0.7	0.65	0.633	0.6
1rmw	2b82	471	471	0.0	0.012	0.0	0.0
1rmw	2b82	472	472	0.027	0.062	0.02	0.071
1rmw	2b82	473	473	0.013	0.03	0.141	0.128
1rmw	2b82	474	474	0.233	0.346	0.204	0.232
1rmw	2b82	475	475	0.0	0.001	0.0	0.006
1rmw	2b82	476	476	0.844	0.874	0.908	0.924
1rmw	2b82	477	477	0.685	0.774	0.71	0.677
1rmw	2b82	479	479	0.333	0.396	0.091	0.177
1rmw	2b82	480	480	0.158	0.182	0.148	0.126
1rmw	2b82	482	482	0.0	0.0	0.0	0.0
1rmw	2b82	483	483	0.843	0.8	0.909	0.83
1rmw	2b82	484	484	0.502	0.532	0.563	0.615
1rmw	2b82	485	485	0.036	0.061	0.04	0.04
1rmw	2b82	486	486	0.647	0.679	0.621	0.724
1rmw	2b82	487	487	0.258	0.269	0.322	0.308
1rmw	2b82	488	488	0.368	0.443	0.353	0.39
1rmw	2b82	489	489	0.608	0.63	0.552	0.536
1rmw	2b82	490	490	0.0	0.008	0.0	0.014
1rmw	2b82	491	491	0.0	0.0	0.0	0.0
1rmw	2b82	492	492	0.076	0.135	0.134	0.192
1rmw	2b82	493	493	0.481	0.598	0.533	0.519
1rmw	2b82	494	494	0.248	0.25	0.222	0.208
1rmw	2b82	495	495	0.202	0.264	0.157	0.265
1rmw	2b82	496	496	0.743	0.745	0.758	0.92
1rmw	2b82	497	497	0.88	0.795	0.884	0.798
1rmw	2b82	498	498	0.0	0.0	0.0	0.0
1rmw	2b82	499	499	0.451	0.413	0.457	0.462
1rmw	2b82	500	500	0.548	0.518	0.531	0.517
1rmw	2b82	501	501	0.349	0.272	0.422	0.283
1rmw	2b82	502	502	0.474	0.475	0.394	0.401
1rmw	2b82	503	503	0.025	0.117	0.013	0.015
1rmw	2b82	504	504	0.354	0.38	0.335	0.323
1rmw	2b82	505	505	0.0	0.02	0.0	0.018
1rmw	2b82	506	506	0.0	0.0	0.0	0.0
1rmw	2b82	507	507	0.0	0.0	0.0	0.0
1rmw	2b82	508	508	0.516	0.415	0.619	0.747
1rmw	2b82	509	509	0.035	0.035	0.039	0.035
1rmw	2b82	510	510	0.0	0.0	0.0	0.0
1rmw	2b82	511	511	0.09	0.103	0.082	0.099
1rmw	2b82	512	512	0.164	0.22	0.147	0.142
1rmw	2b82	514	514	0.167	0.179	0.187	0.184
1rmw	2b82	515	515	0.355	0.415	0.308	0.291
1rmw	2b82	516	516	0.024	0.047	0.03	0.072
1rmw	2b82	517	517	0.384	0.369	0.379	0.381
1rmw	2b82	518	518	0.0	0.0	0.0	0.0
1rmw	2b82	519	519	0.033	0.05	0.059	0.21
1rmw	2b82	520	520	0.047	0.058	0.046	0.09
1rmw	2b82	521	521	0.289	0.349	0.318	0.37
1rmw	2b82	522	522	0.0	0.043	0.0	0.056
1rmw	2b82	523	523	0.167	0.208	0.196	0.344
1rmw	2b82	524	524	0.552	0.582	0.555	0.633
1rmw	2b82	525	525	0.253	0.461	0.228	0.359
1rmw	2b82	526	526	0.0	0.0	0.0	0.0
1rmw	2b82	527	527	0.0	0.0	0.0	0.0
1rmw	2b82	528	528	0.032	0.024	0.009	0.035
1rmw	2b82	529	529	0.34	0.525	0.286	0.394
1rmw	2b82	530	530	0.249	0.25	0.22	0.299
1rmw	2b82	531	531	0.614	0.656	0.618	0.656
1rmw	2b82	532	532	0.434	0.418	0.427	0.462
1rmw	2b82	534	534	0.9	0.833	0.9	0.833
1rmw	2b82	535	535	0.027	0.023	0.016	0.016
1rmw	2b82	536	536	0.0	0.0	0.0	0.0
1rmw	2b82	537	537	0.169	0.195	0.173	0.206
1rmw	2b82	538	538	0.021	0.037	0.036	0.045
1rmw	2b82	539	539	0.044	0.047	0.041	0.116
1rmw	2b82	540	540	0.0	0.0	0.0	0.0
1rmw	2b82	541	541	0.046	0.16	0.042	0.131
1rmw	2b82	542	542	0.123	0.125	0.118	0.124
1rmw	2b82	543	543	0.802	0.746	0.789	0.726
1rmw	2b82	544	544	0.0	0.0	0.0	0.0
1rmw	2b82	545	545	0.314	0.334	0.318	0.334
1rmw	2b82	546	546	0.495	0.489	0.492	0.489
1rmw	2b82	547	547	0.774	0.617	0.785	0.616
1rmw	2b82	548	548	0.17	0.179	0.198	0.195
1rmw	2b82	549	549	0.906	0.894	0.92	0.823
1rmw	2b82	550	550	0.85	0.851	0.85	0.851
1rmw	2b82	551	551	0.242	0.237	0.217	0.214
1rmw	2b82	552	552	0.648	0.848	0.614	0.786
1rmw	2b82	553	553	0.756	0.804	0.756	0.804
1rmw	2b82	554	554	0.368	0.476	0.357	0.332
1rmw	2b82	555	555	0.883	0.667	0.9	0.667
1rmw	2b82	556	556	1.0	0	1.0	0
1rmw	2b82	557	557	0.589	0.539	0.561	0.602
1rmw	2b82	558	558	0.882	0.855	0.888	0.908
1rmw	2b82	559	559	0.759	0.748	0.754	0.706
1rmw	2b82	560	560	0.0	0.0	0.0	0.0
1rmw	2b82	561	561	0.711	0.61	0.708	0.756
1rmw	2b82	562	562	0.862	0.864	0.894	0.914
1rmw	2b82	563	563	0.0	0.0	0.0	0.0
1rmw	2b82	564	564	0.202	0.19	0.143	0.201
1rmw	2b82	565	565	0.539	0.572	0.545	0.612
1rmw	2b82	566	566	0.192	0.273	0.176	0.208
1rmw	2b82	567	567	0.471	0.399	0.443	0.41
1rmw	2b82	568	568	0.069	0.081	0.081	0.059
1rmw	2b82	569	569	0.067	0.121	0.063	0.109
1rmw	2b82	570	570	0.578	0.585	0.585	0.585
1rmw	2b82	571	571	0.0	0.001	0.0	0.0
1rmw	2b82	572	572	0.294	0.463	0.312	0.478
1rmw	2b82	573	573	0.508	0.445	0.505	0.445
1rmw	2b82	574	574	0.097	0.137	0.097	0.075
1rmw	2b82	576	576	0.261	0.301	0.211	0.221
1rmw	2b82	578	578	0.018	0.017	0.009	0.023
1rmw	2b82	579	579	0.857	0.904	0.862	0.809
1rmw	2b82	580	580	0.004	0.005	0.01	0.012
1rmw	2b82	582	582	0.867	0.838	0.871	0.847
1rmw	2b82	583	583	0.0	0.0	0.0	0.0
1rmw	2b82	584	584	0.624	0.54	0.639	0.571
1rmw	2b82	585	585	0.611	0.695	0.538	0.59
1rmw	2b82	586	586	0.593	0.618	0.627	0.757
1rmw	2b82	587	587	0.442	0.461	0.447	0.525
1rmw	2b82	588	588	0.597	0.623	0.557	0.544
1rmw	2b82	589	589	0.48	0.546	0.492	0.723
1rmw	2b82	590	590	0.533	0.481	0.541	0.512
1rmw	2b82	591	591	0.06	0.101	0.087	0.091
1rmw	2b82	592	592	0.638	0.636	0.633	0.636
1rmw	2b82	593	593	0.794	0.803	0.787	0.799
1rmw	2b82	594	594	0.967	0.967	0.867	0.833
1rmw	2b82	595	595	0.013	0.017	0.016	0.019
1rmw	2b82	596	596	0.084	0.082	0.11	0.099
1rmw	2b82	597	597	0.035	0.055	0.05	0.085
1rmw	2b82	598	598	0.114	0.161	0.139	0.192
1rmw	2b82	599	599	0.199	0.191	0.183	0.174
1rmw	2b82	600	600	0.68	0.693	0.647	0.54
1rmw	2b82	601	601	0.335	0.589	0.337	0.443
1rmw	2b82	602	602	0.108	0.111	0.128	0.2
1rmw	2b82	603	603	0.746	0.749	0.721	0.822
1rmw	2b82	604	604	0.348	0.342	0.272	0.214
1rmw	2b82	605	605	0.124	0.208	0.093	0.102
1rmw	2b82	606	606	0.0	0.016	0.0	0.007
1rmw	2b82	607	607	0.336	0.332	0.313	0.478
1rmw	2b82	608	608	0.2	0.301	0.185	0.191
1rmw	2b82	609	609	0.823	0.847	0.773	0.801
1rmw	2b82	610	610	0.009	0.006	0.0	0.029
1rmw	2b82	611	611	0.07	0.13	0.054	0.076
1rmw	2b82	612	612	0.578	0.379	0.615	0.738
1rmw	2b82	613	613	0.041	0.051	0.033	0.049
1rmw	2b82	614	614	0.643	0.645	0.646	0.627
1rmw	2b82	615	615	0.469	0.652	0.434	0.616
1rmw	2b82	616	616	0.376	0.381	0.388	0.394
1rmw	2b82	617	617	0.758	0.755	0.778	0.771
1rmw	2b82	618	618	0.533	0.579	0.515	0.553
1rmw	2b82	619	619	0.909	0.909	0.909	0.909
1rmw	2b82	623	623	0.001	0.003	0.003	0.003
1rmw	2b82	625	625	0.733	0.733	0.733	0.733
1rmw	2b82	626	626	0.169	0.195	0.21	0.257
1rmw	2b82	627	627	0.585	0.743	0.608	0.612
1rmw	2b82	628	628	0.546	0.588	0.545	0.538
1rmw	2b82	629	629	0.0	0.0	0.008	0.005
1rmw	2b82	630	630	0.322	0.3	0.309	0.322
1rmw	2b82	631	631	0.609	0.695	0.564	0.62
1rmw	2b82	632	632	0.194	0.123	0.221	0.124
1rmw	2b82	633	633	0.34	0.352	0.376	0.37
1rmw	2b82	635	635	0.75	0.725	0.75	0.725
1rmw	2b82	636	636	1.0	0	1.0	0
1rmw	2b82	637	637	0.395	0.31	0.456	0.461
1rmw	2b82	638	638	0.015	0.024	0.005	0.003
1rmw	2b82	639	639	0.0	0.031	0.0	0.004
1rmw	2b82	640	640	0.062	0.038	0.055	0.022
1rmw	2b82	641	641	0.307	0.531	0.261	0.221
1rmw	2b82	642	642	0.025	0.051	0.026	0.058
1rmw	2b82	643	643	0.731	0.748	0.758	0.764
1rmw	2b82	644	644	0.349	0.356	0.353	0.355
1rmw	2b82	645	645	0.214	0.229	0.217	0.229
1rmw	2b82	646	646	0.093	0.151	0.094	0.172
1rmw	2b82	647	647	0.592	0.496	0.57	0.45
1rmw	2b82	648	648	0.032	0.071	0.029	0.02
1rmw	2b82	649	649	0.775	0.775	0.775	0.775
1rmw	2b82	650	650	0.502	0.528	0.502	0.5
1rmw	2b82	651	651	0.811	0.798	0.838	0.721
1rmw	2b82	652	652	0.81	0.843	0.833	0.828
1rmw	2b82	653	653	0.887	0.933	0.869	0.861
1rmw	2b82	654	654	0.678	0.678	0.678	0.678
1rmw	2b82	655	655	0.742	0.738	0.741	0.738
1rmw	2b82	656	656	0.727	0.724	0.73	0.724
1rmw	2b82	657	657	0.623	0.618	0.62	0.618
1rmw	2b82	658	658	0.889	0.889	0.879	0.893
1rmw	2b82	659	659	0.587	0.582	0.556	0.552
1rmw	2b82	660	660	0.752	0.723	0.748	0.731
1rmw	2b82	661	661	0.687	0.737	0.687	0.737
1rmw	2b82	662	662	0.662	0.672	0.651	0.667
1rmw	2b82	663	663	0.288	0.271	0.33	0.235
1rmw	2b82	664	664	0.867	0.805	0.826	0.789
1rmw	2b82	665	665	0.249	0.247	0.257	0.255
1rmw	2b82	667	667	0.328	0.339	0.225	0.239
1rmw	2b82	668	668	0.025	0.039	0.029	0.026
1rmw	2b82	669	669	0.191	0.191	0.194	0.191
1rmw	2b82	670	670	0.475	0.477	0.474	0.477
1rmw	2b82	671	671	0.0	0.0	0.0	0.0
1rmw	2b82	672	672	0.267	0.313	0.274	0.36
1rmw	2b82	673	673	0.633	0.787	0.615	0.672
1rmw	2b82	674	674	0.589	0.685	0.58	0.674
1rmw	2b82	675	675	0.728	0.689	0.685	0.658
1rmw	2b82	676	676	0.0	0.007	0.0	0.0
1rmw	2b82	677	677	0.0	0.0	0.0	0.0
1rmw	2b82	678	678	0.228	0.256	0.232	0.174
1rmw	2b82	679	679	0.019	0.135	0.033	0.089
1rmw	2b82	680	680	0.0	0.0	0.0	0.0
1rmw	2b82	681	681	0.43	0.48	0.442	0.527
1rmw	2b82	682	682	0.036	0.14	0.027	0.02
1rmw	2b82	683	683	0.733	0.738	0.712	0.727
1rmw	2b82	684	684	0.496	0.467	0.455	0.546
1rmw	2b82	685	685	0.919	0.915	0.919	0.919
1rmw	2b82	686	686	0.66	0.527	0.56	0.557
1rmw	2b82	687	687	0.248	0.279	0.251	0.146
1rmw	2b82	688	688	0.297	0.563	0.316	0.329
1rmw	2b82	689	689	0.58	0.636	0.583	0.591
1rmw	2b82	690	690	0.877	0.881	0.88	0.884
1rmw	2b82	691	691	0.551	0.346	0.565	0.687
1rmw	2b82	692	692	0.644	0.522	0.596	0.524
1rmw	2b82	693	693	0.777	0.84	0.792	0.83
1rmw	2b82	694	694	1.0	0	1.0	0
1rmw	2b82	695	695	0.857	0.9	0.863	0.863
1rmw	2b82	696	696	0.8	1.0	0.8	1.0
1rmw	2b82	697	697	0.9	0.933	0.9	0.933
1rmw	2b82	698	698	0.689	0.1	0.678	0.1
1rmw	2b82	699	699	0.936	0.671	0.946	0.692
1rmw	2b82	701	701	0.85	0.85	0.85	0.85
1rmw	2b82	703	703	0.787	0.86	0.779	0.714
1rmw	2b82	704	704	0.855	0.918	0.844	0.9
1rmw	2b82	705	705	0.788	0.778	0.79	0.778
1rmw	2b82	706	706	0.323	0.274	0.201	0.286
1rmw	2b82	707	707	0.129	0.131	0.13	0.131
1rmw	2b82	708	708	0.119	0.119	0.1	0.136
1rmw	2b82	710	710	0.183	0.192	0.207	0.226
1rmw	2b82	711	711	0.854	0.861	0.854	0.861
1rmw	2b82	712	712	0.836	0.843	0.843	0.843
1rmw	2b82	713	713	0.351	0.349	0.369	0.362
1rmw	2b82	714	714	0.0	0.0	0.0	0.0
1rmw	2b82	715	715	0.95	0.55	0.933	0.5
1rmw	2b82	716	716	0.06	0.053	0.053	0.096
1rmw	2b82	717	717	0.365	0.487	0.298	0.304
1rmw	2b82	718	718	0.16	0.21	0.173	0.321
1rmw	2b82	719	719	0.166	0.313	0.165	0.182
1rmw	2b82	720	720	0.544	0.547	0.545	0.547
1rmw	2b82	721	721	0.849	0.892	0.863	0.92
1rmw	2b82	722	722	0.482	0.706	0.525	0.555
1rmw	2b82	723	723	0.141	0.144	0.127	0.106
1rmw	2b82	724	724	0.399	0.24	0.427	0.422
1rmw	2b82	725	725	0.809	0.68	0.846	0.887
1rmw	2b82	726	726	0.461	0.483	0.483	0.52
1rmw	2b82	727	727	0.412	0.383	0.345	0.333
1rmw	2b82	728	728	0.683	0.678	0.682	0.698
1rmw	2b82	729	729	0.0	0.0	0.0	0.0
1rmw	2b82	730	730	0.453	0.485	0.473	0.624
1rmw	2b82	731	731	0.302	0.42	0.262	0.364
1rmw	2b82	732	732	0.748	0.693	0.741	0.693
1rmw	2b82	733	733	0.082	0.089	0.075	0.104
1rmw	2b82	734	734	0.0	0.0	0.0	0.0
1rmw	2b82	735	735	0.32	0.422	0.329	0.513
1rmw	2b82	736	736	0.625	0.501	0.564	0.393
1rmw	2b82	737	737	0.541	0.616	0.518	0.596
1rmw	2b82	738	738	0.722	0.797	0.706	0.813
1rmw	2b82	739	739	0.422	0.557	0.385	0.346
1rmw	2b82	740	740	0.159	0.162	0.154	0.152
1rmw	2b82	741	741	0.197	0.262	0.235	0.289
1rmw	2b82	742	742	0.258	0.318	0.328	0.437
1rmw	2b82	743	743	0.471	0.629	0.52	0.63
1rmw	2b82	744	744	0.461	0.609	0.379	0.396
1rmw	2b82	745	745	0.758	0.738	0.785	0.734
1rmw	2b82	746	746	0.428	0.455	0.363	0.405
1rmw	2b82	747	747	0.156	0.197	0.241	0.242
1rmw	2b82	748	748	0.656	0.246	0.627	0.65
1rmw	2b82	749	749	0.807	0.843	0.824	0.868
1rmw	2b82	750	750	0.836	0.739	0.873	0.834
1rmw	2b82	751	751	0.682	0.541	0.684	0.341
1rmw	2b82	752	752	0.438	0.444	0.44	0.444
1rmw	2b82	753	753	0.274	0.378	0.312	0.378
1rmw	2b82	754	754	0.029	0.041	0.016	0.043
1rmw	2b82	756	756	0.74	0.772	0.803	0.822
1rmw	2b82	757	757	0.606	0.605	0.619	0.618
1rmw	2b82	758	758	0.022	0.029	0.034	0.07
1rmw	2b82	759	759	0.81	0.81	0.875	0.82
1rmw	2b82	760	760	0.753	0.782	0.755	0.782
1rmw	2b82	761	761	0.0	0.001	0.0	0.007
1rmw	2b82	762	762	0.466	0.404	0.481	0.78
1rmw	2b82	763	763	0.631	0.682	0.568	0.608
1rmw	2b82	764	764	0.546	0.553	0.557	0.72
1rmw	2b82	765	765	0.637	0.634	0.669	0.665
1rmw	2b82	766	766	0.786	0.86	0.788	0.944
1rmw	2b82	767	767	0.0	0.0	0.0	0.0
1rmw	2b82	768	768	0.369	0.381	0.387	0.383
1rmw	2b82	770	770	0.7	0.776	0.697	0.71
1rmw	2b82	771	771	0.407	0.398	0.372	0.407
1rmw	2b82	772	772	0.607	0.598	0.274	0.254
1rmw	2b82	773	773	0.881	0.931	0.844	0.886
1rmw	2b82	774	774	0.0	0.0	0.0	0.0
1rmw	2b82	775	775	0.395	0.392	0.418	0.673
1rmw	2b82	776	776	0.389	0.411	0.362	0.469
1rmw	2b82	777	777	0.471	0.471	0.471	0.471
1rmw	2b82	778	778	0.041	0.042	0.096	0.1
1rmw	2b82	779	779	0.082	0.073	0.045	0.049
1rmw	2b82	780	780	0.0	0.0	0.0	0.0
1rmw	2b82	781	781	0.302	0.304	0.3	0.299
1rmw	2b82	782	782	0.156	0.238	0.132	0.226
1rmw	2b82	783	783	0.0	0.0	0.0	0.0
1rmw	2b82	784	784	0.195	0.198	0.244	0.24
1rmw	2b82	785	785	0.314	0.355	0.326	0.36
1rmw	2b82	786	786	0.438	0.449	0.439	0.449
1rmw	2b82	787	787	0.252	0.236	0.277	0.325
1rmw	2b82	788	788	0.091	0.09	0.08	0.071
1rmw	2b82	789	789	0.356	0.35	0.352	0.327
1rmw	2b82	790	790	0.292	0.295	0.237	0.239
1rmw	2b82	791	791	0.379	0.383	0.38	0.383
1rmw	2b82	792	792	0.29	0.351	0.261	0.254
1rmw	2b82	793	793	0.762	0.732	0.801	0.652
1rmw	2b82	794	794	0.0	0.0	0.0	0.0
1rmw	2b82	795	795	0.152	0.152	0.185	0.33
1rmw	2b82	796	796	0.631	0.624	0.631	0.624
1rmw	2b82	797	797	0.379	0.522	0.337	0.293
1rmw	2b82	798	798	0.781	0.74	0.794	0.828
1rmw	2b82	799	799	0.316	0.272	0.308	0.267
1rmw	2b82	800	800	0.763	0.783	0.748	0.74
1rmw	2b82	801	801	0.5	0.512	0.506	0.512
1rmw	2b82	802	802	0.094	0.067	0.081	0.121
1rmw	2b82	803	803	0.216	0.25	0.232	0.274
1rmw	2b82	804	804	1.0	0	1.0	0
1rmw	2b82	805	805	0.675	0.662	0.662	0.662
1rmw	2b82	806	806	0.6	0.617	0.617	0.617
1rmw	2b82	807	807	0.695	0.802	0.696	0.802
1rmw	2b82	809	809	0.696	0.714	0.7	0.724
1rmw	2b82	811	811	0.387	0.431	0.387	0.422
1rmw	2b82	812	812	1.0	0.925	0.857	0.714
1rmw	2b82	813	813	0.272	0.568	0.303	0.304
1rmw	2b82	814	814	0.468	0.464	0.472	0.464
1rmw	2b82	815	815	0.736	0.831	0.727	0.829
1rmw	2b82	816	816	0.639	0.689	0.607	0.645
1rmw	2b82	817	817	0.076	0.07	0.075	0.07
1rmw	2b82	818	818	0.243	0.312	0.284	0.156
1rmw	2b82	819	819	0.533	0.739	0.505	0.579
1rmw	2b82	820	820	0.603	0.608	0.526	0.606
1rmw	2b82	821	821	0.034	0.036	0.046	0.048
1rmw	2b82	822	822	0.395	0.408	0.395	0.408
1rmw	2b82	823	823	0.077	0.075	0.075	0.075
1rmw	2b82	824	824	0.541	0.454	0.484	0.489
1rmw	2b82	825	825	0.0	0.0	0.0	0.0
1rmw	2b82	826	826	0.057	0.108	0.061	0.146
1rmw	2b82	828	828	0.079	0.19	0.1	0.288
1rmw	2b82	829	829	0.145	0.159	0.146	0.159
1rmw	2b82	830	830	0.827	0.857	0.853	0.805
1rmw	2b82	831	831	0.465	0.462	0.483	0.483
1rmw	2b82	832	832	0.373	0.37	0.369	0.367
1rmw	2b82	833	833	0.402	0.56	0.464	0.63
1rmw	2b82	834	834	0.633	0.688	0.709	0.751
1rmw	2b82	835	835	0.0	0.0	0.0	0.0
1rmw	2b82	836	836	0.131	0.13	0.124	0.115
1rmw	2b82	837	837	0.864	0.889	0.871	0.885
1rmw	2b82	838	838	0.3	0.291	0.261	0.391
1rmw	2b82	839	839	0.017	0.021	0.057	0.2
1rmw	2b82	840	840	0.195	0.198	0.202	0.209
1rmw	2b82	841	841	0.524	0.408	0.559	0.528
1rmw	2b82	842	842	0.464	0.657	0.433	0.404
1rmw	2b82	843	843	0.229	0.12	0.189	0.172
1rmw	2b82	844	844	0.114	0.074	0.091	0.079
1rmw	2b82	845	845	0.005	0.063	0.026	0.033
1rmw	2b82	846	846	0.382	0.471	0.374	0.373
1rmw	2b82	847	847	0.503	0.479	0.519	0.683
1rmw	2b82	848	848	0.192	0.188	0.127	0.128
1rmw	2b82	849	849	0.323	0.31	0.325	0.313
1rmw	2b82	850	850	0.713	0.75	0.713	0.75
1rmw	2b82	851	851	0.628	0.631	0.665	0.664
1rmw	2b82	852	852	0.722	0.768	0.774	0.856
1rmw	2b82	853	853	0.232	0.242	0.247	0.305
1rmw	2b82	854	854	0.867	0.894	0.857	0.862
1rmw	2b82	855	855	0.587	0.606	0.591	0.606
1rmw	2b82	856	856	0.226	0.232	0.229	0.233
1rmw	2b82	857	857	0.98	0.873	0.976	0.559
1rmw	2b82	858	858	0.888	0.906	0.879	0.909
1rmw	2b82	859	859	0.544	0.344	0.509	0.237
1rmw	2b82	860	860	0.375	0.365	0.388	0.509
1rmw	2b82	861	861	0.0	0.0	0.0	0.0
1rmw	2b82	862	862	0.089	0.057	0.018	0.009
1rmw	2b82	864	864	0.467	0.445	0.469	0.445
1rmw	2b82	865	865	0.623	0.593	0.645	0.598
1rmw	2b82	866	866	0.489	0.493	0.491	0.493
1rmw	2b82	867	867	0.7	0.7	0.7	0.7
1rmw	2b82	868	868	0.729	0.78	0.732	0.782
1rmw	2b82	869	869	0.667	0.846	0.653	0.812
1rmw	2b82	870	870	0.136	0.146	0.151	0.155
1rmw	2b82	871	871	0.002	0.011	0.0	0.014
1rmw	2b82	873	873	0.263	0.299	0.288	0.292
1rmw	2b82	876	876	0.0	0.0	0.0	0.0
1rmw	2b82	877	877	0.0	0.0	0.0	0.0
1rmw	2b82	878	878	0.0	0.0	0.0	0.0
1rmw	2b82	879	879	0.245	0.21	0.249	0.195
1rmw	2b82	880	880	0.651	0.626	0.652	0.647
1rmw	2b82	881	881	0.234	0.289	0.24	0.283
1rmw	2b82	882	882	0.0	0.0	0.0	0.0
1rmw	2b82	883	883	0.0	0.0	0.0	0.0
1rmw	2b82	884	884	0.719	0.681	0.73	0.681
1rmw	2b82	885	885	0.012	0.024	0.008	0.023
1rmw	2b82	886	886	0.517	0.49	0.471	0.459
1rmw	2b82	888	888	0.723	0.846	0.804	0.87
1rmw	2b82	889	889	0.687	0.699	0.688	0.682
1rmw	2b82	890	890	0.576	0.843	0.575	0.823
1rmw	2b82	891	891	0.305	0.512	0.279	0.502
1rmw	2b82	892	892	0.552	0.526	0.534	0.525
1rmw	2b82	893	893	0.732	0.671	0.724	0.658
1rmw	2b82	894	894	0.503	0.505	0.458	0.42
1rmw	2b82	895	895	0.835	0.753	0.819	0.824
1rmw	2b82	896	896	0.481	0.365	0.503	0.461
1rmw	2b82	897	897	0.23	0.286	0.214	0.22
1rmw	2b82	898	898	0.567	0.735	0.519	0.618
1rmw	2b82	899	899	0.324	0.432	0.264	0.329
1rmw	2b82	900	900	0.385	0.363	0.38	0.616
1rmw	2b82	901	901	0.865	0.602	0.845	0.758
1rmw	2b82	902	902	0.815	0.689	0.822	0.894
1rmw	2b82	903	903	0.004	0.002	0.0	0.0
1rmw	2b82	904	904	0.277	0.366	0.347	0.477
1rmw	2b82	905	905	0.596	0.6	0.551	0.549
1rmw	2b82	906	906	0.346	0.438	0.347	0.483
1rmw	2b82	907	907	0.0	0.0	0.0	0.0
1rmw	2b82	908	908	0.75	0.763	0.782	0.775
1rmw	2b82	909	909	0.007	0.077	0.001	0.052
1rmw	2b82	910	910	0.621	0.532	0.6	0.587
1rmw	2b82	911	911	0.265	0.252	0.279	0.326
1rmw	2b82	912	912	0.407	0.297	0.437	0.41
1rmw	2b82	913	913	0.0	0.0	0.0	0.0
1rmw	2b82	914	914	0.256	0.369	0.314	0.305
1rmw	2b82	915	915	0.037	0.032	0.04	0.055
1rmw	2b82	916	916	0.211	0.177	0.196	0.111
1rmw	2b82	917	917	0.024	0.024	0.022	0.015
1rmw	2b82	918	918	0.0	0.019	0.0	0.0
1rmw	2b82	919	919	0.0	0.001	0.0	0.001
1rmw	2b82	920	920	0.859	0.759	0.9	0.565
1rmw	2b82	921	921	0.295	0.306	0.303	0.232
1rmw	2b82	923	923	0.37	0.394	0.387	0.418
1rmw	2b82	924	924	0.679	0.69	0.666	0.684
1rmw	2b82	925	925	0.541	0.545	0.577	0.582
1rmw	2b82	926	926	0.201	0.204	0.142	0.137
1rmw	2b82	927	927	0.567	0.6	0.6	0.6
1rmw	2b82	928	928	1.0	1.0	1.0	0
1rmw	2b82	929	929	0.312	0.318	0.281	0.284
1rmw	2b82	930	930	0.0	0.0	0.0	0.0
1rmw	2b82	931	931	0.612	0.611	0.622	0.663
1rmw	2b82	934	934	0.725	0.742	0.671	0.681
1rmw	2b82	935	935	0.9	0.9	0.9	0.9
1rmw	2b82	938	938	0.337	0.403	0.289	0.336
1rmw	2b82	940	940	0.255	0.257	0.253	0.374
1rmw	2b82	941	941	0.0	0.001	0.0	0.001
1rmw	2b82	942	942	0.03	0.143	0.043	0.085
1rmw	2b82	943	943	0.078	0.127	0.068	0.129
1rmw	2b82	944	944	0.166	0.215	0.172	0.174
1rmw	2b82	945	945	0.14	0.132	0.144	0.132
1rmw	2b82	946	946	0.0	0.0	0.0	0.0
1rmw	2b82	947	947	0.0	0.0	0.0	0.0
1rmw	2b82	948	948	0.633	0.6	0.633	0.6
1rmw	2b82	949	949	0.933	0.8	0.933	0.8
1rmw	2b82	950	950	0.126	0.151	0.15	0.171
1rmw	2b82	951	951	0.852	0.817	0.857	0.845
1rmw	2b82	952	952	0.552	0.571	0.553	0.571
1rmw	2b82	953	953	0.666	0.709	0.713	0.755
1rmw	2b82	954	954	0.77	0.784	0.775	0.784
1rmw	2b82	956	956	0.743	0.682	0.784	0.787
1rmw	2b82	957	957	0.679	0.687	0.692	0.765
1rmw	2b82	958	958	0.448	0.437	0.476	0.479
1rmw	2b82	959	959	0.227	0.234	0.223	0.234
1rmw	2b82	960	960	0.43	0.422	0.392	0.367
1rmw	2b82	962	962	0.59	0.601	0.548	0.553
1rmw	2b82	963	963	0.288	0.309	0.307	0.282
1rmw	2b82	964	964	0.685	0.635	0.672	0.613
1rmw	2b82	965	965	0.549	0.492	0.551	0.494
1rmw	2b82	966	966	0.603	0.544	0.62	0.473
1rmw	2b82	967	967	0.792	0.805	0.795	0.844
1rmw	2b82	968	968	0.711	0.718	0.712	0.718
1rmw	2b82	969	969	0.595	0.614	0.594	0.614
1rmw	2b82	970	970	0.178	0.168	0.159	0.184
1rmw	2b82	971	971	0.497	0.524	0.492	0.576
1rmw	2b82	972	972	0.524	0.742	0.547	0.612
1rmw	2b82	973	973	0.563	0.501	0.454	0.445
1rmw	2b82	974	974	0.0	0.0	0.0	0.0
1rmw	2b82	975	975	0.024	0.017	0.057	0.062
1rmw	2b82	976	976	0.247	0.305	0.31	0.303
1rmw	2b82	977	977	0.517	0.63	0.507	0.548
1rmw	2b82	978	978	0.521	0.523	0.525	0.523
1rmw	2b82	981	981	0.089	0.207	0.059	0.11
1rmw	2b82	982	982	0.183	0.145	0.141	0.308
1rmw	2b82	983	983	0.392	0.536	0.417	0.44
1rmw	2b82	984	984	0.216	0.218	0.225	0.23
1rmw	2b82	985	985	0.717	0.713	0.585	0.586
1rmw	2b82	989	989	0.137	0.151	0.108	0.105
1rmw	2b82	991	991	0.58	0.646	0.505	0.594
1rmw	2b82	992	992	0.471	0.625	0.496	0.737
1rmw	2b82	993	993	0.327	0.343	0.262	0.294
1rmw	2b82	994	994	0.63	0.843	0.674	0.883
1rmw	2b82	995	995	0.27	0.271	0.328	0.288
1rmw	2b82	996	996	0.0	0.0	0.0	0.0
1rmw	2b82	997	997	0.0	0.0	0.0	0.0
1rmw	2b82	998	998	0.717	0.717	0.717	0.717
1rmw	2b82	999	999	0.0	0.717	0.0	0.0
1rmw	2b82	1000	1000	0.0	0.0	0.0	0.002
1rmw	2b82	1001	1001	0.0	0.0	0.0	0.0
1rmw	2b82	1002	1002	0.456	0.415	0.428	0.374
1rmw	2b82	1003	1003	0.0	0.0	0.0	0.0
1rmw	2b82	1004	1004	0.0	0.0	0.0	0.0
1rmw	2b82	1005	1005	0.0	0.007	0.0	0.008
1rmw	2b82	1006	1006	0.033	0.119	0.025	0.053
1rmw	2b82	1007	1007	0.142	0.206	0.032	0.113
1rmw	2b82	1008	1008	0.123	0.125	0.154	0.164
1rmw	2b82	1009	1009	0.033	0.1	0.033	0.046
1rmw	2b82	1010	1010	0.0	0.004	0.013	0.008
1rmw	2b82	1011	1011	0.186	0.234	0.194	0.305
1rmw	2b82	1012	1012	0.496	0.598	0.516	0.565
1rmw	2b82	1014	1014	0.0	0.0	0.0	0.0
1rmw	2b82	1015	1015	0.0	0.0	0.0	0.0
1rmw	2b82	1016	1016	0.28	0.297	0.324	0.331
1rmw	2b82	1017	1017	0.258	0.255	0.284	0.332
1rmw	2b82	1018	1018	0.402	0.402	0.403	0.402
1rmw	2b82	1019	1019	0.9	0.967	0.9	0.967
1rmw	2b82	1020	1020	0.512	0.448	0.497	0.47
1rmw	2b82	1021	1021	0.667	0.667	0.667	0.667
1rmw	2b82	1022	1022	0.0	0.0	0.0	0.0
1rmw	2b82	1023	1023	0.0	0.0	0.0	0.0
1rmw	2b82	1024	1024	0.553	0.606	0.58	0.528
1rmw	2b82	1025	1025	0.159	0.268	0.176	0.242
1rmw	2b82	1026	1026	0.0	0.0	0.0	0.0
1rmw	2b82	1027	1027	0.0	0.0	0.0	0.0
1rmw	2b82	1028	1028	0.0	0.0	0.0	0.0
1rmw	2b82	1029	1029	0.117	0.144	0.127	0.176
1rmw	2b82	1030	1030	0.4	0.494	0.404	0.404
1rmw	2b82	1031	1031	0.138	0.264	0.153	0.167
1rmw	2b82	1032	1032	0.051	0.05	0.052	0.077
1rmw	2b82	1033	1033	0.822	0.788	0.697	0.645
1rmw	2b82	1034	1034	0.904	0.904	0.88	0.88
1rmw	2b82	1035	1035	0.66	0.707	0.628	0.715
1rmw	2b82	1036	1036	0.357	0.313	0.381	0.361
1rmw	2b82	1037	1037	0.653	0.844	0.646	0.712
1rmw	2b82	1038	1038	0.859	0.739	0.884	0.747
1rmw	2b82	1040	1040	0.0	0.0	0.0	0.0
1rmw	2b82	1041	1041	0.0	0.0	0.0	0.0
1rmw	2b82	1042	1042	0.0	0.082	0.0	0.01
1rmw	2b82	1043	1043	0.312	0.316	0.365	0.382
1rmw	2b82	1044	1044	0.097	0.276	0.099	0.168
1rmw	2b82	1045	1045	0.432	0.439	0.44	0.443
1rmw	2b82	1046	1046	0.203	0.283	0.2	0.2
1rmw	2b82	1047	1047	0.305	0.295	0.306	0.295
1rmw	2b82	1048	1048	0.784	0.775	0.796	0.76
1rmw	2b82	1049	1049	0.064	0.069	0.032	0.058
1rmw	2b82	1050	1050	0.511	0.48	0.454	0.458
1rmw	2b82	1051	1051	0.0	0.0	0.0	0.0
1rmw	2b82	1052	1052	0.741	0.776	0.71	0.664
1rmw	2b82	1053	1053	0.468	0.517	0.467	0.472
1rmw	2b82	1054	1054	0.0	0.013	0.0	0.018
1rmw	2b82	1055	1055	0.328	0.349	0.35	0.363
1rmw	2b82	1056	1056	0.036	0.059	0.054	0.071
1rmw	2b82	1058	1058	0.429	0.439	0.426	0.436
1rmw	2b82	1059	1059	0.681	0.639	0.748	0.726
1rmw	2b82	1060	1060	0.175	0.246	0.192	0.227
1rmw	2b82	1061	1061	0.047	0.059	0.037	0.042
1rmw	2b82	1063	1063	0.754	0.754	0.754	0.754
1rmw	2b82	1064	1064	0.652	0.565	0.675	0.583
1rmw	2b82	1065	1065	0.853	0.865	0.865	0.865
1rmw	2b82	1066	1066	0.88	0.9	0.88	0.9
1rmw	2b82	1067	1067	0.714	0.822	0.694	0.734
1rmw	2b82	1069	1069	0.417	0.353	0.413	0.455
1rmw	2b82	1070	1070	0.785	0.785	0.743	0.659
1rmw	2b82	1072	1072	0.117	0.088	0.08	0.046
1rmw	2b82	1074	1074	0.0	0.023	0.0	0.053
1rmw	2b82	1077	1077	0.092	0.1	0.1	0.096
1rmw	2b82	1078	1078	0.247	0.28	0.226	0.262
1rmw	2b82	1079	1079	0.584	0.537	0.528	0.57
1rmw	2b82	1080	1080	0.012	0.023	0.009	0.011
1rmw	2b82	1081	1081	0.093	0.4	0.06	0.104
1rmw	2b82	1082	1082	0.241	0.233	0.254	0.295
1rmw	2b82	1083	1083	0.852	0.867	0.863	0.859
1rmw	2b82	1084	1084	0.843	0.832	0.868	0.642
1rmw	2b82	1085	1085	0.672	0.808	0.684	0.789
1rmw	2b82	1086	1086	0.0	0.0	0.0	0.01
1rmw	2b82	1087	1087	0.652	0.702	0.639	0.541
1rmw	2b82	1088	1088	0.173	0.171	0.257	0.637
1rmw	2b82	1089	1089	0.195	0.158	0.213	0.28
1rmw	2b82	1091	1091	0.337	0.336	0.331	0.286
1rmw	2b82	1092	1092	0.019	0.012	0.016	0.004
1rmw	2b82	1093	1093	0.191	0.181	0.234	0.172
1rmw	2b82	1094	1094	0.021	0.023	0.012	0.011
1rmw	2b82	1095	1095	0.775	0.754	0.775	0.754
1rmw	2b82	1096	1096	0.714	0.7	0.717	0.715
1rmw	2b82	1097	1097	0.023	0.049	0.056	0.064
1rmw	2b82	1098	1098	0.0	0.0	0.0	0.0
1rmw	2b82	1099	1099	0.0	0.006	0.0	0.006
1rmw	2b82	1100	1100	0.232	0.282	0.246	0.294
1rmw	2b82	1101	1101	0.0	0.0	0.0	0.0
1rmw	2b82	1102	1102	0.0	0.0	0.0	0.0
1rmw	2b82	1103	1103	0.0	0.0	0.0	0.0
1rmw	2b82	1104	1104	0.07	0.079	0.035	0.033
1rmw	2b82	1105	1105	0.797	0.74	0.816	0.758
1rmw	2b82	1106	1106	0.242	0.233	0.23	0.257
1rmw	2b82	1107	1107	0.149	0.118	0.215	0.215
1rmw	2b82	1108	1108	0.0	0.0	0.0	0.0
1rmw	2b82	1109	1109	0.0	0.0	0.0	0.0
1rmw	2b82	1110	1110	0.0	0.053	0.0	0.0
1rmw	2b82	1111	1111	0.0	0.019	0.0	0.0
1rmw	2b82	1112	1112	0.609	0.163	0.582	0.577
1rmw	2b82	1113	1113	0.805	0.805	0.8	0.805
1rmw	2b82	1114	1114	0.0	0.0	0.0	0.0
1rmw	2b82	1116	1116	0.0	0.0	0.0	0.0
1rmw	2b82	1117	1117	0.558	0.56	0.562	0.56
1rmw	2b82	1118	1118	0.558	0.537	0.557	0.586
1rmw	2b82	1119	1119	0.324	0.278	0.333	0.278
1rmw	2b82	1120	1120	0.499	0.525	0.509	0.509
1rmw	2b82	1121	1121	0.021	0.025	0.01	0.013
1rmw	2b82	1122	1122	0.817	0.822	0.793	0.722
1rmw	2b82	1123	1123	0.321	0.323	0.269	0.331
1rmw	2b82	1124	1124	0.912	0.919	0.914	0.92
1rmw	2b82	1125	1125	0.169	0.169	0.304	0.376
1rmw	2b82	1126	1126	0.084	0.074	0.082	0.116
1rmw	2b82	1127	1127	0.0	0.009	0.0	0.007
1rmw	2b82	1129	1129	0.766	0.627	0.808	0.665
1rmw	2b82	1130	1130	0.426	0.428	0.405	0.403
1rmw	2b82	1131	1131	0.816	0.829	0.778	0.793
1rmw	2b82	1132	1132	0.887	0.996	0.813	0.748
1rmw	2b82	1133	1133	0.064	0.095	0.077	0.076
1rmw	2b82	1134	1134	0.661	0.747	0.772	0.812
1rmw	2b82	1135	1135	0.349	0.352	0.354	0.352
1rmw	2b82	1136	1136	0.298	0.241	0.325	0.3
1rmw	2b82	1137	1137	0.729	0.51	0.697	0.743
1rmw	2b82	1138	1138	0.628	0.576	0.64	0.59
1rmw	2b82	1139	1139	0.086	0.078	0.074	0.071
1rmw	2b82	1140	1140	0.0	0.0	0.0	0.0
1rmw	2b82	1141	1141	0.179	0.173	0.174	0.207
1rmw	2b82	1142	1142	0.565	0.569	0.541	0.547
1rmw	2b82	1143	1143	0.716	0.713	0.732	0.849
1rmw	2b82	1144	1144	0.723	0.725	0.724	0.725
1rmw	2b82	1145	1145	0.573	0.595	0.56	0.579
1rmw	2b82	1146	1146	0.601	0.606	0.602	0.606
1rmw	2b82	1147	1147	0.502	0.405	0.48	0.402
1rmw	2b82	1148	1148	0.0	0.0	0.0	0.0
1rmw	2b82	1149	1149	1.0	1.0	1.0	1.0
1rmw	2b82	1150	1150	0.037	0.084	0.034	0.096
1rmw	2b82	1151	1151	0.584	0.743	0.607	0.736
1rmw	2b82	1152	1152	0.043	0.04	0.038	0.038
1rmw	2b82	1153	1153	0.0	0.0	0.0	0.0
1rmw	2b82	1154	1154	0.356	0.452	0.377	0.304
1rmw	2b82	1155	1155	0.209	0.21	0.202	0.242
1rmw	2b82	1156	1156	0.098	0.077	0.115	0.106
1rmw	2b82	1157	1157	0.532	0.508	0.54	0.456
1rmw	2b82	1158	1158	0.526	0.722	0.496	0.495
1rmw	2b82	1159	1159	0.918	0.924	0.912	0.924
1rmw	2b82	1160	1160	0.504	0.499	0.485	0.428
1rmw	2b82	1161	1161	0.889	0.94	0.864	0.866
1rmw	2b82	1162	1162	0.296	0.569	0.302	0.424
1rmw	2b82	1163	1163	0.237	0.233	0.239	0.226
1rmw	2b82	1164	1164	0.762	0.56	0.733	0.847
1rmw	2b82	1165	1165	0.77	0.773	0.771	0.773
1rmw	2b82	1167	1167	0.0	0.014	0.012	0.016
1rmw	2b82	1168	1168	0.0	0.023	0.0	0.034
1rmw	2b82	1169	1169	0.275	0.206	0.238	0.191
1rmw	2b82	1170	1170	0.353	0.308	0.343	0.345
1rmw	2b82	1171	1171	0.041	0.16	0.071	0.17
1rmw	2b82	1172	1172	0.905	0.741	0.916	0.842
1rmw	2b82	1173	1173	0.761	0.764	0.76	0.782
1rmw	2b82	1174	1174	0.505	0.559	0.635	0.627
1rmw	2b82	1175	1175	0.16	0.179	0.208	0.253
1rmw	2b82	1176	1176	0.329	0.443	0.258	0.287
1rmw	2b82	1177	1177	0.499	0.448	0.526	0.54
1rmw	2b82	1179	1179	0.856	0.914	0.844	0.881
1rmw	2b82	1180	1180	0.865	0.847	0.883	0.83
1rmw	2b82	1181	1181	0.059	0.067	0.042	0.03
1rmw	2b82	1182	1182	0.615	0.563	0.589	0.601
1rmw	2b82	1183	1183	0.401	0.506	0.409	0.507
1rmw	2b82	1184	1184	0.348	0.392	0.348	0.46
1rmw	2b82	1185	1185	0.291	0.351	0.255	0.248
1rmw	2b82	1186	1186	0.0	0.002	0.0	0.0
1rmw	2b82	1187	1187	0.0	0.0	0.0	0.008
1rmw	2b82	1188	1188	0.068	0.128	0.145	0.215
1rmw	2b82	1189	1189	0.478	0.667	0.48	0.448
1rmw	2b82	1190	1190	0.402	0.411	0.403	0.411
1rmw	2b82	1191	1191	0.086	0.118	0.196	0.217
1rmw	2b82	1192	1192	0.671	0.694	0.717	0.739
1rmw	2b82	1193	1193	0.51	0.507	0.504	0.502
1rmw	2b82	1194	1194	0.0	0.0	0.0	0.0
1rmw	2b82	1195	1195	0.469	0.52	0.46	0.512
1rmw	2b82	1196	1196	0.42	0.47	0.453	0.551
1rmw	2b82	1197	1197	0.094	0.106	0.13	0.116
1rmw	2b82	1198	1198	0.467	0.492	0.358	0.341
1rmw	2b82	1199	1199	0.018	0.027	0.025	0.037
1rmw	2b82	1200	1200	0.514	0.606	0.548	0.544
1rmw	2b82	1201	1201	0.0	0.056	0.003	0.004
1rmw	2b82	1202	1202	0.113	0.13	0.141	0.182
1rmw	2b82	1203	1203	0.0	0.0	0.0	0.0
1rmw	2b82	1204	1204	0.516	0.512	0.476	0.457
1rmw	2b82	1205	1205	0.033	0.149	0.018	0.187
1rmw	2b82	1206	1206	0.0	0.0	0.0	0.0
1rmw	2b82	1207	1207	0.244	0.275	0.255	0.429
1rmw	2b82	1208	1208	0.301	0.349	0.318	0.351
1rmw	2b82	1209	1209	0.475	0.427	0.441	0.395
1rmw	2b82	1210	1210	0.181	0.198	0.203	0.249
1rmw	2b82	1211	1211	0.368	0.409	0.384	0.344
1rmw	2b82	1212	1212	0.04	0.042	0.02	0.044
1rmw	2b82	1213	1213	0.273	0.241	0.256	0.271
1rmw	2b82	1214	1214	0.0	0.0	0.0	0.0
1rmw	2b82	1215	1215	0.032	0.054	0.059	0.042
1rmw	2b82	1216	1216	0.039	0.061	0.043	0.113
1rmw	2b82	1217	1217	0.289	0.249	0.366	0.382
1rmw	2b82	1218	1218	0.311	0.468	0.372	0.361
1rmw	2b82	1219	1219	0.183	0.202	0.197	0.14
1rmw	2b82	1220	1220	0.899	0.872	0.871	0.913
1rmw	2b82	1221	1221	0.61	0.66	0.699	0.738
1rmw	2b82	1222	1222	0.0	0.0	0.0	0.0
1rmw	2b82	1223	1223	0.0	0.0	0.0	0.0
1rmw	2b82	1224	1224	0.023	0.022	0.028	0.034
1rmw	2b82	1225	1225	0.29	0.305	0.354	0.436
1rmw	2b82	1226	1226	0.215	0.229	0.226	0.266
1rmw	2b82	1227	1227	0.572	0.596	0.605	0.652
1rmw	2b82	1228	1228	0.456	0.479	0.448	0.537
1rmw	2b82	1230	1230	0.531	0.521	0.526	0.518
1rmw	2b82	1231	1231	0.054	0.047	0.067	0.071
1rmw	2b82	1232	1232	0.0	0.0	0.0	0.0
1rmw	2b82	1233	1233	0.173	0.25	0.18	0.208
1rmw	2b82	1234	1234	0.056	0.085	0.019	0.045
1rmw	2b82	1235	1235	0.041	0.099	0.031	0.062
1rmw	2b82	1236	1236	0.0	0.0	0.0	0.0
1rmw	2b82	1237	1237	0.057	0.116	0.05	0.038
1rmw	2b82	1238	1238	0.112	0.102	0.105	0.119
1rmw	2b82	1239	1239	0.587	0.343	0.615	0.16
1rmw	2b82	1240	1240	0.109	0.094	0.104	0.097
1rmw	2b82	1241	1241	0.325	0.334	0.327	0.334
1rmw	2b82	1242	1242	0.497	0.495	0.5	0.495
1rmw	2b82	1243	1243	0.74	0.627	0.779	0.61
1rmw	2b82	1244	1244	0.164	0.163	0.192	0.188
1rmw	2b82	1245	1245	0.919	0.834	0.936	0.904
1rmw	2b82	1246	1246	0.596	0.57	0.63	0.651
1rmw	2b82	1247	1247	0.216	0.225	0.211	0.245
1rmw	2b82	1248	1248	0.615	0.633	0.607	0.61
1rmw	2b82	1249	1249	1.0	0	1.0	0
1rmw	2b82	1250	1250	0.478	0.478	0.494	0.486
1rmw	2b82	1253	1253	0.486	0.371	0.525	0.39
1rmw	2b82	1254	1254	0.881	0.864	0.896	0.821
1rmw	2b82	1255	1255	0.88	0.726	0.877	0.854
1rmw	2b82	1256	1256	0.0	0.0	0.0	0.0
1rmw	2b82	1258	1258	0.831	0.847	0.784	0.775
1rmw	2b82	1259	1259	0.0	0.0	0.0	0.0
1rmw	2b82	1260	1260	0.197	0.239	0.197	0.174
1rmw	2b82	1261	1261	0.511	0.55	0.528	0.58
1rmw	2b82	1262	1262	0.193	0.194	0.166	0.172
1rmw	2b82	1263	1263	0.432	0.487	0.444	0.502
1rmw	2b82	1264	1264	0.108	0.116	0.104	0.095
1rmw	2b82	1266	1266	0.582	0.599	0.59	0.604
1rmw	2b82	1267	1267	0.0	0.0	0.0	0.0
1rmw	2b82	1268	1268	0.339	0.354	0.396	0.589
1rmw	2b82	1269	1269	0.398	0.428	0.407	0.428
1rmw	2b82	1270	1270	0.524	0.562	0.538	0.528
1rmw	2b82	1271	1271	0.618	0.618	0.625	0.753
1rmw	2b82	1272	1272	0.0	0.0	0.0	0.0
1rmw	2b82	1273	1273	0.112	0.141	0.141	0.178
1rmw	2b82	1274	1274	0.391	0.27	0.421	0.315
1rmw	2b82	1275	1275	0.82	0.665	0.825	0.672
1rmw	2b82	1276	1276	0.022	0.019	0.0	0.001
1rmw	2b82	1277	1277	0.484	0.481	0.533	0.659
1rmw	2b82	1278	1278	0.291	0.326	0.264	0.285
1rmw	2b82	1279	1279	0.0	0.0	0.0	0.0
1rmw	2b82	1280	1280	0.63	0.442	0.609	0.58
1rmw	2b82	1281	1281	0.665	0.78	0.621	0.722
1rmw	2b82	1282	1282	0.59	0.754	0.554	0.562
1rmw	2b82	1283	1283	0.461	0.298	0.475	0.491
1rmw	2b82	1284	1284	0.587	0.601	0.576	0.582
1rmw	2b82	1285	1285	0.474	0.63	0.484	0.501
1rmw	2b82	1286	1286	0.535	0.732	0.545	0.579
1rmw	2b82	1287	1287	0.095	0.087	0.109	0.097
1rmw	2b82	1288	1288	0.644	0.649	0.625	0.632
1rmw	2b82	1289	1289	0.814	0.782	0.797	0.8
1rmw	2b82	1290	1290	0.767	0.856	0.8	0.448
1rmw	2b82	1291	1291	0.003	0.006	0.039	0.044
1rmw	2b82	1292	1292	0.061	0.057	0.081	0.079
1rmw	2b82	1293	1293	0.212	0.423	0.153	0.167
1rmw	2b82	1294	1294	0.145	0.23	0.137	0.187
1rmw	2b82	1295	1295	0.199	0.335	0.181	0.319
1rmw	2b82	1296	1296	0.0	0.024	0.0	0.015
1rmw	2b82	1297	1297	0.354	0.515	0.311	0.416
1rmw	2b82	1298	1298	0.115	0.209	0.123	0.122
1rmw	2b82	1299	1299	0.664	0.807	0.756	0.778
1rmw	2b82	1300	1300	0.282	0.287	0.287	0.262
1rmw	2b82	1301	1301	0.146	0.169	0.226	0.216
1rmw	2b82	1302	1302	0.177	0.287	0.183	0.162
1rmw	2b82	1304	1304	0.312	0.579	0.307	0.418
1rmw	2b82	1305	1305	0.82	0.834	0.797	0.907
1rmw	2b82	1306	1306	0.006	0.039	0.0	0.018
1rmw	2b82	1307	1307	0.055	0.054	0.054	0.086
1rmw	2b82	1308	1308	0.625	0.734	0.624	0.577
1rmw	2b82	1309	1309	0.026	0.049	0.032	0.03
1rmw	2b82	1310	1310	0.623	0.604	0.612	0.492
1rmw	2b82	1311	1311	0.411	0.425	0.423	0.425
1rmw	2b82	1312	1312	0.386	0.394	0.38	0.382
1rmw	2b82	1313	1313	0.764	0.77	0.771	0.634
1rmw	2b82	1314	1314	0.533	0.579	0.562	0.646
1rmw	2b82	1315	1315	0.914	0.909	0.905	0.905
1rmw	2b82	1316	1316	0.173	0.379	0.159	0.404
1rmw	2b82	1317	1317	0.848	0.848	0.849	0.795
1rmw	2b82	1318	1318	0.729	0.762	0.772	0.769
1rmw	2b82	1319	1319	0.002	0.003	0.002	0.003
1rmw	2b82	1320	1320	0.928	0.928	0.917	0.926
1rmw	2b82	1321	1321	0.862	0.877	0.862	0.877
1rmw	2b82	1322	1322	0.187	0.481	0.192	0.202
1rmw	2b82	1323	1323	0.616	0.882	0.581	0.738
1rmw	2b82	1324	1324	0.51	0.512	0.508	0.808
1rmw	2b82	1325	1325	0.017	0.022	0.0	0.0
1rmw	2b82	1326	1326	0.322	0.301	0.309	0.3
1rmw	2b82	1328	1328	0.195	0.121	0.191	0.142
1rmw	2b82	1329	1329	0.076	0.057	0.101	0.047
1rmw	2b82	1330	1330	0.753	0.747	0.707	0.707
1rmw	2b82	1331	1331	0.75	0.725	0.75	0.725
1rmw	2b82	1332	1332	1.0	0	1.0	0
1rmw	2b82	1333	1333	0.423	0.425	0.419	0.385
1rmw	2b82	1334	1334	0.0	0.058	0.003	0.024
1rmw	2b82	1335	1335	0.0	0.006	0.0	0.017
1rmw	2b82	1336	1336	0.092	0.167	0.069	0.077
1rmw	2b82	1337	1337	0.277	0.262	0.312	0.307
1rmw	2b82	1338	1338	0.034	0.032	0.035	0.034
1rmw	2b82	1339	1339	0.78	0.791	0.776	0.788
1rmw	2b82	1340	1340	0.349	0.358	0.351	0.358
1rmw	2b82	1341	1341	0.221	0.229	0.227	0.226
1rmw	2b82	1342	1342	0.096	0.24	0.079	0.076
1rmw	2b82	1343	1343	0.633	0.555	0.563	0.452
1rmw	2b82	1344	1344	0.017	0.027	0.02	0.025
1rmw	2b82	1345	1345	0.775	0.775	0.775	0.775
1rmw	2b82	1346	1346	0.549	0.553	0.543	0.545
1rmw	2b82	1347	1347	0.831	0.767	0.826	0.811
1rmw	2b82	1348	1348	0.859	0.83	0.914	0.832
1rmw	2b82	1349	1349	0.913	0.921	0.914	0.827
1rmw	2b82	1350	1350	0.637	0.637	0.637	0.637
1rmw	2b82	1351	1351	0.741	0.743	0.74	0.74
1rmw	2b82	1352	1352	0.721	0.724	0.724	0.724
1rmw	2b82	1353	1353	0.629	0.631	0.629	0.631
1rmw	2b82	1354	1354	0.83	0.814	0.779	0.731
1rmw	2b82	1355	1355	0.404	0.427	0.401	0.477
1rmw	2b82	1356	1356	0.713	0.55	0.625	0.544
1rmw	2b82	1357	1357	0.88	0.88	0.876	0.85
1rmw	2b82	1358	1358	0.639	0.678	0.664	0.602
1rmw	2b82	1359	1359	0.309	0.247	0.309	0.344
1rmw	2b82	1360	1360	0.493	0.599	0.475	0.514
1rmw	2b82	1361	1361	0.262	0.256	0.276	0.262
1rmw	2b82	1362	1362	0.902	0.933	0.893	0.896
1rmw	2b82	1363	1363	0.271	0.306	0.279	0.344
1rmw	2b82	1364	1364	0.022	0.024	0.03	0.027
1rmw	2b82	1365	1365	0.192	0.191	0.194	0.191
1rmw	2b82	1366	1366	0.48	0.477	0.479	0.477
1rmw	2b82	1367	1367	0.0	0.0	0.0	0.0
1rmw	2b82	1368	1368	0.485	0.555	0.531	0.675
1rmw	2b82	1369	1369	0.588	0.744	0.618	0.778
1rmw	2b82	1370	1370	0.616	0.753	0.586	0.675
1rmw	2b82	1371	1371	0.662	0.801	0.716	0.751
1rmw	2b82	1372	1372	0.0	0.008	0.0	0.025
1rmw	2b82	1373	1373	0.0	0.0	0.0	0.0
1rmw	2b82	1374	1374	0.267	0.36	0.231	0.159
1rmw	2b82	1375	1375	0.0	0.043	0.0	0.049
1rmw	2b82	1376	1376	0.0	0.0	0.0	0.048
1rmw	2b82	1377	1377	0.436	0.656	0.459	0.619
1rmw	2b82	1378	1378	0.021	0.029	0.064	0.069
1rmw	2b82	1379	1379	0.735	0.789	0.665	0.684
1rmw	2b82	1380	1380	0.479	0.469	0.402	0.398
1rmw	2b82	1384	1384	0.305	0.392	0.265	0.299
1rmw	2b82	1385	1385	0.584	0.628	0.558	0.581
1rmw	2b82	1387	1387	0.468	0.57	0.473	0.371
1rmw	2b82	1389	1389	0.762	0.797	0.756	0.756
