pred	succ	p-cen	s-cen	p_q-score	p_s-score	s_q-score	s_s-score
2ao3	2zqo	2	2	0.0	0	0.0	0
2ao3	2zqo	3	3	0.199	0.223	0.212	0.25
2ao3	2zqo	4	4	0.04	0.124	0.02	0.191
2ao3	2zqo	5	5	0.127	0.04	0.125	0.017
2ao3	2zqo	9	9	0.503	0.565	0.526	0.739
2ao3	2zqo	10	10	0.692	0.718	0.7	0.777
2ao3	2zqo	11	11	0.085	0.087	0.077	0.088
2ao3	2zqo	12	12	0.085	0.106	0.083	0.1
2ao3	2zqo	13	13	0.238	0.278	0.215	0.26
2ao3	2zqo	14	14	0.681	0.824	0.67	0.757
2ao3	2zqo	15	15	0.555	0.764	0.538	0.774
2ao3	2zqo	16	16	0.281	0.368	0.248	0.333
2ao3	2zqo	17	17	0.139	0.154	0.142	0.153
2ao3	2zqo	18	18	0.505	0.455	0.511	0.467
2ao3	2zqo	19	19	0.272	0.175	0.249	0.233
2ao3	2zqo	21	21	0.039	0.097	0.026	0.047
2ao3	2zqo	22	22	0.265	0.413	0.273	0.361
2ao3	2zqo	23	23	0.4	0.348	0.433	0.528
2ao3	2zqo	24	24	0.286	0.297	0.244	0.249
2ao3	2zqo	25	25	0.415	0.384	0.516	0.483
2ao3	2zqo	26	26	0.057	0.133	0.077	0.121
2ao3	2zqo	27	27	0.339	0.528	0.367	0.472
2ao3	2zqo	28	28	0.161	0.174	0.131	0.154
2ao3	2zqo	29	29	0.103	0.207	0.139	0.245
2ao3	2zqo	30	30	0.231	0.268	0.183	0.206
2ao3	2zqo	31	31	0.899	0.949	0.882	0.888
2ao3	2zqo	32	32	0.475	0.501	0.428	0.405
2ao3	2zqo	33	33	0.402	0.464	0.429	0.448
2ao3	2zqo	35	35	0.589	0.687	0.573	0.609
2ao3	2zqo	36	36	0.311	0.49	0.346	0.313
2ao3	2zqo	37	37	0.494	0.327	0.548	0.496
2ao3	2zqo	38	38	0.073	0.114	0.039	0.046
2ao3	2zqo	42	42	0.545	0.546	0.535	0.436
2ao3	2zqo	43	43	0.918	0.978	0.892	0.973
2ao3	2zqo	44	44	0.148	0.275	0.142	0.22
2ao3	2zqo	45	45	0.354	0.353	0.383	0.296
2ao3	2zqo	46	46	0.041	0.079	0.022	0.021
2ao3	2zqo	47	47	0.312	0.397	0.294	0.546
2ao3	2zqo	48	48	0.0	0.008	0.0	0.006
2ao3	2zqo	49	49	0.299	0.226	0.345	0.377
2ao3	2zqo	50	50	0.592	0.575	0.591	0.658
2ao3	2zqo	52	52	0.033	0.078	0.024	0.003
2ao3	2zqo	53	53	0.323	0.328	0.362	0.436
2ao3	2zqo	54	54	0.504	0.519	0.4	0.382
2ao3	2zqo	55	55	0.326	0.421	0.365	0.518
2ao3	2zqo	56	56	0.203	0.255	0.209	0.166
2ao3	2zqo	57	57	0.097	0.039	0.109	0.058
2ao3	2zqo	59	59	0.183	0.115	0.197	0.136
2ao3	2zqo	60	60	0.283	0.368	0.32	0.337
2ao3	2zqo	61	61	0.174	0.233	0.228	0.239
2ao3	2zqo	62	62	0.596	0.635	0.568	0.781
2ao3	2zqo	63	63	0.866	0.852	0.835	0.888
2ao3	2zqo	64	64	0.422	0.422	0.399	0.554
2ao3	2zqo	65	65	0.084	0.09	0.106	0.078
2ao3	2zqo	66	66	0.014	0.028	0.024	0.051
2ao3	2zqo	67	67	0.393	0.474	0.427	0.462
2ao3	2zqo	68	68	0.199	0.417	0.161	0.245
2ao3	2zqo	69	69	0.607	0.832	0.622	0.591
2ao3	2zqo	70	70	0.166	0.177	0.136	0.147
2ao3	2zqo	71	71	0.246	0.431	0.241	0.432
2ao3	2zqo	72	72	0.588	0.838	0.601	0.838
2ao3	2zqo	73	73	0.759	0.898	0.756	0.73
2ao3	2zqo	75	75	0.351	0.414	0.333	0.42
2ao3	2zqo	76	76	0.585	0.592	0.579	0.593
2ao3	2zqo	77	77	1.0	0	1.0	0
2ao3	2zqo	78	78	0.415	0.454	0.42	0.454
2ao3	2zqo	79	79	0.459	0.516	0.518	0.526
2ao3	2zqo	80	80	0.809	0.9	0.809	0.9
2ao3	2zqo	81	81	0.775	0.75	0.775	0.75
2ao3	2zqo	82	82	0.55	0.6	0.55	0.6
2ao3	2zqo	83	83	1.0	0	1.0	0
2ao3	2zqo	84	84	0.45	0.5	0.5	0.5
2ao3	2zqo	85	85	0.83	0.892	0.83	0.892
2ao3	2zqo	86	86	0.186	0.268	0.211	0.288
2ao3	2zqo	87	87	0.704	0.721	0.7	0.763
2ao3	2zqo	89	89	0.067	0.082	0.091	0.108
2ao3	2zqo	90	90	0.296	0.257	0.337	0.236
2ao3	2zqo	91	91	0.085	0.192	0.111	0.147
2ao3	2zqo	93	93	0.123	0.221	0.149	0.264
2ao3	2zqo	94	94	0.346	0.486	0.352	0.562
2ao3	2zqo	95	95	0.0	0.0	0.0	0.0
2ao3	2zqo	96	96	0.0	0.0	0.0	0.0
2ao3	2zqo	97	97	0.0	0.0	0.0	0.0
2ao3	2zqo	98	98	0.121	0.139	0.167	0.193
2ao3	2zqo	99	99	0.552	0.139	0.55	0.609
2ao3	2zqo	100	100	0.329	0.224	0.335	0.358
2ao3	2zqo	101	101	0.0	0.022	0.0	0.024
2ao3	2zqo	102	102	0.038	0.064	0.054	0.102
2ao3	2zqo	103	103	0.594	0.708	0.511	0.713
2ao3	2zqo	104	104	0.231	0.301	0.489	0.526
2ao3	2zqo	105	105	0.298	0.427	0.285	0.408
2ao3	2zqo	106	106	0.635	0.717	0.657	0.704
2ao3	2zqo	107	107	0.487	0.495	0.419	0.538
2ao3	2zqo	108	108	0.07	0.131	0.083	0.147
2ao3	2zqo	109	109	0.487	0.513	0.453	0.516
2ao3	2zqo	110	110	0.484	0.525	0.521	0.527
2ao3	2zqo	111	111	0.9	1.0	0.9	0.5
2ao3	2zqo	112	112	0.679	0.678	0.67	0.711
2ao3	2zqo	113	113	0.365	0.431	0.425	0.564
2ao3	2zqo	114	114	0.0	0.045	0.0	0.003
2ao3	2zqo	115	115	0.281	0.232	0.291	0.329
2ao3	2zqo	116	116	0.04	0.054	0.016	0.024
2ao3	2zqo	117	117	0.583	0.587	0.519	0.592
2ao3	2zqo	118	118	0.811	0.889	0.811	0.989
2ao3	2zqo	121	121	0.0	0.013	0.0	0.038
2ao3	2zqo	122	122	0.643	0.532	0.139	0.114
2ao3	2zqo	123	123	0.174	0.172	0.172	0.172
2ao3	2zqo	124	124	0.449	0.53	0.31	0.264
2ao3	2zqo	125	125	0.705	0.68	0.857	0.918
2ao3	2zqo	126	126	0.006	0.041	0.052	0.187
2ao3	2zqo	127	127	0.0	0.011	0.004	0.035
2ao3	2zqo	129	129	0.033	0.11	0.075	0.113
2ao3	2zqo	130	130	0.237	0.228	0.301	0.304
2ao3	2zqo	132	132	0.631	0.697	0.605	0.675
2ao3	2zqo	133	133	0.505	0.537	0.535	0.555
2ao3	2zqo	134	134	1.0	0	1.0	0
2ao3	2zqo	135	135	0.767	0.733	0.8	0.733
2ao3	2zqo	136	136	0.81	0.544	0.81	0.542
2ao3	2zqo	138	138	0.413	0.457	0.395	0.366
2ao3	2zqo	139	139	0.34	0.231	0.321	0.252
2ao3	2zqo	140	140	0.662	0.715	0.63	0.583
2ao3	2zqo	141	141	0.404	0.521	0.401	0.549
2ao3	2zqo	142	142	0.548	0.54	0.637	0.537
2ao3	2zqo	143	143	0.258	0.145	0.256	0.181
2ao3	2zqo	144	144	0.874	0.899	0.852	0.861
2ao3	2zqo	145	145	0.808	0.981	0.795	0.694
2ao3	2zqo	146	146	0.027	0.022	0.025	0.021
2ao3	2zqo	149	149	0.216	0.212	0.211	0.16
2ao3	2zqo	150	150	0.347	0.366	0.365	0.346
2ao3	2zqo	151	151	0.0	0.0	0.0	0.0
2ao3	2zqo	152	152	0.06	0.088	0.031	0.043
2ao3	2zqo	154	154	0.354	0.278	0.378	0.464
2ao3	2zqo	155	155	0.461	0.466	0.454	0.393
2ao3	2zqo	156	156	0.524	0.608	0.524	0.608
2ao3	2zqo	157	157	0.792	0.759	0.794	0.767
2ao3	2zqo	158	158	0.0	0.0	0.0	0.0
2ao3	2zqo	159	159	0.616	0.578	0.596	0.577
2ao3	2zqo	160	160	0.191	0.173	0.237	0.235
2ao3	2zqo	161	161	0.528	0.618	0.483	0.487
2ao3	2zqo	162	162	0.067	0.079	0.062	0.064
2ao3	2zqo	163	163	0.0	0.0	0.0	0.0
2ao3	2zqo	165	165	0.458	0.504	0.504	0.556
2ao3	2zqo	166	166	0.301	0.314	0.319	0.342
2ao3	2zqo	167	167	0.723	0.729	0.704	0.59
2ao3	2zqo	169	169	0.173	0.256	0.217	0.25
2ao3	2zqo	171	171	0.555	0.604	0.542	0.47
2ao3	2zqo	172	172	0.566	0.577	0.541	0.535
2ao3	2zqo	173	173	0.813	0.624	0.787	0.772
2ao3	2zqo	174	174	0.173	0.18	0.222	0.267
2ao3	2zqo	175	175	0.745	0.745	0.729	0.814
2ao3	2zqo	177	177	0.527	0.649	0.506	0.657
2ao3	2zqo	179	179	0.204	0.192	0.213	0.213
2ao3	2zqo	180	180	0.788	0.629	0.789	0.612
2ao3	2zqo	181	181	0.237	0.294	0.294	0.322
2ao3	2zqo	182	182	0.0	0.0	0.0	0.0
2ao3	2zqo	183	183	0.0	0.0	0.0	0.0
2ao3	2zqo	184	184	0.0	0.008	0.0	0.0
2ao3	2zqo	185	185	0.118	0.269	0.103	0.147
2ao3	2zqo	186	186	0.282	0.388	0.307	0.305
2ao3	2zqo	188	188	0.096	0.192	0.09	0.103
2ao3	2zqo	189	189	0.242	0.208	0.224	0.187
2ao3	2zqo	190	190	0.838	0.868	0.866	0.897
2ao3	2zqo	191	191	0.356	0.436	0.404	0.47
2ao3	2zqo	193	193	0.488	0.561	0.462	0.441
2ao3	2zqo	194	194	0.347	0.371	0.358	0.371
2ao3	2zqo	195	195	0.018	0.038	0.039	0.027
2ao3	2zqo	196	196	0.122	0.083	0.151	0.129
2ao3	2zqo	197	197	0.207	0.246	0.189	0.173
2ao3	2zqo	198	198	0.216	0.168	0.214	0.179
2ao3	2zqo	199	199	0.332	0.343	0.758	0.82
2ao3	2zqo	200	200	0.125	0.031	0.086	0.112
2ao3	2zqo	201	201	0.028	0.058	0.02	0.023
2ao3	2zqo	202	202	0.144	0.198	0.152	0.198
2ao3	2zqo	205	205	0.449	0.448	0.465	0.572
2ao3	2zqo	206	206	0.879	0.867	0.874	0.869
2ao3	2zqo	207	207	0.838	0.833	0.924	0.924
2ao3	2zqo	208	208	0.645	0.608	0.611	0.467
2ao3	2zqo	210	210	0.361	0.397	0.364	0.385
2ao3	2zqo	211	211	0.668	0.668	0.675	0.861
2ao3	2zqo	212	212	0.484	0.485	0.474	0.471
2ao3	2zqo	213	213	1.0	0	1.0	0
2ao3	2zqo	214	214	0.884	0.904	0.915	0.924
2ao3	2zqo	215	215	0.618	0.672	0.619	0.737
2ao3	2zqo	216	216	0.113	0.085	0.111	0.148
2ao3	2zqo	217	217	0.051	0.035	0.066	0.091
2ao3	2zqo	218	218	0.0	0.001	0.0	0.017
2ao3	2zqo	219	219	0.178	0.196	0.181	0.14
2ao3	2zqo	220	220	0.243	0.288	0.257	0.317
2ao3	2zqo	222	222	0.596	0.741	0.604	0.673
2ao3	2zqo	223	223	0.458	0.532	0.477	0.542
2ao3	2zqo	224	224	0.435	0.513	0.459	0.643
2ao3	2zqo	225	225	0.709	0.691	0.682	0.691
2ao3	2zqo	226	226	0.908	0.9	0.879	0.821
2ao3	2zqo	227	227	0.865	0.788	0.863	0.906
2ao3	2zqo	228	228	0.542	0.479	0.598	0.8
2ao3	2zqo	229	229	0.548	0.633	0.525	0.621
2ao3	2zqo	230	230	0.66	0.648	0.662	0.662
2ao3	2zqo	232	232	0.38	0.398	0.361	0.393
2ao3	2zqo	233	233	0.474	0.406	0.479	0.441
2ao3	2zqo	234	234	0.908	0.855	0.919	0.824
2ao3	2zqo	235	235	0.053	0.073	0.06	0.017
2ao3	2zqo	236	236	0.242	0.274	0.248	0.353
2ao3	2zqo	237	237	0.731	0.853	0.748	0.893
2ao3	2zqo	238	238	0.85	0.475	0.9	0.633
2ao3	2zqo	239	239	0.044	0.046	0.007	0.049
2ao3	2zqo	240	240	0.112	0.126	0.125	0.144
2ao3	2zqo	241	241	0.099	0.101	0.1	0.105
2ao3	2zqo	242	242	0.081	0.197	0.112	0.214
2ao3	2zqo	243	243	0.004	0.042	0.0	0.026
2ao3	2zqo	244	244	0.111	0.109	0.109	0.104
2ao3	2zqo	246	246	0.501	0.398	0.47	0.542
2ao3	2zqo	247	247	0.783	0.81	0.76	0.811
2ao3	2zqo	248	248	0.116	0.111	0.117	0.127
2ao3	2zqo	249	249	0.686	0.714	0.674	0.615
2ao3	2zqo	250	250	0.663	0.722	0.725	0.767
2ao3	2zqo	251	251	0.008	0.03	0.025	0.026
2ao3	2zqo	252	252	0.266	0.255	0.266	0.242
2ao3	2zqo	253	253	0.518	0.526	0.526	0.527
2ao3	2zqo	254	254	0.413	0.411	0.38	0.431
2ao3	2zqo	255	255	0.85	0.838	0.85	0.838
2ao3	2zqo	256	256	0.83	0.835	0.806	0.806
2ao3	2zqo	257	257	0.642	0.661	0.633	0.657
2ao3	2zqo	258	258	0.5	0.525	0.6	0.62
2ao3	2zqo	259	259	0.775	0.8	0.775	0.8
2ao3	2zqo	260	260	0.0	0.0	0.0	0.0
2ao3	2zqo	261	261	0.832	0.795	0.832	0.797
2ao3	2zqo	262	262	0.001	0.002	0.0	0.0
2ao3	2zqo	263	263	0.231	0.24	0.252	0.25
2ao3	2zqo	264	264	0.002	0.002	0.007	0.0
2ao3	2zqo	265	265	0.573	0.561	0.569	0.574
2ao3	2zqo	266	266	0.0	0.0	0.0	0.0
2ao3	2zqo	267	267	0.421	0.43	0.383	0.368
2ao3	2zqo	268	268	0.615	0.698	0.668	0.718
2ao3	2zqo	269	269	0.793	0.771	0.811	0.77
2ao3	2zqo	270	270	0.348	0.228	0.388	0.265
2ao3	2zqo	271	271	0.0	0.0	0.0	0.0
2ao3	2zqo	272	272	0.475	0.33	0.487	0.338
2ao3	2zqo	273	273	0.046	0.073	0.054	0.102
2ao3	2zqo	275	275	0.554	0.643	0.57	0.744
2ao3	2zqo	276	276	0.041	0.146	0.078	0.133
2ao3	2zqo	277	277	0.516	0.38	0.535	0.485
2ao3	2zqo	278	278	0.421	0.544	0.415	0.449
2ao3	2zqo	279	279	0.418	0.429	0.44	0.523
2ao3	2zqo	281	281	0.689	0.689	0.706	0.837
2ao3	2zqo	282	282	0.658	0.273	0.683	0.302
2ao3	2zqo	283	283	0.8	0.856	0.781	0.811
2ao3	2zqo	284	284	0.502	0.476	0.461	0.373
2ao3	2zqo	286	286	0.626	0.624	0.25	0.293
2ao3	2zqo	287	287	0.219	0.196	0.24	0.192
2ao3	2zqo	289	289	0.28	0.253	0.279	0.381
2ao3	2zqo	291	291	0.0	0.0	0.0	0.0
2ao3	2zqo	292	292	0.523	0.524	0.521	0.658
2ao3	2zqo	293	293	0.491	0.536	0.459	0.567
2ao3	2zqo	294	294	0.015	0.049	0.031	0.042
2ao3	2zqo	295	295	0.319	0.328	0.315	0.311
2ao3	2zqo	299	299	0.0	0.003	0.0	0.0
2ao3	2zqo	301	301	0.62	0.755	0.621	0.613
2ao3	2zqo	302	302	0.003	0.005	0.009	0.009
2ao3	2zqo	303	303	0.062	0.104	0.095	0.119
2ao3	2zqo	304	304	0.77	0.811	0.78	0.721
2ao3	2zqo	306	306	0.739	0.734	0.692	0.658
2ao3	2zqo	307	307	0.0	0.0	0.0	0.0
2ao3	2zqo	308	308	0.093	0.076	0.085	0.225
2ao3	2zqo	309	309	0.177	0.121	0.19	0.196
2ao3	2zqo	310	310	0.12	0.223	0.118	0.165
2ao3	2zqo	311	311	0.56	0.547	0.553	0.565
2ao3	2zqo	315	315	0.804	0.789	0.806	0.79
2ao3	2zqo	316	316	0.878	0.734	0.869	0.738
2ao3	2zqo	317	317	0.055	0.081	0.053	0.084
2ao3	2zqo	318	318	0.0	0.005	0.0	0.0
2ao3	2zqo	319	319	0.108	0.084	0.044	0.206
2ao3	2zqo	321	321	0.147	0.147	0.178	0.169
2ao3	2zqo	322	322	0.18	0.129	0.169	0.301
2ao3	2zqo	323	323	0.81	0.973	0.819	0.875
2ao3	2zqo	324	324	0.744	0.655	0.754	0.653
2ao3	2zqo	325	325	0.308	0.332	0.37	0.367
2ao3	2zqo	326	326	0.967	0.922	0.857	0.9
2ao3	2zqo	327	327	0.56	0.472	0.544	0.591
2ao3	2zqo	328	328	0.284	0.334	0.204	0.227
2ao3	2zqo	329	329	0.882	0.9	0.766	0.664
2ao3	2zqo	334	334	0.7	0.708	0.726	0.744
2ao3	2zqo	335	335	0.0	0.0	0.0	0.0
2ao3	2zqo	336	336	0.024	0.061	0.023	0.018
2ao3	2zqo	337	337	0.07	0.072	0.074	0.08
2ao3	2zqo	338	338	0.503	0.439	0.626	0.646
2ao3	2zqo	340	340	0.0	0.024	0.011	0.002
2ao3	2zqo	342	342	0.593	0.775	0.527	0.694
2ao3	2zqo	343	343	0.55	0.525	0.51	0.497
2ao3	2zqo	344	344	0.241	0.338	0.231	0.168
2ao3	2zqo	345	345	0.157	0.087	0.126	0.226
2ao3	2zqo	346	346	0.0	0.0	0.0	0.0
2ao3	2zqo	347	347	0.076	0.069	0.023	0.1
2ao3	2zqo	349	349	0.163	0.312	0.147	0.098
2ao3	2zqo	350	350	0.685	0.834	0.678	0.821
2ao3	2zqo	351	351	0.818	0.818	0.818	0.818
2ao3	2zqo	352	352	0.0	0.0	0.0	0.0
2ao3	2zqo	353	353	0.0	0.0	0.0	0.0
2ao3	2zqo	354	354	0.074	0.104	0.05	0.056
2ao3	2zqo	355	355	0.316	0.519	0.295	0.251
2ao3	2zqo	356	356	0.147	0.218	0.148	0.241
2ao3	2zqo	357	357	0.163	0.261	0.136	0.133
2ao3	2zqo	358	358	0.286	0.334	0.254	0.241
2ao3	2zqo	359	359	0.464	0.227	0.458	0.243
2ao3	2zqo	360	360	0.077	0.088	0.072	0.065
2ao3	2zqo	361	361	0.292	0.28	0.333	0.576
2ao3	2zqo	362	362	0.414	0.435	0.502	0.425
2ao3	2zqo	364	364	0.0	0.026	0.0	0.02
2ao3	2zqo	365	365	0.04	0.071	0.032	0.075
2ao3	2zqo	366	366	0.133	0.168	0.193	0.19
2ao3	2zqo	367	367	0.017	0.026	0.022	0.024
2ao3	2zqo	372	372	0.374	0.326	0.379	0.314
2ao3	2zqo	373	373	0.361	0.365	0.33	0.317
2ao3	2zqo	374	374	0.0	0.004	0.0	0.008
2ao3	2zqo	375	375	0.201	0.318	0.09	0.219
2ao3	2zqo	380	380	0.695	0.644	0.668	0.735
2ao3	2zqo	384	384	0.866	0.81	0.844	0.804
2ao3	2zqo	386	386	0.514	0.402	0.533	0.641
2ao3	2zqo	387	387	0.861	0.857	0.871	0.977
2ao3	2zqo	388	388	0.73	0.772	0.726	0.772
2ao3	2zqo	389	389	0.802	0.807	0.86	0.86
2ao3	2zqo	390	390	0.773	0.93	0.78	0.934
2ao3	2zqo	392	392	0.0	0.0	0.0	0.001
2ao3	2zqo	393	393	0.136	0.131	0.182	0.167
2ao3	2zqo	394	394	0.234	0.301	0.237	0.311
2ao3	2zqo	396	396	0.562	0.734	0.49	0.513
2ao3	2zqo	397	397	0.563	0.661	0.558	0.88
2ao3	2zqo	398	398	0.725	0.855	0.722	0.857
2ao3	2zqo	399	399	0.622	0.746	0.625	0.563
2ao3	2zqo	400	400	0.726	0.597	0.742	0.594
2ao3	2zqo	401	401	0.424	0.542	0.378	0.527
2ao3	2zqo	402	402	0.897	0.957	0.895	0.957
2ao3	2zqo	403	403	1.0	0	1.0	0
2ao3	2zqo	404	404	0.599	0.748	0.562	0.769
2ao3	2zqo	405	405	0.219	0.115	0.0	0.065
2ao3	2zqo	406	406	0.038	0.109	0.0	0.017
2ao3	2zqo	410	410	0.645	0.677	0.645	0.714
2ao3	2zqo	411	411	0.068	0.139	0.031	0.018
2ao3	2zqo	413	413	0.44	0.469	0.449	0.5
2ao3	2zqo	414	414	0.895	0.761	0.9	0.74
2ao3	2zqo	416	416	0.682	0.654	0.678	0.65
2ao3	2zqo	418	418	0.881	0.953	0.89	0.946
2ao3	2zqo	419	419	0.355	0.425	0.397	0.497
2ao3	2zqo	420	420	1.0	0	1.0	0
2ao3	2zqo	421	421	0.83	0.826	0.845	0.811
2ao3	2zqo	422	422	0.517	0.471	0.55	0.576
2ao3	2zqo	423	423	0.39	0.398	0.412	0.539
2ao3	2zqo	424	424	0.467	0.478	0.343	0.397
2ao3	2zqo	425	425	0.629	0.591	0.616	0.58
2ao3	2zqo	426	426	0.007	0.009	0.0	0.001
2ao3	2zqo	427	427	0.519	0.768	0.502	0.739
2ao3	2zqo	428	428	0.0	0.001	0.0	0.0
2ao3	2zqo	429	429	0.737	0.823	0.759	0.421
2ao3	2zqo	430	430	0.639	0.715	0.64	0.678
2ao3	2zqo	431	431	0.336	0.265	0.361	0.336
2ao3	2zqo	432	432	0.555	0.643	0.588	0.559
2ao3	2zqo	433	433	0.335	0.559	0.367	0.585
2ao3	2zqo	434	434	0.876	0.905	0.855	0.863
2ao3	2zqo	435	435	0.0	0.0	0.0	0.0
2ao3	2zqo	436	436	0.0	0.0	0.0	0.0
2ao3	2zqo	439	439	0.157	0.167	0.194	0.242
2ao3	2zqo	440	440	0.052	0.053	0.044	0.036
2ao3	2zqo	441	441	0.327	0.307	0.282	0.249
2ao3	2zqo	442	442	0.121	0.169	0.134	0.136
2ao3	2zqo	443	443	0.233	0.218	0.25	0.274
2ao3	2zqo	444	444	0.176	0.237	0.193	0.244
2ao3	2zqo	445	445	0.247	0.293	0.27	0.333
2ao3	2zqo	446	446	0.153	0.15	0.102	0.1
2ao3	2zqo	447	447	0.716	0.871	0.704	0.784
2ao3	2zqo	448	448	0.198	0.152	0.217	0.239
2ao3	2zqo	449	449	0.565	0.595	0.569	0.595
2ao3	2zqo	450	450	0.739	0.606	0.667	0.669
2ao3	2zqo	451	451	0.886	0.888	0.844	0.735
2ao3	2zqo	452	452	0.349	0.461	0.341	0.281
2ao3	2zqo	453	453	0.498	0.393	0.499	0.546
2ao3	2zqo	454	454	0.21	0.219	0.204	0.186
2ao3	2zqo	455	455	0.361	0.279	0.341	0.325
2ao3	2zqo	456	456	1.0	0	1.0	0
2ao3	2zqo	457	457	0.573	0.522	0.574	0.507
2ao3	2zqo	458	458	0.089	0.044	0.041	0.079
2ao3	2zqo	459	459	0.114	0.131	0.059	0.069
2ao3	2zqo	460	460	0.347	0.122	0.366	0.108
2ao3	2zqo	461	461	0.418	0.261	0.396	0.181
2ao3	2zqo	462	462	0.585	0.323	0.543	0.296
2ao3	2zqo	465	465	0.724	0.722	0.718	0.716
2ao3	2zqo	466	466	0.088	0.079	0.086	0.106
2ao3	2zqo	467	467	0.181	0.197	0.291	0.416
2ao3	2zqo	469	469	0.511	0.571	0.513	0.573
2ao3	2zqo	470	470	0.275	0.37	0.261	0.358
2ao3	2zqo	471	471	0.139	0.155	0.142	0.154
2ao3	2zqo	472	472	0.292	0.256	0.318	0.281
2ao3	2zqo	473	473	0.282	0.241	0.296	0.28
2ao3	2zqo	475	475	0.035	0.117	0.021	0.048
2ao3	2zqo	476	476	0.254	0.406	0.27	0.402
2ao3	2zqo	477	477	0.279	0.312	0.194	0.299
2ao3	2zqo	478	478	0.331	0.377	0.249	0.229
2ao3	2zqo	482	482	0.138	0.149	0.12	0.142
2ao3	2zqo	483	483	0.045	0.045	0.153	0.145
2ao3	2zqo	484	484	0.238	0.252	0.213	0.323
2ao3	2zqo	485	485	0.883	0.911	0.864	0.772
2ao3	2zqo	486	486	0.46	0.722	0.482	0.596
2ao3	2zqo	487	487	0.429	0.439	0.412	0.421
2ao3	2zqo	488	488	0.292	0.413	0.309	0.293
2ao3	2zqo	491	491	0.488	0.511	0.529	0.272
2ao3	2zqo	492	492	0.064	0.111	0.048	0.054
2ao3	2zqo	495	495	0.4	0.585	0.409	0.56
2ao3	2zqo	497	497	0.903	0.941	0.916	0.971
2ao3	2zqo	498	498	0.172	0.165	0.153	0.198
2ao3	2zqo	500	500	0.006	0.005	0.03	0.004
2ao3	2zqo	501	501	0.249	0.351	0.293	0.393
2ao3	2zqo	502	502	0.0	0.008	0.125	0.236
2ao3	2zqo	503	503	0.348	0.28	0.314	0.168
2ao3	2zqo	504	504	0.578	0.766	0.64	0.676
2ao3	2zqo	505	505	0.0	0.011	0.0	0.004
2ao3	2zqo	506	506	0.047	0.053	0.03	0.005
2ao3	2zqo	507	507	0.311	0.294	0.278	0.307
2ao3	2zqo	508	508	0.349	0.36	0.422	0.509
2ao3	2zqo	509	509	0.334	0.347	0.321	0.295
2ao3	2zqo	510	510	0.229	0.212	0.264	0.263
2ao3	2zqo	511	511	0.13	0.186	0.134	0.084
2ao3	2zqo	515	515	0.168	0.213	0.182	0.242
2ao3	2zqo	516	516	0.577	0.808	0.592	0.62
2ao3	2zqo	518	518	0.412	0.402	0.414	0.514
2ao3	2zqo	519	519	0.075	0.063	0.072	0.069
2ao3	2zqo	520	520	0.015	0.033	0.023	0.051
2ao3	2zqo	521	521	0.253	0.28	0.295	0.37
2ao3	2zqo	523	523	0.629	0.659	0.621	0.574
2ao3	2zqo	524	524	0.252	0.362	0.295	0.445
2ao3	2zqo	526	526	0.595	0.837	0.619	0.837
2ao3	2zqo	527	527	0.656	0.797	0.682	0.562
2ao3	2zqo	529	529	0.34	0.425	0.367	0.448
2ao3	2zqo	530	530	0.572	0.582	0.581	0.582
2ao3	2zqo	531	531	1.0	0	1.0	0
2ao3	2zqo	532	532	0.414	0.455	0.423	0.455
2ao3	2zqo	533	533	0.488	0.491	0.466	0.52
2ao3	2zqo	534	534	0.883	0.717	0.86	0.66
2ao3	2zqo	535	535	0.762	0.75	0.775	0.762
2ao3	2zqo	537	537	1.0	0	1.0	0
2ao3	2zqo	538	538	1.0	0	1.0	0
2ao3	2zqo	539	539	0.84	0.888	0.841	0.89
2ao3	2zqo	540	540	0.344	0.391	0.337	0.421
2ao3	2zqo	541	541	0.687	0.722	0.601	0.622
2ao3	2zqo	542	542	0.418	0.399	0.407	0.401
2ao3	2zqo	543	543	0.088	0.115	0.092	0.107
2ao3	2zqo	544	544	0.3	0.327	0.314	0.303
2ao3	2zqo	545	545	0.086	0.177	0.079	0.086
2ao3	2zqo	547	547	0.138	0.204	0.131	0.23
2ao3	2zqo	548	548	0.323	0.347	0.324	0.339
2ao3	2zqo	549	549	0.0	0.0	0.0	0.0
2ao3	2zqo	550	550	0.0	0.0	0.0	0.0
2ao3	2zqo	551	551	0.0	0.0	0.0	0.0
2ao3	2zqo	553	553	0.545	0.566	0.445	0.517
2ao3	2zqo	554	554	0.033	0.064	0.318	0.213
2ao3	2zqo	555	555	0.0	0.003	0.0	0.032
2ao3	2zqo	556	556	0.057	0.069	0.032	0.04
2ao3	2zqo	557	557	0.564	0.774	0.542	0.555
2ao3	2zqo	558	558	0.251	0.252	0.259	0.232
2ao3	2zqo	560	560	0.593	0.657	0.553	0.568
2ao3	2zqo	561	561	0.486	0.516	0.417	0.477
2ao3	2zqo	562	562	0.0	0.001	0.0	0.005
2ao3	2zqo	563	563	0.455	0.467	0.484	0.584
2ao3	2zqo	564	564	0.469	0.501	0.493	0.508
2ao3	2zqo	565	565	0.9	0.5	1.0	0
2ao3	2zqo	566	566	0.65	0.675	0.681	0.644
2ao3	2zqo	567	567	0.715	0.672	0.627	0.65
2ao3	2zqo	568	568	0.0	0.006	0.0	0.003
2ao3	2zqo	569	569	0.266	0.23	0.279	0.276
2ao3	2zqo	571	571	0.525	0.648	0.509	0.621
2ao3	2zqo	572	572	0.822	0.644	0.8	0.644
2ao3	2zqo	574	574	0.016	0.093	0.032	0.033
2ao3	2zqo	575	575	0.007	0.036	0.0	0.042
2ao3	2zqo	576	576	0.22	0.236	0.22	0.239
2ao3	2zqo	577	577	0.197	0.174	0.195	0.175
2ao3	2zqo	579	579	0.796	0.821	0.839	0.808
2ao3	2zqo	580	580	0.055	0.156	0.06	0.162
2ao3	2zqo	581	581	0.0	0.018	0.0	0.014
2ao3	2zqo	582	582	0.046	0.073	0.024	0.176
2ao3	2zqo	583	583	0.076	0.136	0.037	0.129
2ao3	2zqo	584	584	0.058	0.089	0.026	0.053
2ao3	2zqo	586	586	0.659	0.676	0.628	0.666
2ao3	2zqo	587	587	0.525	0.555	0.53	0.555
2ao3	2zqo	588	588	0.9	1.0	0.9	1.0
2ao3	2zqo	589	589	0.7	0.733	0.8	0.733
2ao3	2zqo	591	591	0.536	0.811	0.559	0.613
2ao3	2zqo	592	592	0.4	0.372	0.39	0.364
2ao3	2zqo	593	593	0.0	0.0	0.0	0.0
2ao3	2zqo	594	594	0.676	0.594	0.654	0.61
2ao3	2zqo	595	595	0.608	0.589	0.681	0.705
2ao3	2zqo	596	596	0.629	0.79	0.655	0.54
2ao3	2zqo	597	597	0.005	0.002	0.0	0.0
2ao3	2zqo	598	598	0.881	0.908	0.831	0.888
2ao3	2zqo	599	599	0.681	0.682	0.669	0.689
2ao3	2zqo	600	600	0.053	0.049	0.0	0.0
2ao3	2zqo	602	602	0.529	0.524	0.483	0.395
2ao3	2zqo	603	603	0.193	0.187	0.197	0.187
2ao3	2zqo	604	604	0.245	0.226	0.241	0.275
2ao3	2zqo	605	605	0.0	0.0	0.0	0.0
2ao3	2zqo	609	609	0.474	0.498	0.443	0.331
2ao3	2zqo	610	610	0.517	0.608	0.525	0.608
2ao3	2zqo	611	611	0.801	0.792	0.804	0.797
2ao3	2zqo	612	612	0.0	0.0	0.0	0.0
2ao3	2zqo	613	613	0.627	0.576	0.635	0.576
2ao3	2zqo	614	614	0.197	0.173	0.196	0.199
2ao3	2zqo	615	615	0.574	0.613	0.523	0.515
2ao3	2zqo	616	616	0.079	0.101	0.068	0.064
2ao3	2zqo	617	617	0.0	0.0	0.0	0.0
2ao3	2zqo	618	618	0.079	0.086	0.067	0.068
2ao3	2zqo	619	619	0.487	0.575	0.476	0.628
2ao3	2zqo	620	620	0.312	0.325	0.265	0.265
2ao3	2zqo	621	621	0.728	0.67	0.755	0.914
2ao3	2zqo	622	622	0.722	0.792	0.699	0.768
2ao3	2zqo	623	623	0.031	0.026	0.066	0.077
2ao3	2zqo	624	624	0.326	0.323	0.332	0.418
2ao3	2zqo	626	626	0.907	0.939	0.92	0.936
2ao3	2zqo	629	629	0.806	0.809	0.825	0.799
2ao3	2zqo	630	630	0.454	0.454	0.426	0.447
2ao3	2zqo	631	631	0.476	0.623	0.499	0.512
2ao3	2zqo	632	632	0.0	0.0	0.0	0.0
2ao3	2zqo	633	633	0.219	0.209	0.205	0.203
2ao3	2zqo	634	634	0.774	0.69	0.769	0.67
2ao3	2zqo	635	635	0.221	0.291	0.291	0.404
2ao3	2zqo	636	636	0.0	0.0	0.0	0.0
2ao3	2zqo	637	637	0.0	0.0	0.0	0.0
2ao3	2zqo	638	638	0.0	0.0	0.0	0.0
2ao3	2zqo	639	639	0.114	0.253	0.138	0.21
2ao3	2zqo	640	640	0.311	0.491	0.319	0.515
2ao3	2zqo	641	641	0.334	0.365	0.274	0.4
2ao3	2zqo	642	642	0.138	0.148	0.092	0.104
2ao3	2zqo	643	643	0.253	0.214	0.249	0.286
2ao3	2zqo	644	644	0.871	0.859	0.871	0.859
2ao3	2zqo	645	645	0.439	0.384	0.473	0.357
2ao3	2zqo	646	646	0.789	0.863	0.782	0.89
2ao3	2zqo	647	647	0.483	0.489	0.498	0.516
2ao3	2zqo	648	648	0.265	0.263	0.276	0.29
2ao3	2zqo	649	649	0.0	0.0	0.0	0.0
2ao3	2zqo	650	650	0.137	0.095	0.139	0.087
2ao3	2zqo	651	651	0.244	0.25	0.251	0.212
2ao3	2zqo	654	654	0.08	0.092	0.076	0.073
2ao3	2zqo	655	655	0.04	0.081	0.029	0.033
2ao3	2zqo	656	656	0.19	0.197	0.187	0.195
2ao3	2zqo	657	657	0.039	0.063	0.029	0.027
2ao3	2zqo	658	658	0.541	0.605	0.492	0.57
2ao3	2zqo	659	659	0.422	0.461	0.411	0.407
2ao3	2zqo	660	660	0.871	0.863	0.871	0.866
2ao3	2zqo	661	661	0.836	0.841	0.922	0.924
2ao3	2zqo	662	662	0.302	0.316	0.304	0.313
2ao3	2zqo	663	663	0.906	0.887	0.839	0.782
2ao3	2zqo	664	664	0.404	0.455	0.415	0.522
2ao3	2zqo	665	665	0.633	0.635	0.637	0.634
2ao3	2zqo	666	666	0.467	0.568	0.462	0.475
2ao3	2zqo	667	667	0.833	0.833	0.827	0.833
2ao3	2zqo	668	668	0.921	0.95	0.925	0.906
2ao3	2zqo	669	669	0.665	0.687	0.691	0.871
2ao3	2zqo	670	670	0.103	0.1	0.085	0.057
2ao3	2zqo	671	671	0.045	0.055	0.063	0.08
2ao3	2zqo	672	672	0.008	0.02	0.0	0.0
2ao3	2zqo	673	673	0.105	0.16	0.175	0.195
2ao3	2zqo	674	674	0.252	0.251	0.189	0.26
2ao3	2zqo	675	675	0.33	0.269	0.318	0.15
2ao3	2zqo	676	676	0.607	0.834	0.599	0.576
2ao3	2zqo	677	677	0.576	0.79	0.588	0.788
2ao3	2zqo	678	678	0.49	0.602	0.434	0.781
2ao3	2zqo	679	679	0.631	0.609	0.663	0.602
2ao3	2zqo	680	680	0.878	0.898	0.913	0.919
2ao3	2zqo	681	681	0.892	0.9	0.85	0.858
2ao3	2zqo	682	682	0.317	0.326	0.526	0.52
2ao3	2zqo	683	683	0.552	0.651	0.512	0.608
2ao3	2zqo	684	684	0.663	0.674	0.67	0.674
2ao3	2zqo	685	685	0.064	0.079	0.017	0.009
2ao3	2zqo	686	686	0.414	0.38	0.371	0.387
2ao3	2zqo	687	687	0.484	0.372	0.436	0.387
2ao3	2zqo	689	689	0.07	0.149	0.05	0.061
2ao3	2zqo	690	690	0.231	0.283	0.229	0.248
2ao3	2zqo	691	691	0.724	0.851	0.735	0.903
2ao3	2zqo	692	692	0.733	0.3	0.92	0.77
2ao3	2zqo	693	693	0.014	0.069	0.022	0.045
2ao3	2zqo	694	694	0.128	0.149	0.12	0.141
2ao3	2zqo	695	695	0.112	0.107	0.114	0.104
2ao3	2zqo	696	696	0.065	0.126	0.082	0.142
2ao3	2zqo	697	697	0.0	0.012	0.0	0.02
2ao3	2zqo	698	698	0.43	0.116	0.42	0.292
2ao3	2zqo	700	700	0.466	0.508	0.472	0.372
2ao3	2zqo	701	701	0.765	0.807	0.764	0.807
2ao3	2zqo	702	702	0.106	0.092	0.096	0.095
2ao3	2zqo	704	704	0.754	0.767	0.718	0.769
2ao3	2zqo	705	705	0.027	0.023	0.027	0.026
2ao3	2zqo	706	706	0.272	0.28	0.249	0.245
2ao3	2zqo	707	707	0.52	0.613	0.548	0.557
2ao3	2zqo	708	708	0.446	0.522	0.424	0.545
2ao3	2zqo	709	709	0.825	0.838	0.825	0.838
2ao3	2zqo	710	710	0.817	0.828	0.8	0.818
2ao3	2zqo	713	713	0.767	0.733	0.8	0.733
2ao3	2zqo	714	714	0.0	0.0	0.0	0.0
2ao3	2zqo	715	715	0.759	0.781	0.776	0.766
2ao3	2zqo	716	716	0.0	0.0	0.0	0.0
2ao3	2zqo	717	717	0.242	0.267	0.244	0.267
2ao3	2zqo	718	718	0.0	0.0	0.003	0.0
2ao3	2zqo	719	719	0.192	0.148	0.222	0.151
2ao3	2zqo	720	720	0.0	0.0	0.0	0.0
2ao3	2zqo	721	721	0.462	0.411	0.409	0.387
2ao3	2zqo	722	722	0.573	0.743	0.638	0.777
2ao3	2zqo	723	723	0.56	0.58	0.568	0.59
2ao3	2zqo	724	724	0.319	0.249	0.278	0.246
2ao3	2zqo	725	725	0.14	0.181	0.128	0.183
2ao3	2zqo	730	730	0.082	0.124	0.071	0.119
2ao3	2zqo	731	731	0.528	0.901	0.562	0.485
2ao3	2zqo	732	732	0.444	0.538	0.465	0.423
2ao3	2zqo	733	733	0.458	0.6	0.43	0.434
2ao3	2zqo	735	735	0.656	0.798	0.652	0.647
2ao3	2zqo	736	736	0.677	0.59	0.698	0.378
2ao3	2zqo	737	737	0.112	0.105	0.185	0.369
2ao3	2zqo	738	738	0.5	0.424	0.484	0.398
2ao3	2zqo	740	740	0.643	0.59	0.578	0.579
2ao3	2zqo	741	741	0.251	0.246	0.196	0.203
2ao3	2zqo	742	742	0.021	0.008	0.015	0.006
2ao3	2zqo	743	743	0.234	0.211	0.294	0.421
2ao3	2zqo	744	744	0.293	0.486	0.292	0.4
2ao3	2zqo	745	745	0.0	0.0	0.0	0.0
2ao3	2zqo	746	746	0.54	0.583	0.48	0.514
2ao3	2zqo	749	749	0.358	0.406	0.34	0.345
2ao3	2zqo	750	750	0.488	0.52	0.467	0.48
2ao3	2zqo	751	751	0.818	0.774	0.844	0.801
2ao3	2zqo	752	752	0.746	0.735	0.702	0.842
2ao3	2zqo	753	753	0.0	0.0	0.0	0.0
2ao3	2zqo	754	754	0.582	0.605	0.591	0.731
2ao3	2zqo	756	756	0.072	0.03	0.068	0.04
2ao3	2zqo	757	757	0.044	0.078	0.084	0.094
2ao3	2zqo	758	758	0.771	0.8	0.776	0.729
2ao3	2zqo	759	759	0.341	0.385	0.344	0.364
2ao3	2zqo	760	760	0.656	0.688	0.749	0.743
2ao3	2zqo	761	761	0.0	0.001	0.0	0.0
2ao3	2zqo	762	762	0.089	0.109	0.112	0.148
2ao3	2zqo	763	763	0.197	0.217	0.225	0.308
2ao3	2zqo	764	764	0.103	0.202	0.118	0.071
2ao3	2zqo	765	765	0.58	0.591	0.538	0.555
2ao3	2zqo	767	767	0.418	0.49	0.397	0.507
2ao3	2zqo	769	769	0.617	0.718	0.621	0.718
2ao3	2zqo	770	770	0.882	0.696	0.882	0.728
2ao3	2zqo	771	771	0.06	0.078	0.051	0.052
2ao3	2zqo	773	773	0.063	0.141	0.076	0.133
2ao3	2zqo	774	774	0.367	0.373	0.376	0.583
2ao3	2zqo	775	775	0.368	0.314	0.406	0.471
2ao3	2zqo	776	776	0.194	0.19	0.187	0.25
2ao3	2zqo	777	777	0.806	0.77	0.812	0.788
2ao3	2zqo	779	779	0.281	0.3	0.255	0.303
2ao3	2zqo	781	781	0.276	0.26	0.188	0.214
2ao3	2zqo	782	782	0.234	0.205	0.191	0.215
2ao3	2zqo	783	783	0.796	0.637	0.852	0.735
2ao3	2zqo	786	786	0.0	0.0	0.0	0.0
2ao3	2zqo	789	789	0.0	0.0	0.0	0.0
2ao3	2zqo	791	791	0.099	0.071	0.059	0.059
2ao3	2zqo	794	794	0.03	0.034	0.032	0.01
2ao3	2zqo	795	795	0.062	0.211	0.062	0.17
2ao3	2zqo	796	796	0.556	0.707	0.601	0.814
2ao3	2zqo	797	797	0.537	0.502	0.53	0.553
2ao3	2zqo	798	798	0.242	0.26	0.245	0.198
2ao3	2zqo	799	799	0.146	0.156	0.173	0.207
2ao3	2zqo	800	800	0.0	0.0	0.0	0.0
2ao3	2zqo	801	801	0.095	0.122	0.067	0.165
2ao3	2zqo	803	803	0.142	0.182	0.171	0.283
2ao3	2zqo	804	804	0.733	0.903	0.707	0.889
2ao3	2zqo	805	805	0.857	0.857	0.846	0.846
2ao3	2zqo	806	806	0.0	0.0	0.0	0.0
2ao3	2zqo	807	807	0.0	0.0	0.0	0.0
2ao3	2zqo	808	808	0.046	0.055	0.037	0.022
2ao3	2zqo	809	809	0.333	0.326	0.322	0.473
2ao3	2zqo	810	810	0.15	0.273	0.18	0.272
2ao3	2zqo	811	811	0.124	0.121	0.14	0.244
2ao3	2zqo	813	813	0.483	0.244	0.465	0.259
2ao3	2zqo	814	814	0.063	0.069	0.063	0.049
2ao3	2zqo	815	815	0.301	0.496	0.298	0.474
2ao3	2zqo	816	816	0.44	0.505	0.492	0.441
2ao3	2zqo	817	817	0.0	0.096	0.026	0.073
2ao3	2zqo	818	818	0.0	0.017	0.0	0.002
2ao3	2zqo	819	819	0.032	0.066	0.048	0.064
2ao3	2zqo	820	820	0.166	0.203	0.164	0.259
2ao3	2zqo	821	821	0.0	0.025	0.0	0.02
2ao3	2zqo	824	824	0.297	0.333	0.297	0.332
2ao3	2zqo	826	826	0.383	0.37	0.377	0.398
2ao3	2zqo	827	827	0.367	0.36	0.374	0.381
2ao3	2zqo	829	829	0.253	0.28	0.125	0.181
2ao3	2zqo	834	834	0.338	0.701	0.342	0.306
2ao3	2zqo	838	838	0.869	0.83	0.824	0.79
2ao3	2zqo	840	840	0.496	0.431	0.525	0.538
2ao3	2zqo	841	841	0.888	0.961	0.864	0.977
2ao3	2zqo	842	842	0.729	0.772	0.726	0.772
2ao3	2zqo	843	843	0.327	0.059	0.361	0.085
2ao3	2zqo	844	844	0.804	0.896	0.866	0.911
2ao3	2zqo	845	845	0.834	0.865	0.047	0.084
2ao3	2zqo	846	846	0.0	0.0	0.0	0.0
2ao3	2zqo	847	847	0.268	0.296	0.0	0.022
2ao3	2zqo	848	848	0.227	0.26	0.209	0.198
2ao3	2zqo	850	850	0.556	0.451	0.514	0.51
2ao3	2zqo	851	851	0.538	0.861	0.554	0.532
2ao3	2zqo	852	852	0.719	0.857	0.72	0.857
2ao3	2zqo	853	853	0.66	0.772	0.607	0.624
2ao3	2zqo	854	854	0.869	0.712	0.817	0.865
2ao3	2zqo	855	855	0.295	0.229	0.411	0.408
2ao3	2zqo	856	856	0.897	0.957	0.9	0.957
2ao3	2zqo	857	857	1.0	0	1.0	0.0
2ao3	2zqo	860	860	0.006	0.008	0.0	0.005
2ao3	2zqo	861	861	0.153	0.126	0.002	0.073
2ao3	2zqo	865	865	0.044	0.077	0.063	0.048
2ao3	2zqo	866	866	0.78	0.616	0.785	0.633
2ao3	2zqo	867	867	0.503	0.552	0.428	0.432
2ao3	2zqo	868	868	0.923	0.729	0.878	0.756
2ao3	2zqo	869	869	0.665	0.625	0.67	0.625
2ao3	2zqo	870	870	0.679	0.649	0.661	0.649
2ao3	2zqo	871	871	0.871	0.776	0.85	0.796
2ao3	2zqo	872	872	0.896	0.926	0.895	0.955
2ao3	2zqo	873	873	0.372	0.467	0.392	0.529
2ao3	2zqo	874	874	1.0	0	1.0	1.0
2ao3	2zqo	875	875	0.817	0.771	0.841	0.796
2ao3	2zqo	876	876	0.524	0.63	0.547	0.596
2ao3	2zqo	877	877	0.391	0.401	0.383	0.474
2ao3	2zqo	878	878	0.374	0.367	0.417	0.436
2ao3	2zqo	879	879	0.625	0.591	0.669	0.577
2ao3	2zqo	880	880	0.0	0.0	0.019	0.023
2ao3	2zqo	881	881	0.528	0.723	0.539	0.745
2ao3	2zqo	882	882	0.0	0.005	0.0	0.015
2ao3	2zqo	883	883	0.717	0.54	0.775	0.55
2ao3	2zqo	884	884	0.655	0.782	0.648	0.771
2ao3	2zqo	885	885	0.337	0.27	0.392	0.32
2ao3	2zqo	888	888	0.848	0.843	0.826	0.886
2ao3	2zqo	889	889	0.0	0.013	0.0	0.0
2ao3	2zqo	890	890	0.214	0.242	0.0	0.0
2ao3	2zqo	894	894	0.08	0.089	0.047	0.038
2ao3	2zqo	895	895	0.299	0.331	0.249	0.341
2ao3	2zqo	896	896	0.132	0.175	0.093	0.178
2ao3	2zqo	897	897	0.207	0.238	0.221	0.244
2ao3	2zqo	898	898	0.134	0.17	0.161	0.158
2ao3	2zqo	899	899	0.177	0.237	0.199	0.244
2ao3	2zqo	901	901	0.271	0.251	0.588	0.497
2ao3	2zqo	902	902	0.198	0.203	0.201	0.303
