pred	succ	p-cen	s-cen	p_q-score	p_s-score	s_q-score	s_s-score
2gnr	3irb	1	1	0.863	0.573	0.803	0.561
2gnr	3irb	2	2	0.281	0.254	0.222	0.213
2gnr	3irb	3	3	0.207	0.171	0.209	0.128
2gnr	3irb	4	4	0.201	0.135	0.184	0.171
2gnr	3irb	5	5	0.309	0.3	0.264	0.17
2gnr	3irb	9	9	0.2	0.286	0.249	0.297
2gnr	3irb	10	10	0.27	0.309	0.249	0.23
2gnr	3irb	11	11	0.65	0.746	0.639	0.861
2gnr	3irb	12	12	0.591	0.442	0.592	0.445
2gnr	3irb	13	13	0.536	0.511	0.494	0.523
2gnr	3irb	14	14	0.747	0.549	0.705	0.585
2gnr	3irb	15	15	0.212	0.368	0.203	0.238
2gnr	3irb	16	16	0.241	0.282	0.252	0.112
2gnr	3irb	17	17	0.106	0.185	0.084	0.093
2gnr	3irb	18	18	0.149	0.177	0.132	0.157
2gnr	3irb	19	19	0.785	0.739	0.804	0.764
2gnr	3irb	20	20	0.044	0.065	0.0	0.024
2gnr	3irb	21	21	0.0	0.0	0.0	0.0
2gnr	3irb	22	22	0.187	0.165	0.163	0.196
2gnr	3irb	23	23	0.651	0.49	0.632	0.482
2gnr	3irb	24	24	0.606	0.649	0.591	0.657
2gnr	3irb	25	25	0.133	0.136	0.132	0.282
2gnr	3irb	26	26	0.0	0.0	0.0	0.0
2gnr	3irb	30	30	0.326	0.285	0.352	0.39
2gnr	3irb	31	31	0.374	0.401	0.35	0.393
2gnr	3irb	33	33	0.0	0.0	0.0	0.0
2gnr	3irb	34	34	0.107	0.142	0.119	0.112
2gnr	3irb	35	35	0.217	0.209	0.24	0.222
2gnr	3irb	36	36	0.821	0.709	0.804	0.671
2gnr	3irb	37	37	0.173	0.229	0.17	0.279
2gnr	3irb	38	38	0.597	0.718	0.637	0.663
2gnr	3irb	39	39	0.814	0.824	0.797	0.824
2gnr	3irb	42	42	0.777	0.7	0.768	0.694
2gnr	3irb	44	44	0.0	0.0	0.0	0.0
2gnr	3irb	45	45	0.0	0.006	0.0	0.003
2gnr	3irb	46	46	0.02	0.037	0.021	0.051
2gnr	3irb	48	48	0.132	0.14	0.103	0.114
2gnr	3irb	49	49	0.0	0.0	0.0	0.0
2gnr	3irb	50	50	0.078	0.085	0.074	0.069
2gnr	3irb	53	53	0.722	0.84	0.732	0.71
2gnr	3irb	54	54	0.0	0.0	0.0	0.0
2gnr	3irb	55	55	0.048	0.039	0.046	0.077
2gnr	3irb	58	58	0.038	0.051	0.0	0.001
2gnr	3irb	59	59	0.25	0.253	0.245	0.256
2gnr	3irb	61	61	0.838	0.79	0.831	0.771
2gnr	3irb	62	62	0.631	0.591	0.633	0.627
2gnr	3irb	64	64	0.381	0.443	0.382	0.443
2gnr	3irb	65	65	0.9	1.0	0.9	1.0
2gnr	3irb	66	66	0.104	0.098	0.169	0.172
2gnr	3irb	67	67	0.181	0.219	0.182	0.164
2gnr	3irb	68	68	0.574	0.381	0.551	0.625
2gnr	3irb	69	69	0.868	0.868	0.964	0.943
2gnr	3irb	70	70	0.221	0.246	0.257	0.294
2gnr	3irb	71	71	0.254	0.198	0.255	0.148
2gnr	3irb	72	72	0.365	0.352	0.371	0.361
2gnr	3irb	73	73	0.691	0.617	0.933	0.867
2gnr	3irb	74	74	0.0	0.0	0.0	0.0
2gnr	3irb	75	75	0.035	0.014	0.043	0.032
2gnr	3irb	77	77	0.169	0.248	0.263	0.37
2gnr	3irb	79	79	0.593	0.639	0.568	0.843
2gnr	3irb	80	80	0.553	0.667	0.561	0.603
2gnr	3irb	81	81	0.342	0.335	0.393	0.316
2gnr	3irb	82	82	0.973	1.0	0.963	1.0
2gnr	3irb	84	84	0.897	0.919	0.905	0.916
2gnr	3irb	85	85	0.96	1.0	0.947	1.0
2gnr	3irb	86	86	0.641	0.698	0.685	0.732
2gnr	3irb	87	87	0.16	0.261	0.223	0.291
2gnr	3irb	88	88	0.647	0.636	0.616	0.622
2gnr	3irb	89	89	0.334	0.344	0.335	0.306
2gnr	3irb	92	92	0.239	0.339	0.234	0.243
2gnr	3irb	95	95	0.0	0.0	0.0	0.0
2gnr	3irb	96	96	0.233	0.492	0.278	0.582
2gnr	3irb	98	98	0.51	0.483	0.531	0.524
2gnr	3irb	99	99	0.486	0.483	0.483	0.509
2gnr	3irb	101	101	0.179	0.177	0.163	0.184
2gnr	3irb	102	102	0.206	0.228	0.218	0.236
2gnr	3irb	103	103	0.105	0.107	0.169	0.174
2gnr	3irb	104	104	0.635	0.492	0.641	0.668
2gnr	3irb	105	105	0.04	0.043	0.034	0.054
2gnr	3irb	106	106	0.0	0.0	0.0	0.0
2gnr	3irb	107	107	0.0	0.0	0.0	0.0
2gnr	3irb	108	108	0.378	0.42	0.378	0.392
2gnr	3irb	109	109	0.105	0.162	0.086	0.12
2gnr	3irb	110	110	0.0	0.0	0.0	0.0
2gnr	3irb	111	111	0.0	0.0	0.0	0.0
2gnr	3irb	112	112	0.0	0.0	0.0	0.0
2gnr	3irb	113	113	0.0	0.001	0.0	0.0
2gnr	3irb	114	114	0.267	0.203	0.27	0.203
2gnr	3irb	115	115	0.0	0.002	0.0	0.001
2gnr	3irb	116	116	0.283	0.316	0.264	0.285
2gnr	3irb	117	117	0.046	0.044	0.036	0.062
2gnr	3irb	118	118	0.0	0.0	0.0	0.0
2gnr	3irb	119	119	0.332	0.336	0.306	0.36
2gnr	3irb	120	120	0.132	0.332	0.184	0.35
2gnr	3irb	121	121	0.947	0.84	0.833	0.791
2gnr	3irb	122	122	0.823	0.677	0.75	0.58
2gnr	3irb	123	123	0.0	0.001	0.0	0.017
2gnr	3irb	124	124	0.0	0.0	0.0	0.0
2gnr	3irb	128	128	0.283	0.304	0.253	0.295
2gnr	3irb	129	129	0.0	0.0	0.0	0.0
2gnr	3irb	130	130	0.0	0.0	0.0	0.0
2gnr	3irb	131	131	0.121	0.241	0.172	0.231
2gnr	3irb	132	132	0.244	0.24	0.226	0.14
2gnr	3irb	134	134	0.321	0.377	0.362	0.403
2gnr	3irb	136	136	0.0	0.0	0.0	0.042
2gnr	3irb	137	137	0.42	0.419	0.271	0.35
2gnr	3irb	139	139	0.443	0.528	0.386	0.691
2gnr	3irb	140	140	0.39	0.427	0.31	0.323
2gnr	3irb	141	141	0.59	0.684	0.58	0.626
2gnr	3irb	142	142	0.503	0.574	0.499	0.627
2gnr	3irb	143	143	0.136	0.168	0.091	0.098
2gnr	3irb	144	144	0.0	0.001	0.0	0.001
2gnr	3irb	145	145	0.125	0.162	0.097	0.113
2gnr	3irb	146	146	0.028	0.078	0.04	0.092
2gnr	3irb	147	147	0.361	0.494	0.302	0.308
2gnr	3irb	148	148	0.207	0.203	0.223	0.237
2gnr	3irb	149	149	0.171	0.174	0.179	0.273
2gnr	3irb	152	152	0.565	0.539	0.554	0.552
2gnr	3irb	153	153	0.85	0.75	0.875	0.75
2gnr	3irb	154	154	0.488	0.622	0.655	0.773
2gnr	3irb	155	155	0.13	0.131	0.13	0.202
2gnr	3irb	156	156	0.022	0.017	0.011	0.017
2gnr	3irb	157	157	0.0	0.003	0.0	0.004
2gnr	3irb	158	158	0.135	0.137	0.145	0.131
2gnr	3irb	159	159	0.222	0.379	0.214	0.341
2gnr	3irb	160	160	0.228	0.431	0.245	0.222
2gnr	3irb	161	161	0.609	0.724	0.573	0.589
2gnr	3irb	162	162	0.818	0.845	0.818	0.849
2gnr	3irb	163	163	0.0	0.0	0.0	0.0
2gnr	3irb	164	164	0.609	0.696	0.606	0.693
2gnr	3irb	165	165	0.043	0.035	0.045	0.049
2gnr	3irb	166	166	0.804	0.855	0.8	0.84
2gnr	3irb	167	167	0.532	0.51	0.564	0.468
2gnr	3irb	169	169	0.24	0.267	0.236	0.274
2gnr	3irb	170	170	0.0	0.022	0.022	0.04
2gnr	3irb	171	171	0.0	0.0	0.0	0.0
2gnr	3irb	172	172	0.279	0.343	0.262	0.287
2gnr	3irb	173	173	0.161	0.141	0.166	0.151
2gnr	3irb	174	174	0.203	0.053	0.207	0.098
2gnr	3irb	175	175	0.707	0.744	0.823	0.863
2gnr	3irb	178	178	0.091	0.258	0.076	0.29
2gnr	3irb	179	179	0.326	0.368	0.337	0.382
2gnr	3irb	180	180	0.019	0.096	0.037	0.116
2gnr	3irb	181	181	0.866	0.769	0.87	0.776
2gnr	3irb	182	182	0.756	0.848	0.791	0.879
2gnr	3irb	183	183	0.72	0.728	0.731	0.653
2gnr	3irb	184	184	0.363	0.36	0.277	0.331
2gnr	3irb	185	185	0.898	0.91	0.93	0.907
2gnr	3irb	186	186	0.458	0.78	0.463	0.42
2gnr	3irb	187	187	1.0	0	1.0	0
2gnr	3irb	188	188	0.521	0.618	0.519	0.669
2gnr	3irb	191	191	0.286	0.186	0.27	0.241
2gnr	3irb	192	192	0.537	0.603	0.572	0.619
2gnr	3irb	193	193	0.324	0.355	0.324	0.354
2gnr	3irb	194	194	1.0	1.0	1.0	1.0
2gnr	3irb	195	195	0.401	0.384	0.403	0.399
2gnr	3irb	196	196	0.102	0.189	0.115	0.295
2gnr	3irb	198	198	0.658	0.615	0.662	0.615
2gnr	3irb	200	200	0.882	0.841	0.912	0.858
2gnr	3irb	201	201	0.946	0.638	0.942	0.608
2gnr	3irb	203	203	1.0	0	1.0	0
2gnr	3irb	204	204	0.133	0.2	0.139	0.033
2gnr	3irb	205	205	0.502	0.583	0.521	0.531
2gnr	3irb	207	207	0.218	0.064	0.24	0.057
2gnr	3irb	208	208	0.915	0.969	0.941	0.7
2gnr	3irb	209	209	0.909	0.982	0.891	0.982
2gnr	3irb	210	210	0.0	0.001	0.0	0.0
2gnr	3irb	211	211	0.299	0.401	0.282	0.311
2gnr	3irb	212	212	0.458	0.549	0.44	0.601
2gnr	3irb	213	213	0.56	0.815	0.523	0.793
2gnr	3irb	214	214	0.04	0.034	0.051	0.054
2gnr	3irb	220	220	0.0	0.0	0.0	0.0
2gnr	3irb	221	221	0.026	0.045	0.019	0.046
2gnr	3irb	222	222	0.0	0.001	0.0	0.0
2gnr	3irb	223	223	0.395	0.484	0.416	0.468
2gnr	3irb	224	224	0.45	0.72	0.473	0.674
2gnr	3irb	225	225	0.217	0.194	0.236	0.219
2gnr	3irb	228	228	0.0	0.062	0.094	0.051
2gnr	3irb	229	229	0.215	0.19	0.179	0.216
2gnr	3irb	230	230	0.804	0.742	0.849	0.809
2gnr	3irb	232	232	0.041	0.067	0.012	0.018
2gnr	3irb	233	233	0.631	0.721	0.566	0.571
2gnr	3irb	236	236	0.0	0.021	0.0	0.0
2gnr	3irb	237	237	0.29	0.267	0.298	0.29
2gnr	3irb	239	239	0.124	0.189	0.13	0.194
2gnr	3irb	240	240	0.026	0.049	0.014	0.028
2gnr	3irb	241	241	0.502	0.484	0.488	0.55
2gnr	3irb	242	242	0.337	0.325	0.354	0.323
2gnr	3irb	244	244	0.248	0.205	0.269	0.317
2gnr	3irb	245	245	0.0	0.0	0.0	0.0
2gnr	3irb	246	246	0.187	0.244	0.0	0.0
2gnr	3irb	247	247	0.202	0.36	0.166	0.331
2gnr	3irb	249	249	0.136	0.124	0.161	0.141
2gnr	3irb	250	250	0.545	0.596	0.482	0.474
2gnr	3irb	251	251	0.151	0.144	0.182	0.181
2gnr	3irb	252	252	0.074	0.08	0.086	0.082
2gnr	3irb	253	253	0.009	0.041	0.0	0.094
2gnr	3irb	257	257	0.084	0.099	0.087	0.084
2gnr	3irb	258	258	0.048	0.01	0.072	0.032
2gnr	3irb	261	261	0.636	0.678	0.58	0.566
2gnr	3irb	262	262	0.146	0.135	0.145	0.147
2gnr	3irb	263	263	0.051	0.074	0.097	0.096
2gnr	3irb	264	264	0.175	0.182	0.159	0.191
2gnr	3irb	265	265	0.3	0.328	0.485	0.538
2gnr	3irb	266	266	0.54	0.601	0.516	0.565
2gnr	3irb	267	267	0.023	0.011	0.023	0.026
2gnr	3irb	268	268	0.244	0.235	0.258	0.242
2gnr	3irb	269	269	0.389	0.318	0.41	0.357
2gnr	3irb	270	270	0.745	0.87	0.744	0.866
2gnr	3irb	271	271	0.251	0.257	0.287	0.268
2gnr	3irb	274	274	0.013	0.014	0.009	0.01
2gnr	3irb	275	275	0.287	0.362	0.283	0.274
2gnr	3irb	276	276	0.774	0.757	0.65	0.749
2gnr	3irb	277	277	0.924	0.792	0.932	0.896
2gnr	3irb	278	278	0.624	0.71	0.55	0.662
2gnr	3irb	279	279	0.896	0.851	0.873	0.912
2gnr	3irb	281	281	0.432	0.723	0.431	0.723
2gnr	3irb	282	282	0.162	0.202	0.186	0.231
2gnr	3irb	283	283	0.452	0.507	0.397	0.458
2gnr	3irb	284	284	0.902	0.774	0.908	0.771
2gnr	3irb	285	285	0.018	0.018	0.0	0.0
2gnr	3irb	287	287	0.426	0.469	0.426	0.46
2gnr	3irb	288	288	0.723	0.915	0.712	0.821
2gnr	3irb	289	289	0.043	0.043	0.045	0.048
2gnr	3irb	290	290	0.533	0.598	0.548	0.62
2gnr	3irb	291	291	0.194	0.182	0.17	0.212
2gnr	3irb	292	292	0.107	0.098	0.08	0.073
2gnr	3irb	293	293	0.512	0.432	0.513	0.43
2gnr	3irb	294	294	0.148	0.124	0.155	0.137
2gnr	3irb	296	296	0.33	0.267	0.341	0.397
2gnr	3irb	298	298	0.425	0.38	0.424	0.541
2gnr	3irb	299	299	0.505	0.734	0.538	0.609
2gnr	3irb	300	300	0.876	0.968	0.878	0.928
2gnr	3irb	301	301	0.115	0.116	0.166	0.173
2gnr	3irb	302	302	0.317	0.324	0.339	0.326
2gnr	3irb	303	303	0.28	0.115	0.296	0.561
2gnr	3irb	304	304	0.453	0.502	0.453	0.457
2gnr	3irb	305	305	0.041	0.004	0.025	0.278
2gnr	3irb	306	306	0.376	0.57	0.354	0.512
2gnr	3irb	307	307	0.706	0.805	0.718	0.82
2gnr	3irb	308	308	0.1	0.095	0.113	0.114
2gnr	3irb	309	309	0.0	0.0	0.0	0.0
2gnr	3irb	311	311	0.514	0.502	0.512	0.49
2gnr	3irb	312	312	0.418	0.371	0.36	0.356
2gnr	3irb	313	313	0.448	0.417	0.452	0.49
2gnr	3irb	315	315	0.261	0.269	0.327	0.335
2gnr	3irb	316	316	0.314	0.34	0.313	0.342
2gnr	3irb	318	318	0.435	0.475	0.436	0.474
2gnr	3irb	319	319	0.327	0.315	0.254	0.247
2gnr	3irb	320	320	0.072	0.047	0.129	0.08
2gnr	3irb	321	321	0.304	0.479	0.395	0.469
2gnr	3irb	324	324	0.338	0.298	0.315	0.47
2gnr	3irb	327	327	0.0	0.009	0.002	0.015
2gnr	3irb	328	328	0.0	0.0	0.0	0.0
2gnr	3irb	329	329	0.176	0.193	0.201	0.433
2gnr	3irb	330	330	0.163	0.162	0.185	0.184
2gnr	3irb	331	331	0.561	0.602	0.682	0.66
2gnr	3irb	332	332	0.185	0.229	0.173	0.216
2gnr	3irb	333	333	0.613	0.64	0.612	0.613
2gnr	3irb	334	334	0.81	0.852	0.801	0.862
2gnr	3irb	336	336	0.697	0.664	0.68	0.617
2gnr	3irb	338	338	0.0	0.0	0.0	0.0
2gnr	3irb	340	340	0.056	0.161	0.046	0.095
2gnr	3irb	342	342	0.422	0.497	0.395	0.408
2gnr	3irb	343	343	0.309	0.281	0.352	0.279
2gnr	3irb	344	344	0.104	0.201	0.138	0.121
2gnr	3irb	345	345	0.6	0.356	0.562	0.312
2gnr	3irb	346	346	0.634	0.671	0.563	0.625
2gnr	3irb	347	347	0.228	0.265	0.252	0.294
2gnr	3irb	348	348	0.176	0.196	0.256	0.271
2gnr	3irb	349	349	0.04	0.074	0.072	0.139
2gnr	3irb	350	350	0.355	0.478	0.337	0.5
2gnr	3irb	351	351	0.62	0.639	0.658	0.674
2gnr	3irb	353	353	0.0	0.0	0.0	0.0
2gnr	3irb	354	354	0.017	0.025	0.009	0.037
2gnr	3irb	357	357	0.536	0.598	0.476	0.65
2gnr	3irb	358	358	0.0	0.0	0.0	0.0
2gnr	3irb	359	359	0.013	0.016	0.002	0.026
2gnr	3irb	360	360	0.084	0.075	0.08	0.096
2gnr	3irb	361	361	0.38	0.393	0.368	0.343
2gnr	3irb	362	362	0.092	0.154	0.075	0.085
2gnr	3irb	363	363	0.055	0.031	0.035	0.021
2gnr	3irb	364	364	0.233	0.243	0.201	0.278
2gnr	3irb	365	365	0.306	0.32	0.293	0.311
2gnr	3irb	366	366	0.672	0.624	0.672	0.624
2gnr	3irb	367	367	0.717	0.999	0.699	0.422
2gnr	3irb	370	370	0.743	0.745	0.737	0.729
2gnr	3irb	371	371	0.187	0.168	0.161	0.181
2gnr	3irb	374	374	0.0	0.0	0.0	0.0
2gnr	3irb	375	375	0.0	0.0	0.0	0.0
2gnr	3irb	376	376	0.0	0.0	0.0	0.0
2gnr	3irb	379	379	0.453	0.477	0.393	0.508
2gnr	3irb	380	380	0.077	0.065	0.091	0.14
2gnr	3irb	381	381	0.152	0.15	0.14	0.231
2gnr	3irb	382	382	0.523	0.409	0.553	0.412
2gnr	3irb	383	383	0.875	0.892	0.867	0.8
2gnr	3irb	384	384	0.523	0.471	0.498	0.499
2gnr	3irb	385	385	0.802	0.78	0.847	0.821
2gnr	3irb	386	386	0.0	0.001	0.0	0.001
2gnr	3irb	387	387	0.069	0.064	0.075	0.07
2gnr	3irb	388	388	0.034	0.055	0.029	0.106
2gnr	3irb	389	389	0.243	0.24	0.252	0.485
2gnr	3irb	390	390	0.0	0.0	0.0	0.0
2gnr	3irb	391	391	0.049	0.017	0.059	0.013
2gnr	3irb	392	392	0.019	0.033	0.013	0.019
2gnr	3irb	393	393	0.376	0.519	0.36	0.445
2gnr	3irb	395	395	0.627	0.605	0.636	0.605
2gnr	3irb	396	396	0.38	0.473	0.368	0.446
2gnr	3irb	397	397	0.287	0.357	0.293	0.356
2gnr	3irb	398	398	0.59	0.729	0.529	0.605
2gnr	3irb	399	399	0.468	0.459	0.487	0.389
2gnr	3irb	400	400	0.749	0.805	0.723	0.8
2gnr	3irb	401	401	0.9	0.9	0.9	0.9
2gnr	3irb	402	402	0.404	0.53	0.395	0.429
2gnr	3irb	403	403	0.437	0.499	0.359	0.388
2gnr	3irb	404	404	0.517	0.597	0.474	0.521
2gnr	3irb	405	405	0.799	0.894	0.756	0.865
2gnr	3irb	406	406	0.403	0.272	0.444	0.262
2gnr	3irb	407	407	0.467	0.402	0.436	0.328
2gnr	3irb	408	408	0.293	0.287	0.333	0.421
2gnr	3irb	410	410	0.433	0.33	0.414	0.347
2gnr	3irb	411	411	0.826	0.768	0.827	0.712
2gnr	3irb	412	412	0.0	0.0	0.0	0.0
2gnr	3irb	413	413	0.102	0.212	0.075	0.031
2gnr	3irb	414	414	0.532	0.434	0.563	0.443
2gnr	3irb	416	416	0.793	0.939	0.85	0.63
2gnr	3irb	417	417	0.07	0.135	0.064	0.053
2gnr	3irb	418	418	0.0	0.032	0.0	0.029
2gnr	3irb	419	419	0.054	0.077	0.101	0.165
2gnr	3irb	420	420	0.042	0.161	0.035	0.125
2gnr	3irb	421	421	0.0	0.055	0.0	0.037
2gnr	3irb	422	422	0.56	0.611	0.587	0.538
2gnr	3irb	424	424	0.894	0.804	0.816	0.791
2gnr	3irb	425	425	0.442	0.53	0.419	0.49
2gnr	3irb	426	426	0.92	0.924	0.901	0.869
2gnr	3irb	427	427	0.63	0.724	0.584	0.586
2gnr	3irb	429	429	0.423	0.402	0.529	0.523
2gnr	3irb	430	430	0.0	0.007	0.0	0.0
2gnr	3irb	431	431	0.0	0.0	0.0	0.0
2gnr	3irb	432	432	0.125	0.06	0.141	0.068
2gnr	3irb	433	433	0.254	0.098	0.27	0.231
2gnr	3irb	434	434	0.038	0.031	0.025	0.089
2gnr	3irb	435	435	0.704	0.734	0.712	0.683
2gnr	3irb	436	436	0.578	0.619	0.558	0.495
2gnr	3irb	437	437	0.26	0.234	0.261	0.236
2gnr	3irb	438	438	0.0	0.001	0.0	0.0
2gnr	3irb	439	439	0.0	0.008	0.0	0.004
2gnr	3irb	440	440	0.042	0.089	0.04	0.067
2gnr	3irb	441	441	0.148	0.199	0.125	0.187
2gnr	3irb	442	442	0.0	0.007	0.0	0.005
2gnr	3irb	443	443	0.0	0.0	0.0	0.0
2gnr	3irb	444	444	0.047	0.034	0.06	0.055
2gnr	3irb	445	445	0.0	0.0	0.0	0.007
2gnr	3irb	446	446	0.111	0.175	0.189	0.167
2gnr	3irb	447	447	0.297	0.386	0.306	0.385
2gnr	3irb	448	448	0.518	0.462	0.543	0.555
2gnr	3irb	450	450	0.0	0.0	0.0	0.0
2gnr	3irb	451	451	0.088	0.115	0.054	0.081
2gnr	3irb	453	453	0.715	0.971	0.68	0.698
2gnr	3irb	454	454	0.602	0.709	0.669	0.778
2gnr	3irb	456	456	0.723	0.751	0.674	0.815
2gnr	3irb	458	458	0.596	0.594	0.583	0.588
2gnr	3irb	459	459	0.383	0.437	0.51	0.631
2gnr	3irb	460	460	0.304	0.495	0.286	0.305
2gnr	3irb	461	461	0.638	0.731	0.632	0.656
2gnr	3irb	462	462	0.454	0.496	0.376	0.408
2gnr	3irb	463	463	0.742	0.683	0.742	0.691
2gnr	3irb	464	464	0.856	0.692	0.856	0.692
2gnr	3irb	465	465	0.85	0.0	0.85	0.0
2gnr	3irb	467	467	0.434	0.412	0.413	0.387
2gnr	3irb	468	468	0.224	0.174	0.214	0.272
2gnr	3irb	469	469	0.0	0.008	0.0	0.157
2gnr	3irb	470	470	0.328	0.439	0.349	0.389
2gnr	3irb	471	471	0.0	0.029	0.0	0.042
2gnr	3irb	472	472	0.593	0.632	0.567	0.491
2gnr	3irb	473	473	0.402	0.397	0.377	0.508
2gnr	3irb	474	474	0.373	0.368	0.42	0.538
2gnr	3irb	475	475	0.516	0.525	0.365	0.369
2gnr	3irb	476	476	0.306	0.615	0.243	0.062
2gnr	3irb	477	477	0.214	0.453	0.271	0.312
2gnr	3irb	478	478	0.503	0.324	0.544	0.626
2gnr	3irb	479	479	0.071	0.078	0.055	0.088
2gnr	3irb	480	480	0.515	0.345	0.5	0.465
2gnr	3irb	483	483	0.064	0.157	0.063	0.171
2gnr	3irb	484	484	0.205	0.199	0.227	0.204
2gnr	3irb	488	488	0.704	0.801	0.714	0.701
2gnr	3irb	490	490	0.295	0.399	0.297	0.439
2gnr	3irb	491	491	0.755	0.727	0.769	0.769
2gnr	3irb	492	492	0.126	0.017	0.14	0.102
2gnr	3irb	493	493	0.438	0.262	0.35	0.165
2gnr	3irb	495	495	0.84	0.854	0.759	0.754
2gnr	3irb	496	496	0.279	0.267	0.345	0.528
2gnr	3irb	497	497	0.587	0.638	0.611	0.618
2gnr	3irb	498	498	0.0	0.032	0.035	0.082
2gnr	3irb	501	501	0.0	0.01	0.053	0.263
2gnr	3irb	502	502	0.196	0.15	0.204	0.247
2gnr	3irb	503	503	0.01	0.014	0.062	0.09
2gnr	3irb	505	505	0.465	0.479	0.425	0.443
2gnr	3irb	506	506	0.53	0.522	0.541	0.509
2gnr	3irb	507	507	0.0	0.0	0.0	0.0
2gnr	3irb	508	508	0.173	0.201	0.186	0.247
2gnr	3irb	509	509	0.197	0.23	0.197	0.218
2gnr	3irb	510	510	0.341	0.341	0.376	0.345
2gnr	3irb	511	511	0.0	0.0	0.0	0.0
2gnr	3irb	513	513	0.585	0.642	0.553	0.583
2gnr	3irb	515	515	0.165	0.194	0.133	0.15
2gnr	3irb	516	516	0.429	0.432	0.424	0.432
2gnr	3irb	517	517	0.54	0.573	0.537	0.574
2gnr	3irb	518	518	0.163	0.131	0.173	0.169
2gnr	3irb	519	519	0.0	0.0	0.0	0.0
2gnr	3irb	520	520	0.0	0.0	0.0	0.0
2gnr	3irb	521	521	0.121	0.108	0.077	0.055
2gnr	3irb	522	522	0.0	0.0	0.0	0.0
2gnr	3irb	523	523	0.701	0.845	0.715	0.713
2gnr	3irb	524	524	0.182	0.255	0.211	0.178
2gnr	3irb	525	525	0.0	0.0	0.0	0.0
2gnr	3irb	526	526	0.0	0.0	0.0	0.0
2gnr	3irb	527	527	0.0	0.016	0.0	0.021
2gnr	3irb	528	528	0.923	0.854	0.938	0.854
2gnr	3irb	529	529	0.0	0.0	0.009	0.016
2gnr	3irb	530	530	0.009	0.003	0.015	0.009
2gnr	3irb	531	531	0.082	0.072	0.066	0.065
2gnr	3irb	532	532	0.738	0.723	0.729	0.723
2gnr	3irb	533	533	0.228	0.355	0.162	0.36
2gnr	3irb	535	535	0.001	0.0	0.028	0.004
2gnr	3irb	536	536	0.036	0.106	0.026	0.078
2gnr	3irb	537	537	0.282	0.244	0.23	0.32
2gnr	3irb	538	538	0.794	0.845	0.812	0.867
2gnr	3irb	539	539	0.015	0.012	0.004	0.006
2gnr	3irb	540	540	0.375	0.309	0.361	0.308
2gnr	3irb	541	541	0.66	0.73	0.656	0.727
2gnr	3irb	542	542	0.9	0.99	0.891	0.991
2gnr	3irb	544	544	0.816	0.839	0.829	0.815
2gnr	3irb	545	545	0.015	0.024	0.0	0.003
2gnr	3irb	546	546	0.631	0.568	0.625	0.648
2gnr	3irb	547	547	0.642	0.773	0.641	0.667
2gnr	3irb	548	548	0.185	0.22	0.145	0.195
2gnr	3irb	549	549	0.264	0.266	0.163	0.149
2gnr	3irb	550	550	0.621	0.726	0.642	0.779
2gnr	3irb	551	551	0.36	0.13	0.402	0.304
2gnr	3irb	552	552	0.533	0.544	0.5	0.463
2gnr	3irb	553	553	0.884	0.849	0.811	0.816
2gnr	3irb	555	555	0.843	0.757	0.868	0.492
2gnr	3irb	556	556	0.189	0.194	0.238	0.29
2gnr	3irb	557	557	0.41	0.268	0.445	0.275
2gnr	3irb	558	558	0.0	0.0	0.0	0.0
2gnr	3irb	560	560	0.786	0.921	0.82	0.927
2gnr	3irb	561	561	0.919	0.932	0.896	0.856
2gnr	3irb	562	562	0.941	1.0	0.941	1.0
2gnr	3irb	563	563	0.0	0.006	0.629	0.665
2gnr	3irb	564	564	0.142	0.127	0.126	0.171
2gnr	3irb	566	566	0.545	0.566	0.507	0.464
2gnr	3irb	567	567	0.752	0.725	0.74	0.722
2gnr	3irb	569	569	0.204	0.209	0.231	0.227
2gnr	3irb	570	570	0.292	0.379	0.297	0.345
2gnr	3irb	571	571	0.472	0.532	0.507	0.546
2gnr	3irb	574	574	0.572	0.527	0.563	0.518
2gnr	3irb	575	575	0.55	0.568	0.567	0.717
2gnr	3irb	576	576	0.48	0.504	0.462	0.441
2gnr	3irb	581	581	0.599	0.579	0.635	0.641
2gnr	3irb	582	582	0.026	0.074	0.013	0.077
2gnr	3irb	583	583	0.027	0.033	0.019	0.016
2gnr	3irb	584	584	0.0	0.0	0.0	0.0
2gnr	3irb	585	585	0.35	0.292	0.338	0.278
2gnr	3irb	586	586	0.098	0.148	0.121	0.129
2gnr	3irb	587	587	0.0	0.0	0.0	0.0
2gnr	3irb	588	588	0.0	0.0	0.0	0.0
2gnr	3irb	589	589	0.0	0.0	0.0	0.0
2gnr	3irb	592	592	0.013	0.033	0.007	0.012
2gnr	3irb	593	593	0.293	0.334	0.327	0.332
2gnr	3irb	594	594	0.0	0.001	0.0	0.0
2gnr	3irb	595	595	0.0	0.0	0.0	0.0
2gnr	3irb	598	598	0.83	0.802	0.814	0.793
2gnr	3irb	599	599	0.775	0.65	0.814	0.7
2gnr	3irb	600	600	0.0	0.002	0.002	0.018
2gnr	3irb	601	601	0.0	0.0	0.0	0.0
2gnr	3irb	602	602	0.0	0.021	0.005	0.028
2gnr	3irb	603	603	0.36	0.382	0.369	0.356
2gnr	3irb	604	604	0.149	0.106	0.182	0.16
2gnr	3irb	606	606	0.0	0.0	0.0	0.0
2gnr	3irb	607	607	0.0	0.028	0.0	0.003
2gnr	3irb	608	608	0.137	0.185	0.129	0.202
2gnr	3irb	609	609	0.258	0.247	0.196	0.188
2gnr	3irb	610	610	0.086	0.228	0.129	0.267
2gnr	3irb	611	611	0.334	0.433	0.288	0.345
2gnr	3irb	613	613	0.05	0.045	0.0	0.014
2gnr	3irb	614	614	0.324	0.301	0.338	0.323
2gnr	3irb	617	617	0.365	0.453	0.374	0.468
2gnr	3irb	618	618	0.576	0.61	0.563	0.595
2gnr	3irb	619	619	0.514	0.695	0.525	0.787
2gnr	3irb	620	620	0.152	0.15	0.129	0.153
2gnr	3irb	621	621	0.0	0.003	0.0	0.012
2gnr	3irb	622	622	0.177	0.14	0.049	0.139
2gnr	3irb	623	623	0.046	0.123	0.042	0.146
2gnr	3irb	624	624	0.365	0.478	0.33	0.488
2gnr	3irb	625	625	0.24	0.238	0.231	0.396
2gnr	3irb	626	626	0.193	0.182	0.209	0.248
2gnr	3irb	627	627	0.0	0.0	0.0	0.0
2gnr	3irb	628	628	0.0	0.0	0.0	0.0
2gnr	3irb	629	629	0.479	0.499	0.512	0.588
2gnr	3irb	630	630	0.915	0.878	0.909	0.978
2gnr	3irb	632	632	0.463	0.46	0.432	0.438
2gnr	3irb	633	633	0.022	0.033	0.022	0.039
2gnr	3irb	634	634	0.0	0.0	0.0	0.005
2gnr	3irb	636	636	0.142	0.151	0.149	0.15
2gnr	3irb	637	637	0.47	0.516	0.479	0.516
2gnr	3irb	639	639	0.818	0.821	0.821	0.821
2gnr	3irb	640	640	0.114	0.113	0.0	0.0
2gnr	3irb	641	641	0.593	0.702	0.635	0.644
2gnr	3irb	642	642	0.024	0.029	0.029	0.044
2gnr	3irb	643	643	0.834	0.834	0.824	0.831
2gnr	3irb	644	644	0.488	0.459	0.508	0.641
2gnr	3irb	645	645	1.0	0	1.0	0
2gnr	3irb	646	646	0.0	0.0	0.0	0.0
2gnr	3irb	647	647	0.0	0.002	0.0	0.015
2gnr	3irb	648	648	0.0	0.0	0.0	0.0
2gnr	3irb	650	650	0.451	0.401	0.443	0.615
2gnr	3irb	651	651	0.137	0.16	0.215	0.464
2gnr	3irb	652	652	0.872	0.911	0.897	0.713
2gnr	3irb	655	655	0.072	0.248	0.085	0.192
2gnr	3irb	657	657	0.031	0.127	0.025	0.109
2gnr	3irb	658	658	0.7	0.0	0.891	0.782
2gnr	3irb	659	659	0.721	0.762	0.734	0.812
2gnr	3irb	660	660	0.722	0.73	0.731	0.808
2gnr	3irb	661	661	0.372	0.356	0.366	0.389
2gnr	3irb	662	662	0.76	0.665	0.792	0.827
2gnr	3irb	666	666	1.0	0	1.0	0
2gnr	3irb	668	668	0.655	0.744	0.679	0.679
2gnr	3irb	670	670	0.136	0.173	0.087	0.137
2gnr	3irb	672	672	0.054	0.064	0.07	0.041
2gnr	3irb	673	673	0.09	0.3	0.069	0.049
2gnr	3irb	674	674	0.0	0.0	0.0	0.0
2gnr	3irb	675	675	1.0	0	1.0	0
2gnr	3irb	676	676	0.101	0.113	0.131	0.147
2gnr	3irb	677	677	0.319	0.328	0.332	0.378
2gnr	3irb	678	678	0.7	0.671	0.9	0.2
2gnr	3irb	679	679	0.544	0.501	0.538	0.646
2gnr	3irb	680	680	1.0	0	1.0	0
2gnr	3irb	681	681	0.128	0.041	0.121	0.052
2gnr	3irb	682	682	0.321	0.543	0.288	0.526
2gnr	3irb	683	683	0.433	0.42	0.436	0.439
2gnr	3irb	684	684	0.485	0.72	0.466	0.71
2gnr	3irb	685	685	0.315	0.433	0.333	0.5
2gnr	3irb	688	688	0.323	0.341	0.28	0.342
2gnr	3irb	689	689	0.43	0.514	0.457	0.586
2gnr	3irb	690	690	0.534	0.641	0.531	0.599
2gnr	3irb	692	692	0.0	0.02	0.0	0.006
2gnr	3irb	693	693	0.0	0.0	0.0	0.0
2gnr	3irb	694	694	0.0	0.0	0.0	0.0
2gnr	3irb	695	695	0.0	0.009	0.0	0.042
2gnr	3irb	696	696	0.0	0.0	0.0	0.0
2gnr	3irb	697	697	0.124	0.086	0.105	0.126
2gnr	3irb	699	699	0.0	0.0	0.0	0.0
2gnr	3irb	700	700	0.473	0.657	0.483	0.738
2gnr	3irb	701	701	0.568	0.899	0.485	0.72
2gnr	3irb	702	702	0.574	0.65	0.503	0.694
2gnr	3irb	703	703	0.548	0.511	0.55	0.543
2gnr	3irb	705	705	0.651	0.718	0.635	0.592
2gnr	3irb	706	706	0.06	0.078	0.051	0.148
2gnr	3irb	707	707	0.63	0.747	0.666	0.898
2gnr	3irb	708	708	0.673	0.654	0.683	0.76
2gnr	3irb	709	709	0.774	0.74	0.027	0.039
2gnr	3irb	711	711	0.311	0.273	0.344	0.364
2gnr	3irb	713	713	0.0	0.0	0.0	0.0
2gnr	3irb	719	719	0.287	0.281	0.336	0.465
2gnr	3irb	721	721	0.24	0.245	0.14	0.108
2gnr	3irb	722	722	0.0	0.0	0.0	0.0
2gnr	3irb	723	723	0.008	0.017	0.0	0.006
2gnr	3irb	724	724	0.183	0.173	0.123	0.125
2gnr	3irb	726	726	0.201	0.247	0.207	0.254
2gnr	3irb	727	727	0.594	0.575	0.51	0.511
2gnr	3irb	728	728	0.203	0.207	0.073	0.084
2gnr	3irb	729	729	0.097	0.097	0.093	0.097
2gnr	3irb	730	730	0.029	0.028	0.03	0.045
2gnr	3irb	731	731	0.0	0.009	0.0	0.016
2gnr	3irb	732	732	0.598	0.473	0.527	0.417
2gnr	3irb	734	734	0.075	0.091	0.058	0.187
2gnr	3irb	735	735	0.332	0.371	0.378	0.411
2gnr	3irb	736	736	0.681	0.715	0.664	0.674
2gnr	3irb	737	737	0.853	0.734	0.803	0.745
2gnr	3irb	738	738	0.626	0.574	0.606	0.569
2gnr	3irb	739	739	0.095	0.08	0.147	0.156
2gnr	3irb	740	740	0.065	0.072	0.062	0.075
2gnr	3irb	741	741	0.757	0.812	0.747	0.805
2gnr	3irb	745	745	0.084	0.063	0.128	0.106
2gnr	3irb	746	746	0.613	0.732	0.659	0.743
2gnr	3irb	747	747	0.398	0.315	0.417	0.335
2gnr	3irb	751	751	0.0	0.023	0.017	0.069
2gnr	3irb	752	752	0.316	0.323	0.33	0.367
2gnr	3irb	753	753	0.821	0.763	0.856	0.917
2gnr	3irb	754	754	0.64	0.797	0.655	0.594
2gnr	3irb	755	755	0.211	0.196	0.238	0.266
2gnr	3irb	756	756	0.797	0.977	0.816	0.978
2gnr	3irb	757	757	0.534	0.664	0.551	0.649
2gnr	3irb	758	758	0.175	0.173	0.169	0.19
2gnr	3irb	759	759	0.039	0.059	0.025	0.034
2gnr	3irb	760	760	0.378	0.404	0.387	0.429
2gnr	3irb	762	762	0.0	0.0	0.0	0.0
2gnr	3irb	767	767	0.0	0.0	0.0	0.0
2gnr	3irb	768	768	0.594	0.565	0.561	0.626
2gnr	3irb	769	769	0.13	0.098	0.187	0.158
2gnr	3irb	770	770	0.51	0.555	0.547	0.523
2gnr	3irb	771	771	0.064	0.057	0.036	0.054
2gnr	3irb	772	772	0.0	0.038	0.0	0.0
2gnr	3irb	773	773	0.586	0.784	0.319	0.127
2gnr	3irb	774	774	0.46	0.683	0.395	0.441
2gnr	3irb	776	776	0.538	0.61	0.536	0.671
2gnr	3irb	779	779	0.269	0.29	0.273	0.238
2gnr	3irb	780	780	0.262	0.157	0.255	0.445
2gnr	3irb	781	781	0.48	0.482	0.433	0.469
2gnr	3irb	784	784	0.455	0.552	0.476	0.6
2gnr	3irb	786	786	0.193	0.182	0.214	0.147
2gnr	3irb	787	787	0.919	0.91	0.958	0.963
2gnr	3irb	789	789	0.638	0.645	0.67	0.705
2gnr	3irb	791	791	0.246	0.386	0.27	0.409
2gnr	3irb	792	792	0.193	0.205	0.185	0.168
2gnr	3irb	793	793	0.322	0.301	0.335	0.307
2gnr	3irb	794	794	0.575	0.626	0.528	0.555
2gnr	3irb	795	795	0.434	0.446	0.458	0.48
2gnr	3irb	797	797	0.19	0.207	0.249	0.204
2gnr	3irb	799	799	0.0	0.009	0.0	0.06
2gnr	3irb	800	800	0.134	0.099	0.116	0.11
2gnr	3irb	801	801	0.183	0.305	0.191	0.358
2gnr	3irb	803	803	0.616	0.682	0.564	0.61
2gnr	3irb	804	804	0.0	0.017	0.001	0.018
2gnr	3irb	805	805	0.0	0.0	0.0	0.0
2gnr	3irb	806	806	0.299	0.455	0.276	0.402
2gnr	3irb	808	808	0.788	0.843	0.764	0.754
2gnr	3irb	809	809	0.644	0.658	0.625	0.667
2gnr	3irb	810	810	0.394	0.519	0.426	0.472
2gnr	3irb	811	811	0.693	0.771	0.678	0.72
2gnr	3irb	813	813	0.8	0.871	0.793	0.871
2gnr	3irb	815	815	0.0	0.0	0.0	0.0
2gnr	3irb	819	819	0.425	0.443	0.43	0.516
2gnr	3irb	820	820	0.167	0.148	0.156	0.142
2gnr	3irb	821	821	0.21	0.18	0.208	0.189
2gnr	3irb	822	822	0.875	0.808	0.957	0.914
2gnr	3irb	823	823	0.582	0.583	0.577	0.581
2gnr	3irb	824	824	0.328	0.389	0.33	0.395
2gnr	3irb	826	826	0.265	0.347	0.235	0.221
2gnr	3irb	828	828	0.879	0.807	0.701	0.792
2gnr	3irb	830	830	0.0	0.0	0.0	0.0
2gnr	3irb	831	831	0.075	0.054	0.064	0.057
2gnr	3irb	832	832	0.607	0.801	0.579	0.475
2gnr	3irb	835	835	0.0	0.0	0.01	0.029
2gnr	3irb	836	836	0.227	0.24	0.203	0.411
2gnr	3irb	840	840	0.05	0.031	0.053	0.039
2gnr	3irb	841	841	0.221	0.28	0.263	0.32
2gnr	3irb	842	842	0.446	0.384	0.46	0.377
2gnr	3irb	843	843	0.693	0.567	0.689	0.567
2gnr	3irb	844	844	0.817	0.837	0.827	0.803
2gnr	3irb	845	845	0.311	0.412	0.327	0.399
2gnr	3irb	846	846	0.243	0.193	0.271	0.422
2gnr	3irb	848	848	0.048	0.16	0.048	0.136
2gnr	3irb	849	849	0.722	0.764	0.736	0.793
2gnr	3irb	850	850	0.912	0.575	0.92	0.52
2gnr	3irb	851	851	0.0	0.0	0.0	0.0
2gnr	3irb	852	852	0.0	0.0	0.0	0.0
2gnr	3irb	853	853	0.045	0.058	0.04	0.056
2gnr	3irb	854	854	0.086	0.146	0.207	0.196
2gnr	3irb	855	855	0.098	0.091	0.099	0.081
2gnr	3irb	857	857	0.175	0.162	0.195	0.195
2gnr	3irb	858	858	0.425	0.457	0.469	0.476
2gnr	3irb	860	860	1.0	0.95	1.0	0.933
2gnr	3irb	862	862	0.174	0.204	0.156	0.115
2gnr	3irb	865	865	0.022	0.105	0.021	0.12
2gnr	3irb	866	866	0.254	0.282	0.256	0.495
2gnr	3irb	867	867	0.022	0.06	0.015	0.004
2gnr	3irb	868	868	0.0	0.009	0.001	0.03
2gnr	3irb	869	869	0.039	0.108	0.038	0.024
2gnr	3irb	870	870	0.261	0.389	0.276	0.432
2gnr	3irb	871	871	0.003	0.041	0.016	0.079
2gnr	3irb	872	872	0.025	0.005	0.03	0.002
2gnr	3irb	873	873	0.31	0.358	0.267	0.294
2gnr	3irb	875	875	0.475	0.32	0.49	0.454
2gnr	3irb	876	876	0.338	0.302	0.347	0.378
2gnr	3irb	877	877	0.778	0.822	0.787	0.822
2gnr	3irb	878	878	1.0	0	1.0	0
2gnr	3irb	879	879	0.491	0.611	0.434	0.451
2gnr	3irb	880	880	0.23	0.399	0.246	0.439
2gnr	3irb	885	885	0.531	0.36	0.349	0.57
2gnr	3irb	886	886	0.634	0.814	0.687	0.907
2gnr	3irb	889	889	0.0	0.0	0.0	0.0
2gnr	3irb	890	890	0.558	0.618	0.512	0.605
2gnr	3irb	891	891	0.58	0.62	0.67	0.642
2gnr	3irb	892	892	0.31	0.269	0.298	0.297
2gnr	3irb	893	893	0.492	0.539	0.697	0.578
2gnr	3irb	894	894	0.094	0.137	0.257	0.198
2gnr	3irb	895	895	0.0	0.0	0.0	0.0
2gnr	3irb	899	899	0.248	0.305	0.234	0.308
2gnr	3irb	900	900	0.684	0.58	0.708	0.711
2gnr	3irb	902	902	0.373	0.559	0.423	0.465
2gnr	3irb	905	905	0.658	0.857	0.644	0.571
2gnr	3irb	907	907	0.013	0.011	0.0	0.003
2gnr	3irb	909	909	0.318	0.242	0.151	0.032
2gnr	3irb	914	914	0.031	0.042	0.064	0.06
2gnr	3irb	917	917	0.025	0.053	0.05	0.046
2gnr	3irb	918	918	0.148	0.192	0.147	0.259
2gnr	3irb	920	920	0.0	0.0	0.0	0.0
2gnr	3irb	921	921	0.045	0.03	0.064	0.056
2gnr	3irb	922	922	0.0	0.0	0.0	0.0
2gnr	3irb	923	923	0.214	0.249	0.207	0.2
2gnr	3irb	924	924	0.353	0.356	0.307	0.317
2gnr	3irb	925	925	0.586	0.544	0.544	0.551
2gnr	3irb	926	926	0.0	0.0	0.0	0.0
2gnr	3irb	927	927	0.0	0.0	0.0	0.0
2gnr	3irb	928	928	0.272	0.305	0.267	0.317
2gnr	3irb	930	930	0.241	0.374	0.23	0.302
2gnr	3irb	931	931	0.644	0.825	0.688	0.783
2gnr	3irb	932	932	0.319	0.361	0.32	0.676
2gnr	3irb	933	933	0.659	0.691	0.65	0.654
2gnr	3irb	934	934	0.867	0.715	0.883	0.807
2gnr	3irb	935	935	0.56	0.581	0.569	0.585
2gnr	3irb	936	936	0.348	0.354	0.303	0.334
2gnr	3irb	937	937	0.297	0.37	0.247	0.366
2gnr	3irb	938	938	0.642	0.636	0.584	0.601
2gnr	3irb	939	939	0.371	0.563	0.363	0.608
2gnr	3irb	940	940	0.807	0.872	0.799	0.872
2gnr	3irb	941	941	0.882	0.827	0.818	0.827
2gnr	3irb	943	943	0.577	0.571	0.574	0.571
2gnr	3irb	944	944	0.461	0.577	0.394	0.389
2gnr	3irb	945	945	0.314	0.431	0.295	0.317
2gnr	3irb	946	946	0.578	0.421	0.648	0.311
2gnr	3irb	947	947	0.184	0.164	0.114	0.116
2gnr	3irb	948	948	0.359	0.497	0.342	0.353
2gnr	3irb	949	949	0.462	0.444	0.438	0.386
2gnr	3irb	951	951	0.384	0.393	0.34	0.42
2gnr	3irb	953	953	0.0	0.0	0.0	0.0
2gnr	3irb	954	954	0.073	0.259	0.092	0.163
2gnr	3irb	956	956	0.039	0.165	0.036	0.144
2gnr	3irb	957	957	0.505	0.494	0.368	0.377
2gnr	3irb	958	958	0.0	0.0	0.0	0.0
2gnr	3irb	964	964	0.296	0.481	0.353	0.583
2gnr	3irb	966	966	0.0	0.001	0.0	0.079
