pred	succ	p-cen	s-cen	p_q-score	p_s-score	s_q-score	s_s-score
3cpn	3k1u	19	13	0.824	0.828	0.826	0.839
3cpn	3k1u	22	16	0.66	0.695	0.675	0.695
3cpn	3k1u	23	17	0.522	0.564	0.488	0.358
3cpn	3k1u	27	21	0.0	0.0	0.0	0.0
3cpn	3k1u	28	22	0.0	0.0	0.0	0.0
3cpn	3k1u	29	23	0.411	0.369	0.394	0.621
3cpn	3k1u	30	24	0.13	0.228	0.092	0.212
3cpn	3k1u	31	25	0.538	0.397	0.545	0.414
3cpn	3k1u	32	26	0.179	0.207	0.211	0.114
3cpn	3k1u	33	27	0.15	0.288	0.135	0.232
3cpn	3k1u	34	28	0.0	0.007	0.0	0.037
3cpn	3k1u	36	30	0.174	0.181	0.225	0.226
3cpn	3k1u	37	31	0.066	0.098	0.033	0.059
3cpn	3k1u	38	32	0.197	0.328	0.138	0.279
3cpn	3k1u	39	33	0.151	0.174	0.116	0.191
3cpn	3k1u	40	34	0.875	0.75	0.875	0.75
3cpn	3k1u	41	35	0.667	0.711	0.705	0.847
3cpn	3k1u	42	36	0.561	0.48	0.592	0.8
3cpn	3k1u	43	37	0.456	0.325	0.469	0.635
3cpn	3k1u	44	38	0.805	0.828	0.741	0.664
3cpn	3k1u	45	39	0.55	0.608	0.526	0.821
3cpn	3k1u	46	40	1.0	0	1.0	0
3cpn	3k1u	47	41	0.85	0.883	0.836	0.873
3cpn	3k1u	48	42	0.662	0.674	0.66	0.674
3cpn	3k1u	49	43	0.72	0.7	0.7	0.7
3cpn	3k1u	50	44	0.95	0.787	0.95	0.787
3cpn	3k1u	51	45	0.733	0.7	0.733	0.7
3cpn	3k1u	52	46	0.823	0.768	0.823	0.768
3cpn	3k1u	53	47	0.676	0.739	0.679	0.739
3cpn	3k1u	54	48	0.566	0.613	0.575	0.743
3cpn	3k1u	55	49	0.0	0.0	0.0	0.003
3cpn	3k1u	56	50	0.0	0.0	0.0	0.0
3cpn	3k1u	57	51	0.0	0.005	0.0	0.01
3cpn	3k1u	59	53	0.056	0.137	0.057	0.138
3cpn	3k1u	60	54	0.172	0.242	0.185	0.266
3cpn	3k1u	61	55	1.0	0	1.0	0
3cpn	3k1u	62	56	0.9	0.9	0.895	0.902
3cpn	3k1u	63	57	0.875	1.0	0.85	1.0
3cpn	3k1u	64	58	0.742	0.8	0.687	0.68
3cpn	3k1u	65	59	0.011	0.024	0.016	0.05
3cpn	3k1u	66	60	0.0	0.0	0.0	0.0
3cpn	3k1u	67	61	0.004	0.047	0.0	0.043
3cpn	3k1u	68	62	0.013	0.009	0.023	0.025
3cpn	3k1u	69	63	0.474	0.515	0.472	0.515
3cpn	3k1u	70	64	0.881	0.695	0.846	0.705
3cpn	3k1u	72	66	0.625	0.724	0.613	0.698
3cpn	3k1u	73	67	0.858	0.876	0.838	0.831
3cpn	3k1u	74	68	1.0	0.7	1.0	0.7
3cpn	3k1u	75	69	0.317	0.35	0.321	0.28
3cpn	3k1u	76	70	0.728	0.687	0.727	0.687
3cpn	3k1u	77	71	0.567	0.529	0.572	0.528
3cpn	3k1u	78	72	0.875	0.795	0.879	0.871
3cpn	3k1u	79	73	0.525	0.611	0.513	0.517
3cpn	3k1u	81	75	0.226	0.272	0.249	0.274
3cpn	3k1u	82	76	0.539	0.553	0.521	0.532
3cpn	3k1u	83	77	0.501	0.538	0.461	0.488
3cpn	3k1u	84	78	0.05	0.061	0.043	0.099
3cpn	3k1u	85	79	0.006	0.041	0.006	0.041
3cpn	3k1u	86	80	0.571	0.515	0.564	0.514
3cpn	3k1u	87	81	0.652	0.645	0.561	0.594
3cpn	3k1u	88	82	0.032	0.098	0.031	0.02
3cpn	3k1u	89	83	0.062	0.09	0.063	0.113
3cpn	3k1u	90	84	0.131	0.18	0.157	0.341
3cpn	3k1u	91	85	0.0	0.003	0.0	0.002
3cpn	3k1u	92	86	0.237	0.365	0.247	0.395
3cpn	3k1u	93	87	0.73	0.81	0.755	0.92
3cpn	3k1u	94	88	0.022	0.026	0.025	0.03
3cpn	3k1u	95	89	0.582	0.654	0.594	0.753
3cpn	3k1u	96	90	0.595	0.782	0.565	0.686
3cpn	3k1u	97	91	0.526	0.456	0.523	0.456
3cpn	3k1u	98	92	0.578	0.0	0.61	0.534
3cpn	3k1u	99	93	0.516	0.0	0.502	0.768
3cpn	3k1u	100	94	0.345	0.245	0.325	0.406
3cpn	3k1u	101	95	0.564	0.554	0.541	0.51
3cpn	3k1u	102	96	0.544	0.553	0.489	0.445
3cpn	3k1u	103	97	0.399	0.354	0.413	0.355
3cpn	3k1u	104	98	0.6	0.556	0.594	0.556
3cpn	3k1u	105	99	0.399	0.403	0.367	0.425
3cpn	3k1u	106	100	0.397	0.362	0.422	0.503
3cpn	3k1u	107	101	0.003	0.0	0.0	0.0
3cpn	3k1u	108	102	0.495	0.43	0.526	0.572
3cpn	3k1u	109	103	0.718	0.725	0.718	0.725
3cpn	3k1u	110	104	0.658	0.672	0.66	0.676
3cpn	3k1u	111	105	0.0	0.0	0.0	0.0
3cpn	3k1u	112	106	0.614	0.453	0.594	0.427
3cpn	3k1u	113	107	0.305	0.457	0.316	0.299
3cpn	3k1u	114	108	0.415	0.411	0.402	0.408
3cpn	3k1u	115	109	0.716	0.597	0.712	0.597
3cpn	3k1u	116	110	0.211	0.341	0.245	0.226
3cpn	3k1u	117	111	0.711	0.861	0.692	0.897
3cpn	3k1u	118	112	0.378	0.497	0.4	0.751
3cpn	3k1u	119	113	0.152	0.147	0.113	0.162
3cpn	3k1u	120	114	0.514	0.554	0.527	0.577
3cpn	3k1u	121	115	0.314	0.418	0.333	0.427
3cpn	3k1u	122	116	0.051	0.075	0.059	0.077
3cpn	3k1u	123	117	0.244	0.21	0.262	0.204
3cpn	3k1u	124	118	0.0	0.0	0.0	0.005
3cpn	3k1u	125	119	0.08	0.219	0.055	0.065
3cpn	3k1u	126	120	0.109	0.289	0.134	0.193
3cpn	3k1u	127	121	0.315	0.367	0.338	0.465
3cpn	3k1u	128	122	0.401	0.358	0.419	0.482
3cpn	3k1u	129	123	0.446	0.547	0.469	0.575
3cpn	3k1u	130	124	0.764	0.903	0.738	0.755
3cpn	3k1u	131	125	0.933	1.0	0.933	1.0
3cpn	3k1u	132	126	0.0	0.0	0.0	0.0
3cpn	3k1u	133	127	0.189	0.17	0.133	0.108
3cpn	3k1u	134	128	0.546	0.574	0.531	0.541
3cpn	3k1u	135	129	0.017	0.063	0.011	0.09
3cpn	3k1u	136	130	0.089	0.106	0.09	0.096
3cpn	3k1u	137	131	0.316	0.161	0.305	0.242
3cpn	3k1u	138	132	0.17	0.207	0.184	0.342
3cpn	3k1u	139	133	0.803	0.62	0.794	0.72
3cpn	3k1u	140	134	0.089	0.116	0.086	0.157
3cpn	3k1u	141	135	0.0	0.001	0.0	0.0
3cpn	3k1u	142	136	0.0	0.002	0.0	0.023
3cpn	3k1u	143	137	0.0	0.001	0.0	0.0
3cpn	3k1u	144	138	0.35	0.605	0.37	0.583
3cpn	3k1u	145	139	0.046	0.066	0.053	0.064
3cpn	3k1u	146	140	0.646	0.713	0.655	0.795
3cpn	3k1u	147	141	0.55	0.584	0.543	0.685
3cpn	3k1u	148	142	0.075	0.078	0.057	0.057
3cpn	3k1u	149	143	0.345	0.264	0.326	0.562
3cpn	3k1u	150	144	0.0	0.0	0.0	0.0
3cpn	3k1u	151	145	0.0	0.0	0.0	0.0
3cpn	3k1u	152	146	0.0	0.0	0.0	0.01
3cpn	3k1u	153	147	0.0	0.0	0.0	0.0
3cpn	3k1u	154	148	0.049	0.091	0.066	0.089
3cpn	3k1u	155	149	0.152	0.175	0.139	0.17
3cpn	3k1u	156	150	0.311	0.367	0.346	0.39
3cpn	3k1u	158	152	0.0	0.0	0.0	0.0
3cpn	3k1u	159	153	0.188	0.168	0.233	0.198
3cpn	3k1u	160	154	0.021	0.035	0.002	0.02
3cpn	3k1u	161	155	0.006	0.071	0.0	0.048
3cpn	3k1u	162	156	0.463	0.543	0.462	0.543
3cpn	3k1u	165	159	0.337	0.459	0.34	0.453
3cpn	3k1u	167	161	0.497	0.344	0.407	0.295
3cpn	3k1u	168	162	0.36	0.378	0.306	0.321
3cpn	3k1u	169	163	0.0	0.0	0.0	0.0
3cpn	3k1u	170	164	0.0	0.0	0.0	0.0
3cpn	3k1u	171	165	0.351	0.453	0.379	0.449
3cpn	3k1u	172	166	0.565	0.694	0.577	0.549
3cpn	3k1u	173	167	0.0	0.0	0.0	0.0
3cpn	3k1u	174	168	0.625	0.725	0.65	0.789
3cpn	3k1u	175	169	0.463	0.5	0.473	0.531
3cpn	3k1u	177	171	0.0	0.0	0.0	0.0
3cpn	3k1u	178	172	0.646	0.647	0.657	0.635
3cpn	3k1u	179	173	0.228	0.313	0.225	0.351
3cpn	3k1u	180	174	0.696	0.729	0.728	0.744
3cpn	3k1u	181	175	0.512	0.601	0.495	0.517
3cpn	3k1u	182	176	0.569	0.569	0.514	0.583
3cpn	3k1u	183	177	0.657	0.561	0.678	0.676
3cpn	3k1u	184	178	0.347	0.284	0.365	0.305
3cpn	3k1u	186	180	0.845	0.841	0.828	0.79
3cpn	3k1u	187	181	0.471	0.423	0.464	0.433
3cpn	3k1u	188	182	0.476	0.528	0.475	0.528
3cpn	3k1u	189	183	0.565	0.473	0.552	0.579
3cpn	3k1u	190	184	0.794	0.887	0.787	0.506
3cpn	3k1u	191	185	0.011	0.012	0.001	0.002
3cpn	3k1u	192	186	0.701	0.634	0.728	0.783
3cpn	3k1u	193	187	0.389	0.481	0.342	0.361
3cpn	3k1u	194	188	0.44	0.479	0.44	0.449
3cpn	3k1u	195	189	0.554	0.57	0.509	0.552
3cpn	3k1u	196	190	0.19	0.161	0.154	0.175
3cpn	3k1u	198	192	0.075	0.143	0.054	0.065
3cpn	3k1u	199	193	0.503	0.464	0.527	0.713
3cpn	3k1u	200	194	0.95	0.5	0.95	0.5
3cpn	3k1u	201	195	0.539	0.581	0.466	0.422
3cpn	3k1u	202	196	0.377	0.349	0.388	0.586
3cpn	3k1u	203	197	0.197	0.16	0.225	0.227
3cpn	3k1u	204	198	0.513	0.672	0.498	0.608
3cpn	3k1u	205	199	0.529	0.473	0.557	0.721
3cpn	3k1u	206	200	0.5	0.333	0.506	0.581
3cpn	3k1u	207	201	0.52	0.56	0.5	0.62
3cpn	3k1u	208	202	0.878	0.907	0.913	0.852
3cpn	3k1u	209	203	0.578	0.733	0.585	0.638
3cpn	3k1u	210	204	0.843	0.952	0.843	0.952
3cpn	3k1u	211	205	0.301	0.181	0.31	0.211
3cpn	3k1u	212	206	0.241	0.11	0.195	0.169
3cpn	3k1u	213	207	0.273	0.38	0.279	0.532
3cpn	3k1u	214	208	0.341	0.351	0.32	0.386
3cpn	3k1u	215	209	0.214	0.221	0.194	0.195
3cpn	3k1u	216	210	0.583	0.668	0.587	0.818
3cpn	3k1u	217	211	0.471	0.578	0.473	0.59
3cpn	3k1u	218	212	0.538	0.618	0.52	0.597
3cpn	3k1u	219	213	0.178	0.216	0.176	0.327
3cpn	3k1u	220	214	0.425	0.437	0.431	0.574
3cpn	3k1u	222	216	1.0	0	1.0	0
3cpn	3k1u	223	217	0.139	0.074	0.083	0.028
3cpn	3k1u	224	218	0.81	0.79	0.815	0.79
3cpn	3k1u	225	219	0.511	0.829	0.516	0.553
3cpn	3k1u	226	220	0.75	0.35	0.75	0.35
3cpn	3k1u	227	221	0.34	0.452	0.351	0.451
3cpn	3k1u	228	222	0.009	0.015	0.009	0.02
3cpn	3k1u	229	223	0.154	0.159	0.16	0.123
3cpn	3k1u	230	224	0.764	0.76	0.808	0.84
3cpn	3k1u	231	225	0.766	0.884	0.757	0.869
3cpn	3k1u	232	226	0.68	0.622	0.694	0.937
3cpn	3k1u	233	227	0.503	0.518	0.569	0.569
3cpn	3k1u	234	228	0.319	0.404	0.443	0.49
3cpn	3k1u	235	229	0.0	0.019	0.0	0.009
3cpn	3k1u	236	230	0.109	0.186	0.111	0.199
3cpn	3k1u	237	231	0.349	0.564	0.392	0.335
3cpn	3k1u	238	232	0.085	0.086	0.111	0.101
3cpn	3k1u	239	233	0.0	0.008	0.0	0.012
3cpn	3k1u	240	234	0.172	0.409	0.178	0.084
3cpn	3k1u	241	235	0.448	0.435	0.464	0.435
3cpn	3k1u	242	236	0.313	0.551	0.312	0.575
3cpn	3k1u	243	237	0.632	0.801	0.589	0.681
3cpn	3k1u	244	238	0.754	0.743	0.744	0.742
3cpn	3k1u	245	239	0.957	0.921	0.957	0.921
3cpn	3k1u	246	240	0.967	0.833	1.0	0.275
3cpn	3k1u	247	241	0.8	0.835	0.805	0.839
3cpn	3k1u	248	242	0.9	0.85	0.91	0.844
3cpn	3k1u	249	243	0.389	0.526	0.385	0.409
3cpn	3k1u	250	244	0.7	1.0	0.7	1.0
3cpn	3k1u	251	245	0.772	0.807	0.772	0.807
3cpn	3k1u	252	246	0.647	0.627	0.656	0.595
3cpn	3k1u	253	247	0.703	0.746	0.693	0.74
3cpn	3k1u	254	248	0.168	0.191	0.136	0.135
3cpn	3k1u	255	249	0.136	0.127	0.116	0.138
3cpn	3k1u	257	251	0.419	0.399	0.432	0.453
3cpn	3k1u	258	252	0.819	0.738	0.835	0.865
3cpn	3k1u	259	253	1.0	0	1.0	0
3cpn	3k1u	260	254	0.173	0.194	0.217	0.228
3cpn	3k1u	262	256	1.0	0	1.0	0
3cpn	3k1u	263	257	0.338	0.737	0.338	0.352
3cpn	3k1u	264	258	0.306	0.334	0.26	0.317
3cpn	3k1u	265	259	0.072	0.042	0.105	0.185
3cpn	3k1u	267	261	0.366	0.562	0.405	0.493
3cpn	3k1u	268	262	0.697	0.904	0.684	0.696
3cpn	3k1u	269	263	0.728	0.775	0.703	0.761
3cpn	3k1u	270	264	0.793	0.763	0.812	0.687
3cpn	3k1u	271	265	0.882	0.706	0.931	0.654
3cpn	3k1u	272	266	0.421	0.521	0.423	0.521
3cpn	3k1u	273	267	0.502	0.548	0.495	0.514
3cpn	3k1u	274	268	0.473	0.495	0.433	0.421
3cpn	3k1u	275	269	0.416	0.43	0.439	0.418
3cpn	3k1u	276	270	1.0	0	1.0	0
3cpn	3k1u	277	271	0.793	0.816	0.84	0.937
3cpn	3k1u	278	272	0.379	0.347	0.375	0.347
3cpn	3k1u	279	273	0.749	0.765	0.75	0.779
3cpn	3k1u	280	274	0.944	0.778	0.944	0.778
3cpn	3k1u	281	275	0.016	0.039	0.037	0.02
3cpn	3k1u	282	276	0.0	0.0	0.0	0.0
3cpn	3k1u	283	277	0.0	0.0	0.0	0.0
3cpn	3k1u	284	278	0.221	0.342	0.198	0.4
3cpn	3k1u	285	279	0.005	0.107	0.0	0.035
3cpn	3k1u	286	280	0.841	0.818	0.85	0.831
3cpn	3k1u	287	281	0.852	0.752	0.829	0.618
3cpn	3k1u	288	282	0.503	0.562	0.507	0.569
3cpn	3k1u	289	283	0.8	0.627	0.8	0.627
3cpn	3k1u	290	284	0.513	0.412	0.528	0.395
3cpn	3k1u	291	285	0.386	0.434	0.324	0.313
3cpn	3k1u	292	286	0.892	0.823	0.892	0.823
3cpn	3k1u	293	287	0.702	0.75	0.693	0.725
3cpn	3k1u	294	288	0.849	0.838	0.85	0.837
3cpn	3k1u	295	289	0.605	0.663	0.616	0.667
3cpn	3k1u	296	290	0.584	0.722	0.572	0.72
3cpn	3k1u	297	291	0.754	0.398	0.764	0.49
3cpn	3k1u	298	292	0.92	0.987	0.92	0.987
3cpn	3k1u	299	293	0.871	0.85	0.864	0.85
3cpn	3k1u	300	294	0.712	0.825	0.707	0.827
3cpn	3k1u	301	295	0.897	0.927	0.89	0.845
3cpn	3k1u	302	296	0.786	0.896	0.785	0.899
3cpn	3k1u	303	297	0.479	0.556	0.49	0.594
3cpn	3k1u	304	298	0.0	0.036	0.0	0.081
3cpn	3k1u	305	299	0.0	0.0	0.0	0.0
3cpn	3k1u	306	300	0.179	0.185	0.158	0.164
3cpn	3k1u	307	301	0.045	0.093	0.026	0.124
3cpn	3k1u	308	302	0.12	0.104	0.12	0.238
3cpn	3k1u	309	303	0.043	0.026	0.029	0.013
3cpn	3k1u	310	304	0.733	0.787	0.697	0.674
3cpn	3k1u	311	305	0.81	0.842	0.808	0.842
3cpn	3k1u	312	306	0.196	0.153	0.145	0.171
3cpn	3k1u	313	307	0.04	0.051	0.044	0.11
3cpn	3k1u	314	308	0.174	0.155	0.201	0.198
3cpn	3k1u	315	309	0.1	0.097	0.116	0.101
3cpn	3k1u	316	310	0.417	0.399	0.427	0.625
3cpn	3k1u	317	311	0.35	0.514	0.398	0.522
3cpn	3k1u	318	312	0.871	0.959	0.873	0.959
3cpn	3k1u	319	313	0.331	0.429	0.447	0.568
3cpn	3k1u	320	314	0.431	0.46	0.434	0.46
3cpn	3k1u	321	315	0.2	0.24	0.214	0.304
3cpn	3k1u	322	316	0.882	0.618	0.907	0.633
3cpn	3k1u	323	317	0.873	0.848	0.853	0.701
3cpn	3k1u	324	318	0.394	0.648	0.425	0.39
3cpn	3k1u	325	319	0.756	0.834	0.754	0.834
3cpn	3k1u	326	320	0.823	0.576	0.828	0.582
3cpn	3k1u	327	321	0.008	0.006	0.028	0.034
3cpn	3k1u	328	322	0.266	0.301	0.266	0.301
3cpn	3k1u	329	323	0.81	0.779	0.817	0.779
3cpn	3k1u	330	324	0.423	0.676	0.401	0.517
3cpn	3k1u	331	325	0.466	0.86	0.429	0.781
3cpn	3k1u	332	326	0.878	0.909	0.873	0.906
3cpn	3k1u	333	327	0.839	0.92	0.812	0.726
3cpn	3k1u	334	328	0.8	0.857	0.8	0.857
3cpn	3k1u	335	329	0.9	0.933	0.95	0.95
3cpn	3k1u	336	330	0.381	0.332	0.365	0.269
3cpn	3k1u	337	331	0.589	0.672	0.616	0.669
3cpn	3k1u	338	332	0.925	0.25	0.925	0.25
3cpn	3k1u	340	334	0.827	0.749	0.832	0.752
3cpn	3k1u	341	335	0.513	0.61	0.504	0.433
3cpn	3k1u	342	336	0.581	0.737	0.589	0.687
3cpn	3k1u	343	337	0.174	0.167	0.199	0.194
3cpn	3k1u	344	338	0.577	0.407	0.582	0.407
3cpn	3k1u	345	339	0.488	0.557	0.525	0.798
3cpn	3k1u	346	340	0.825	0.883	0.836	0.876
3cpn	3k1u	347	341	0.512	0.415	0.511	0.358
3cpn	3k1u	348	342	0.29	0.367	0.296	0.34
3cpn	3k1u	349	343	0.759	0.859	0.76	0.859
3cpn	3k1u	350	344	0.0	0.0	0.0	0.0
3cpn	3k1u	352	346	0.496	0.675	0.507	0.715
3cpn	3k1u	353	347	0.175	0.189	0.155	0.164
3cpn	3k1u	354	348	0.15	0.194	0.141	0.127
3cpn	3k1u	355	349	0.08	0.128	0.083	0.102
3cpn	3k1u	356	350	0.0	0.0	0.0	0.0
3cpn	3k1u	357	351	0.083	0.174	0.104	0.185
3cpn	3k1u	358	352	0.545	0.584	0.546	0.584
3cpn	3k1u	359	353	0.384	0.413	0.375	0.367
3cpn	3k1u	360	354	0.327	0.27	0.401	0.414
3cpn	3k1u	361	355	0.278	0.302	0.283	0.316
3cpn	3k1u	362	356	0.848	0.871	0.855	0.871
3cpn	3k1u	363	357	0.175	0.193	0.187	0.244
3cpn	3k1u	364	358	0.69	0.89	0.708	0.686
3cpn	3k1u	365	359	0.903	0.943	0.903	0.943
3cpn	3k1u	366	360	0.764	0.623	0.792	0.726
3cpn	3k1u	367	361	0.425	0.46	0.428	0.457
3cpn	3k1u	368	362	0.327	0.394	0.308	0.417
3cpn	3k1u	369	363	0.275	0.433	0.306	0.473
3cpn	3k1u	370	364	0.375	0.441	0.377	0.384
3cpn	3k1u	371	365	1.0	0	1.0	0
3cpn	3k1u	372	366	0.456	0.573	0.459	0.496
3cpn	3k1u	373	367	0.532	0.692	0.537	0.621
3cpn	3k1u	374	368	0.438	0.514	0.438	0.516
3cpn	3k1u	375	369	0.366	0.439	0.365	0.395
3cpn	3k1u	376	370	0.289	0.41	0.293	0.39
3cpn	3k1u	377	371	0.655	0.667	0.654	0.667
3cpn	3k1u	378	372	0.86	0.99	0.863	0.843
3cpn	3k1u	379	373	0.0	0.0	0.0	0.0
3cpn	3k1u	380	374	0.347	0.226	0.347	0.226
3cpn	3k1u	381	375	0.237	0.305	0.228	0.312
3cpn	3k1u	382	376	0.823	0.608	0.815	0.608
3cpn	3k1u	383	377	1.0	0	1.0	0
3cpn	3k1u	384	378	0.082	0.026	0.119	0.215
3cpn	3k1u	385	379	0.243	0.421	0.243	0.38
3cpn	3k1u	386	380	0.193	0.173	0.192	0.173
3cpn	3k1u	387	381	0.55	0.625	0.55	0.625
3cpn	3k1u	388	382	0.682	0.678	0.684	0.678
3cpn	3k1u	389	383	0.366	0.445	0.366	0.382
3cpn	3k1u	390	384	0.663	0.839	0.658	0.744
3cpn	3k1u	391	385	0.455	0.471	0.47	0.483
3cpn	3k1u	392	386	0.024	0.02	0.0	0.0
3cpn	3k1u	394	388	0.71	0.548	0.712	0.552
3cpn	3k1u	395	389	0.0	0.0	0.0	0.0
3cpn	3k1u	396	390	0.167	0.171	0.22	0.217
3cpn	3k1u	397	391	0.353	0.306	0.397	0.381
3cpn	3k1u	398	392	0.301	0.428	0.284	0.259
3cpn	3k1u	399	393	0.0	0.006	0.0	0.017
3cpn	3k1u	400	394	0.379	0.353	0.357	0.34
3cpn	3k1u	401	395	0.302	0.245	0.301	0.245
3cpn	3k1u	402	396	0.0	0	0.0	0
3cpn	3k1u	403	397	0.681	0.591	0.722	0.752
3cpn	3k1u	404	398	0.0	0.106	0.0	0.081
3cpn	3k1u	405	399	0.062	0.094	0.079	0.155
3cpn	3k1u	406	400	0.086	0.044	0.045	0.063
3cpn	3k1u	407	401	0.216	0.237	0.212	0.237
3cpn	3k1u	408	402	0.678	0.728	0.689	0.742
3cpn	3k1u	409	403	0.684	0.445	0.664	0.519
3cpn	3k1u	410	404	0.16	0.218	0.165	0.13
3cpn	3k1u	411	405	0.45	0.521	0.447	0.522
3cpn	3k1u	412	406	0.463	0.498	0.457	0.436
3cpn	3k1u	413	407	0.354	0.276	0.345	0.279
3cpn	3k1u	414	408	0.0	0.0	0.0	0.0
3cpn	3k1u	415	409	0.062	0.063	0.068	0.059
3cpn	3k1u	416	410	0.096	0.252	0.161	0.186
3cpn	3k1u	417	411	0.358	0.359	0.355	0.359
3cpn	3k1u	418	412	0.468	0.469	0.475	0.515
3cpn	3k1u	419	413	0.0	0.003	0.0	0.0
3cpn	3k1u	420	414	0.389	0.471	0.392	0.451
3cpn	3k1u	421	415	0.0	0.0	0.0	0.0
3cpn	3k1u	422	416	0.0	0.014	0.0	0.001
3cpn	3k1u	423	417	0.123	0.207	0.116	0.132
3cpn	3k1u	424	418	0.605	0.543	0.61	0.517
3cpn	3k1u	425	419	0.157	0.165	0.148	0.169
3cpn	3k1u	426	420	0.373	0.516	0.415	0.547
3cpn	3k1u	427	421	0.7	0.375	0.7	0.375
3cpn	3k1u	428	422	0.16	0.193	0.196	0.14
3cpn	3k1u	429	423	0.81	0.814	0.828	0.91
3cpn	3k1u	430	424	1.0	0.969	1.0	0.969
3cpn	3k1u	431	425	0.505	0.57	0.525	0.562
3cpn	3k1u	432	426	0.976	0.941	0.975	0.9
3cpn	3k1u	433	427	1.0	0	1.0	0
3cpn	3k1u	434	428	0.2	0.228	0.188	0.23
3cpn	3k1u	435	429	0.805	0.821	0.843	0.835
3cpn	3k1u	436	430	0.834	0.9	0.839	0.888
3cpn	3k1u	438	432	0.389	0.366	0.39	0.366
3cpn	3k1u	439	433	0.393	0.73	0.409	0.893
3cpn	3k1u	440	434	0.449	0.602	0.479	0.594
3cpn	3k1u	441	435	0.091	0.079	0.074	0.072
3cpn	3k1u	442	436	0.645	0.587	0.665	0.63
3cpn	3k1u	443	437	0.738	0.602	0.708	0.769
3cpn	3k1u	444	438	0.672	0.737	0.678	0.833
3cpn	3k1u	445	439	0.622	0.622	0.61	0.623
3cpn	3k1u	446	440	0.265	0.281	0.254	0.328
3cpn	3k1u	447	441	0.32	0.148	0.311	0.273
3cpn	3k1u	448	442	0.184	0.053	0.169	0.141
3cpn	3k1u	449	443	0.067	0.1	0.03	0.065
3cpn	3k1u	450	444	0.507	0.419	0.473	0.352
3cpn	3k1u	451	445	0.277	0.331	0.277	0.4
3cpn	3k1u	452	446	0.608	0.665	0.55	0.601
3cpn	3k1u	454	448	0.697	0.75	0.597	0.661
3cpn	3k1u	455	449	0.276	0.361	0.272	0.563
3cpn	3k1u	456	450	0.85	1.0	0.85	1.0
3cpn	3k1u	457	451	0.026	0.033	0.027	0.042
3cpn	3k1u	458	452	0.603	0.739	0.601	0.74
3cpn	3k1u	459	453	0.533	0.37	0.551	0.387
3cpn	3k1u	460	454	0.283	0.36	0.271	0.301
3cpn	3k1u	461	455	0.104	0.095	0.085	0.08
3cpn	3k1u	462	456	0.217	0.18	0.267	0.428
3cpn	3k1u	463	457	0.054	0.058	0.034	0.033
3cpn	3k1u	464	458	0.108	0.168	0.13	0.202
3cpn	3k1u	465	459	0.278	0.221	0.278	0.22
3cpn	3k1u	466	460	0.028	0.11	0.018	0.1
3cpn	3k1u	467	461	0.278	0.428	0.287	0.438
3cpn	3k1u	469	463	0.691	0.797	0.694	0.646
3cpn	3k1u	470	464	0.337	0.267	0.334	0.528
3cpn	3k1u	471	465	0.251	0.189	0.251	0.179
3cpn	3k1u	472	466	0.682	0.581	0.673	0.652
3cpn	3k1u	473	467	0.533	0.537	0.532	0.536
3cpn	3k1u	474	468	1.0	0	1.0	0
3cpn	3k1u	475	469	0.261	0.306	0.261	0.306
3cpn	3k1u	477	471	1.0	0	1.0	0
3cpn	3k1u	478	472	0.0	0.002	0.0	0.002
3cpn	3k1u	479	473	0.748	0.819	0.732	0.831
3cpn	3k1u	480	474	0.532	0.399	0.484	0.398
3cpn	3k1u	481	475	0.281	0.294	0.312	0.325
3cpn	3k1u	482	476	0.35	0.337	0.346	0.339
3cpn	3k1u	483	477	0.373	0.354	0.403	0.349
3cpn	3k1u	484	478	0.019	0.049	0.008	0.024
3cpn	3k1u	485	479	0.045	0.131	0.06	0.16
3cpn	3k1u	486	480	0.549	0.462	0.561	0.562
3cpn	3k1u	487	481	0.686	0.589	0.693	0.589
3cpn	3k1u	488	482	0.367	0.345	0.347	0.374
3cpn	3k1u	489	483	0.0	0.0	0.0	0.0
3cpn	3k1u	490	484	0.111	0.202	0.104	0.159
3cpn	3k1u	491	485	0.154	0.091	0.159	0.139
3cpn	3k1u	492	486	0.657	0.555	0.642	0.642
3cpn	3k1u	493	487	0.564	0.63	0.576	0.645
3cpn	3k1u	494	488	0.325	0.342	0.34	0.409
3cpn	3k1u	495	489	0.21	0.212	0.192	0.174
3cpn	3k1u	496	490	0.264	0.262	0.266	0.262
3cpn	3k1u	497	491	0.006	0.006	0.001	0.004
3cpn	3k1u	498	492	0.337	0.298	0.348	0.562
3cpn	3k1u	499	493	0.744	0.733	0.741	0.733
3cpn	3k1u	500	494	0.586	0.54	0.586	0.54
3cpn	3k1u	501	495	0.177	0.173	0.105	0.105
3cpn	3k1u	502	496	0.0	0.0	0.0	0.0
3cpn	3k1u	503	497	0.039	0.052	0.026	0.046
3cpn	3k1u	504	498	0.241	0.204	0.249	0.341
3cpn	3k1u	506	500	0.621	0.609	0.623	0.612
3cpn	3k1u	507	501	0.509	0.718	0.509	0.718
3cpn	3k1u	508	502	0.514	0.551	0.474	0.62
3cpn	3k1u	509	503	0.913	0.728	0.908	0.909
3cpn	3k1u	510	504	0.407	0.442	0.426	0.421
3cpn	3k1u	511	505	0.308	0.554	0.308	0.518
3cpn	3k1u	512	506	0.293	0.291	0.261	0.203
3cpn	3k1u	513	507	1.0	0	1.0	0
3cpn	3k1u	514	508	0.355	0.578	0.351	0.365
3cpn	3k1u	515	509	0.589	0.689	0.594	0.717
3cpn	3k1u	517	511	0.189	0.458	0.175	0.169
3cpn	3k1u	518	512	0.353	0.34	0.298	0.333
3cpn	3k1u	519	513	0.846	0.824	0.87	0.823
3cpn	3k1u	520	514	0.895	0.922	0.921	0.865
3cpn	3k1u	521	515	0.204	0.191	0.194	0.211
3cpn	3k1u	522	516	0.315	0.204	0.286	0.293
3cpn	3k1u	523	517	0.625	0.461	0.639	0.593
3cpn	3k1u	524	518	0.131	0.119	0.157	0.178
3cpn	3k1u	525	519	0.4	0.819	0.402	0.338
3cpn	3k1u	526	520	0.037	0.031	0.007	0.012
3cpn	3k1u	527	521	0.661	0.622	0.686	0.726
3cpn	3k1u	528	522	0.072	0.083	0.096	0.123
3cpn	3k1u	529	523	0.118	0.078	0.123	0.123
3cpn	3k1u	530	524	0.217	0.184	0.203	0.236
3cpn	3k1u	531	525	0.067	0.066	0.044	0.055
3cpn	3k1u	532	526	0.307	0.371	0.312	0.367
3cpn	3k1u	533	527	0.549	0.485	0.568	0.671
3cpn	3k1u	534	528	0.713	0.491	0.739	0.693
3cpn	3k1u	535	529	0.0	0.012	0.013	0.085
3cpn	3k1u	536	530	0.0	0.002	0.0	0.006
3cpn	3k1u	537	531	0.044	0.068	0.043	0.071
3cpn	3k1u	538	532	0.156	0.238	0.133	0.166
3cpn	3k1u	539	533	0.729	0.7	0.729	0.7
3cpn	3k1u	540	534	0.939	0.907	0.921	0.994
3cpn	3k1u	541	535	0.587	0.595	0.582	0.612
3cpn	3k1u	542	536	0.838	0.858	0.838	0.858
3cpn	3k1u	543	537	0.186	0.197	0.199	0.251
3cpn	3k1u	544	538	0.393	0.528	0.401	0.509
3cpn	3k1u	545	539	0.525	0.762	0.539	0.728
3cpn	3k1u	546	540	0.035	0.017	0.032	0.015
3cpn	3k1u	547	541	0.821	0.904	0.786	0.855
3cpn	3k1u	548	542	0.83	0.89	0.859	0.922
3cpn	3k1u	549	543	0.0	0.0	0.0	0.0
3cpn	3k1u	550	544	0.066	0.065	0.082	0.087
3cpn	3k1u	551	545	0.09	0.184	0.085	0.114
3cpn	3k1u	552	546	0.282	0.336	0.345	0.393
3cpn	3k1u	553	547	0.411	0.574	0.375	0.506
3cpn	3k1u	554	548	0.599	0.596	0.608	0.565
3cpn	3k1u	555	549	0.748	0.758	0.747	0.758
3cpn	3k1u	556	550	0.187	0.203	0.193	0.213
3cpn	3k1u	557	551	0.662	0.575	0.659	0.571
3cpn	3k1u	558	552	0.376	0.395	0.419	0.609
3cpn	3k1u	559	553	0.034	0.024	0.069	0.109
3cpn	3k1u	560	554	0.069	0.06	0.063	0.08
3cpn	3k1u	561	555	0.144	0.174	0.142	0.139
3cpn	3k1u	562	556	0.543	0.637	0.546	0.555
3cpn	3k1u	563	557	0.721	0.876	0.763	0.9
3cpn	3k1u	564	558	0.863	0.758	0.824	0.866
3cpn	3k1u	565	559	0.07	0.086	0.084	0.122
3cpn	3k1u	566	560	0.331	0.516	0.335	0.388
3cpn	3k1u	567	561	0.437	0.447	0.429	0.569
3cpn	3k1u	568	562	0.151	0.223	0.178	0.336
3cpn	3k1u	569	563	0.07	0.152	0.095	0.19
3cpn	3k1u	570	564	0.0	0.033	0.0	0.009
3cpn	3k1u	573	567	0.118	0.079	0.114	0.103
3cpn	3k1u	574	568	0.194	0.278	0.215	0.267
3cpn	3k1u	575	569	0.493	0.612	0.487	0.612
3cpn	3k1u	576	570	0.14	0.036	0.152	0.055
3cpn	3k1u	577	571	0.838	0.65	0.87	0.72
3cpn	3k1u	578	572	0.912	0.597	0.912	0.615
3cpn	3k1u	579	573	0.718	0.723	0.718	0.723
3cpn	3k1u	580	574	1.0	0	1.0	0
3cpn	3k1u	581	575	0.833	0.067	0.8	0.543
3cpn	3k1u	582	576	1.0	0	1.0	0
3cpn	3k1u	583	577	0.587	0.561	0.583	0.556
3cpn	3k1u	584	578	0.0	0.0	0.0	0.0
3cpn	3k1u	585	579	0.272	0.466	0.292	0.372
3cpn	3k1u	586	580	0.435	0.687	0.427	0.428
3cpn	3k1u	587	581	0.762	0.715	0.754	0.715
3cpn	3k1u	588	582	0.044	0.1	0.043	0.058
3cpn	3k1u	589	583	0.18	0.178	0.189	0.162
3cpn	3k1u	590	584	0.0	0.002	0.0	0.013
3cpn	3k1u	591	585	0.277	0.306	0.226	0.317
3cpn	3k1u	593	587	0.055	0.047	0.051	0.074
3cpn	3k1u	594	588	0.034	0.095	0.022	0.038
3cpn	3k1u	595	589	0.064	0.116	0.053	0.064
3cpn	3k1u	596	590	0.19	0.198	0.234	0.237
3cpn	3k1u	597	591	0.055	0.081	0.064	0.174
3cpn	3k1u	598	592	0.009	0.041	0.021	0.136
3cpn	3k1u	599	593	0.24	0.231	0.213	0.207
3cpn	3k1u	600	594	0.384	0.431	0.346	0.416
3cpn	3k1u	601	595	0.678	0.782	0.692	0.831
3cpn	3k1u	603	597	0.197	0.241	0.238	0.277
3cpn	3k1u	604	598	0.016	0.037	0.01	0.007
3cpn	3k1u	605	599	0.031	0.084	0.015	0.074
3cpn	3k1u	606	600	0.168	0.081	0.169	0.182
3cpn	3k1u	607	601	0.173	0.163	0.172	0.196
3cpn	3k1u	608	602	0.057	0.097	0.059	0.097
3cpn	3k1u	609	603	0.933	0.885	0.933	0.885
3cpn	3k1u	611	605	0.738	0.731	0.743	0.639
3cpn	3k1u	612	606	0.459	0.518	0.427	0.472
3cpn	3k1u	613	607	0.887	0.932	0.899	0.805
3cpn	3k1u	614	608	0.0	0.0	0.0	0.0
3cpn	3k1u	615	609	0.164	0.317	0.166	0.137
3cpn	3k1u	616	610	0.45	0.425	0.417	0.397
3cpn	3k1u	617	611	0.425	0.547	0.393	0.375
3cpn	3k1u	618	612	0.388	0.3	0.411	0.365
3cpn	3k1u	619	613	0.0	0.0	0.0	0.0
3cpn	3k1u	620	614	0.0	0.016	0.0	0.018
3cpn	3k1u	621	615	0.147	0.182	0.147	0.179
3cpn	3k1u	622	616	0.075	0.1	0.079	0.117
3cpn	3k1u	623	617	0.147	0.135	0.131	0.137
3cpn	3k1u	624	618	0.153	0.191	0.136	0.242
3cpn	3k1u	625	619	0.518	0.847	0.573	0.663
3cpn	3k1u	626	620	0.606	0.626	0.603	0.622
3cpn	3k1u	627	621	1.0	1.0	1.0	1.0
3cpn	3k1u	628	622	0.538	0.586	0.51	0.48
3cpn	3k1u	629	623	0.0	0.004	0.0	0.009
3cpn	3k1u	630	624	0.0	0.043	0.0	0.035
3cpn	3k1u	631	625	0.0	0.006	0.0	0.0
3cpn	3k1u	632	626	0.162	0.205	0.162	0.352
3cpn	3k1u	633	627	1.0	0	1.0	0
3cpn	3k1u	634	628	0.465	0.606	0.523	0.305
3cpn	3k1u	635	629	0.61	0.459	0.582	0.739
3cpn	3k1u	636	630	0.572	0.717	0.572	0.717
3cpn	3k1u	637	631	0.225	0.269	0.227	0.226
3cpn	3k1u	638	632	0.26	0.256	0.321	0.247
3cpn	3k1u	639	633	0.0	0.0	0.0	0.0
3cpn	3k1u	640	634	0.039	0.047	0.037	0.069
3cpn	3k1u	641	635	0.896	0.834	0.897	0.831
3cpn	3k1u	642	636	0.093	0.127	0.112	0.139
3cpn	3k1u	643	637	0.0	0.0	0.0	0.0
3cpn	3k1u	645	639	0.632	0.656	0.589	0.637
3cpn	3k1u	646	640	0.0	0.0	0.0	0.003
3cpn	3k1u	647	641	0.305	0.285	0.321	0.277
3cpn	3k1u	648	642	0.9	1.0	0.9	1.0
3cpn	3k1u	649	643	0.867	0.789	0.867	0.789
3cpn	3k1u	650	644	0.664	0.74	0.696	0.778
3cpn	3k1u	651	645	0.342	0.531	0.339	0.502
3cpn	3k1u	652	646	0.517	0.515	0.517	0.515
3cpn	3k1u	653	647	1.0	0	1.0	0
3cpn	3k1u	654	648	0.346	0.429	0.289	0.282
3cpn	3k1u	655	649	0.058	0.079	0.067	0.165
3cpn	3k1u	656	650	0.0	0.0	0.0	0.0
3cpn	3k1u	657	651	0.267	0.392	0.276	0.336
3cpn	3k1u	658	652	0.81	0.748	0.81	0.748
3cpn	3k1u	659	653	0.595	0.608	0.608	0.697
3cpn	3k1u	660	654	0.609	0.72	0.618	0.581
3cpn	3k1u	661	655	0.0	0.0	0.0	0.0
3cpn	3k1u	662	656	0.158	0.245	0.177	0.127
3cpn	3k1u	663	657	0.116	0.105	0.129	0.138
3cpn	3k1u	664	658	0.655	0.54	0.644	0.735
3cpn	3k1u	665	659	0.729	0.944	0.737	0.542
3cpn	3k1u	666	660	0.786	0.929	0.834	0.797
3cpn	3k1u	667	661	0.72	0.652	0.72	0.652
3cpn	3k1u	668	662	0.95	0.825	0.95	0.825
3cpn	3k1u	670	664	0.803	0.823	0.804	0.823
3cpn	3k1u	671	665	0.123	0.127	0.044	0.037
3cpn	3k1u	672	666	0.0	0.0	0.0	0.0
3cpn	3k1u	673	667	0.209	0.108	0.23	0.183
3cpn	3k1u	674	668	0.188	0.3	0.175	0.324
3cpn	3k1u	675	669	0.121	0.122	0.149	0.143
3cpn	3k1u	676	670	0.756	0.678	0.718	0.862
3cpn	3k1u	677	671	0.617	0.656	0.596	0.708
3cpn	3k1u	678	672	0.836	0.824	0.836	0.824
3cpn	3k1u	679	673	0.612	0.61	0.636	0.652
3cpn	3k1u	680	674	0.462	0.441	0.509	0.573
3cpn	3k1u	681	675	0.375	0.29	0.36	0.393
3cpn	3k1u	682	676	0.889	0.923	0.91	0.764
3cpn	3k1u	683	677	0.907	0.907	0.907	0.907
3cpn	3k1u	684	678	0.858	0.965	0.893	0.952
3cpn	3k1u	686	680	0.933	0.0	0.933	0.0
3cpn	3k1u	687	681	0.0	0.0	0.0	0.0
3cpn	3k1u	688	682	0.39	0.37	0.438	0.411
3cpn	3k1u	689	683	0.438	0.634	0.44	0.464
3cpn	3k1u	690	684	0.574	0.758	0.556	0.754
3cpn	3k1u	691	685	0.0	0.0	0.0	0.0
3cpn	3k1u	692	686	0.0	0.011	0.012	0.016
3cpn	3k1u	693	687	0.12	0.289	0.107	0.166
3cpn	3k1u	694	688	0.325	0.446	0.302	0.345
3cpn	3k1u	695	689	0.665	0.798	0.636	0.637
3cpn	3k1u	696	690	0.511	0.58	0.441	0.594
3cpn	3k1u	697	691	0.0	0.044	0.0	0.025
3cpn	3k1u	698	692	0.0	0.007	0.0	0.008
3cpn	3k1u	699	693	0.67	0.761	0.689	0.619
3cpn	3k1u	700	694	0.559	0.614	0.562	0.689
3cpn	3k1u	701	695	0.285	0.391	0.308	0.41
3cpn	3k1u	702	696	0.172	0.103	0.121	0.063
3cpn	3k1u	703	697	0.015	0.211	0.0	0.156
3cpn	3k1u	704	698	0.206	0.241	0.202	0.234
3cpn	3k1u	705	699	0.014	0.132	0.021	0.189
3cpn	3k1u	706	700	0.806	0.884	0.803	0.884
3cpn	3k1u	707	701	0.0	0.001	0.0	0.001
3cpn	3k1u	708	702	0.166	0.21	0.157	0.16
3cpn	3k1u	709	703	0.856	0.938	0.925	0.917
3cpn	3k1u	710	704	0.496	0.555	0.453	0.57
3cpn	3k1u	711	705	0.414	0.496	0.415	0.503
3cpn	3k1u	712	706	0.116	0.099	0.169	0.148
3cpn	3k1u	713	707	0.0	0.01	0.0	0.02
3cpn	3k1u	714	708	0.067	0.04	0.067	0.072
3cpn	3k1u	715	709	0.341	0.241	0.333	0.241
3cpn	3k1u	716	710	0.697	0.738	0.674	0.564
3cpn	3k1u	717	711	0.287	0.348	0.285	0.214
3cpn	3k1u	718	712	0.0	0.0	0.0	0.0
3cpn	3k1u	719	713	0.16	0.152	0.156	0.122
3cpn	3k1u	720	714	0.0	0.021	0.0	0.004
3cpn	3k1u	721	715	0.307	0.386	0.304	0.303
3cpn	3k1u	722	716	0.279	0.333	0.321	0.403
3cpn	3k1u	724	718	0.636	0.537	0.579	0.578
3cpn	3k1u	725	719	0.901	0.807	0.903	0.807
3cpn	3k1u	726	720	0.044	0.009	0.052	0.016
3cpn	3k1u	727	721	0.0	0.0	0.0	0.0
3cpn	3k1u	728	722	0.0	0.0	0.0	0.0
3cpn	3k1u	729	723	0.239	0.261	0.198	0.203
3cpn	3k1u	730	724	0.19	0.228	0.173	0.218
3cpn	3k1u	731	725	0.048	0.08	0.061	0.058
3cpn	3k1u	732	726	0.614	0.723	0.656	0.755
3cpn	3k1u	733	727	0.467	0.516	0.597	0.639
3cpn	3k1u	734	728	0.179	0.179	0.19	0.213
3cpn	3k1u	735	729	0.011	0.03	0.017	0.022
3cpn	3k1u	736	730	0.368	0.373	0.395	0.398
3cpn	3k1u	737	731	0.65	0.75	0.65	0.75
3cpn	3k1u	738	732	0.758	0.696	0.76	0.697
3cpn	3k1u	739	733	0.636	0.641	0.704	0.794
3cpn	3k1u	740	734	0.468	0.659	0.508	0.523
3cpn	3k1u	741	735	0.805	0.747	0.822	0.872
3cpn	3k1u	742	736	0.903	0.872	0.927	0.831
3cpn	3k1u	743	737	0.807	0.832	0.812	0.831
3cpn	3k1u	744	738	0.74	0.56	0.693	0.515
3cpn	3k1u	745	739	0.494	0.615	0.486	0.599
3cpn	3k1u	746	740	0.252	0.425	0.249	0.379
3cpn	3k1u	747	741	0.419	0.461	0.429	0.357
3cpn	3k1u	748	742	0.726	0.692	0.704	0.684
3cpn	3k1u	749	743	0.062	0.036	0.074	0.058
3cpn	3k1u	750	744	0.706	0.706	0.7	0.706
3cpn	3k1u	751	745	0.456	0.296	0.455	0.296
3cpn	3k1u	752	746	0.831	0.892	0.831	0.892
3cpn	3k1u	753	747	0.593	0.671	0.562	0.577
3cpn	3k1u	754	748	0.52	0.867	0.499	0.329
3cpn	3k1u	755	749	0.39	0.502	0.364	0.451
3cpn	3k1u	756	750	0.077	0.099	0.019	0.025
3cpn	3k1u	758	752	0.838	0.788	0.846	0.785
3cpn	3k1u	759	753	0.769	0.829	0.802	0.812
3cpn	3k1u	760	754	0.286	0.267	0.29	0.342
3cpn	3k1u	761	755	0.839	0.69	0.848	0.798
3cpn	3k1u	762	756	0.86	0.929	0.842	0.852
3cpn	3k1u	763	757	0.207	0.221	0.207	0.178
3cpn	3k1u	764	758	0.118	0.342	0.107	0.206
3cpn	3k1u	765	759	0.251	0.257	0.273	0.294
3cpn	3k1u	766	760	0.712	0.684	0.709	0.684
3cpn	3k1u	767	761	0.16	0.31	0.198	0.21
3cpn	3k1u	768	762	0.28	0.367	0.257	0.268
3cpn	3k1u	769	763	0.483	0.469	0.474	0.521
3cpn	3k1u	770	764	0.47	0.489	0.476	0.677
3cpn	3k1u	771	765	0.0	0.0	0.0	0.012
3cpn	3k1u	772	766	0.203	0.233	0.245	0.316
3cpn	3k1u	773	767	0.111	0.143	0.072	0.082
3cpn	3k1u	774	768	0.418	0.461	0.447	0.485
3cpn	3k1u	776	770	0.284	0.346	0.276	0.253
3cpn	3k1u	777	771	0.134	0.127	0.118	0.12
3cpn	3k1u	778	772	0.177	0.274	0.157	0.16
3cpn	3k1u	779	773	1.0	0	1.0	0
3cpn	3k1u	780	774	0.253	0.269	0.183	0.2
3cpn	3k1u	781	775	0.0	0.0	0.0	0.0
3cpn	3k1u	782	776	0.001	0.002	0.0	0.022
3cpn	3k1u	783	777	0.486	0.598	0.436	0.382
3cpn	3k1u	784	778	0.182	0.218	0.219	0.236
3cpn	3k1u	785	779	0.152	0.169	0.208	0.227
3cpn	3k1u	786	780	0.0	0.0	0.0	0.0
3cpn	3k1u	787	781	0.0	0.015	0.0	0.0
3cpn	3k1u	788	782	0.665	0.706	0.665	0.706
3cpn	3k1u	789	783	0.688	0.701	0.748	0.758
3cpn	3k1u	790	784	0.853	0.921	0.856	0.921
3cpn	3k1u	791	785	0.372	0.307	0.431	0.396
3cpn	3k1u	792	786	0.369	0.372	0.43	0.476
3cpn	3k1u	793	787	0.616	0.819	0.677	0.802
3cpn	3k1u	794	788	0.005	0.021	0.005	0.035
3cpn	3k1u	795	789	0.25	0.114	0.307	0.224
3cpn	3k1u	796	790	0.423	0.366	0.415	0.466
3cpn	3k1u	797	791	0.308	0.27	0.367	0.429
3cpn	3k1u	798	792	0.847	0.894	0.848	0.894
3cpn	3k1u	799	793	0.0	0.0	0.0	0.0
3cpn	3k1u	800	794	0.636	0.65	0.651	0.697
3cpn	3k1u	801	795	0.558	0.597	0.506	0.524
3cpn	3k1u	802	796	0.33	0.413	0.304	0.417
3cpn	3k1u	803	797	0.497	0.562	0.483	0.617
3cpn	3k1u	804	798	0.34	0.559	0.348	0.582
3cpn	3k1u	805	799	0.433	0.563	0.431	0.587
3cpn	3k1u	806	800	0.624	0.684	0.674	0.789
3cpn	3k1u	807	801	0.617	0.661	0.613	0.461
3cpn	3k1u	808	802	0.128	0.135	0.102	0.119
3cpn	3k1u	809	803	0.0	0.026	0.0	0.011
3cpn	3k1u	810	804	0.181	0.154	0.204	0.418
3cpn	3k1u	811	805	0.711	0.864	0.71	0.866
3cpn	3k1u	812	806	0.233	0.37	0.276	0.297
3cpn	3k1u	813	807	0.419	0.507	0.407	0.527
3cpn	3k1u	814	808	0.0	0.0	0.0	0.0
3cpn	3k1u	815	809	0.347	0.282	0.303	0.321
3cpn	3k1u	816	810	0.184	0.176	0.223	0.155
3cpn	3k1u	817	811	0.296	0.391	0.313	0.477
3cpn	3k1u	818	812	0.415	0.497	0.416	0.498
3cpn	3k1u	819	813	0.463	0.643	0.455	0.562
3cpn	3k1u	820	814	0.34	0.333	0.353	0.383
3cpn	3k1u	821	815	0.085	0.067	0.059	0.045
3cpn	3k1u	822	816	0.0	0.036	0.001	0.029
3cpn	3k1u	823	817	0.173	0.316	0.168	0.271
3cpn	3k1u	824	818	0.09	0.132	0.064	0.085
3cpn	3k1u	825	819	0.519	0.549	0.529	0.427
3cpn	3k1u	826	820	0.044	0.063	0.045	0.059
3cpn	3k1u	827	821	0.0	0.0	0.0	0.0
3cpn	3k1u	828	822	0.549	0.554	0.588	0.59
3cpn	3k1u	829	823	0.35	0.347	0.4	0.406
3cpn	3k1u	830	824	0.296	0.267	0.259	0.239
3cpn	3k1u	831	825	0.43	0.515	0.401	0.473
3cpn	3k1u	832	826	0.498	0.652	0.515	0.651
3cpn	3k1u	833	827	0.183	0.211	0.281	0.303
3cpn	3k1u	836	830	0.053	0.062	0.046	0.014
3cpn	3k1u	837	831	0.0	0.0	0.0	0.0
3cpn	3k1u	838	832	0.459	0.447	0.467	0.455
3cpn	3k1u	839	833	0.159	0.165	0.189	0.177
3cpn	3k1u	840	834	0.176	0.144	0.22	0.191
3cpn	3k1u	841	835	0.092	0.138	0.098	0.139
3cpn	3k1u	842	836	0.042	0.02	0.043	0.11
3cpn	3k1u	843	837	0.054	0.13	0.046	0.131
3cpn	3k1u	844	838	0.036	0.086	0.045	0.145
3cpn	3k1u	845	839	0.205	0.264	0.196	0.414
3cpn	3k1u	846	840	0.208	0.267	0.223	0.319
3cpn	3k1u	847	841	0.455	0.444	0.436	0.501
3cpn	3k1u	849	843	0.057	0.083	0.039	0.05
3cpn	3k1u	850	844	0.116	0.276	0.107	0.145
3cpn	3k1u	851	845	0.706	0.658	0.698	0.8
3cpn	3k1u	853	847	0.635	0.613	0.637	0.612
3cpn	3k1u	854	848	0.84	0.58	0.84	0.58
3cpn	3k1u	855	849	0.322	0.319	0.315	0.314
3cpn	3k1u	856	850	0.525	0.534	0.532	0.539
3cpn	3k1u	857	851	1.0	0	1.0	0
3cpn	3k1u	858	852	0.608	0.443	0.612	0.471
3cpn	3k1u	859	853	0.489	0.374	0.477	0.48
3cpn	3k1u	860	854	0.696	0.7	0.702	0.706
3cpn	3k1u	861	855	0.605	0.675	0.554	0.761
3cpn	3k1u	862	856	0.063	0.184	0.068	0.195
3cpn	3k1u	864	858	1.0	0	1.0	0
3cpn	3k1u	865	859	0.6	0.584	0.522	0.488
3cpn	3k1u	866	860	0.063	0.106	0.043	0.134
3cpn	3k1u	867	861	0.0	0.007	0.0	0.018
3cpn	3k1u	868	862	0.0	0.071	0.0	0.077
3cpn	3k1u	869	863	0.213	0.158	0.207	0.222
3cpn	3k1u	870	864	0.106	0.278	0.113	0.175
3cpn	3k1u	871	865	0.294	0.327	0.216	0.238
3cpn	3k1u	872	866	0.43	0.408	0.444	0.397
3cpn	3k1u	873	867	0.524	0.592	0.548	0.623
3cpn	3k1u	874	868	0.313	0.472	0.335	0.376
3cpn	3k1u	875	869	0.055	0.099	0.098	0.1
3cpn	3k1u	876	870	0.921	0.739	0.935	0.735
3cpn	3k1u	877	871	0.325	0.352	0.376	0.454
3cpn	3k1u	878	872	0.402	0.304	0.455	0.349
3cpn	3k1u	879	873	0.813	0.881	0.865	0.858
3cpn	3k1u	880	874	0.072	0.136	0.081	0.034
3cpn	3k1u	881	875	0.806	0.874	0.805	0.872
3cpn	3k1u	882	876	0.313	0.345	0.282	0.302
3cpn	3k1u	883	877	0.648	0.678	0.649	0.661
3cpn	3k1u	884	878	0.348	0.44	0.325	0.44
3cpn	3k1u	885	879	0.861	0.707	0.858	0.706
3cpn	3k1u	886	880	0.657	0.607	0.657	0.598
3cpn	3k1u	887	881	0.912	0.764	0.896	0.961
3cpn	3k1u	888	882	0.64	0.778	0.627	0.603
3cpn	3k1u	889	883	0.666	0.684	0.68	0.696
3cpn	3k1u	892	886	0.618	0.7	0.611	0.758
3cpn	3k1u	893	887	0.654	0.687	0.655	0.557
3cpn	3k1u	894	888	0.642	0.792	0.651	0.8
3cpn	3k1u	895	889	0.888	0.869	0.843	0.917
3cpn	3k1u	896	890	0.428	0.369	0.421	0.343
3cpn	3k1u	897	891	0.723	0.832	0.716	0.832
3cpn	3k1u	898	892	1.0	1.0	1.0	1.0
3cpn	3k1u	899	893	0.96	0.98	0.933	0.833
3cpn	3k1u	901	895	0.9	1.0	0.9	1.0
3cpn	3k1u	902	896	0.803	0.787	0.808	0.781
3cpn	3k1u	904	898	0.35	0.389	0.282	0.307
3cpn	3k1u	905	899	0.736	0.771	0.748	0.872
3cpn	3k1u	906	900	0.61	0.621	0.613	0.621
3cpn	3k1u	907	901	0.35	0.345	0.303	0.328
3cpn	3k1u	908	902	0.822	0.76	0.778	0.752
3cpn	3k1u	909	903	0.545	0.546	0.52	0.602
3cpn	3k1u	910	904	0.571	0.595	0.557	0.724
3cpn	3k1u	911	905	0.463	0.622	0.45	0.393
3cpn	3k1u	912	906	0.424	0.233	0.422	0.233
3cpn	3k1u	913	907	0.0	0.003	0.0	0.0
3cpn	3k1u	914	908	0.175	0.226	0.198	0.352
3cpn	3k1u	916	910	0.649	0.721	0.622	0.727
3cpn	3k1u	917	911	0.28	0.272	0.403	0.285
3cpn	3k1u	918	912	0.0	0.0	0.0	0.0
3cpn	3k1u	919	913	0.221	0.306	0.218	0.263
3cpn	3k1u	920	914	0.136	0.226	0.148	0.288
3cpn	3k1u	921	915	0.25	0.288	0.245	0.282
3cpn	3k1u	922	916	0.708	0.715	0.698	0.693
3cpn	3k1u	923	917	0.169	0.198	0.173	0.199
3cpn	3k1u	924	918	0.665	0.67	0.727	0.742
3cpn	3k1u	925	919	0.953	0.806	0.914	0.771
3cpn	3k1u	926	920	0.806	0.835	0.8	0.875
3cpn	3k1u	927	921	1.0	0	1.0	1.0
3cpn	3k1u	928	922	0.296	0.31	0.372	0.373
3cpn	3k1u	929	923	0.574	0.545	0.541	0.524
3cpn	3k1u	931	925	0.924	0.967	0.932	0.671
3cpn	3k1u	932	926	0.548	0.513	0.555	0.579
3cpn	3k1u	933	927	0.071	0.053	0.078	0.063
3cpn	3k1u	934	928	0.0	0.017	0.0	0.025
3cpn	3k1u	935	929	0.051	0.083	0.081	0.141
3cpn	3k1u	936	930	0.081	0.095	0.086	0.17
3cpn	3k1u	937	931	0.086	0.069	0.075	0.07
3cpn	3k1u	938	932	0.879	0.972	0.882	0.972
3cpn	3k1u	939	933	0.743	0.711	0.742	0.849
3cpn	3k1u	940	934	0.866	0.908	0.88	0.703
3cpn	3k1u	941	935	0.811	0.819	0.82	0.886
3cpn	3k1u	942	936	0.204	0.194	0.166	0.347
3cpn	3k1u	943	937	0.0	0.0	0.0	0.0
3cpn	3k1u	945	939	0.025	0.038	0.033	0.038
3cpn	3k1u	946	940	0.027	0.063	0.012	0.042
3cpn	3k1u	947	941	0.031	0.03	0.044	0.068
3cpn	3k1u	948	942	0.149	0.212	0.123	0.196
3cpn	3k1u	949	943	0.085	0.223	0.112	0.176
3cpn	3k1u	950	944	0.117	0.156	0.145	0.205
3cpn	3k1u	951	945	0.47	0.432	0.47	0.432
3cpn	3k1u	952	946	0.096	0.076	0.073	0.066
3cpn	3k1u	953	947	0.284	0.348	0.255	0.3
3cpn	3k1u	954	948	0.668	0.847	0.661	0.751
3cpn	3k1u	955	949	0.143	0.247	0.103	0.164
3cpn	3k1u	956	950	0.614	0.791	0.644	0.738
3cpn	3k1u	957	951	0.38	0.394	0.391	0.415
3cpn	3k1u	958	952	0.344	0.348	0.363	0.369
3cpn	3k1u	959	953	0.6	0.8	0.6	0.8
3cpn	3k1u	960	954	0.597	0.588	0.621	0.709
3cpn	3k1u	961	955	0.893	0.924	0.883	0.924
3cpn	3k1u	962	956	0.572	0.565	0.571	0.643
3cpn	3k1u	963	957	0.462	0.516	0.448	0.495
3cpn	3k1u	964	958	0.348	0.347	0.374	0.488
3cpn	3k1u	965	959	0.294	0.47	0.289	0.445
3cpn	3k1u	966	960	0.135	0.133	0.167	0.117
3cpn	3k1u	967	961	0.719	0.809	0.715	0.812
3cpn	3k1u	968	962	0.681	0.753	0.678	0.901
3cpn	3k1u	971	965	0.0	0.0	0.0	0.0
3cpn	3k1u	975	969	0.142	0.23	0.126	0.182
3cpn	3k1u	976	970	0.32	0.364	0.318	0.363
3cpn	3k1u	977	971	0.614	0.765	0.651	0.827
3cpn	3k1u	978	972	0.0	0.025	0.013	0.277
3cpn	3k1u	979	973	0.26	0.235	0.239	0.225
3cpn	3k1u	980	974	0.358	0.438	0.385	0.417
3cpn	3k1u	981	975	0.451	0.507	0.436	0.433
3cpn	3k1u	983	977	0.0	0.0	0.0	0.0
3cpn	3k1u	984	978	0.191	0.0	0.202	0.161
3cpn	3k1u	985	979	0.035	0.0	0.054	0.063
3cpn	3k1u	986	980	0.358	0.0	0.364	0.347
3cpn	3k1u	987	981	0.888	0.0	0.89	0.822
3cpn	3k1u	988	982	0.81	0.0	0.782	0.704
3cpn	3k1u	989	983	0.0	0.0	0.0	0.032
3cpn	3k1u	990	984	0.0	0.0	0.0	0.0
3cpn	3k1u	991	985	0.034	0.0	0.044	0.06
3cpn	3k1u	992	986	0.0	0.0	0.0	0.0
3cpn	3k1u	994	988	0.893	0.0	0.889	0.996
3cpn	3k1u	995	989	0.566	0.0	0.591	0.541
3cpn	3k1u	996	990	0.587	0.0	0.63	0.666
3cpn	3k1u	998	992	0.472	0.0	0.499	0.497
3cpn	3k1u	999	993	0.766	0.0	0.771	0.736
3cpn	3k1u	1000	994	0.479	0.493	0.479	0.493
3cpn	3k1u	1001	995	0.281	0.431	0.285	0.431
3cpn	3k1u	1002	996	0.502	0.55	0.503	0.549
3cpn	3k1u	1003	997	0.352	0.467	0.324	0.318
3cpn	3k1u	1004	998	0.745	0.686	0.77	0.681
3cpn	3k1u	1005	999	0.501	0.51	0.497	0.496
3cpn	3k1u	1006	1000	0.785	0.721	0.791	0.721
3cpn	3k1u	1007	1001	0.464	0.586	0.465	0.588
3cpn	3k1u	1008	1002	0.822	0.783	0.815	0.772
3cpn	3k1u	1009	1003	1.0	1.0	1.0	1.0
3cpn	3k1u	1010	1004	0.9	0.52	0.9	0.52
3cpn	3k1u	1011	1005	0.223	0.216	0.248	0.239
3cpn	3k1u	1012	1006	0.856	0.872	0.856	0.872
3cpn	3k1u	1013	1007	1.0	0	1.0	0
3cpn	3k1u	1015	1009	0.478	0.513	0.531	0.576
3cpn	3k1u	1016	1010	0.615	0.619	0.617	0.619
3cpn	3k1u	1017	1011	0.755	0.736	0.753	0.736
3cpn	3k1u	1018	1012	1.0	0	1.0	0
3cpn	3k1u	1019	1013	0.533	0.619	0.535	0.679
3cpn	3k1u	1020	1014	0.492	0.686	0.527	0.724
3cpn	3k1u	1021	1015	0.018	0.029	0.0	0.013
3cpn	3k1u	1022	1016	0.213	0.229	0.245	0.23
3cpn	3k1u	1023	1017	0.905	0.745	0.902	0.745
3cpn	3k1u	1024	1018	0.387	0.43	0.341	0.512
3cpn	3k1u	1025	1019	0.691	0.776	0.675	0.855
3cpn	3k1u	1026	1020	0.184	0.195	0.184	0.197
3cpn	3k1u	1027	1021	0.118	0.145	0.09	0.154
3cpn	3k1u	1028	1022	0.635	0.605	0.63	0.605
3cpn	3k1u	1029	1023	0.521	0.634	0.537	0.804
3cpn	3k1u	1031	1025	0.295	0.217	0.293	0.099
3cpn	3k1u	1032	1026	0.527	0.63	0.557	0.714
3cpn	3k1u	1033	1027	0.678	0.848	0.645	0.621
3cpn	3k1u	1034	1028	0.645	0.595	0.655	0.596
3cpn	3k1u	1035	1029	0.0	0.0	0.0	0.0
3cpn	3k1u	1037	1031	0.0	0.001	0.0	0.0
3cpn	3k1u	1038	1032	0.363	0.445	0.284	0.261
3cpn	3k1u	1039	1033	0.613	0.616	0.656	0.766
3cpn	3k1u	1040	1034	0.053	0.073	0.091	0.076
3cpn	3k1u	1041	1035	0.0	0.0	0.0	0.0
3cpn	3k1u	1043	1037	0.221	0.173	0.279	0.291
3cpn	3k1u	1044	1038	0.492	0.549	0.498	0.55
3cpn	3k1u	1045	1039	0.299	0.377	0.278	0.433
3cpn	3k1u	1046	1040	0.508	0.529	0.465	0.506
3cpn	3k1u	1047	1041	0.717	0.568	0.73	0.709
3cpn	3k1u	1048	1042	0.53	0.57	0.563	0.547
3cpn	3k1u	1049	1043	0.493	0.49	0.474	0.462
3cpn	3k1u	1050	1044	0.224	0.185	0.221	0.188
3cpn	3k1u	1051	1045	0.395	0.449	0.337	0.363
3cpn	3k1u	1052	1046	0.475	0.501	0.488	0.465
3cpn	3k1u	1053	1047	0.515	0.555	0.489	0.508
3cpn	3k1u	1054	1048	0.496	0.553	0.496	0.553
3cpn	3k1u	1055	1049	0.473	0.649	0.476	0.503
3cpn	3k1u	1056	1050	0.379	0.378	0.328	0.313
3cpn	3k1u	1057	1051	0.443	0.541	0.388	0.361
3cpn	3k1u	1058	1052	0.685	0.674	0.727	0.706
3cpn	3k1u	1059	1053	0.081	0.099	0.076	0.086
3cpn	3k1u	1060	1054	0.884	0.9	0.897	0.792
3cpn	3k1u	1061	1055	0.145	0.155	0.2	0.205
3cpn	3k1u	1062	1056	0.163	0.015	0.137	0.268
3cpn	3k1u	1063	1057	0.392	0.447	0.332	0.41
3cpn	3k1u	1064	1058	0.0	0.0	0.0	0.0
3cpn	3k1u	1065	1059	0.0	0.0	0.0	0.0
3cpn	3k1u	1066	1060	0.019	0.021	0.019	0.021
3cpn	3k1u	1067	1061	0.808	0.783	0.805	0.777
3cpn	3k1u	1068	1062	0.756	0.743	0.757	0.824
3cpn	3k1u	1069	1063	0.924	0.867	0.904	0.704
3cpn	3k1u	1070	1064	0.937	0.759	0.923	0.832
3cpn	3k1u	1071	1065	0.709	0.836	0.72	0.839
3cpn	3k1u	1072	1066	0.582	0.518	0.585	0.708
3cpn	3k1u	1073	1067	0.81	0.813	0.819	0.821
3cpn	3k1u	1074	1068	0.25	0.0	0.261	0.038
3cpn	3k1u	1075	1069	0.45	0.183	0.447	0.183
3cpn	3k1u	1076	1070	0.437	0.416	0.488	0.475
3cpn	3k1u	1077	1071	0.782	0.661	0.798	0.795
3cpn	3k1u	1078	1072	0.758	0.721	0.744	0.717
3cpn	3k1u	1079	1073	1.0	0	1.0	0
3cpn	3k1u	1081	1075	0.758	0.819	0.776	0.849
3cpn	3k1u	1083	1077	0.782	0.437	0.809	0.829
3cpn	3k1u	1084	1078	0.435	0.448	0.426	0.34
3cpn	3k1u	1085	1079	0.315	0.325	0.377	0.486
3cpn	3k1u	1087	1081	0.485	0.608	0.507	0.577
3cpn	3k1u	1089	1083	0.654	0.675	0.675	0.844
3cpn	3k1u	1093	1087	0.427	0.368	0.361	0.381
