pred	succ	p-cen	s-cen	p_q-score	p_s-score	s_q-score	s_s-score
3bx6	3kq0	12	8	0.593	0.616	0.566	0.602
3bx6	3kq0	17	13	0.684	0.688	0.607	0.498
3bx6	3kq0	18	14	0.0	0.0	0.0	0.0
3bx6	3kq0	19	15	0.076	0.116	0.088	0.125
3bx6	3kq0	20	16	0.597	0.604	0.562	0.454
3bx6	3kq0	21	17	0.754	0.948	0.745	0.914
3bx6	3kq0	22	18	0.0	0.001	0.0	0.0
3bx6	3kq0	23	19	0.742	0.68	0.725	0.691
3bx6	3kq0	24	20	0.823	0.776	0.831	0.775
3bx6	3kq0	25	21	0.509	0.503	0.545	0.7
3bx6	3kq0	26	22	0.309	0.46	0.301	0.336
3bx6	3kq0	27	23	0.04	0.049	0.036	0.046
3bx6	3kq0	28	24	0.069	0.165	0.054	0.066
3bx6	3kq0	29	25	0.046	0.086	0.053	0.12
3bx6	3kq0	30	26	0.0	0.01	0.0	0.004
3bx6	3kq0	31	27	0.0	0.018	0.002	0.018
3bx6	3kq0	32	28	0.616	0.575	0.642	0.674
3bx6	3kq0	33	29	0.23	0.143	0.201	0.147
3bx6	3kq0	35	31	0.459	0.428	0.458	0.419
3bx6	3kq0	36	32	0.792	0.866	0.8	0.873
3bx6	3kq0	37	33	1.0	0	1.0	0
3bx6	3kq0	38	34	0.684	0.491	0.738	0.535
3bx6	3kq0	39	35	0.478	0.483	0.525	0.56
3bx6	3kq0	40	36	0.012	0.002	0.014	0.076
3bx6	3kq0	42	38	0.473	0.399	0.405	0.21
3bx6	3kq0	43	39	0.03	0.044	0.028	0.105
3bx6	3kq0	44	40	0.238	0.112	0.219	0.106
3bx6	3kq0	45	41	0.168	0.151	0.209	0.178
3bx6	3kq0	46	42	0.247	0.271	0.229	0.259
3bx6	3kq0	47	43	0.383	0.365	0.377	0.365
3bx6	3kq0	48	44	0.347	0.344	0.348	0.393
3bx6	3kq0	49	45	0.682	0.704	0.753	0.758
3bx6	3kq0	50	46	0.504	0.476	0.485	0.616
3bx6	3kq0	51	47	0.185	0.36	0.191	0.313
3bx6	3kq0	52	48	0.848	0.886	0.857	0.862
3bx6	3kq0	53	49	0.629	0.677	0.597	0.669
3bx6	3kq0	54	50	0.0	0.0	0.0	0.0
3bx6	3kq0	55	51	0.247	0.359	0.199	0.362
3bx6	3kq0	56	52	0.531	0.703	0.545	0.658
3bx6	3kq0	57	53	0.08	0.094	0.092	0.087
3bx6	3kq0	58	54	0.448	0.467	0.346	0.342
3bx6	3kq0	59	55	0.0	0.0	0.0	0.0
3bx6	3kq0	60	56	0.0	0.0	0.0	0.0
3bx6	3kq0	61	57	0.678	0.676	0.666	0.503
3bx6	3kq0	62	58	0.0	0.112	0.0	0.032
3bx6	3kq0	63	59	0.262	0.276	0.22	0.213
3bx6	3kq0	64	60	0.105	0.132	0.105	0.132
3bx6	3kq0	65	61	0.0	0.0	0.0	0.0
3bx6	3kq0	66	62	0.0	0.001	0.003	0.009
3bx6	3kq0	67	63	0.0	0.007	0.0	0.015
3bx6	3kq0	68	64	0.26	0.316	0.198	0.198
3bx6	3kq0	69	65	0.835	0.829	0.817	0.846
3bx6	3kq0	70	66	0.012	0.009	0.0	0.045
3bx6	3kq0	72	68	0.0	0.0	0.0	0.0
3bx6	3kq0	73	69	0.091	0.1	0.095	0.072
3bx6	3kq0	74	70	0.137	0.349	0.135	0.166
3bx6	3kq0	75	71	0.286	0.26	0.281	0.288
3bx6	3kq0	76	72	0.023	0.035	0.032	0.036
3bx6	3kq0	77	73	0.429	0.356	0.424	0.339
3bx6	3kq0	79	75	0.76	0.75	0.755	0.619
3bx6	3kq0	80	76	0.166	0.188	0.138	0.173
3bx6	3kq0	81	77	0.0	0.0	0.0	0.0
3bx6	3kq0	82	78	0.0	0.0	0.0	0.0
3bx6	3kq0	83	79	0.0	0.0	0.0	0.0
3bx6	3kq0	84	80	0.272	0.32	0.238	0.253
3bx6	3kq0	86	82	0.0	0.102	0.0	0.001
3bx6	3kq0	87	83	0.492	0.412	0.501	0.417
3bx6	3kq0	88	84	1.0	0	1.0	0
3bx6	3kq0	89	85	0.699	0.849	0.689	0.808
3bx6	3kq0	90	86	0.636	0.632	0.63	0.669
3bx6	3kq0	91	87	0.791	0.809	0.793	0.809
3bx6	3kq0	92	88	0.528	0.552	0.534	0.676
3bx6	3kq0	93	89	0.595	0.595	0.598	0.607
3bx6	3kq0	94	90	0.747	0.739	0.708	0.714
3bx6	3kq0	95	91	0.579	0.516	0.525	0.564
3bx6	3kq0	96	92	0.69	0.807	0.664	0.603
3bx6	3kq0	97	93	0.0	0.0	0.0	0.083
3bx6	3kq0	98	94	0.068	0.085	0.066	0.045
3bx6	3kq0	99	95	0.646	0.827	0.653	0.662
3bx6	3kq0	100	96	0.375	0.343	0.372	0.458
3bx6	3kq0	101	97	0.47	0.37	0.473	0.347
3bx6	3kq0	102	98	0.419	0.354	0.415	0.361
3bx6	3kq0	103	99	0.172	0.231	0.18	0.138
3bx6	3kq0	104	100	0.187	0.328	0.192	0.321
3bx6	3kq0	106	102	0.387	0.513	0.386	0.511
3bx6	3kq0	108	104	0.366	0.096	0.376	0.193
3bx6	3kq0	109	105	0.615	0.599	0.64	0.673
3bx6	3kq0	111	107	0.519	0.41	0.568	0.472
3bx6	3kq0	112	108	0.137	0.201	0.137	0.189
3bx6	3kq0	113	109	0.178	0.298	0.16	0.205
3bx6	3kq0	114	110	0.838	0.709	0.8	0.738
3bx6	3kq0	115	111	0.409	0.443	0.392	0.455
3bx6	3kq0	116	112	0.622	0.62	0.608	0.588
3bx6	3kq0	117	113	0.4	0.394	0.372	0.361
3bx6	3kq0	119	115	0.493	0.484	0.774	0.737
3bx6	3kq0	124	120	0.706	0.696	0.703	0.695
3bx6	3kq0	126	122	0.525	0.519	0.586	0.624
3bx6	3kq0	127	123	0.329	0.313	0.367	0.393
3bx6	3kq0	128	124	0.875	0.94	0.869	0.94
3bx6	3kq0	129	125	0.88	0.52	0.9	0.52
3bx6	3kq0	130	126	0.382	0.395	0.269	0.272
3bx6	3kq0	133	129	0.0	0.002	0.0	0.0
3bx6	3kq0	139	135	0.297	0.3	0.31	0.312
3bx6	3kq0	141	137	0.199	0.169	0.225	0.214
3bx6	3kq0	142	138	0.0	0.0	0.0	0.013
3bx6	3kq0	143	139	0.575	0.511	0.581	0.685
3bx6	3kq0	144	140	0.432	0.48	0.414	0.586
3bx6	3kq0	147	143	0.0	0.0	0.0	0.0
3bx6	3kq0	148	144	0.033	0.012	0.046	0.032
3bx6	3kq0	149	145	0.439	0.638	0.313	0.308
3bx6	3kq0	150	146	0.06	0.125	0.066	0.037
3bx6	3kq0	151	147	0.595	0.739	0.435	0.583
3bx6	3kq0	152	148	0.387	0.495	0.563	0.601
3bx6	3kq0	154	150	0.0	0.0	0.0	0.0
3bx6	3kq0	155	151	0.024	0.026	0.05	0.078
3bx6	3kq0	157	153	0.35	0.461	0.352	0.415
3bx6	3kq0	158	154	0.617	0.391	0.605	0.454
3bx6	3kq0	159	155	0.682	0.805	0.633	0.783
3bx6	3kq0	160	156	0.22	0.252	0.274	0.257
3bx6	3kq0	161	157	0.492	0.527	0.497	0.584
3bx6	3kq0	162	158	0.877	0.838	0.912	0.994
3bx6	3kq0	163	159	0.534	0.786	0.505	0.563
3bx6	3kq0	165	161	0.365	0.377	0.376	0.421
3bx6	3kq0	166	162	0.0	0.0	0.0	0.002
3bx6	3kq0	167	163	0.135	0.147	0.166	0.184
3bx6	3kq0	168	164	0.05	0.102	0.027	0.039
3bx6	3kq0	169	165	0.393	0.441	0.397	0.473
3bx6	3kq0	170	166	0.169	0.196	0.19	0.191
3bx6	3kq0	171	167	0.817	0.943	0.813	0.948
3bx6	3kq0	173	169	0.333	0.36	0.286	0.294
3bx6	3kq0	174	170	0.465	0.406	0.417	0.329
3bx6	3kq0	175	171	0.76	0.746	0.737	0.683
3bx6	3kq0	176	172	0.493	0.481	0.479	0.454
3bx6	3kq0	177	173	0.238	0.231	0.211	0.203
3bx6	3kq0	179	175	0.725	0.369	0.742	0.595
3bx6	3kq0	180	176	0.509	0.521	0.503	0.695
3bx6	3kq0	181	177	0.803	0.896	0.818	0.899
3bx6	3kq0	182	178	0.051	0.052	0.077	0.077
3bx6	3kq0	183	179	0.016	0.013	0.014	0.022
3bx6	3kq0	184	180	0.836	0.814	0.843	0.728
3bx6	3kq0	185	181	0.834	0.643	0.863	0.75
3bx6	3kq0	186	182	0.942	0.925	0.908	0.875
3bx6	3kq0	187	183	0.788	0.781	0.743	0.729
3bx6	3kq0	188	184	0.603	0.589	0.59	0.649
3bx6	3kq0	189	185	0.803	0.794	0.804	0.786
3bx6	3kq0	190	186	0.102	0.1	0.123	0.109
3bx6	3kq0	191	187	0.263	0.23	0.25	0.223
3bx6	3kq0	192	188	0.0	0.007	0.0	0.027
3bx6	3kq0	193	189	0.045	0.061	0.053	0.147
3bx6	3kq0	194	190	0.146	0.236	0.113	0.215
3bx6	3kq0	195	191	0.176	0.21	0.172	0.39
3bx6	3kq0	196	192	0.066	0.064	0.058	0.076
3bx6	3kq0	197	193	0.185	0.187	0.148	0.144
3bx6	3kq0	198	194	0.067	0.073	0.059	0.055
3bx6	3kq0	199	195	0.304	0.305	0.363	0.351
3bx6	3kq0	200	196	0.317	0.192	0.265	0.264
3bx6	3kq0	201	197	0.561	0.571	0.548	0.564
3bx6	3kq0	202	198	0.282	0.316	0.326	0.384
3bx6	3kq0	203	199	0.145	0.147	0.148	0.15
3bx6	3kq0	204	200	0.328	0.343	0.317	0.397
3bx6	3kq0	205	201	0.47	0.522	0.487	0.427
3bx6	3kq0	206	202	0.409	0.516	0.423	0.755
3bx6	3kq0	207	203	0.0	0.0	0.0	0.0
3bx6	3kq0	208	204	0.135	0.176	0.153	0.206
3bx6	3kq0	209	205	0.427	0.552	0.45	0.482
3bx6	3kq0	210	206	0.248	0.257	0.251	0.291
3bx6	3kq0	211	207	0.155	0.126	0.159	0.179
3bx6	3kq0	212	208	0.0	0.0	0.0	0.0
3bx6	3kq0	213	209	0.0	0.005	0.0	0.001
3bx6	3kq0	214	210	0.138	0.137	0.099	0.144
3bx6	3kq0	215	211	0.0	0.01	0.0	0.035
3bx6	3kq0	216	212	0.276	0.273	0.325	0.304
3bx6	3kq0	217	213	0.464	0.439	0.455	0.439
3bx6	3kq0	219	215	0.0	0.0	0.0	0.0
3bx6	3kq0	220	216	0.253	0.402	0.211	0.332
3bx6	3kq0	221	217	0.063	0.078	0.071	0.093
3bx6	3kq0	222	218	0.136	0.23	0.129	0.203
3bx6	3kq0	223	219	0.176	0.263	0.179	0.336
3bx6	3kq0	224	220	0.083	0.051	0.126	0.133
3bx6	3kq0	225	221	0.616	0.647	0.665	0.738
3bx6	3kq0	226	222	0.49	0.659	0.521	0.617
3bx6	3kq0	227	223	0.81	0.869	0.807	0.869
3bx6	3kq0	228	224	0.269	0.305	0.247	0.33
3bx6	3kq0	229	225	0.471	0.58	0.431	0.641
3bx6	3kq0	230	226	0.02	0.045	0.026	0.088
3bx6	3kq0	231	227	0.372	0.347	0.375	0.333
3bx6	3kq0	232	228	0.597	0.682	0.593	0.639
3bx6	3kq0	234	230	0.713	0.688	0.713	0.688
3bx6	3kq0	236	232	0.432	0.47	0.418	0.436
3bx6	3kq0	237	233	0.0	0.002	0.0	0.0
3bx6	3kq0	239	235	0.314	0.39	0.313	0.39
3bx6	3kq0	240	236	0.163	0.265	0.148	0.26
3bx6	3kq0	242	238	0.389	0.375	0.394	0.375
3bx6	3kq0	243	239	0.414	0.399	0.406	0.391
3bx6	3kq0	244	240	0.521	0.556	0.553	0.665
3bx6	3kq0	248	244	0.617	0.639	0.673	0.835
3bx6	3kq0	249	245	0.427	0.505	0.362	0.423
3bx6	3kq0	252	248	0.332	0.27	0.359	0.442
3bx6	3kq0	253	249	0.801	0.843	0.815	0.779
3bx6	3kq0	254	250	0.967	0.8	1.0	0.8
3bx6	3kq0	255	251	0.201	0.425	0.176	0.157
3bx6	3kq0	256	252	0.402	0.451	0.442	0.597
3bx6	3kq0	257	253	0.363	0.71	0.366	0.413
3bx6	3kq0	258	254	0.678	0.721	0.607	0.745
3bx6	3kq0	259	255	0.0	0.0	0.0	0.0
3bx6	3kq0	260	256	0.209	0.201	0.188	0.181
3bx6	3kq0	261	257	0.369	0.315	0.336	0.367
3bx6	3kq0	262	258	0.03	0.086	0.045	0.044
3bx6	3kq0	263	259	0.0	0.0	0.0	0.0
3bx6	3kq0	264	260	0.084	0.069	0.091	0.077
3bx6	3kq0	265	261	0.208	0.279	0.211	0.37
3bx6	3kq0	266	262	0.414	0.493	0.448	0.478
3bx6	3kq0	267	263	0.152	0.22	0.093	0.071
3bx6	3kq0	269	265	0.497	0.634	0.497	0.634
3bx6	3kq0	270	266	0.887	0.987	0.887	0.987
3bx6	3kq0	271	267	0.0	0.0	0.0	0.0
3bx6	3kq0	272	268	0.542	0.477	0.671	0.691
3bx6	3kq0	273	269	0.462	0.478	0.456	0.477
3bx6	3kq0	274	270	0.0	0.0	0.0	0.0
3bx6	3kq0	275	271	0.324	0.307	0.32	0.364
3bx6	3kq0	276	272	0.28	0.294	0.325	0.352
3bx6	3kq0	277	273	0.602	0.426	0.609	0.124
3bx6	3kq0	279	275	0.622	0.721	0.601	0.744
3bx6	3kq0	281	277	0.55	0.545	0.561	0.465
3bx6	3kq0	282	278	0.573	0.576	0.597	0.57
3bx6	3kq0	284	280	0.705	0.692	0.697	0.687
3bx6	3kq0	285	281	0.832	0.647	0.822	0.639
3bx6	3kq0	286	282	0.029	0.02	0.017	0.018
3bx6	3kq0	287	283	0.102	0.091	0.103	0.132
3bx6	3kq0	288	284	0.02	0.049	0.026	0.05
3bx6	3kq0	289	285	0.863	0.72	0.839	0.714
3bx6	3kq0	290	286	0.111	0.164	0.111	0.158
3bx6	3kq0	291	287	0.781	0.826	0.712	0.542
3bx6	3kq0	292	288	0.845	0.809	0.85	0.809
3bx6	3kq0	293	289	0.847	0.821	0.842	0.827
3bx6	3kq0	294	290	0.229	0.233	0.238	0.235
3bx6	3kq0	295	291	0.353	0.343	0.456	0.398
3bx6	3kq0	297	293	0.277	0.256	0.316	0.403
3bx6	3kq0	298	294	0.365	0.392	0.389	0.368
3bx6	3kq0	299	295	0.408	0.332	0.384	0.386
3bx6	3kq0	300	296	0.132	0.134	0.142	0.18
3bx6	3kq0	301	297	0.431	0.434	0.423	0.422
3bx6	3kq0	302	298	0.063	0.063	0.076	0.201
3bx6	3kq0	305	301	0.733	0.867	0.825	0.9
3bx6	3kq0	306	302	0.16	0.19	0.176	0.189
3bx6	3kq0	307	303	0.382	0.406	0.367	0.34
3bx6	3kq0	308	304	0.647	0.748	0.313	0.357
3bx6	3kq0	309	305	0.104	0.078	0.162	0.148
3bx6	3kq0	310	306	0.312	0.306	0.398	0.435
3bx6	3kq0	311	307	0.441	0.453	0.435	0.45
3bx6	3kq0	312	308	0.619	0.569	0.585	0.614
3bx6	3kq0	313	309	0.475	0.535	0.484	0.395
3bx6	3kq0	314	310	0.0	0.0	0.0	0.0
3bx6	3kq0	315	311	0.176	0.201	0.178	0.181
3bx6	3kq0	316	312	0.305	0.337	0.307	0.323
3bx6	3kq0	317	313	0.194	0.288	0.179	0.191
3bx6	3kq0	318	314	0.16	0.147	0.127	0.127
3bx6	3kq0	319	315	0.019	0.058	0.029	0.037
3bx6	3kq0	320	316	0.009	0.021	0.026	0.018
3bx6	3kq0	321	317	0.073	0.103	0.084	0.096
3bx6	3kq0	322	318	0.209	0.214	0.209	0.329
3bx6	3kq0	323	319	0.572	0.549	0.344	0.218
3bx6	3kq0	324	320	0.836	0.911	0.866	0.93
3bx6	3kq0	325	321	0.445	0.696	0.436	0.683
3bx6	3kq0	327	323	0.433	0.487	0.433	0.543
3bx6	3kq0	328	324	0.415	0.591	0.435	0.444
3bx6	3kq0	329	325	0.477	0.608	0.468	0.431
3bx6	3kq0	331	327	0.312	0.376	0.329	0.382
3bx6	3kq0	332	328	0.307	0.356	0.285	0.345
3bx6	3kq0	333	329	0.816	0.7	0.812	0.712
3bx6	3kq0	334	330	0.044	0.076	0.073	0.101
3bx6	3kq0	335	331	0.041	0.047	0.026	0.059
3bx6	3kq0	336	332	0.5	0.738	0.48	0.692
3bx6	3kq0	337	333	0.43	0.523	0.44	0.444
3bx6	3kq0	341	337	0.183	0.176	0.249	0.222
3bx6	3kq0	344	340	0.41	0.444	0.401	0.424
3bx6	3kq0	345	341	0.427	0.423	0.426	0.425
3bx6	3kq0	346	342	0.692	0.558	0.678	0.539
3bx6	3kq0	347	343	0.936	0.86	0.942	0.854
3bx6	3kq0	348	344	0.101	0.118	0.17	0.215
3bx6	3kq0	349	345	0.391	0.483	0.415	0.432
3bx6	3kq0	350	346	0.558	0.744	0.588	0.796
3bx6	3kq0	351	347	0.254	0.285	0.206	0.248
3bx6	3kq0	352	348	0.952	0.862	0.952	0.862
3bx6	3kq0	353	349	0.81	0.814	0.791	0.795
3bx6	3kq0	354	350	0.699	0.688	0.657	0.727
3bx6	3kq0	355	351	0.891	0.927	0.873	0.803
3bx6	3kq0	356	352	0.877	0.683	0.875	0.676
3bx6	3kq0	357	353	0.0	0.0	0.0	0.0
3bx6	3kq0	358	354	0.009	0.054	0.004	0.032
3bx6	3kq0	359	355	0.08	0.104	0.046	0.063
3bx6	3kq0	360	356	0.255	0.359	0.188	0.163
3bx6	3kq0	361	357	0.082	0.206	0.103	0.214
3bx6	3kq0	362	358	0.193	0.189	0.284	0.277
3bx6	3kq0	363	359	0.0	0.0	0.0	0.0
3bx6	3kq0	364	360	0.004	0.076	0.002	0.227
3bx6	3kq0	365	361	0.442	0.5	0.469	0.493
3bx6	3kq0	366	362	0.302	0.332	0.286	0.349
3bx6	3kq0	367	363	0.0	0.0	0.0	0.0
3bx6	3kq0	368	364	0.359	0.373	0.318	0.299
3bx6	3kq0	369	365	0.079	0.075	0.067	0.068
3bx6	3kq0	370	366	0.348	0.279	0.273	0.268
3bx6	3kq0	372	368	0.652	0.69	0.658	0.622
3bx6	3kq0	373	369	0.174	0.238	0.19	0.194
3bx6	3kq0	374	370	0.341	0.516	0.374	0.455
3bx6	3kq0	376	372	0.502	0.474	0.503	0.472
3bx6	3kq0	377	373	0.598	0.784	0.595	0.609
3bx6	3kq0	378	374	0.535	0.664	0.543	0.612
3bx6	3kq0	379	375	0.447	0.571	0.477	0.506
3bx6	3kq0	380	376	0.848	0.889	0.837	0.905
3bx6	3kq0	381	377	0.189	0.297	0.147	0.221
3bx6	3kq0	382	378	0.845	0.9	0.807	0.836
3bx6	3kq0	383	379	0.367	0.423	0.402	0.427
3bx6	3kq0	386	382	0.442	0.215	0.399	0.134
3bx6	3kq0	387	383	0.274	0.058	0.221	0.058
3bx6	3kq0	388	384	0.024	0.024	0.016	0.016
3bx6	3kq0	389	385	0.409	0.587	0.312	0.364
3bx6	3kq0	394	390	0.551	0.705	0.522	0.421
3bx6	3kq0	395	391	0.038	0.035	0.051	0.042
3bx6	3kq0	396	392	0.351	0.344	0.288	0.296
3bx6	3kq0	397	393	0.023	0.017	0.0	0.02
3bx6	3kq0	398	394	0.473	0.46	0.565	0.652
3bx6	3kq0	399	395	0.318	0.331	0.352	0.367
3bx6	3kq0	400	396	0.817	0.841	0.816	0.838
3bx6	3kq0	401	397	0.0	0	0.0	0
3bx6	3kq0	402	398	0.0	0.0	0.0	0.015
3bx6	3kq0	403	399	0.302	0.485	0.325	0.425
3bx6	3kq0	404	400	0.0	0.064	0.0	0.084
3bx6	3kq0	405	401	0.509	0.665	0.509	0.561
3bx6	3kq0	406	402	0.339	0.29	0.277	0.227
3bx6	3kq0	407	403	0.0	0.0	0.0	0.0
3bx6	3kq0	408	404	0.225	0.17	0.197	0.202
3bx6	3kq0	409	405	0.5	0.473	0.461	0.419
3bx6	3kq0	410	406	0.227	0.355	0.241	0.423
3bx6	3kq0	411	407	0.893	0.967	0.882	0.873
3bx6	3kq0	412	408	0.364	0.294	0.364	0.292
3bx6	3kq0	413	409	0.694	0.648	0.639	0.631
3bx6	3kq0	414	410	0.65	0.744	0.664	0.67
3bx6	3kq0	415	411	0.706	0.548	0.662	0.723
3bx6	3kq0	416	412	0.513	0.645	0.502	0.639
3bx6	3kq0	417	413	0.88	0.954	0.891	0.973
3bx6	3kq0	418	414	0.804	0.883	0.811	0.884
3bx6	3kq0	419	415	0.023	0.017	0.031	0.023
3bx6	3kq0	420	416	0.596	0.512	0.575	0.498
3bx6	3kq0	421	417	0.575	0.487	0.53	0.412
3bx6	3kq0	422	418	0.301	0.224	0.364	0.334
3bx6	3kq0	424	420	0.754	0.811	0.803	0.828
3bx6	3kq0	427	423	0.694	0.878	0.854	0.915
3bx6	3kq0	431	427	0.679	0.719	0.611	0.615
3bx6	3kq0	433	429	0.023	0.104	0.015	0.049
3bx6	3kq0	439	435	0.195	0.148	0.202	0.167
3bx6	3kq0	440	436	0.747	0.9	0.771	0.82
3bx6	3kq0	441	437	0.765	0.851	0.467	0.445
3bx6	3kq0	442	438	0.422	0.472	0.46	0.289
3bx6	3kq0	443	439	0.721	0.589	0.731	0.568
3bx6	3kq0	446	442	0.045	0.081	0.081	0.081
3bx6	3kq0	447	443	0.0	0.0	0.0	0.0
3bx6	3kq0	451	447	0.605	0.616	0.588	0.707
3bx6	3kq0	452	448	0.394	0.442	0.38	0.414
3bx6	3kq0	453	449	0.705	0.756	0.692	0.754
3bx6	3kq0	454	450	0.0	0.0	0.0	0.0
3bx6	3kq0	455	451	0.538	0.599	0.508	0.588
3bx6	3kq0	457	453	0.617	0.64	0.657	0.636
3bx6	3kq0	459	455	0.29	0.304	0.328	0.337
3bx6	3kq0	460	456	0.638	0.71	0.625	0.685
3bx6	3kq0	461	457	0.513	0.555	0.515	0.527
3bx6	3kq0	462	458	0.592	0.609	0.644	0.728
3bx6	3kq0	463	459	0.827	0.466	0.882	0.93
3bx6	3kq0	467	463	0.362	0.318	0.382	0.366
3bx6	3kq0	474	470	0.252	0.223	0.298	0.313
3bx6	3kq0	475	471	0.398	0.463	0.333	0.373
3bx6	3kq0	478	474	0.0	0.0	0.0	0.0
3bx6	3kq0	480	476	0.414	0.513	0.404	0.414
3bx6	3kq0	481	477	0.0	0.039	0.006	0.037
3bx6	3kq0	483	479	0.0	0.0	0.0	0.0
3bx6	3kq0	484	480	0.42	0.361	0.399	0.355
3bx6	3kq0	485	481	0.074	0.082	0.108	0.108
3bx6	3kq0	486	482	0.103	0.133	0.344	0.37
3bx6	3kq0	488	484	0.034	0.013	0.036	0.075
3bx6	3kq0	493	489	0.0	0.0	0.0	0.0
3bx6	3kq0	496	492	0.001	0.011	0.015	0.02
3bx6	3kq0	497	493	0.365	0.445	0.35	0.527
3bx6	3kq0	500	496	0.428	0.391	0.432	0.416
3bx6	3kq0	501	497	0.04	0.05	0.025	0.036
3bx6	3kq0	502	498	0.029	0.027	0.035	0.015
3bx6	3kq0	503	499	0.541	0.62	0.546	0.605
3bx6	3kq0	504	500	0.326	0.324	0.361	0.335
3bx6	3kq0	505	501	0.57	0.653	0.556	0.595
3bx6	3kq0	506	502	0.0	0.0	0.0	0.0
3bx6	3kq0	507	503	0.358	0.426	0.339	0.396
3bx6	3kq0	508	504	0.617	0.863	0.662	0.86
3bx6	3kq0	511	507	0.459	0.495	0.416	0.367
3bx6	3kq0	512	508	0.141	0.115	0.14	0.119
3bx6	3kq0	513	509	0.409	0.408	0.428	0.392
3bx6	3kq0	517	513	0.0	0.0	0.025	0.027
3bx6	3kq0	518	514	0.0	0.004	0.003	0.064
3bx6	3kq0	519	515	0.041	0.076	0.052	0.069
3bx6	3kq0	520	516	0.354	0.312	0.406	0.415
3bx6	3kq0	521	517	0.625	0.608	0.628	0.615
3bx6	3kq0	522	518	0.623	0.707	0.601	0.674
3bx6	3kq0	523	519	0.0	0.0	0.0	0.0
3bx6	3kq0	524	520	0.0	0.0	0.0	0.0
3bx6	3kq0	525	521	0.054	0.071	0.042	0.035
3bx6	3kq0	526	522	0.264	0.204	0.178	0.356
3bx6	3kq0	527	523	0.182	0.282	0.165	0.186
3bx6	3kq0	528	524	0.0	0.0	0.0	0.0
3bx6	3kq0	529	525	0.0	0.0	0.0	0.0
3bx6	3kq0	530	526	0.094	0.094	0.048	0.049
3bx6	3kq0	531	527	0.0	0.0	0.0	0.0
3bx6	3kq0	532	528	0.0	0.0	0.0	0.0
3bx6	3kq0	533	529	0.387	0.418	0.391	0.413
3bx6	3kq0	535	531	0.0	0.0	0.0	0.0
3bx6	3kq0	536	532	0.0	0.0	0.0	0.0
3bx6	3kq0	537	533	0.274	0.311	0.268	0.267
3bx6	3kq0	538	534	0.25	0.223	0.375	0.257
3bx6	3kq0	539	535	0.339	0.315	0.389	0.382
3bx6	3kq0	540	536	0.574	0.506	0.314	0.326
3bx6	3kq0	543	539	0.166	0.201	0.176	0.209
3bx6	3kq0	544	540	0.0	0.0	0.0	0.0
3bx6	3kq0	545	541	0.0	0.008	0.0	0.005
3bx6	3kq0	546	542	0.0	0.0	0.0	0.014
3bx6	3kq0	547	543	0.32	0.437	0.325	0.358
3bx6	3kq0	548	544	0.342	0.336	0.332	0.347
3bx6	3kq0	549	545	0.134	0.06	0.143	0.09
3bx6	3kq0	550	546	0.279	0.292	0.155	0.133
3bx6	3kq0	551	547	0.362	0.175	0.182	0.137
3bx6	3kq0	552	548	0.246	0.321	0.098	0.157
3bx6	3kq0	555	551	0.527	0.541	0.554	0.562
3bx6	3kq0	556	552	0.677	0.662	0.707	0.7
3bx6	3kq0	557	553	0.138	0.146	0.123	0.124
3bx6	3kq0	558	554	0.024	0.081	0.0	0.014
3bx6	3kq0	559	555	0.975	1.0	0.975	1.0
3bx6	3kq0	561	557	0.0	0.0	0.0	0.0
3bx6	3kq0	562	558	0.042	0.055	0.024	0.038
3bx6	3kq0	563	559	0.08	0.079	0.031	0.036
3bx6	3kq0	564	560	0.0	0.024	0.0	0.011
3bx6	3kq0	565	561	0.0	0.0	0.0	0.0
3bx6	3kq0	566	562	0.574	0.631	0.598	0.764
3bx6	3kq0	567	563	0.833	0.834	0.854	0.962
3bx6	3kq0	568	564	0.591	0.524	0.606	0.634
3bx6	3kq0	569	565	0.407	0.451	0.437	0.434
3bx6	3kq0	571	567	0.465	0.514	0.449	0.475
3bx6	3kq0	573	569	0.254	0.285	0.217	0.184
3bx6	3kq0	574	570	0.234	0.378	0.276	0.407
3bx6	3kq0	575	571	0.458	0.45	0.461	0.45
3bx6	3kq0	576	572	0.176	0.202	0.179	0.263
3bx6	3kq0	577	573	0.326	0.343	0.378	0.413
3bx6	3kq0	578	574	0.553	0.666	0.568	0.519
3bx6	3kq0	580	576	0.0	0.03	0.187	0.189
3bx6	3kq0	582	578	1.0	0	1.0	0
3bx6	3kq0	584	580	0.456	0.499	0.311	0.307
3bx6	3kq0	585	581	0.014	0.083	0.0	0.0
3bx6	3kq0	589	585	0.41	0.442	0.431	0.586
3bx6	3kq0	592	588	0.076	0.079	0.104	0.144
3bx6	3kq0	594	590	0.589	0.477	0.625	0.508
3bx6	3kq0	595	591	0.538	0.522	0.457	0.494
3bx6	3kq0	596	592	0.705	0.759	0.715	0.708
3bx6	3kq0	597	593	0.523	0.538	0.518	0.48
3bx6	3kq0	598	594	0.583	0.755	0.564	0.655
3bx6	3kq0	600	596	0.427	0.394	0.467	0.511
3bx6	3kq0	601	597	0.223	0.345	0.236	0.519
3bx6	3kq0	602	598	0.305	0.28	0.282	0.22
3bx6	3kq0	603	599	0.0	0.002	0.0	0.017
3bx6	3kq0	604	600	0.841	0.88	0.839	0.88
3bx6	3kq0	605	601	0.401	0.389	0.404	0.389
3bx6	3kq0	606	602	0.49	0.493	0.488	0.494
3bx6	3kq0	607	603	0.137	0.146	0.167	0.184
3bx6	3kq0	608	604	0.415	0.405	0.405	0.422
3bx6	3kq0	609	605	0.278	0.396	0.276	0.405
3bx6	3kq0	610	606	1.0	0	1.0	0
3bx6	3kq0	611	607	0.0	0.0	0.0	0.0
3bx6	3kq0	612	608	0.0	0.0	0.0	0.0
3bx6	3kq0	613	609	0.387	0.385	0.389	0.384
3bx6	3kq0	616	612	0.179	0.188	0.219	0.39
3bx6	3kq0	618	614	0.23	0.229	0.231	0.255
3bx6	3kq0	621	617	0.088	0.088	0.19	0.201
3bx6	3kq0	622	618	0.0	0.0	0.0	0.0
