pred	succ	p-cen	s-cen	p_q-score	p_s-score	s_q-score	s_s-score
3epq	3ohr	1	1	0.9	0.6	0.9	0.6
3epq	3ohr	2	2	0.927	0.749	0.922	0.741
3epq	3ohr	3	3	0.942	0.695	0.942	0.695
3epq	3ohr	4	4	0.0	0.0	0.0	0.0
3epq	3ohr	5	5	0.0	0.001	0.0	0.007
3epq	3ohr	6	6	0.418	0.378	0.406	0.378
3epq	3ohr	7	7	0.672	0.582	0.664	0.593
3epq	3ohr	8	8	0.489	0.565	0.473	0.556
3epq	3ohr	9	9	0.0	0.0	0.0	0.0
3epq	3ohr	10	10	0.058	0.037	0.042	0.018
3epq	3ohr	11	11	0.54	0.525	0.523	0.463
3epq	3ohr	12	12	0.062	0.15	0.081	0.117
3epq	3ohr	13	13	0.702	0.466	0.675	0.426
3epq	3ohr	14	14	0.446	0.258	0.449	0.327
3epq	3ohr	15	15	0.043	0.066	0.061	0.07
3epq	3ohr	16	16	0.0	0.0	0.0	0.0
3epq	3ohr	17	17	0.0	0.0	0.0	0.0
3epq	3ohr	18	18	0.424	0.355	0.372	0.356
3epq	3ohr	19	19	0.15	0.169	0.173	0.28
3epq	3ohr	20	20	0.135	0.174	0.147	0.173
3epq	3ohr	21	21	0.62	0.49	0.635	0.744
3epq	3ohr	22	22	0.819	0.661	0.824	0.586
3epq	3ohr	23	23	0.937	0.853	0.887	0.938
3epq	3ohr	24	24	0.9	0.89	0.903	0.841
3epq	3ohr	25	25	0.812	0.848	0.815	0.86
3epq	3ohr	26	26	0.691	0.598	0.707	0.64
3epq	3ohr	27	27	0.413	0.318	0.432	0.416
3epq	3ohr	28	28	0.653	0.387	0.67	0.763
3epq	3ohr	29	29	0.532	0.437	0.449	0.378
3epq	3ohr	30	30	0.541	0.631	0.513	0.557
3epq	3ohr	31	31	0.867	0.513	0.872	0.458
3epq	3ohr	32	32	0.752	0.443	0.718	0.471
3epq	3ohr	33	33	1.0	0.0	1.0	0.0
3epq	3ohr	34	34	0.826	0.894	0.812	0.659
3epq	3ohr	35	35	0.0	0.0	0.0	0.0
3epq	3ohr	36	36	0.461	0.611	0.47	0.597
3epq	3ohr	37	37	0.547	0.628	0.547	0.536
3epq	3ohr	38	38	0.679	0.64	0.649	0.699
3epq	3ohr	39	39	0.047	0.09	0.039	0.085
3epq	3ohr	40	40	0.869	0.744	0.869	0.744
3epq	3ohr	41	41	0.296	0.415	0.271	0.386
3epq	3ohr	42	42	0.469	0.354	0.447	0.263
3epq	3ohr	43	43	0.57	0.743	0.563	0.799
3epq	3ohr	44	44	0.556	0.695	0.506	0.602
3epq	3ohr	45	45	0.201	0.41	0.196	0.413
3epq	3ohr	46	46	0.697	0.732	0.728	0.722
3epq	3ohr	47	47	0.358	0.384	0.33	0.486
3epq	3ohr	48	48	0.399	0.459	0.351	0.416
3epq	3ohr	49	49	0.22	0.271	0.249	0.178
3epq	3ohr	50	50	0.682	0.693	0.681	0.756
3epq	3ohr	51	51	0.829	0.87	0.787	0.878
3epq	3ohr	52	52	0.8	1.0	0.8	1.0
3epq	3ohr	53	53	0.076	0.059	0.063	0.072
3epq	3ohr	55	55	0.679	0.794	0.646	0.78
3epq	3ohr	56	56	0.884	0.773	0.886	0.773
3epq	3ohr	57	57	0.672	0.631	0.669	0.631
3epq	3ohr	58	58	0.697	0.678	0.649	0.64
3epq	3ohr	59	59	0.255	0.252	0.244	0.238
3epq	3ohr	60	60	0.789	0.644	0.867	0.793
3epq	3ohr	61	61	0.0	0.0	0.0	0.0
3epq	3ohr	62	62	0.039	0.029	0.033	0.02
3epq	3ohr	63	63	0.649	0.676	0.582	0.618
3epq	3ohr	64	64	0.0	0.0	0.0	0.0
3epq	3ohr	65	65	0.0	0.0	0.0	0.0
3epq	3ohr	66	66	0.315	0.282	0.321	0.347
3epq	3ohr	67	67	0.033	0.085	0.027	0.081
3epq	3ohr	68	68	0.105	0.132	0.111	0.146
3epq	3ohr	69	69	0.386	0.53	0.388	0.44
3epq	3ohr	70	70	0.427	0.418	0.435	0.669
3epq	3ohr	71	71	0.0	0.0	0.0	0.0
3epq	3ohr	72	72	0.0	0.0	0.0	0.0
3epq	3ohr	73	73	0.237	0.194	0.24	0.257
3epq	3ohr	74	74	0.331	0.429	0.352	0.362
3epq	3ohr	75	75	0.418	0.4	0.479	0.449
3epq	3ohr	76	76	0.452	0.231	0.453	0.231
3epq	3ohr	77	77	0.79	0.81	0.79	0.81
3epq	3ohr	78	78	0.513	0.5	0.54	0.513
3epq	3ohr	79	79	0.087	0.187	0.102	0.14
3epq	3ohr	80	80	0.278	0.351	0.251	0.306
3epq	3ohr	81	81	0.822	0.7	0.822	0.7
3epq	3ohr	82	82	0.057	0.087	0.037	0.065
3epq	3ohr	83	83	0.063	0.133	0.074	0.093
3epq	3ohr	84	84	0.486	0.483	0.481	0.576
3epq	3ohr	85	85	0.203	0.289	0.199	0.308
3epq	3ohr	86	86	0.638	0.631	0.632	0.7
3epq	3ohr	87	87	0.139	0.197	0.138	0.183
3epq	3ohr	88	88	0.027	0.032	0.03	0.052
3epq	3ohr	89	89	0.206	0.213	0.164	0.163
3epq	3ohr	90	90	0.0	0.027	0.004	0.057
3epq	3ohr	91	91	0.577	0.587	0.548	0.735
3epq	3ohr	92	92	0.52	0.606	0.541	0.638
3epq	3ohr	93	93	0.892	0.906	0.895	0.906
3epq	3ohr	94	94	0.925	0.992	0.931	0.992
3epq	3ohr	95	95	0.713	0.654	0.713	0.654
3epq	3ohr	97	97	0.547	0.53	0.545	0.53
3epq	3ohr	98	98	0.317	0.075	0.331	0.071
3epq	3ohr	99	99	0.701	0.755	0.694	0.734
3epq	3ohr	100	100	0.713	0.842	0.712	0.842
3epq	3ohr	101	101	0.812	0.641	0.809	0.638
3epq	3ohr	102	102	0.912	0.85	0.925	0.85
3epq	3ohr	103	103	0.957	0.343	0.957	0.343
3epq	3ohr	104	104	0.351	0.344	0.367	0.467
3epq	3ohr	105	105	0.858	0.868	0.837	0.946
3epq	3ohr	106	106	1.0	0	1.0	0
3epq	3ohr	107	107	0.0	0.0	0.0	0.0
3epq	3ohr	108	108	0.634	0.617	0.646	0.866
3epq	3ohr	109	109	0.331	0.402	0.416	0.659
3epq	3ohr	110	110	0.03	0.095	0.032	0.105
3epq	3ohr	111	111	0.0	0.0	0.0	0.0
3epq	3ohr	112	112	0.406	0.31	0.413	0.35
3epq	3ohr	113	113	0.891	0.573	0.873	0.788
3epq	3ohr	114	114	0.248	0.348	0.242	0.375
3epq	3ohr	115	115	0.0	0.0	0.0	0.0
3epq	3ohr	116	116	0.0	0.0	0.0	0.0
3epq	3ohr	117	117	0.364	0.327	0.39	0.313
3epq	3ohr	118	118	0.165	0.326	0.188	0.258
3epq	3ohr	119	119	0.193	0.242	0.201	0.239
3epq	3ohr	120	120	0.759	0.754	0.794	0.776
3epq	3ohr	121	121	0.0	0.0	0.0	0.0
3epq	3ohr	122	122	0.528	0.538	0.573	0.537
3epq	3ohr	123	123	0.0	0.001	0.0	0.0
3epq	3ohr	124	124	0.052	0.006	0.017	0.001
3epq	3ohr	125	125	0.203	0.101	0.195	0.1
3epq	3ohr	126	126	0.821	0.86	0.817	0.857
3epq	3ohr	127	127	0.464	0.349	0.484	0.566
3epq	3ohr	128	128	0.009	0.01	0.0	0.001
3epq	3ohr	129	129	0.019	0.029	0.026	0.045
3epq	3ohr	130	130	0.244	0.258	0.274	0.272
3epq	3ohr	132	132	0.299	0.312	0.292	0.294
3epq	3ohr	133	133	0.048	0.062	0.041	0.05
3epq	3ohr	134	134	0.337	0.261	0.345	0.562
3epq	3ohr	135	135	0.142	0.146	0.218	0.216
3epq	3ohr	136	136	0.679	0.84	0.655	0.735
3epq	3ohr	137	137	0.471	0.435	0.394	0.35
3epq	3ohr	138	138	0.531	0.289	0.551	0.464
3epq	3ohr	139	139	0.488	0.774	0.547	0.725
3epq	3ohr	140	140	0.751	0.784	0.753	0.784
3epq	3ohr	142	142	0.04	0.08	0.034	0.052
3epq	3ohr	143	143	0.868	0.953	0.869	0.953
3epq	3ohr	144	144	0.0	0.0	0.0	0.0
3epq	3ohr	145	145	0.113	0.131	0.166	0.115
3epq	3ohr	146	146	0.181	0.268	0.153	0.173
3epq	3ohr	147	147	0.0	0.0	0.0	0.0
3epq	3ohr	148	148	0.126	0.138	0.139	0.107
3epq	3ohr	149	149	0.479	0.519	0.474	0.434
3epq	3ohr	150	150	0.802	0.795	0.802	0.795
3epq	3ohr	151	151	0.518	0.287	0.527	0.686
3epq	3ohr	152	152	0.209	0.305	0.207	0.304
3epq	3ohr	153	153	0.271	0.286	0.269	0.286
3epq	3ohr	154	154	0.05	0.079	0.064	0.066
3epq	3ohr	155	155	0.917	0.958	0.946	0.992
3epq	3ohr	156	156	0.61	0.598	0.618	0.59
3epq	3ohr	157	157	0.103	0.101	0.155	0.133
3epq	3ohr	158	158	0.059	0.035	0.06	0.178
3epq	3ohr	159	159	0.0	0.0	0.0	0.0
3epq	3ohr	160	160	0.288	0.333	0.239	0.331
3epq	3ohr	161	161	0.505	0.592	0.515	0.456
3epq	3ohr	162	162	0.738	0.51	0.697	0.607
3epq	3ohr	163	163	0.065	0.121	0.082	0.176
3epq	3ohr	164	164	0.313	0.236	0.274	0.204
3epq	3ohr	165	165	0.85	0.859	0.82	0.78
3epq	3ohr	166	166	0.391	0.592	0.397	0.523
3epq	3ohr	167	167	0.767	0.855	0.755	0.841
3epq	3ohr	168	168	0.421	0.493	0.418	0.45
3epq	3ohr	169	169	0.0	0.0	0.0	0.0
3epq	3ohr	170	170	0.0	0.0	0.0	0.0
3epq	3ohr	171	171	0.14	0.153	0.139	0.148
3epq	3ohr	172	172	0.185	0.245	0.175	0.157
3epq	3ohr	173	173	0.448	0.169	0.5	0.67
3epq	3ohr	174	174	0.265	0.161	0.291	0.39
3epq	3ohr	175	175	0.07	0.066	0.04	0.034
3epq	3ohr	176	176	0.0	0.0	0.0	0.0
3epq	3ohr	177	177	0.133	0.161	0.158	0.228
3epq	3ohr	178	178	0.092	0.192	0.097	0.155
3epq	3ohr	179	179	0.724	0.95	0.732	0.736
3epq	3ohr	180	180	0.47	0.503	0.434	0.465
3epq	3ohr	181	181	0.404	0.385	0.41	0.624
3epq	3ohr	182	182	0.468	0.686	0.466	0.681
3epq	3ohr	183	183	0.664	0.803	0.62	0.853
3epq	3ohr	184	184	0.911	0.905	0.912	0.91
3epq	3ohr	185	185	0.937	0.989	0.937	0.879
3epq	3ohr	186	186	1.0	0	1.0	0.1
3epq	3ohr	187	187	0.897	0.927	0.888	0.923
3epq	3ohr	188	188	0.39	0.514	0.357	0.506
3epq	3ohr	189	189	0.329	0.403	0.32	0.438
3epq	3ohr	190	190	0.751	0.59	0.868	0.896
3epq	3ohr	191	191	0.699	0.833	0.717	0.83
3epq	3ohr	192	192	0.267	0.265	0.198	0.212
3epq	3ohr	193	193	0.729	0.722	0.706	0.667
3epq	3ohr	194	194	0.218	0.221	0.216	0.221
3epq	3ohr	195	195	0.479	0.502	0.483	0.471
3epq	3ohr	196	196	0.701	0.738	0.76	0.828
3epq	3ohr	197	197	0.855	0.848	0.843	0.875
3epq	3ohr	198	198	0.817	0.728	0.826	0.666
3epq	3ohr	199	199	0.736	0.703	0.742	0.703
3epq	3ohr	200	200	0.225	0.242	0.256	0.261
3epq	3ohr	201	201	0.325	0.18	0.294	0.185
3epq	3ohr	202	202	0.354	0.539	0.345	0.392
3epq	3ohr	203	203	0.37	0.566	0.361	0.476
3epq	3ohr	204	204	0.194	0.249	0.209	0.225
3epq	3ohr	206	206	0.545	0.607	0.541	0.692
3epq	3ohr	207	207	0.188	0.184	0.188	0.184
3epq	3ohr	208	208	0.223	0.112	0.201	0.15
3epq	3ohr	209	209	0.52	0.66	0.539	0.691
3epq	3ohr	210	210	0.746	0.755	0.767	0.606
3epq	3ohr	211	211	0.705	0.69	0.635	0.612
3epq	3ohr	212	212	0.055	0.106	0.055	0.071
3epq	3ohr	213	213	0.342	0.408	0.34	0.408
3epq	3ohr	214	214	0.862	0.727	0.859	0.727
3epq	3ohr	215	215	0.157	0.14	0.155	0.149
3epq	3ohr	216	216	0.613	0.665	0.566	0.686
3epq	3ohr	217	217	0.698	0.74	0.664	0.757
3epq	3ohr	218	218	0.741	0.587	0.668	0.876
3epq	3ohr	219	219	0.843	0.99	0.855	0.823
3epq	3ohr	220	220	0.182	0.462	0.23	0.127
3epq	3ohr	221	221	0.0	0.001	0.0	0.001
3epq	3ohr	222	222	0.0	0.0	0.0	0.0
3epq	3ohr	223	223	0.121	0.109	0.115	0.085
3epq	3ohr	224	224	0.629	0.783	0.638	0.785
3epq	3ohr	225	225	0.0	0.0	0.0	0.0
3epq	3ohr	226	226	0.017	0.005	0.01	0.0
3epq	3ohr	227	227	0.099	0.142	0.109	0.214
3epq	3ohr	228	228	0.089	0.19	0.088	0.068
3epq	3ohr	229	229	0.58	0.53	0.618	0.676
3epq	3ohr	230	230	0.333	0.363	0.414	0.388
3epq	3ohr	231	231	0.6	0.728	0.591	0.804
3epq	3ohr	232	232	0.25	0.328	0.218	0.334
3epq	3ohr	233	233	0.313	0.302	0.27	0.26
3epq	3ohr	234	234	0.241	0.321	0.196	0.259
3epq	3ohr	235	235	1.0	0	1.0	0
3epq	3ohr	236	236	0.621	0.517	0.614	0.374
3epq	3ohr	237	237	0.595	0.687	0.559	0.699
3epq	3ohr	238	238	0.559	0.607	0.597	0.633
3epq	3ohr	239	239	0.862	0.933	0.862	0.933
3epq	3ohr	240	240	0.877	0.585	0.856	0.558
3epq	3ohr	241	241	1.0	0	1.0	0
3epq	3ohr	242	242	1.0	0	1.0	0
3epq	3ohr	243	243	0.933	0.967	0.925	0.775
3epq	3ohr	244	244	0.751	0.732	0.747	0.499
3epq	3ohr	245	245	0.452	0.483	0.482	0.403
3epq	3ohr	246	246	0.86	1.0	0.86	1.0
3epq	3ohr	247	247	0.503	0.532	0.504	0.344
3epq	3ohr	248	248	0.483	0.41	0.517	0.34
3epq	3ohr	249	249	0.427	0.491	0.4	0.286
3epq	3ohr	250	250	0.815	0.893	0.792	0.886
3epq	3ohr	251	251	0.703	0.719	0.695	0.714
3epq	3ohr	252	252	0.847	0.822	0.843	0.825
3epq	3ohr	253	253	0.619	0.64	0.573	0.613
3epq	3ohr	254	254	0.198	0.274	0.186	0.271
3epq	3ohr	255	255	1.0	0.0	1.0	0.0
3epq	3ohr	256	256	0.583	0.474	0.587	0.475
3epq	3ohr	257	257	0.865	0.873	0.863	0.872
3epq	3ohr	258	258	0.637	0.629	0.64	0.623
3epq	3ohr	259	259	0.91	0.89	0.889	0.898
3epq	3ohr	260	260	0.909	0.825	0.896	0.693
3epq	3ohr	261	261	0.0	0.0	0.002	0.004
3epq	3ohr	262	262	0.0	0.0	0.0	0.0
3epq	3ohr	264	264	0.058	0.164	0.063	0.229
3epq	3ohr	265	265	0.364	0.337	0.358	0.421
3epq	3ohr	266	266	0.006	0.005	0.0	0.0
3epq	3ohr	267	267	0.821	0.795	0.819	0.791
3epq	3ohr	268	268	0.338	0.327	0.354	0.354
3epq	3ohr	269	269	0.867	0.837	0.866	0.839
3epq	3ohr	270	270	0.0	0.0	0.0	0.0
3epq	3ohr	271	271	0.051	0.11	0.075	0.058
3epq	3ohr	272	272	0.687	0.644	0.671	0.669
3epq	3ohr	273	273	0.668	0.618	0.667	0.618
3epq	3ohr	274	274	0.452	0.445	0.407	0.416
3epq	3ohr	275	275	0.0	0.0	0.0	0.0
3epq	3ohr	276	276	0.432	0.419	0.468	0.734
3epq	3ohr	277	277	0.039	0.015	0.064	0.042
3epq	3ohr	278	278	0.027	0.092	0.014	0.029
3epq	3ohr	279	279	0.592	0.577	0.595	0.528
3epq	3ohr	280	280	0.256	0.438	0.238	0.217
3epq	3ohr	281	281	0.0	0.0	0.0	0.0
3epq	3ohr	282	282	0.215	0.271	0.22	0.235
3epq	3ohr	283	283	0.29	0.405	0.322	0.376
3epq	3ohr	285	285	0.311	0.145	0.358	0.188
3epq	3ohr	286	286	0.221	0.187	0.267	0.346
3epq	3ohr	287	287	0.032	0.132	0.041	0.09
3epq	3ohr	288	288	0.741	0.757	0.753	0.789
3epq	3ohr	289	289	0.174	0.087	0.176	0.171
3epq	3ohr	290	290	0.234	0.196	0.268	0.259
3epq	3ohr	291	291	0.231	0.487	0.232	0.439
3epq	3ohr	292	292	0.514	0.48	0.548	0.429
3epq	3ohr	293	293	0.344	0.362	0.306	0.365
3epq	3ohr	294	294	0.74	0.751	0.772	0.757
3epq	3ohr	295	295	0.353	0.612	0.356	0.582
3epq	3ohr	296	296	0.592	0.561	0.573	0.811
3epq	3ohr	297	297	0.335	0.392	0.387	0.401
3epq	3ohr	298	298	0.605	0.622	0.611	0.62
3epq	3ohr	299	299	0.834	0.931	0.858	0.874
3epq	3ohr	300	300	0.273	0.175	0.265	0.203
3epq	3ohr	301	301	0.274	0.323	0.289	0.304
3epq	3ohr	302	302	0.865	0.872	0.805	0.808
3epq	3ohr	303	303	0.12	0.16	0.15	0.189
3epq	3ohr	304	304	0.439	0.599	0.416	0.583
3epq	3ohr	305	305	0.738	0.792	0.737	0.792
3epq	3ohr	306	306	0.259	0.315	0.241	0.343
3epq	3ohr	307	307	0.306	0.369	0.18	0.192
3epq	3ohr	308	308	0.187	0.305	0.186	0.296
3epq	3ohr	309	309	0.123	0.131	0.157	0.189
3epq	3ohr	310	310	0.136	0.148	0.133	0.173
3epq	3ohr	312	312	0.595	0.752	0.602	0.569
3epq	3ohr	313	313	0.14	0.192	0.139	0.098
3epq	3ohr	314	314	0.596	0.67	0.569	0.57
3epq	3ohr	316	316	0.557	0.659	0.554	0.713
3epq	3ohr	317	317	0.172	0.252	0.161	0.182
3epq	3ohr	318	318	0.68	0.768	0.68	0.768
3epq	3ohr	319	319	0.86	1.0	0.86	1.0
3epq	3ohr	320	320	0.0	0.0	0.0	0.0
3epq	3ohr	321	321	0.376	0.543	0.334	0.49
3epq	3ohr	322	322	0.664	0.475	0.675	0.441
3epq	3ohr	323	323	0.426	0.239	0.419	0.508
3epq	3ohr	324	324	0.581	0.61	0.595	0.574
3epq	3ohr	325	325	0.55	0.64	0.547	0.546
3epq	3ohr	326	326	0.628	0.652	0.703	0.684
3epq	3ohr	327	327	0.0	0.0	0.0	0.0
3epq	3ohr	329	329	0.152	0.263	0.14	0.143
3epq	3ohr	330	330	0.522	0.382	0.473	0.405
3epq	3ohr	331	331	0.09	0.271	0.088	0.307
3epq	3ohr	332	332	0.425	0.542	0.45	0.697
3epq	3ohr	333	333	0.427	0.412	0.448	0.427
3epq	3ohr	334	334	0.503	0.508	0.572	0.592
3epq	3ohr	335	335	0.53	0.52	0.537	0.52
3epq	3ohr	336	336	0.039	0.033	0.05	0.066
3epq	3ohr	337	337	0.063	0.098	0.077	0.212
3epq	3ohr	338	338	0.433	0.399	0.402	0.47
3epq	3ohr	339	339	0.374	0.403	0.358	0.428
3epq	3ohr	340	340	0.054	0.128	0.092	0.155
3epq	3ohr	341	341	0.106	0.127	0.107	0.183
3epq	3ohr	342	342	0.117	0.068	0.116	0.214
3epq	3ohr	343	343	0.064	0.089	0.084	0.085
3epq	3ohr	344	344	0.496	0.537	0.481	0.742
3epq	3ohr	345	345	0.522	0.576	0.547	0.491
3epq	3ohr	346	346	0.841	0.786	0.857	0.866
3epq	3ohr	347	347	0.475	0.293	0.465	0.23
3epq	3ohr	348	348	0.531	0.504	0.548	0.468
3epq	3ohr	349	349	0.301	0.461	0.268	0.319
3epq	3ohr	350	350	0.428	0.347	0.475	0.523
3epq	3ohr	351	351	0.448	0.501	0.43	0.488
3epq	3ohr	352	352	0.626	0.759	0.671	0.642
3epq	3ohr	354	354	0.633	0.63	0.627	0.257
3epq	3ohr	355	355	0.127	0.123	0.106	0.089
3epq	3ohr	356	356	0.0	0.0	0.0	0.0
3epq	3ohr	357	357	0.037	0.073	0.062	0.074
3epq	3ohr	358	358	0.431	0.353	0.412	0.381
3epq	3ohr	359	359	0.443	0.481	0.41	0.443
3epq	3ohr	361	361	0.913	0.942	0.934	0.877
3epq	3ohr	362	362	0.467	0.552	0.457	0.291
3epq	3ohr	363	363	0.677	0.729	0.663	0.642
3epq	3ohr	364	364	0.686	0.703	0.659	0.738
3epq	3ohr	365	365	0.553	0.48	0.553	0.48
3epq	3ohr	366	366	0.656	0.719	0.632	0.728
3epq	3ohr	367	367	0.897	0.89	0.83	0.855
3epq	3ohr	368	368	0.813	0.924	0.813	0.923
3epq	3ohr	369	369	0.009	0.011	0.036	0.031
3epq	3ohr	370	370	0.064	0.076	0.037	0.035
3epq	3ohr	371	371	0.072	0.064	0.086	0.065
3epq	3ohr	372	372	0.134	0.277	0.101	0.153
3epq	3ohr	373	373	0.344	0.454	0.337	0.355
3epq	3ohr	374	374	0.047	0.124	0.062	0.088
3epq	3ohr	375	375	0.7	0.9	0.9	1.0
3epq	3ohr	376	376	0.57	0.555	0.57	0.607
3epq	3ohr	377	377	0.782	0.455	0.783	0.458
3epq	3ohr	378	378	0.0	0.0	0.0	0.0
3epq	3ohr	379	379	0.038	0.069	0.029	0.07
3epq	3ohr	380	380	0.1	0.131	0.137	0.149
3epq	3ohr	381	381	0.192	0.219	0.16	0.143
3epq	3ohr	382	382	0.0	0.045	0.0	0.061
3epq	3ohr	383	383	0.018	0.024	0.022	0.05
3epq	3ohr	384	384	0.266	0.518	0.254	0.527
3epq	3ohr	385	385	0.235	0.271	0.252	0.31
3epq	3ohr	386	386	0.021	0.037	0.016	0.024
3epq	3ohr	387	387	0.389	0.649	0.401	0.118
3epq	3ohr	388	388	0.021	0.014	0.013	0.004
3epq	3ohr	389	389	0.0	0.012	0.0	0.0
3epq	3ohr	390	390	0.0	0.019	0.015	0.035
3epq	3ohr	391	391	0.332	0.363	0.37	0.323
3epq	3ohr	392	392	0.742	0.687	0.691	0.668
3epq	3ohr	393	393	0.448	0.536	0.459	0.373
3epq	3ohr	394	394	0.96	0.82	0.965	0.594
3epq	3ohr	395	395	0.906	0.624	0.906	0.656
3epq	3ohr	396	396	0.935	0.576	0.885	0.638
3epq	3ohr	397	397	0.756	0.621	0.74	0.949
3epq	3ohr	399	399	0.0	0.01	0.0	0.002
3epq	3ohr	400	400	0.0	0.002	0.0	0.03
3epq	3ohr	401	401	0.431	0.43	0.405	0.438
3epq	3ohr	402	402	0.682	0.541	0.76	0.781
3epq	3ohr	403	403	0.437	0.5	0.412	0.329
3epq	3ohr	404	404	0.688	0.745	0.663	0.555
3epq	3ohr	405	405	0.648	0.672	0.646	0.67
3epq	3ohr	406	406	0.339	0.257	0.32	0.288
3epq	3ohr	407	407	0.836	0.843	0.534	0.383
3epq	3ohr	408	408	0.507	0.603	0.521	0.59
3epq	3ohr	409	409	0.0	0.0	0.0	0.0
3epq	3ohr	410	410	0.22	0.223	0.219	0.223
3epq	3ohr	411	411	0.239	0.313	0.22	0.245
3epq	3ohr	412	412	0.327	0.657	0.341	0.417
3epq	3ohr	413	413	0.342	0.444	0.321	0.394
3epq	3ohr	414	414	0.214	0.254	0.253	0.195
3epq	3ohr	416	416	0.444	0.544	0.455	0.605
3epq	3ohr	417	417	0.406	0.422	0.381	0.371
3epq	3ohr	418	418	0.42	0.177	0.427	0.632
3epq	3ohr	419	419	0.39	0.37	0.399	0.388
3epq	3ohr	420	420	0.361	0.277	0.371	0.458
3epq	3ohr	421	421	0.336	0.375	0.308	0.394
3epq	3ohr	422	422	0.484	0.574	0.43	0.546
3epq	3ohr	423	423	0.071	0.202	0.077	0.144
3epq	3ohr	424	424	0.22	0.461	0.244	0.241
3epq	3ohr	426	426	0.451	0.633	0.448	0.443
3epq	3ohr	427	427	0.387	0.37	0.324	0.268
3epq	3ohr	428	428	0.178	0.208	0.168	0.201
3epq	3ohr	429	429	0.024	0.226	0.017	0.099
3epq	3ohr	430	430	0.177	0.217	0.233	0.277
3epq	3ohr	431	431	0.207	0.462	0.554	0.63
3epq	3ohr	432	432	0.013	0.051	0.009	0.029
3epq	3ohr	433	433	0.0	0.001	0.0	0.019
3epq	3ohr	434	434	0.0	0.009	0.0	0.002
3epq	3ohr	435	435	0.327	0.217	0.339	0.277
3epq	3ohr	436	436	0.163	0.185	0.136	0.256
3epq	3ohr	437	437	0.66	0.823	0.673	0.592
3epq	3ohr	438	438	0.472	0.528	0.486	0.391
3epq	3ohr	439	439	0.902	0.642	0.904	0.687
3epq	3ohr	440	440	0.717	0.92	0.736	0.859
3epq	3ohr	441	441	0.565	0.263	0.54	0.172
3epq	3ohr	442	442	0.03	0.022	0.0	0.002
3epq	3ohr	443	443	0.098	0.052	0.087	0.025
3epq	3ohr	444	444	0.193	0.463	0.229	0.248
3epq	3ohr	445	445	0.562	0.607	0.544	0.491
3epq	3ohr	446	446	0.376	0.537	0.365	0.523
3epq	3ohr	447	447	0.824	0.854	0.824	0.854
3epq	3ohr	448	448	0.95	0.625	0.95	0.625
3epq	3ohr	449	449	0.883	0.817	0.883	0.817
3epq	3ohr	450	450	1.0	0	1.0	0
3epq	3ohr	451	451	1.0	0	1.0	0
3epq	3ohr	452	452	0.766	0.828	0.755	0.823
3epq	3ohr	453	453	0.232	0.222	0.275	0.251
3epq	3ohr	454	454	0.832	0.846	0.804	0.82
3epq	3ohr	455	455	0.883	0.683	0.883	0.683
3epq	3ohr	456	456	1.0	0	1.0	0
3epq	3ohr	457	457	0.787	0.632	0.82	0.847
3epq	3ohr	458	458	0.227	0.323	0.232	0.287
3epq	3ohr	459	459	0.761	0.599	0.76	0.494
3epq	3ohr	460	460	0.174	0.206	0.153	0.193
3epq	3ohr	461	461	0.921	0.921	0.929	0.793
3epq	3ohr	462	462	0.364	0.408	0.38	0.481
3epq	3ohr	463	463	1.0	0	1.0	0
3epq	3ohr	464	464	0.185	0.185	0.169	0.259
3epq	3ohr	465	465	0.212	0.244	0.25	0.218
3epq	3ohr	466	466	0.286	0.259	0.26	0.268
3epq	3ohr	467	467	0.501	0.46	0.525	0.464
3epq	3ohr	468	468	0.319	0.462	0.383	0.54
3epq	3ohr	469	469	0.577	0.703	0.585	0.66
3epq	3ohr	470	470	0.735	0.745	0.681	0.628
3epq	3ohr	471	471	0.84	0.735	0.837	0.735
3epq	3ohr	472	472	0.855	0.938	0.862	0.938
3epq	3ohr	473	473	0.094	0.054	0.113	0.138
3epq	3ohr	474	474	0.026	0.062	0.035	0.113
3epq	3ohr	475	475	0.088	0.075	0.096	0.091
3epq	3ohr	476	476	0.278	0.304	0.284	0.316
3epq	3ohr	477	477	0.428	0.489	0.452	0.679
3epq	3ohr	478	478	0.347	0.373	0.326	0.314
3epq	3ohr	479	479	0.58	0.566	0.588	0.587
3epq	3ohr	480	480	0.9	0.667	0.883	0.667
3epq	3ohr	481	481	0.787	0.721	0.789	0.794
3epq	3ohr	482	482	0.886	0.901	0.893	0.948
3epq	3ohr	483	483	0.344	0.494	0.305	0.321
3epq	3ohr	484	484	0.46	0.426	0.486	0.619
3epq	3ohr	485	485	0.721	0.744	0.771	0.729
3epq	3ohr	486	486	0.615	0.653	0.616	0.653
3epq	3ohr	487	487	1.0	0	1.0	0
3epq	3ohr	488	488	0.297	0.286	0.298	0.286
3epq	3ohr	489	489	0.682	0.665	0.66	0.695
3epq	3ohr	490	490	0.695	0.686	0.687	0.679
3epq	3ohr	491	491	0.751	0.769	0.751	0.769
3epq	3ohr	492	492	0.0	0.001	0.0	0.0
3epq	3ohr	493	493	0.39	0.461	0.413	0.432
3epq	3ohr	494	494	0.71	0.715	0.715	0.723
3epq	3ohr	495	495	0.186	0.238	0.134	0.256
3epq	3ohr	496	496	0.7	0.728	0.667	0.728
3epq	3ohr	497	497	0.556	0.855	0.547	0.438
3epq	3ohr	498	498	0.664	0.767	0.646	0.666
3epq	3ohr	499	499	0.464	0.478	0.416	0.355
3epq	3ohr	500	500	0.822	0.876	0.778	0.81
3epq	3ohr	501	501	0.897	0.706	0.831	0.9
3epq	3ohr	502	502	0.911	0.521	0.895	0.686
3epq	3ohr	503	503	0.88	0.768	0.909	0.77
3epq	3ohr	504	504	0.553	0.72	0.555	0.45
3epq	3ohr	505	505	0.476	0.344	0.524	0.521
3epq	3ohr	506	506	0.388	0.476	0.352	0.494
3epq	3ohr	507	507	0.854	0.917	0.845	0.917
3epq	3ohr	508	508	0.581	0.473	0.58	0.471
3epq	3ohr	509	509	0.654	0.788	0.65	0.623
3epq	3ohr	510	510	0.65	0.5	0.65	0.5
3epq	3ohr	511	511	0.843	0.645	0.834	0.65
3epq	3ohr	512	512	0.643	0.643	0.643	0.643
3epq	3ohr	513	513	0.645	0.982	0.655	0.982
3epq	3ohr	514	514	1.0	0	1.0	0
3epq	3ohr	515	515	1.0	0	1.0	0
3epq	3ohr	516	516	0.689	0.786	0.69	0.786
3epq	3ohr	517	517	0.9	0.333	0.933	0.333
3epq	3ohr	518	518	0.5	0.774	0.525	0.632
3epq	3ohr	519	519	0.528	0.648	0.488	0.624
3epq	3ohr	520	520	0.228	0.375	0.24	0.314
3epq	3ohr	521	521	0.685	0.754	0.67	0.759
3epq	3ohr	522	522	0.64	0.644	0.642	0.653
3epq	3ohr	523	523	0.8	0.742	0.808	0.742
3epq	3ohr	524	524	0.276	0.286	0.292	0.315
3epq	3ohr	525	525	0.159	0.17	0.311	0.318
3epq	3ohr	526	526	0.455	0.475	0.374	0.445
3epq	3ohr	527	527	0.749	0.809	0.745	0.82
3epq	3ohr	529	529	0.732	0.832	0.736	0.832
3epq	3ohr	530	530	0.831	0.784	0.82	0.67
3epq	3ohr	531	531	0.855	0.873	0.863	0.888
3epq	3ohr	532	532	0.837	0.879	0.831	0.913
3epq	3ohr	533	533	0.351	0.39	0.293	0.325
3epq	3ohr	534	534	0.0	0.0	0.0	0.0
3epq	3ohr	535	535	0.0	0.0	0.0	0.0
3epq	3ohr	536	536	0.45	0.537	0.473	0.629
3epq	3ohr	537	537	0.822	0.846	0.822	0.836
3epq	3ohr	538	538	0.717	0.907	0.693	0.844
3epq	3ohr	539	539	0.909	0.947	0.942	0.936
3epq	3ohr	540	540	0.753	0.791	0.772	0.77
3epq	3ohr	541	541	0.527	0.523	0.581	0.566
3epq	3ohr	542	542	0.431	0.455	0.438	0.465
3epq	3ohr	543	543	0.854	0.643	0.867	0.537
3epq	3ohr	544	544	0.763	0.813	0.728	0.778
3epq	3ohr	546	546	0.338	0.241	0.33	0.212
3epq	3ohr	547	547	0.0	0.0	0.0	0.0
3epq	3ohr	548	548	0.0	0.0	0.0	0.0
3epq	3ohr	549	549	0.037	0.073	0.055	0.068
3epq	3ohr	550	550	0.0	0.087	0.0	0.005
3epq	3ohr	551	551	0.205	0.214	0.205	0.269
3epq	3ohr	552	552	0.0	0.0	0.0	0.0
3epq	3ohr	553	553	0.415	0.328	0.388	0.42
3epq	3ohr	554	554	0.304	0.297	0.3	0.449
3epq	3ohr	555	555	0.056	0.07	0.037	0.08
3epq	3ohr	556	556	0.0	0.0	0.0	0.0
3epq	3ohr	557	557	0.549	0.531	0.476	0.436
3epq	3ohr	558	558	0.009	0.017	0.048	0.06
3epq	3ohr	559	559	0.245	0.273	0.274	0.435
3epq	3ohr	561	561	0.88	0.948	0.867	0.929
3epq	3ohr	562	562	0.793	0.752	0.895	0.765
3epq	3ohr	563	563	0.122	0.127	0.079	0.096
3epq	3ohr	564	564	0.216	0.137	0.215	0.16
3epq	3ohr	565	565	0.878	0.826	0.869	0.646
3epq	3ohr	566	566	0.686	0.668	0.686	0.67
3epq	3ohr	568	568	0.0	0.012	0.0	0.051
3epq	3ohr	569	569	0.0	0.017	0.0	0.0
3epq	3ohr	572	572	0.697	0.74	0.731	0.696
3epq	3ohr	573	573	0.798	0.816	0.815	0.715
3epq	3ohr	574	574	0.433	0.43	0.555	0.537
3epq	3ohr	575	575	0.672	0.66	0.647	0.639
3epq	3ohr	576	576	0.0	0.0	0.0	0.0
3epq	3ohr	577	577	0.54	0.64	0.536	0.725
3epq	3ohr	579	579	0.0	0.017	0.0	0.0
3epq	3ohr	580	580	0.0	0.002	0.0	0.0
3epq	3ohr	581	581	0.119	0.163	0.153	0.202
3epq	3ohr	582	582	0.137	0.131	0.157	0.213
3epq	3ohr	583	583	0.359	0.332	0.379	0.387
3epq	3ohr	584	584	0.253	0.255	0.237	0.233
3epq	3ohr	585	585	0.925	0.675	0.925	0.675
3epq	3ohr	586	586	0.886	0.695	0.89	0.695
3epq	3ohr	587	587	0.0	0.001	0.0	0.006
3epq	3ohr	588	588	0.821	0.817	0.81	0.971
3epq	3ohr	590	590	0.217	0.213	0.269	0.264
3epq	3ohr	591	591	0.0	0.0	0.0	0.0
3epq	3ohr	592	592	0.055	0.062	0.052	0.122
3epq	3ohr	593	593	0.231	0.181	0.178	0.188
3epq	3ohr	594	594	0.56	0.598	0.569	0.557
3epq	3ohr	595	595	0.667	0.767	0.593	0.712
3epq	3ohr	596	596	0.755	0.967	0.787	0.885
3epq	3ohr	597	597	0.109	0.117	0.193	0.171
3epq	3ohr	598	598	0.802	0.732	0.728	0.61
3epq	3ohr	599	599	0.271	0.187	0.27	0.166
3epq	3ohr	600	600	0.807	0.752	0.807	0.752
3epq	3ohr	601	601	0.177	0.183	0.175	0.176
3epq	3ohr	602	602	0.8	0.217	0.808	0.221
3epq	3ohr	603	603	0.607	0.895	0.618	0.68
3epq	3ohr	604	604	0.171	0.091	0.168	0.091
3epq	3ohr	605	605	0.048	0.006	0.039	0.064
3epq	3ohr	606	606	0.721	0.756	0.683	0.656
3epq	3ohr	607	607	0.661	0.576	0.656	0.567
3epq	3ohr	608	608	0.172	0.145	0.182	0.211
3epq	3ohr	609	609	0.574	0.702	0.532	0.673
3epq	3ohr	610	610	0.166	0.302	0.156	0.198
3epq	3ohr	611	611	0.725	0.766	0.763	0.847
3epq	3ohr	612	612	0.0	0.0	0.0	0.0
3epq	3ohr	613	613	0.0	0.0	0.0	0.0
3epq	3ohr	614	614	0.718	0.752	0.721	0.752
3epq	3ohr	615	615	0.209	0.318	0.208	0.318
3epq	3ohr	616	616	0.143	0.199	0.143	0.213
3epq	3ohr	617	617	0.864	0.916	0.867	0.89
3epq	3ohr	618	618	0.184	0.124	0.184	0.145
3epq	3ohr	621	621	0.42	0.245	0.452	0.258
3epq	3ohr	622	622	0.0	0.0	0.0	0.0
3epq	3ohr	623	623	0.0	0.009	0.0	0.01
3epq	3ohr	624	624	0.767	0.633	0.767	0.633
3epq	3ohr	625	625	0.83	0.832	0.849	0.842
3epq	3ohr	626	626	0.856	0.717	0.858	0.791
3epq	3ohr	627	627	0.022	0.03	0.038	0.104
3epq	3ohr	629	629	0.716	0.851	0.699	0.83
3epq	3ohr	630	630	0.558	0.571	0.506	0.518
3epq	3ohr	631	631	0.0	0.0	0.0	0.0
3epq	3ohr	632	632	0.0	0.009	0.0	0.0
3epq	3ohr	633	633	0.028	0.028	0.053	0.08
3epq	3ohr	634	634	0.248	0.369	0.242	0.37
3epq	3ohr	635	635	0.0	0.003	0.001	0.001
3epq	3ohr	636	636	0.375	0.363	0.33	0.311
3epq	3ohr	637	637	0.226	0.202	0.23	0.314
3epq	3ohr	638	638	0.0	0.004	0.006	0.015
3epq	3ohr	639	639	0.399	0.374	0.393	0.426
3epq	3ohr	640	640	0.644	0.599	0.652	0.765
3epq	3ohr	642	642	0.309	0.468	0.299	0.462
3epq	3ohr	643	643	0.826	0.967	0.764	0.661
3epq	3ohr	645	645	0.0	0.0	0.0	0.0
3epq	3ohr	647	647	0.023	0.111	0.029	0.055
3epq	3ohr	648	648	0.909	0.925	0.904	0.876
3epq	3ohr	649	649	0.744	0.772	0.619	0.61
3epq	3ohr	650	650	0.109	0.088	0.108	0.111
3epq	3ohr	651	651	0.139	0.134	0.121	0.22
3epq	3ohr	652	652	0.0	0.003	0.0	0.01
3epq	3ohr	653	653	0.589	0.829	0.587	0.74
3epq	3ohr	655	655	0.483	0.566	0.471	0.662
3epq	3ohr	656	656	0.731	0.676	0.766	0.588
3epq	3ohr	657	657	0.858	0.95	0.858	0.95
3epq	3ohr	658	658	0.0	0.0	0.0	0.0
3epq	3ohr	659	659	0.0	0.0	0.0	0.0
3epq	3ohr	660	660	0.282	0.384	0.273	0.337
3epq	3ohr	661	661	0.18	0.183	0.193	0.289
3epq	3ohr	662	662	0.289	0.352	0.282	0.322
3epq	3ohr	663	663	0.0	0.0	0.0	0.0
3epq	3ohr	664	664	0.0	0.0	0.0	0.0
3epq	3ohr	665	665	0.0	0.0	0.0	0.0
3epq	3ohr	666	666	0.517	0.609	0.516	0.567
3epq	3ohr	668	668	0.0	0.0	0.0	0.0
3epq	3ohr	669	669	0.0	0.0	0.0	0.0
3epq	3ohr	670	670	0.147	0.17	0.099	0.094
3epq	3ohr	671	671	0.223	0.296	0.178	0.135
3epq	3ohr	672	672	0.236	0.243	0.262	0.286
3epq	3ohr	673	673	0.143	0.225	0.153	0.157
3epq	3ohr	674	674	0.05	0.093	0.052	0.075
3epq	3ohr	675	675	0.037	0.027	0.032	0.017
3epq	3ohr	676	676	0.095	0.102	0.108	0.192
3epq	3ohr	677	677	0.222	0.205	0.2	0.16
3epq	3ohr	678	678	1.0	0.75	1.0	0.8
3epq	3ohr	679	679	0.927	0.97	0.924	0.907
3epq	3ohr	680	680	0.903	0.776	0.9	0.776
3epq	3ohr	681	681	0.0	0.0	0.0	0.0
3epq	3ohr	682	682	0.223	0.254	0.237	0.315
3epq	3ohr	683	683	0.584	0.312	0.585	0.312
3epq	3ohr	684	684	0.009	0.05	0.0	0.041
3epq	3ohr	685	685	0.478	0.642	0.456	0.452
3epq	3ohr	686	686	0.068	0.095	0.127	0.135
3epq	3ohr	687	687	0.171	0.15	0.188	0.283
3epq	3ohr	688	688	0.07	0.12	0.095	0.191
3epq	3ohr	689	689	0.447	0.63	0.46	0.61
3epq	3ohr	690	690	0.317	0.301	0.315	0.502
3epq	3ohr	691	691	0.284	0.422	0.263	0.277
3epq	3ohr	692	692	0.0	0.017	0.0	0.017
3epq	3ohr	693	693	0.0	0.0	0.0	0.0
3epq	3ohr	694	694	0.035	0.123	0.031	0.064
3epq	3ohr	695	695	0.147	0.164	0.148	0.135
3epq	3ohr	696	696	0.661	0.332	0.628	0.32
3epq	3ohr	697	697	0.821	0.585	0.837	0.728
3epq	3ohr	698	698	0.543	0.745	0.538	0.714
3epq	3ohr	699	699	0.083	0.086	0.1	0.1
3epq	3ohr	700	700	0.0	0.0	0.0	0.0
3epq	3ohr	701	701	0.512	0.735	0.493	0.47
3epq	3ohr	702	702	0.116	0.029	0.069	0.106
3epq	3ohr	703	703	0.085	0.053	0.083	0.075
3epq	3ohr	704	704	0.135	0.171	0.157	0.195
3epq	3ohr	705	705	0.328	0.351	0.315	0.403
3epq	3ohr	708	708	0.124	0.099	0.181	0.24
3epq	3ohr	709	709	0.002	0.004	0.011	0.002
3epq	3ohr	710	710	0.184	0.178	0.164	0.155
3epq	3ohr	711	711	0.542	0.427	0.545	0.422
3epq	3ohr	712	712	0.758	0.758	0.752	0.767
3epq	3ohr	713	713	0.745	0.713	0.738	0.709
3epq	3ohr	714	714	0.822	0.851	0.753	0.85
3epq	3ohr	715	715	0.726	0.698	0.764	0.686
3epq	3ohr	716	716	0.81	0.831	0.837	0.635
3epq	3ohr	717	717	0.619	0.688	0.619	0.68
3epq	3ohr	718	718	0.65	0.585	0.647	0.589
3epq	3ohr	719	719	0.215	0.229	0.123	0.098
3epq	3ohr	720	720	0.134	0.236	0.144	0.148
3epq	3ohr	721	721	0.524	0.684	0.506	0.659
3epq	3ohr	722	722	0.255	0.365	0.305	0.314
3epq	3ohr	723	723	0.24	0.261	0.23	0.38
3epq	3ohr	724	724	0.609	0.719	0.602	0.703
3epq	3ohr	725	725	1.0	0	1.0	0
3epq	3ohr	726	726	0.151	0.132	0.188	0.168
3epq	3ohr	727	727	0.759	0.628	0.744	0.72
3epq	3ohr	728	728	0.282	0.298	0.27	0.296
3epq	3ohr	729	729	0.465	0.448	0.373	0.384
3epq	3ohr	730	730	0.601	0.816	0.578	0.815
3epq	3ohr	731	731	0.636	0.781	0.636	0.742
3epq	3ohr	732	732	0.794	0.698	0.689	0.735
3epq	3ohr	733	733	0.077	0.046	0.115	0.1
3epq	3ohr	734	734	0.0	0.0	0.0	0.0
3epq	3ohr	735	735	0.22	0.176	0.0	0.003
3epq	3ohr	736	736	0.006	0.017	0.0	0.049
3epq	3ohr	737	737	0.05	0.197	0.038	0.13
3epq	3ohr	738	738	0.721	0.69	0.704	0.748
3epq	3ohr	739	739	0.167	0.126	0.184	0.373
3epq	3ohr	740	740	0.757	0.729	0.698	0.778
3epq	3ohr	741	741	0.863	0.934	0.866	0.934
3epq	3ohr	742	742	0.01	0.029	0.02	0.017
3epq	3ohr	743	743	0.0	0.0	0.0	0.0
3epq	3ohr	744	744	0.0	0.0	0.0	0.0
3epq	3ohr	745	745	0.179	0.176	0.225	0.229
3epq	3ohr	746	746	0.923	0.94	0.965	0.842
3epq	3ohr	747	747	0.084	0.133	0.042	0.038
3epq	3ohr	748	748	0.463	0.678	0.458	0.512
3epq	3ohr	749	749	0.676	0.702	0.678	0.633
3epq	3ohr	750	750	0.654	0.723	0.757	0.816
3epq	3ohr	751	751	0.261	0.272	0.264	0.267
3epq	3ohr	752	752	0.49	0.452	0.51	0.635
3epq	3ohr	753	753	0.292	0.466	0.288	0.253
3epq	3ohr	754	754	0.314	0.301	0.35	0.352
3epq	3ohr	755	755	0.0	0.0	0.004	0.002
3epq	3ohr	756	756	0.197	0.268	0.191	0.174
3epq	3ohr	757	757	0.111	0.121	0.085	0.068
3epq	3ohr	758	758	0.0	0.011	0.0	0.002
3epq	3ohr	759	759	0.0	0.0	0.0	0.0
3epq	3ohr	760	760	0.01	0.04	0.035	0.062
3epq	3ohr	761	761	0.026	0.029	0.012	0.012
3epq	3ohr	762	762	0.0	0.0	0.0	0.0
3epq	3ohr	763	763	0.178	0.176	0.072	0.04
3epq	3ohr	764	764	0.276	0.508	0.326	0.25
3epq	3ohr	765	765	0.539	0.594	0.566	0.525
3epq	3ohr	766	766	0.307	0.293	0.323	0.064
3epq	3ohr	768	768	0.001	0.009	0.003	0.016
3epq	3ohr	770	770	0.271	0.36	0.318	0.481
3epq	3ohr	771	771	0.649	0.771	0.672	0.671
3epq	3ohr	772	772	0.57	0.729	0.567	0.726
3epq	3ohr	773	773	0.311	0.099	0.295	0.07
3epq	3ohr	774	774	0.759	0.775	0.815	0.899
3epq	3ohr	775	775	0.546	0.644	0.521	0.441
3epq	3ohr	776	776	0.015	0.023	0.015	0.015
3epq	3ohr	777	777	0.318	0.7	0.334	0.464
3epq	3ohr	778	778	0.59	0.547	0.596	0.793
3epq	3ohr	779	779	0.772	0.807	0.796	0.788
3epq	3ohr	780	780	0.227	0.459	0.228	0.298
3epq	3ohr	781	781	0.122	0.107	0.115	0.173
3epq	3ohr	782	782	0.026	0.047	0.029	0.041
3epq	3ohr	783	783	0.166	0.222	0.152	0.184
3epq	3ohr	784	784	0.209	0.242	0.245	0.234
3epq	3ohr	785	785	0.322	0.319	0.309	0.304
3epq	3ohr	786	786	0.827	0.794	0.747	0.753
3epq	3ohr	787	787	0.654	0.738	0.635	0.724
3epq	3ohr	788	788	0.699	0.844	0.7	0.874
3epq	3ohr	789	789	0.207	0.106	0.187	0.09
3epq	3ohr	790	790	0.773	0.778	0.794	0.871
3epq	3ohr	791	791	0.477	0.494	0.415	0.428
3epq	3ohr	792	792	0.851	0.755	0.844	0.745
3epq	3ohr	793	793	0.02	0.017	0.024	0.02
3epq	3ohr	794	794	0.004	0.005	0.0	0.0
3epq	3ohr	795	795	0.464	0.489	0.484	0.546
3epq	3ohr	796	796	0.819	0.855	0.827	0.832
3epq	3ohr	797	797	0.488	0.549	0.508	0.534
3epq	3ohr	798	798	0.122	0.05	0.27	0.172
3epq	3ohr	799	799	0.0	0.0	0.0	0.0
3epq	3ohr	800	800	0.01	0.012	0.028	0.047
3epq	3ohr	801	801	0.259	0.326	0.255	0.339
3epq	3ohr	802	802	0.223	0.318	0.239	0.219
3epq	3ohr	804	804	0.778	0.776	0.858	0.773
3epq	3ohr	805	805	0.135	0.203	0.136	0.136
3epq	3ohr	806	806	0.0	0.0	0.0	0.0
3epq	3ohr	807	807	0.592	0.837	0.604	0.721
3epq	3ohr	808	808	0.594	0.498	0.604	0.604
3epq	3ohr	809	809	0.18	0.321	0.159	0.084
3epq	3ohr	810	810	0.556	0.642	0.565	0.727
3epq	3ohr	811	811	0.065	0.085	0.067	0.047
3epq	3ohr	812	812	0.08	0.103	0.109	0.051
3epq	3ohr	813	813	0.0	0.0	0.0	0.007
3epq	3ohr	814	814	0.493	0.336	0.501	0.228
3epq	3ohr	815	815	0.405	0.527	0.435	0.581
3epq	3ohr	816	816	0.287	0.281	0.27	0.239
3epq	3ohr	817	817	0.507	0.503	0.535	0.626
3epq	3ohr	818	818	0.593	0.624	0.573	0.633
3epq	3ohr	819	819	0.853	0.951	0.88	0.816
3epq	3ohr	820	820	0.105	0.145	0.268	0.281
3epq	3ohr	821	821	0.931	0.906	0.917	0.897
3epq	3ohr	823	823	0.619	0.77	0.73	0.686
3epq	3ohr	824	824	0.352	0.25	0.336	0.262
3epq	3ohr	825	825	0.583	0.535	0.562	0.615
3epq	3ohr	826	826	0.929	0.976	0.929	0.976
3epq	3ohr	827	827	0.0	0.0	0.0	0.0
3epq	3ohr	828	828	0.324	0.353	0.351	0.399
3epq	3ohr	829	829	0.213	0.309	0.218	0.236
3epq	3ohr	830	830	0.063	0.088	0.066	0.117
3epq	3ohr	831	831	0.198	0.281	0.173	0.291
3epq	3ohr	832	832	0.0	0.006	0.0	0.006
3epq	3ohr	833	833	0.123	0.22	0.124	0.205
3epq	3ohr	834	834	0.047	0.054	0.05	0.133
3epq	3ohr	835	835	0.364	0.327	0.385	0.437
3epq	3ohr	836	836	1.0	0.0	1.0	0.0
3epq	3ohr	837	837	1.0	0	1.0	0
3epq	3ohr	838	838	0.115	0.062	0.14	0.074
3epq	3ohr	839	839	0.916	0.715	0.913	0.733
3epq	3ohr	840	840	0.825	0.636	0.818	0.845
3epq	3ohr	841	841	0.539	0.521	0.516	0.529
3epq	3ohr	842	842	0.551	0.634	0.537	0.572
3epq	3ohr	843	843	0.0	0.0	0.0	0.0
3epq	3ohr	844	844	0.033	0.068	0.028	0.067
3epq	3ohr	846	846	0.471	0.591	0.461	0.545
3epq	3ohr	847	847	0.783	0.951	0.783	0.87
3epq	3ohr	848	848	0.0	0.003	0.0	0.0
3epq	3ohr	849	849	0.847	0.605	0.838	0.623
3epq	3ohr	850	850	0.286	0.318	0.267	0.275
3epq	3ohr	851	851	0.035	0.136	0.036	0.132
3epq	3ohr	852	852	0.476	0.528	0.516	0.617
3epq	3ohr	853	853	0.73	0.69	0.73	0.69
3epq	3ohr	854	854	0.931	0.881	0.922	0.875
3epq	3ohr	855	855	0.862	0.898	0.837	0.891
3epq	3ohr	856	856	0.822	0.918	0.821	0.91
3epq	3ohr	857	857	0.438	0.45	0.383	0.375
3epq	3ohr	858	858	0.381	0.429	0.389	0.549
3epq	3ohr	859	859	0.074	0.155	0.041	0.138
3epq	3ohr	860	860	0.347	0.528	0.344	0.303
3epq	3ohr	861	861	0.652	0.789	0.612	0.713
3epq	3ohr	862	862	0.275	0.308	0.319	0.327
3epq	3ohr	863	863	0.0	0.0	0.0	0.0
3epq	3ohr	864	864	0.0	0.012	0.0	0.003
3epq	3ohr	865	865	0.579	0.557	0.552	0.609
3epq	3ohr	867	867	0.746	0.78	0.705	0.655
3epq	3ohr	868	868	0.094	0.095	0.079	0.076
3epq	3ohr	869	869	0.102	0.182	0.149	0.257
3epq	3ohr	870	870	0.217	0.43	0.227	0.282
3epq	3ohr	871	871	0.462	0.37	0.486	0.588
3epq	3ohr	872	872	0.492	0.487	0.459	0.442
3epq	3ohr	873	873	0.0	0.0	0.0	0.0
3epq	3ohr	874	874	0.015	0.016	0.021	0.021
3epq	3ohr	875	875	0.422	0.448	0.38	0.382
3epq	3ohr	876	876	0.466	0.517	0.419	0.472
3epq	3ohr	877	877	0.147	0.069	0.134	0.094
3epq	3ohr	878	878	0.289	0.449	0.303	0.331
3epq	3ohr	879	879	0.506	0.575	0.479	0.623
3epq	3ohr	880	880	0.231	0.146	0.255	0.35
3epq	3ohr	881	881	0.223	0.208	0.251	0.25
3epq	3ohr	882	882	0.013	0.037	0.009	0.011
3epq	3ohr	883	883	0.123	0.162	0.126	0.13
3epq	3ohr	884	884	0.396	0.404	0.42	0.431
3epq	3ohr	885	885	0.536	0.576	0.54	0.689
3epq	3ohr	886	886	0.279	0.365	0.256	0.326
3epq	3ohr	887	887	0.463	0.634	0.461	0.66
3epq	3ohr	888	888	0.0	0.001	0.0	0.0
3epq	3ohr	889	889	0.756	0.656	0.756	0.656
3epq	3ohr	890	890	0.0	0.0	0.001	0.0
3epq	3ohr	891	891	0.0	0.0	0.0	0.0
3epq	3ohr	892	892	0.0	0.003	0.0	0.001
3epq	3ohr	893	893	0.528	0.567	0.53	0.565
3epq	3ohr	894	894	0.0	0.0	0.0	0.0
3epq	3ohr	895	895	0.498	0.587	0.47	0.622
3epq	3ohr	896	896	0.0	0.0	0.0	0.0
3epq	3ohr	897	897	0.0	0.0	0.0	0.0
3epq	3ohr	898	898	0.153	0.19	0.161	0.184
3epq	3ohr	899	899	0.368	0.35	0.361	0.409
3epq	3ohr	900	900	0.343	0.432	0.344	0.393
3epq	3ohr	901	901	0.24	0.256	0.281	0.272
3epq	3ohr	902	902	0.0	0.0	0.0	0.0
3epq	3ohr	903	903	0.0	0.0	0.0	0.0
3epq	3ohr	904	904	0.077	0.079	0.088	0.097
3epq	3ohr	906	906	0.0	0.0	0.0	0.0
3epq	3ohr	907	907	0.072	0.073	0.085	0.088
3epq	3ohr	908	908	0.0	0.0	0.0	0.0
3epq	3ohr	909	909	0.546	0.549	0.504	0.483
3epq	3ohr	910	910	0.919	0.787	0.853	0.765
