pred	succ	p-cen	s-cen	p_q-score	p_s-score	s_q-score	s_s-score
4a3a	4atm	1	1	0.8	1.0	0.8	1.0
4a3a	4atm	2	2	0.925	0.93	0.894	0.455
4a3a	4atm	3	3	1.0	0	1.0	0
4a3a	4atm	6	6	0.564	0.625	0.555	0.526
4a3a	4atm	7	7	0.784	0.823	0.796	0.825
4a3a	4atm	9	9	0.637	0.723	0.721	0.731
4a3a	4atm	10	10	0.688	0.67	0.779	0.693
4a3a	4atm	11	11	0.827	0.844	0.826	0.838
4a3a	4atm	12	12	0.562	0.673	0.498	0.44
4a3a	4atm	13	13	0.212	0.425	0.246	0.469
4a3a	4atm	14	14	0.224	0.297	0.272	0.355
4a3a	4atm	15	15	0.212	0.211	0.24	0.392
4a3a	4atm	16	16	0.182	0.429	0.219	0.035
4a3a	4atm	17	17	0.173	0.322	0.161	0.194
4a3a	4atm	18	18	0.0	0.003	0.0	0.002
4a3a	4atm	19	19	0.004	0.022	0.005	0.025
4a3a	4atm	20	20	0.141	0.113	0.143	0.166
4a3a	4atm	21	21	0.15	0.123	0.124	0.098
4a3a	4atm	22	22	0.246	0.412	0.179	0.187
4a3a	4atm	25	25	0.132	0.232	0.115	0.124
4a3a	4atm	28	28	0.0	0.017	0.0	0.03
4a3a	4atm	29	29	0.17	0.192	0.116	0.152
4a3a	4atm	30	30	0.32	0.357	0.307	0.4
4a3a	4atm	31	31	0.061	0.14	0.0	0.0
4a3a	4atm	32	32	0.08	0.034	0.11	0.053
4a3a	4atm	33	33	0.678	0.632	0.639	0.78
4a3a	4atm	34	34	0.835	0.889	0.871	0.885
4a3a	4atm	35	35	0.0	0.0	0.0	0.0
4a3a	4atm	36	36	0.0	0.0	0.0	0.0
4a3a	4atm	37	37	0.0	0.001	0.0	0.0
4a3a	4atm	38	38	0.105	0.086	0.078	0.064
4a3a	4atm	40	40	0.046	0.069	0.05	0.07
4a3a	4atm	42	42	0.0	0.0	0.0	0.0
4a3a	4atm	43	43	0.363	0.288	0.395	0.516
4a3a	4atm	46	46	0.29	0.284	0.349	0.369
4a3a	4atm	47	47	0.437	0.435	0.469	0.501
4a3a	4atm	48	48	0.0	0.003	0.0	0.002
4a3a	4atm	49	49	0.006	0.077	0.0	0.064
4a3a	4atm	51	51	0.167	0.329	0.166	0.262
4a3a	4atm	52	52	0.0	0.02	0.0	0.013
4a3a	4atm	53	53	0.804	0.791	0.76	0.747
4a3a	4atm	54	54	0.0	0.0	0.0	0.0
4a3a	4atm	55	55	0.089	0.096	0.066	0.07
4a3a	4atm	56	56	0.0	0.002	0.0	0.002
4a3a	4atm	57	57	0.272	0.285	0.278	0.281
4a3a	4atm	58	58	0.0	0.0	0.0	0.0
4a3a	4atm	59	59	0.0	0.0	0.0	0.0
4a3a	4atm	60	60	0.202	0.201	0.253	0.27
4a3a	4atm	61	61	0.169	0.164	0.219	0.225
4a3a	4atm	62	62	0.11	0.134	0.107	0.1
4a3a	4atm	63	63	0.02	0.019	0.012	0.014
4a3a	4atm	64	64	0.705	0.739	0.691	0.674
4a3a	4atm	65	65	0.013	0.013	0.013	0.012
4a3a	4atm	66	66	0.0	0.0	0.0	0.0
4a3a	4atm	67	67	0.0	0.0	0.0	0.0
4a3a	4atm	68	68	0.0	0.0	0.0	0.0
4a3a	4atm	69	69	0.07	0.092	0.075	0.089
4a3a	4atm	70	70	0.33	0.294	0.317	0.349
4a3a	4atm	71	71	0.033	0.054	0.047	0.071
4a3a	4atm	72	72	0.0	0.0	0.0	0.0
4a3a	4atm	73	73	0.809	0.83	0.834	0.872
4a3a	4atm	75	75	0.0	0.0	0.0	0.0
4a3a	4atm	76	76	0.0	0.0	0.0	0.0
4a3a	4atm	77	77	0.0	0.0	0.0	0.0
4a3a	4atm	78	78	0.118	0.159	0.127	0.13
4a3a	4atm	79	79	0.0	0.0	0.0	0.0
4a3a	4atm	80	80	0.0	0.0	0.0	0.0
4a3a	4atm	81	81	0.538	0.337	0.52	0.379
4a3a	4atm	82	82	0.468	0.488	0.476	0.456
4a3a	4atm	83	83	0.0	0.0	0.0	0.0
4a3a	4atm	85	85	0.794	0.774	0.79	0.774
4a3a	4atm	86	86	0.0	0.0	0.0	0.0
4a3a	4atm	87	87	0.0	0.0	0.0	0.0
4a3a	4atm	88	88	0.033	0.047	0.037	0.057
4a3a	4atm	89	89	0.029	0.03	0.025	0.028
4a3a	4atm	90	90	0.0	0.0	0.0	0.0
4a3a	4atm	91	91	0.0	0.0	0.0	0.0
4a3a	4atm	92	92	0.19	0.173	0.233	0.206
4a3a	4atm	93	93	0.0	0.0	0.0	0.0
4a3a	4atm	94	94	0.68	0.648	0.666	0.656
4a3a	4atm	95	95	0.07	0.082	0.076	0.092
4a3a	4atm	96	96	0.716	0.592	0.719	0.831
4a3a	4atm	97	97	0.733	0.876	0.728	0.726
4a3a	4atm	98	98	0.0	0.0	0.0	0.0
4a3a	4atm	99	99	0.0	0.0	0.0	0.0
4a3a	4atm	100	100	0.0	0.0	0.0	0.0
4a3a	4atm	101	101	0.026	0.051	0.02	0.044
4a3a	4atm	102	102	0.0	0.0	0.0	0.0
4a3a	4atm	103	103	0.0	0.0	0.0	0.0
4a3a	4atm	104	104	0.0	0.0	0.0	0.0
4a3a	4atm	105	105	0.0	0.0	0.0	0.0
4a3a	4atm	106	106	0.0	0.0	0.0	0.0
4a3a	4atm	107	107	0.528	0.595	0.558	0.612
4a3a	4atm	108	108	0.646	0.685	0.649	0.685
4a3a	4atm	109	109	0.0	0.0	0.0	0.0
4a3a	4atm	110	110	0.0	0.003	0.0	0.0
4a3a	4atm	111	111	0.758	0.802	0.78	0.793
4a3a	4atm	112	112	0.0	0.0	0.0	0.0
4a3a	4atm	113	113	0.0	0.0	0.0	0.0
4a3a	4atm	114	114	0.0	0.0	0.0	0.0
4a3a	4atm	115	115	0.033	0.035	0.055	0.056
4a3a	4atm	116	116	0.0	0.0	0.0	0.0
4a3a	4atm	117	117	0.0	0.0	0.0	0.0
4a3a	4atm	118	118	0.128	0.119	0.119	0.113
4a3a	4atm	120	120	0.123	0.118	0.113	0.11
4a3a	4atm	122	122	0.0	0.0	0.0	0.0
4a3a	4atm	123	123	0.174	0.214	0.153	0.152
4a3a	4atm	124	124	0.921	0.969	0.896	0.931
4a3a	4atm	126	126	0.437	0.443	0.504	0.503
4a3a	4atm	127	127	0.0	0.0	0.0	0.0
4a3a	4atm	129	129	0.29	0.447	0.311	0.341
4a3a	4atm	131	131	0.0	0.0	0.0	0.0
4a3a	4atm	132	132	0.709	0.555	0.729	0.595
4a3a	4atm	133	133	0.011	0.016	0.009	0.017
4a3a	4atm	134	134	0.544	0.581	0.508	0.474
4a3a	4atm	136	136	0.633	0.591	0.734	0.861
4a3a	4atm	137	137	0.021	0.027	0.009	0.012
4a3a	4atm	138	138	0.0	0.0	0.0	0.0
4a3a	4atm	139	139	0.32	0.308	0.364	0.325
4a3a	4atm	140	140	0.095	0.098	0.135	0.135
4a3a	4atm	141	141	0.0	0.0	0.0	0.0
4a3a	4atm	142	142	0.0	0.0	0.0	0.0
4a3a	4atm	143	143	0.155	0.142	0.162	0.106
4a3a	4atm	144	144	0.263	0.206	0.253	0.308
4a3a	4atm	145	145	0.01	0.014	0.01	0.016
4a3a	4atm	146	146	0.0	0.0	0.0	0.0
4a3a	4atm	147	147	0.0	0.0	0.0	0.0
4a3a	4atm	148	148	0.304	0.418	0.334	0.544
4a3a	4atm	149	149	0.184	0.175	0.204	0.197
4a3a	4atm	151	151	0.052	0.081	0.048	0.085
4a3a	4atm	152	152	0.648	0.757	0.659	0.766
4a3a	4atm	153	153	0.752	0.91	0.751	0.908
4a3a	4atm	154	154	0.0	0.0	0.0	0.0
4a3a	4atm	155	155	0.0	0.0	0.0	0.0
4a3a	4atm	156	156	0.028	0.038	0.01	0.015
4a3a	4atm	157	157	0.0	0.0	0.0	0.0
4a3a	4atm	159	159	0.0	0.0	0.0	0.0
4a3a	4atm	160	160	0.373	0.439	0.414	0.429
4a3a	4atm	161	161	0.633	0.665	0.615	0.617
4a3a	4atm	162	162	0.0	0.0	0.0	0.0
4a3a	4atm	163	163	0.0	0.0	0.0	0.0
4a3a	4atm	164	164	0.063	0.075	0.048	0.058
4a3a	4atm	165	165	0.352	0.254	0.646	0.751
4a3a	4atm	166	166	0.475	0.58	0.505	0.561
4a3a	4atm	167	167	0.225	0.228	0.217	0.216
4a3a	4atm	168	168	0.0	0.0	0.0	0.0
4a3a	4atm	169	169	0.209	0.275	0.174	0.174
4a3a	4atm	170	170	0.69	0.537	0.699	0.536
4a3a	4atm	171	171	0.308	0.315	0.291	0.291
4a3a	4atm	172	172	0.0	0.0	0.0	0.0
4a3a	4atm	173	173	0.0	0.0	0.0	0.0
4a3a	4atm	174	174	0.757	0.677	0.767	0.713
4a3a	4atm	175	175	0.664	0.707	0.645	0.707
4a3a	4atm	176	176	0.557	0.563	0.619	0.627
4a3a	4atm	177	177	0.0	0.0	0.0	0.0
4a3a	4atm	178	178	0.023	0.036	0.019	0.019
4a3a	4atm	179	179	0.124	0.13	0.109	0.151
4a3a	4atm	181	181	0.0	0.0	0.0	0.0
4a3a	4atm	182	182	0.0	0.0	0.0	0.0
4a3a	4atm	183	183	0.0	0.0	0.0	0.0
4a3a	4atm	184	184	0.0	0.0	0.0	0.0
4a3a	4atm	185	185	0.0	0.0	0.0	0.0
4a3a	4atm	186	186	0.0	0.0	0.0	0.0
4a3a	4atm	187	187	0.03	0.043	0.026	0.031
4a3a	4atm	188	188	0.293	0.268	0.297	0.265
4a3a	4atm	191	191	0.028	0.02	0.012	0.007
4a3a	4atm	192	192	0.104	0.122	0.107	0.181
4a3a	4atm	193	193	0.262	0.477	0.285	0.389
4a3a	4atm	194	194	0.23	0.304	0.229	0.304
4a3a	4atm	195	195	0.748	0.77	0.751	0.776
4a3a	4atm	196	196	0.182	0.164	0.198	0.153
4a3a	4atm	197	197	0.023	0.041	0.0	0.0
4a3a	4atm	198	198	0.0	0.009	0.0	0.004
4a3a	4atm	199	199	0.322	0.488	0.332	0.491
4a3a	4atm	201	201	0.0	0.0	0.0	0.0
4a3a	4atm	202	202	0.424	0.524	0.472	0.51
4a3a	4atm	203	203	0.951	0.941	0.967	0.948
4a3a	4atm	204	204	0.45	0.619	0.428	0.582
4a3a	4atm	205	205	0.0	0.0	0.0	0.001
4a3a	4atm	206	206	0.0	0.0	0.0	0.0
4a3a	4atm	207	207	0.123	0.143	0.13	0.132
4a3a	4atm	208	208	0.492	0.533	0.491	0.674
4a3a	4atm	209	209	0.0	0.0	0.0	0.0
4a3a	4atm	210	210	0.0	0.0	0.0	0.0
4a3a	4atm	211	211	0.043	0.048	0.039	0.043
4a3a	4atm	212	212	0.304	0.351	0.0	0.0
4a3a	4atm	213	213	0.916	0.926	0.917	0.914
4a3a	4atm	214	214	0.012	0.008	0.0	0.0
4a3a	4atm	215	215	0.054	0.054	0.067	0.043
4a3a	4atm	216	216	0.727	0.776	0.723	0.772
4a3a	4atm	217	217	0.8	0.945	0.806	0.948
4a3a	4atm	218	218	0.0	0.0	0.0	0.0
4a3a	4atm	219	219	0.0	0.0	0.0	0.0
4a3a	4atm	220	220	0.0	0.0	0.0	0.0
4a3a	4atm	221	221	0.0	0.001	0.0	0.007
4a3a	4atm	222	222	0.061	0.062	0.053	0.069
4a3a	4atm	223	223	0.006	0.009	0.001	0.007
4a3a	4atm	224	224	0.183	0.179	0.187	0.174
4a3a	4atm	225	225	0.0	0.0	0.0	0.032
4a3a	4atm	226	226	0.367	0.446	0.376	0.499
4a3a	4atm	227	227	0.233	0.228	0.224	0.259
4a3a	4atm	228	228	0.602	0.571	0.582	0.545
4a3a	4atm	229	229	0.0	0.01	0.0	0.0
4a3a	4atm	230	230	0.027	0.057	0.04	0.057
4a3a	4atm	233	233	0.097	0.087	0.067	0.087
4a3a	4atm	234	234	0.0	0.0	0.0	0.0
4a3a	4atm	235	235	0.0	0.0	0.0	0.0
4a3a	4atm	236	236	0.526	0.593	0.526	0.589
4a3a	4atm	237	237	0.0	0.0	0.0	0.0
4a3a	4atm	238	238	0.0	0.0	0.0	0.0
4a3a	4atm	239	239	0.141	0.132	0.13	0.095
4a3a	4atm	240	240	0.355	0.337	0.392	0.365
4a3a	4atm	241	241	0.0	0.0	0.0	0.0
4a3a	4atm	242	242	0.135	0.119	0.172	0.246
4a3a	4atm	244	244	0.088	0.146	0.108	0.107
4a3a	4atm	245	245	0.021	0.031	0.008	0.004
4a3a	4atm	246	246	1.0	0	1.0	0
4a3a	4atm	247	247	0.274	0.258	0.235	0.235
4a3a	4atm	248	248	0.0	0.0	0.0	0.0
4a3a	4atm	249	249	0.0	0.0	0.0	0.0
4a3a	4atm	250	250	0.0	0.0	0.0	0.0
4a3a	4atm	251	251	0.0	0.0	0.0	0.0
4a3a	4atm	252	252	0.03	0.089	0.036	0.086
4a3a	4atm	253	253	0.034	0.029	0.043	0.034
4a3a	4atm	254	254	0.096	0.073	0.111	0.103
4a3a	4atm	255	255	0.583	0.66	0.555	0.631
4a3a	4atm	256	256	0.603	0.757	0.674	0.754
4a3a	4atm	257	257	0.74	0.733	0.759	0.752
4a3a	4atm	258	258	0.7	0.25	0.7	0.25
4a3a	4atm	259	259	0.261	0.23	0.221	0.217
4a3a	4atm	260	260	1.0	1.0	1.0	1.0
4a3a	4atm	261	261	0.817	0.864	0.826	0.864
4a3a	4atm	262	262	0.778	0.956	0.775	0.95
4a3a	4atm	263	263	0.232	0.242	0.216	0.218
4a3a	4atm	264	264	0.459	0.406	0.528	0.446
4a3a	4atm	265	265	0.356	0.342	0.357	0.386
4a3a	4atm	266	266	0.328	0.407	0.308	0.32
4a3a	4atm	267	267	0.885	0.846	0.896	0.971
4a3a	4atm	269	269	0.664	0.764	0.653	0.764
4a3a	4atm	270	270	0.851	0.683	0.858	0.918
4a3a	4atm	271	271	0.842	0.89	0.798	0.836
4a3a	4atm	272	272	0.289	0.449	0.32	0.409
4a3a	4atm	273	273	0.387	0.404	0.388	0.403
4a3a	4atm	275	275	0.0	0.0	0.0	0.0
4a3a	4atm	276	276	0.53	0.539	0.543	0.629
4a3a	4atm	277	277	0.715	0.692	0.723	0.692
4a3a	4atm	278	278	0.861	0.741	0.808	0.647
4a3a	4atm	279	279	0.119	0.126	0.0	0.0
4a3a	4atm	280	280	0.533	0.446	0.512	0.416
4a3a	4atm	281	281	0.37	0.376	0.41	0.486
4a3a	4atm	283	283	0.035	0.039	0.068	0.073
4a3a	4atm	284	284	0.007	0.026	0.0	0.022
4a3a	4atm	285	285	0.891	0.905	0.87	0.889
4a3a	4atm	286	286	0.119	0.116	0.109	0.102
4a3a	4atm	287	287	0.0	0.0	0.0	0.0
4a3a	4atm	288	288	0.512	0.589	0.552	0.604
4a3a	4atm	289	289	0.258	0.317	0.267	0.335
4a3a	4atm	290	290	0.262	0.198	0.224	0.21
4a3a	4atm	291	291	0.0	0.0	0.0	0.0
4a3a	4atm	292	292	0.0	0.0	0.0	0.0
4a3a	4atm	293	293	0.0	0.0	0.0	0.0
4a3a	4atm	294	294	0.024	0.101	0.012	0.086
4a3a	4atm	295	295	0.014	0.043	0.008	0.01
4a3a	4atm	296	296	0.155	0.147	0.234	0.241
4a3a	4atm	297	297	0.076	0.087	0.074	0.118
4a3a	4atm	298	298	0.194	0.195	0.211	0.25
4a3a	4atm	299	299	0.02	0.068	0.018	0.068
4a3a	4atm	302	302	0.733	0.845	0.703	0.733
4a3a	4atm	303	303	0.343	0.484	0.295	0.373
4a3a	4atm	304	304	0.315	0.319	0.349	0.346
4a3a	4atm	306	306	0.0	0.0	0.0	0.0
4a3a	4atm	307	307	0.035	0.031	0.025	0.031
4a3a	4atm	308	308	0.0	0.0	0.0	0.0
4a3a	4atm	309	309	0.583	0.561	0.573	0.454
4a3a	4atm	310	310	0.0	0.0	0.0	0.0
4a3a	4atm	311	311	0.017	0.018	0.009	0.01
4a3a	4atm	312	312	0.157	0.137	0.148	0.157
4a3a	4atm	313	313	0.0	0.001	0.0	0.0
4a3a	4atm	314	314	0.244	0.175	0.229	0.174
4a3a	4atm	315	315	0.0	0.0	0.0	0.0
4a3a	4atm	316	316	0.018	0.013	0.026	0.023
4a3a	4atm	317	317	0.557	0.663	0.556	0.661
4a3a	4atm	318	318	0.294	0.39	0.292	0.359
4a3a	4atm	319	319	0.466	0.424	0.469	0.426
4a3a	4atm	320	320	0.811	0.841	0.8	0.841
4a3a	4atm	321	321	0.0	0.0	0.0	0.0
4a3a	4atm	323	323	0.362	0.365	0.398	0.414
4a3a	4atm	324	324	0.006	0.005	0.023	0.023
4a3a	4atm	325	325	0.057	0.116	0.043	0.073
4a3a	4atm	326	326	0.0	0.0	0.0	0.0
4a3a	4atm	327	327	0.0	0.0	0.0	0.0
4a3a	4atm	328	328	0.535	0.562	0.557	0.874
4a3a	4atm	329	329	0.042	0.045	0.068	0.099
4a3a	4atm	330	330	0.356	0.29	0.36	0.319
4a3a	4atm	331	331	0.588	0.767	0.589	0.622
4a3a	4atm	332	332	0.74	0.787	0.74	0.787
4a3a	4atm	333	333	0.0	0.005	0.003	0.011
4a3a	4atm	334	334	0.114	0.148	0.106	0.23
4a3a	4atm	335	335	0.815	0.869	0.815	0.869
4a3a	4atm	336	336	0.498	0.568	0.514	0.58
4a3a	4atm	337	337	0.073	0.081	0.043	0.037
4a3a	4atm	338	338	0.81	0.806	0.785	0.596
4a3a	4atm	339	339	0.16	0.173	0.241	0.258
4a3a	4atm	341	341	0.0	0.0	0.0	0.0
4a3a	4atm	342	342	0.28	0.48	0.259	0.26
4a3a	4atm	343	343	0.121	0.132	0.136	0.135
4a3a	4atm	345	345	0.015	0.015	0.007	0.009
4a3a	4atm	346	346	0.005	0.005	0.008	0.011
4a3a	4atm	347	347	0.0	0.0	0.0	0.0
4a3a	4atm	348	348	0.0	0.0	0.0	0.0
4a3a	4atm	349	349	0.067	0.097	0.027	0.135
4a3a	4atm	350	350	0.0	0.0	0.0	0.0
4a3a	4atm	351	351	0.0	0.0	0.0	0.0
4a3a	4atm	353	353	0.157	0.159	0.248	0.315
4a3a	4atm	354	354	0.057	0.05	0.05	0.045
4a3a	4atm	355	355	0.682	0.671	0.64	0.604
4a3a	4atm	357	357	0.098	0.117	0.118	0.181
4a3a	4atm	358	358	0.223	0.176	0.259	0.403
4a3a	4atm	359	359	0.347	0.435	0.38	0.439
4a3a	4atm	360	360	0.0	0.0	0.0	0.0
4a3a	4atm	361	361	0.0	0.0	0.0	0.0
4a3a	4atm	365	365	0.053	0.047	0.044	0.04
4a3a	4atm	366	366	0.0	0.0	0.0	0.0
4a3a	4atm	370	373	0.193	0.307	0.2	0.307
4a3a	4atm	371	374	0.0	0.0	0.0	0.0
4a3a	4atm	372	375	0.0	0.0	0.0	0.0
4a3a	4atm	373	376	0.045	0.101	0.047	0.1
4a3a	4atm	374	377	0.55	0.589	0.475	0.4
4a3a	4atm	375	378	0.17	0.177	0.183	0.178
4a3a	4atm	376	379	0.0	0.0	0.0	0.0
4a3a	4atm	377	380	0.0	0.0	0.0	0.0
4a3a	4atm	378	381	0.063	0.162	0.15	0.106
4a3a	4atm	380	383	0.832	0.716	0.816	0.652
4a3a	4atm	381	384	0.003	0.015	0.025	0.022
4a3a	4atm	385	388	0.0	0.0	0.0	0.0
4a3a	4atm	386	389	0.0	0.0	0.0	0.0
4a3a	4atm	388	391	0.117	0.127	0.111	0.22
4a3a	4atm	389	392	0.186	0.241	0.266	0.347
4a3a	4atm	390	393	0.0	0.0	0.0	0.0
4a3a	4atm	391	394	0.022	0.007	0.045	0.02
4a3a	4atm	392	395	0.497	0.519	0.494	0.519
4a3a	4atm	393	396	0.079	0.067	0.08	0.066
4a3a	4atm	394	397	0.02	0.016	0.038	0.037
4a3a	4atm	395	398	0.0	0.002	0.0	0.0
4a3a	4atm	396	399	0.0	0.0	0.0	0.0
4a3a	4atm	397	400	0.0	0.0	0.0	0.0
4a3a	4atm	398	401	0.271	0.269	0.307	0.274
4a3a	4atm	399	402	0.525	0.47	0.57	0.589
4a3a	4atm	400	403	0.887	0.717	0.884	0.716
4a3a	4atm	401	404	0.413	0.42	0.377	0.446
4a3a	4atm	402	405	0.0	0.0	0.0	0.0
4a3a	4atm	403	406	0.561	0.55	0.556	0.529
4a3a	4atm	404	407	0.398	0.441	0.388	0.676
4a3a	4atm	405	408	0.749	0.724	0.742	0.703
4a3a	4atm	406	409	0.225	0.206	0.205	0.272
4a3a	4atm	407	410	0.304	0.299	0.431	0.377
4a3a	4atm	408	411	0.077	0.104	0.1	0.049
4a3a	4atm	409	412	0.096	0.071	0.124	0.035
4a3a	4atm	410	413	0.189	0.344	0.219	0.252
4a3a	4atm	411	414	0.394	0.433	0.429	0.444
4a3a	4atm	413	416	0.746	0.839	0.697	0.691
4a3a	4atm	414	417	0.238	0.267	0.182	0.205
4a3a	4atm	415	418	0.032	0.066	0.049	0.049
4a3a	4atm	416	419	0.747	0.835	0.746	0.739
4a3a	4atm	417	420	0.515	0.541	0.518	0.572
4a3a	4atm	418	421	0.105	0.13	0.107	0.117
4a3a	4atm	419	422	0.0	0.0	0.0	0.0
4a3a	4atm	420	423	0.0	0.0	0.0	0.0
4a3a	4atm	421	424	0.04	0.041	0.065	0.066
4a3a	4atm	423	426	0.263	0.263	0.335	0.342
4a3a	4atm	424	427	0.0	0.0	0.0	0.0
4a3a	4atm	425	428	0.0	0.0	0.0	0.0
4a3a	4atm	426	429	0.172	0.111	0.169	0.113
4a3a	4atm	427	430	0.131	0.286	0.198	0.158
4a3a	4atm	428	431	0.03	0.088	0.0	0.003
4a3a	4atm	429	432	0.069	0.074	0.081	0.07
4a3a	4atm	430	433	0.658	0.64	0.582	0.524
4a3a	4atm	431	434	0.531	0.536	0.526	0.557
4a3a	4atm	432	435	0.329	0.388	0.305	0.377
4a3a	4atm	433	436	0.0	0.005	0.0	0.0
4a3a	4atm	435	438	0.438	0.338	0.454	0.341
4a3a	4atm	436	439	0.231	0.226	0.241	0.229
4a3a	4atm	437	440	0.0	0.0	0.0	0.0
4a3a	4atm	438	441	0.0	0.0	0.0	0.0
4a3a	4atm	439	442	0.346	0.264	0.381	0.248
4a3a	4atm	441	444	0.07	0.066	0.136	0.135
4a3a	4atm	442	445	0.0	0.0	0.0	0.0
4a3a	4atm	443	446	0.0	0.0	0.0	0.0
4a3a	4atm	444	447	0.0	0.0	0.0	0.0
4a3a	4atm	445	448	0.0	0.0	0.0	0.0
4a3a	4atm	446	449	0.15	0.185	0.147	0.184
4a3a	4atm	448	451	0.0	0.0	0.0	0.0
4a3a	4atm	449	452	0.0	0.0	0.0	0.0
4a3a	4atm	450	453	0.344	0.39	0.335	0.354
4a3a	4atm	451	454	0.813	0.853	0.849	0.894
4a3a	4atm	452	455	0.86	0.973	0.853	0.973
4a3a	4atm	453	456	0.009	0.008	0.004	0.003
4a3a	4atm	454	457	0.0	0.0	0.0	0.0
4a3a	4atm	455	458	0.135	0.131	0.118	0.112
4a3a	4atm	456	459	0.089	0.092	0.121	0.11
4a3a	4atm	457	460	0.271	0.359	0.362	0.484
4a3a	4atm	459	462	0.071	0.057	0.061	0.044
4a3a	4atm	460	463	0.311	0.611	0.309	0.472
4a3a	4atm	461	464	0.0	0.003	0.0	0.005
4a3a	4atm	462	465	0.142	0.159	0.117	0.161
4a3a	4atm	463	466	0.069	0.096	0.078	0.076
4a3a	4atm	465	468	0.488	0.214	0.471	0.626
4a3a	4atm	466	469	0.0	0.0	0.0	0.0
4a3a	4atm	467	470	0.0	0.0	0.0	0.0
4a3a	4atm	468	471	0.428	0.563	0.438	0.549
4a3a	4atm	469	472	0.344	0.428	0.359	0.335
4a3a	4atm	470	473	0.243	0.206	0.261	0.167
4a3a	4atm	471	474	0.0	0.0	0.0	0.0
4a3a	4atm	472	475	0.0	0.0	0.0	0.0
4a3a	4atm	474	477	0.014	0.01	0.017	0.018
4a3a	4atm	475	478	0.018	0.015	0.032	0.029
4a3a	4atm	479	482	0.613	0.614	0.65	0.644
4a3a	4atm	480	483	0.871	0.732	0.859	0.762
4a3a	4atm	481	484	0.666	0.507	0.662	0.507
4a3a	4atm	482	485	0.0	0.0	0.0	0.0
4a3a	4atm	483	486	0.003	0.016	0.002	0.038
4a3a	4atm	485	488	0.0	0.0	0.0	0.0
4a3a	4atm	486	489	0.0	0.0	0.0	0.0
4a3a	4atm	487	490	0.039	0.039	0.115	0.118
4a3a	4atm	488	491	0.266	0.367	0.262	0.309
4a3a	4atm	489	492	0.312	0.341	0.243	0.25
4a3a	4atm	490	493	0.4	0.411	0.465	0.407
4a3a	4atm	491	494	0.0	0.001	0.0	0.011
4a3a	4atm	492	495	0.352	0.549	0.343	0.531
4a3a	4atm	493	496	0.767	0.911	0.767	0.911
4a3a	4atm	495	498	0.833	0.983	0.857	0.986
4a3a	4atm	496	499	0.0	0.002	0.0	0.0
4a3a	4atm	497	500	0.498	0.487	0.526	0.541
4a3a	4atm	498	501	0.0	0.0	0.0	0.0
4a3a	4atm	499	502	0.0	0.0	0.0	0.0
4a3a	4atm	500	503	0.014	0.016	0.022	0.025
4a3a	4atm	502	505	0.376	0.468	0.315	0.444
4a3a	4atm	504	507	0.525	0.555	0.526	0.513
4a3a	4atm	505	508	0.295	0.373	0.299	0.383
4a3a	4atm	506	509	0.783	0.691	0.786	0.909
4a3a	4atm	507	510	0.632	0.652	0.616	0.616
4a3a	4atm	509	512	0.553	0.563	0.501	0.501
4a3a	4atm	510	513	0.0	0.0	0.0	0.0
4a3a	4atm	512	515	0.476	0.544	0.561	0.553
4a3a	4atm	514	517	0.0	0.0	0.0	0.0
4a3a	4atm	515	518	0.01	0.013	0.032	0.066
4a3a	4atm	516	519	0.249	0.237	0.245	0.242
4a3a	4atm	518	521	0.0	0.0	0.0	0.0
4a3a	4atm	520	523	0.057	0.062	0.055	0.055
4a3a	4atm	521	524	0.328	0.326	0.233	0.29
4a3a	4atm	522	525	0.164	0.17	0.176	0.176
4a3a	4atm	524	527	0.0	0.0	0.024	0.022
4a3a	4atm	527	530	0.0	0.005	0.0	0.009
4a3a	4atm	528	531	0.0	0.002	0.0	0.005
4a3a	4atm	529	532	0.0	0.002	0.0	0.007
4a3a	4atm	530	533	0.501	0.3	0.48	0.394
4a3a	4atm	531	534	0.755	0.599	0.76	0.624
4a3a	4atm	532	535	0.13	0.247	0.14	0.21
4a3a	4atm	533	536	0.0	0.0	0.0	0.0
4a3a	4atm	534	537	0.56	0.719	0.517	0.496
4a3a	4atm	535	538	0.034	0.105	0.031	0.1
4a3a	4atm	536	539	0.026	0.032	0.026	0.04
4a3a	4atm	538	541	0.0	0.014	0.0	0.009
4a3a	4atm	539	542	0.0	0.002	0.0	0.01
4a3a	4atm	543	546	0.149	0.152	0.098	0.08
4a3a	4atm	544	547	0.802	0.6	0.802	0.796
4a3a	4atm	545	548	0.117	0.317	0.141	0.139
4a3a	4atm	546	549	0.0	0.006	0.0	0.0
4a3a	4atm	550	553	0.239	0.183	0.214	0.175
4a3a	4atm	551	554	0.116	0.117	0.167	0.122
4a3a	4atm	553	556	0.406	0.334	0.398	0.23
4a3a	4atm	554	557	0.142	0.155	0.111	0.112
4a3a	4atm	555	558	0.0	0.0	0.0	0.0
4a3a	4atm	556	559	0.0	0.0	0.242	0.254
4a3a	4atm	557	560	0.06	0.085	0.524	0.55
4a3a	4atm	559	562	0.207	0.188	0.218	0.21
4a3a	4atm	560	563	0.067	0.082	0.025	0.03
4a3a	4atm	561	564	0.48	0.508	0.532	0.619
4a3a	4atm	562	565	0.14	0.132	0.148	0.148
4a3a	4atm	563	566	0.0	0.0	0.0	0.0
4a3a	4atm	564	567	0.0	0.0	0.0	0.0
4a3a	4atm	565	568	0.0	0.0	0.0	0.001
4a3a	4atm	566	569	0.0	0.0	0.0	0.0
4a3a	4atm	567	570	0.0	0.0	0.0	0.0
4a3a	4atm	568	571	0.179	0.167	0.324	0.36
4a3a	4atm	570	573	0.0	0.0	0.0	0.0
4a3a	4atm	571	574	0.0	0.0	0.0	0.0
4a3a	4atm	572	575	0.164	0.173	0.01	0.013
4a3a	4atm	573	576	0.468	0.468	0.485	0.48
4a3a	4atm	574	577	0.0	0.0	0.0	0.0
4a3a	4atm	575	578	0.0	0.0	0.0	0.0
4a3a	4atm	576	579	0.0	0.0	0.0	0.0
4a3a	4atm	577	580	0.0	0.0	0.0	0.0
4a3a	4atm	578	581	0.0	0.0	0.0	0.0
4a3a	4atm	579	582	0.0	0.027	0.0	0.018
4a3a	4atm	580	583	0.0	0.0	0.0	0.0
4a3a	4atm	581	584	0.0	0.0	0.0	0.0
4a3a	4atm	582	585	0.0	0.0	0.0	0.0
4a3a	4atm	583	586	0.635	0.63	0.649	0.614
4a3a	4atm	584	587	0.48	0.577	0.465	0.573
4a3a	4atm	585	588	0.0	0.0	0.0	0.0
4a3a	4atm	587	590	0.0	0.0	0.0	0.0
4a3a	4atm	588	591	0.823	0.912	0.818	0.914
4a3a	4atm	589	592	0.567	0.643	0.037	0.025
4a3a	4atm	590	593	0.0	0.0	0.0	0.0
4a3a	4atm	591	594	0.0	0.013	0.0	0.014
4a3a	4atm	592	595	0.145	0.253	0.082	0.148
4a3a	4atm	593	596	0.0	0.001	0.0	0.016
4a3a	4atm	594	597	0.547	0.547	0.578	0.641
4a3a	4atm	595	598	0.892	0.692	0.884	0.884
4a3a	4atm	596	599	0.278	0.297	0.267	0.292
4a3a	4atm	597	600	0.0	0.0	0.026	0.071
4a3a	4atm	598	601	0.0	0.0	0.0	0.008
4a3a	4atm	599	602	0.317	0.403	0.278	0.322
4a3a	4atm	600	603	0.771	0.871	0.771	0.871
4a3a	4atm	601	604	0.452	0.464	0.608	0.623
4a3a	4atm	602	605	0.0	0.0	0.0	0.0
4a3a	4atm	605	608	0.0	0.0	0.0	0.0
4a3a	4atm	606	609	0.0	0.0	0.0	0.0
4a3a	4atm	607	610	0.0	0.0	0.0	0.0
4a3a	4atm	608	611	0.252	0.293	0.192	0.178
4a3a	4atm	609	612	0.41	0.378	0.393	0.388
4a3a	4atm	611	614	0.0	0.0	0.047	0.041
4a3a	4atm	612	615	0.484	0.536	0.563	0.597
4a3a	4atm	613	616	0.9	0.95	0.933	0.95
4a3a	4atm	615	618	0.077	0.062	0.076	0.035
4a3a	4atm	616	619	0.063	0.062	0.044	0.035
4a3a	4atm	617	620	0.683	0.61	0.697	0.635
4a3a	4atm	618	621	0.007	0.006	0.077	0.083
4a3a	4atm	619	622	0.0	0.0	0.0	0.0
4a3a	4atm	620	623	0.0	0.0	0.0	0.0
4a3a	4atm	621	624	0.079	0.067	0.094	0.096
4a3a	4atm	622	625	0.583	0.507	0.606	0.567
4a3a	4atm	623	626	0.393	0.378	0.37	0.387
4a3a	4atm	624	627	0.66	0.86	0.632	0.853
4a3a	4atm	625	628	0.388	0.438	0.406	0.45
4a3a	4atm	626	629	0.465	0.463	0.461	0.462
4a3a	4atm	627	630	1.0	0	1.0	0
4a3a	4atm	628	631	0.0	0.0	0.0	0.0
4a3a	4atm	630	633	0.081	0.154	0.058	0.038
4a3a	4atm	631	634	0.071	0.065	0.065	0.062
4a3a	4atm	632	635	0.051	0.069	0.033	0.018
4a3a	4atm	634	637	0.468	0.522	0.478	0.523
4a3a	4atm	635	638	0.293	0.221	0.284	0.205
4a3a	4atm	638	641	0.126	0.124	0.172	0.255
4a3a	4atm	639	642	0.396	0.512	0.395	0.57
4a3a	4atm	640	643	0.0	0.0	0.0	0.0
4a3a	4atm	641	644	0.008	0.029	0.013	0.063
4a3a	4atm	642	645	0.02	0.014	0.01	0.009
4a3a	4atm	645	648	0.084	0.051	0.106	0.081
4a3a	4atm	646	649	0.485	0.553	0.506	0.541
4a3a	4atm	647	650	0.25	0.194	0.233	0.17
4a3a	4atm	648	651	0.0	0.0	0.0	0.0
4a3a	4atm	650	653	0.469	0.46	0.342	0.37
4a3a	4atm	652	655	0.074	0.06	0.074	0.069
4a3a	4atm	653	656	0.0	0.052	0.0	0.001
4a3a	4atm	654	657	0.0	0.0	0.0	0.0
4a3a	4atm	657	660	0.0	0.0	0.0	0.0
4a3a	4atm	658	661	0.811	0.844	0.816	0.844
4a3a	4atm	659	662	0.908	0.646	0.921	0.671
4a3a	4atm	660	663	0.824	0.811	0.812	0.815
4a3a	4atm	661	664	0.13	0.175	0.166	0.137
4a3a	4atm	663	666	0.744	0.731	0.736	0.725
4a3a	4atm	664	667	0.888	0.468	0.885	0.477
4a3a	4atm	665	668	0.504	0.488	0.513	0.501
4a3a	4atm	666	669	0.08	0.087	0.031	0.067
4a3a	4atm	667	670	0.8	0.84	0.807	0.84
4a3a	4atm	668	671	0.9	0.94	0.9	0.88
4a3a	4atm	669	672	0.0	0.0	0.0	0.0
4a3a	4atm	670	673	0.306	0.286	0.329	0.22
4a3a	4atm	671	674	0.331	0.343	0.328	0.358
4a3a	4atm	672	675	0.0	0.0	0.0	0.0
4a3a	4atm	673	676	0.032	0.043	0.01	0.01
4a3a	4atm	674	677	0.128	0.135	0.166	0.169
4a3a	4atm	675	678	0.693	0.668	0.692	0.797
4a3a	4atm	676	679	0.209	0.195	0.067	0.078
4a3a	4atm	677	680	0.008	0.026	0.0	0.089
4a3a	4atm	678	681	0.779	0.842	0.796	0.859
4a3a	4atm	680	683	0.274	0.289	0.282	0.28
4a3a	4atm	681	684	0.726	0.723	0.8	0.55
4a3a	4atm	682	685	0.216	0.198	0.236	0.343
4a3a	4atm	685	688	0.068	0.079	0.115	0.126
4a3a	4atm	686	689	0.034	0.013	0.024	0.044
4a3a	4atm	687	690	0.759	0.678	0.825	0.908
4a3a	4atm	688	691	0.612	0.607	0.644	0.62
4a3a	4atm	690	693	0.188	0.225	0.18	0.191
4a3a	4atm	691	694	0.729	0.512	0.69	0.473
4a3a	4atm	692	695	0.076	0.087	0.089	0.126
4a3a	4atm	694	697	0.0	0.0	0.0	0.0
4a3a	4atm	695	698	0.0	0.0	0.0	0.0
4a3a	4atm	696	699	0.0	0.0	0.0	0.0
4a3a	4atm	697	700	0.0	0.0	0.0	0.001
4a3a	4atm	698	701	0.606	0.68	0.663	0.682
4a3a	4atm	700	703	0.0	0.0	0.0	0.0
4a3a	4atm	701	704	0.85	0.861	0.863	0.9
4a3a	4atm	702	705	0.0	0.0	0.0	0.001
4a3a	4atm	704	707	0.193	0.203	0.224	0.245
4a3a	4atm	705	708	0.684	0.638	0.668	0.784
4a3a	4atm	706	709	0.33	0.363	0.387	0.429
4a3a	4atm	707	710	0.0	0.0	0.0	0.0
4a3a	4atm	708	711	0.039	0.067	0.055	0.053
4a3a	4atm	709	712	0.059	0.049	0.081	0.1
4a3a	4atm	710	713	0.0	0.0	0.0	0.0
4a3a	4atm	711	714	0.0	0.0	0.0	0.0
4a3a	4atm	712	715	0.555	0.516	0.478	0.477
4a3a	4atm	716	719	0.0	0.0	0.0	0.0
4a3a	4atm	717	720	0.262	0.251	0.258	0.266
4a3a	4atm	719	722	0.0	0.0	0.0	0.002
4a3a	4atm	721	724	0.0	0.0	0.0	0.0
4a3a	4atm	722	725	0.668	0.656	0.539	0.515
4a3a	4atm	724	727	0.0	0.0	0.0	0.0
4a3a	4atm	725	728	0.084	0.034	0.0	0.0
4a3a	4atm	726	729	0.0	0.0	0.0	0.0
4a3a	4atm	727	730	0.271	0.252	0.29	0.299
4a3a	4atm	728	731	0.541	0.563	0.516	0.565
4a3a	4atm	729	732	0.041	0.069	0.033	0.032
4a3a	4atm	730	733	0.0	0.0	0.0	0.0
4a3a	4atm	731	734	0.0	0.0	0.0	0.0
4a3a	4atm	732	735	0.415	0.428	0.533	0.476
4a3a	4atm	734	737	0.12	0.111	0.093	0.088
4a3a	4atm	735	738	0.0	0.0	0.0	0.0
4a3a	4atm	736	739	0.0	0.0	0.0	0.0
4a3a	4atm	737	740	0.0	0.0	0.0	0.0
4a3a	4atm	738	741	0.026	0.015	0.017	0.035
4a3a	4atm	739	742	0.0	0.049	0.0	0.031
4a3a	4atm	740	743	0.022	0.059	0.0	0.043
4a3a	4atm	742	745	0.344	0.349	0.333	0.31
4a3a	4atm	743	746	0.0	0.0	0.0	0.0
4a3a	4atm	744	747	0.841	0.928	0.845	0.928
4a3a	4atm	745	748	0.0	0.004	0.0	0.0
4a3a	4atm	747	750	0.0	0.0	0.0	0.0
4a3a	4atm	748	751	0.0	0.0	0.0	0.0
4a3a	4atm	749	752	0.007	0.082	0.033	0.03
4a3a	4atm	750	753	0.017	0.019	0.014	0.014
4a3a	4atm	751	754	0.039	0.057	0.033	0.072
4a3a	4atm	752	755	0.334	0.367	0.338	0.364
4a3a	4atm	753	756	0.303	0.392	0.279	0.324
4a3a	4atm	754	757	0.0	0.0	0.0	0.008
4a3a	4atm	755	758	0.289	0.251	0.304	0.315
4a3a	4atm	756	759	0.105	0.16	0.074	0.128
4a3a	4atm	757	760	0.528	0.545	0.56	0.535
4a3a	4atm	758	761	0.082	0.081	0.095	0.091
4a3a	4atm	759	762	0.761	0.489	0.767	0.489
4a3a	4atm	761	764	0.731	0.715	0.735	0.712
4a3a	4atm	762	765	0.428	0.443	0.377	0.374
4a3a	4atm	763	766	0.0	0.0	0.0	0.009
4a3a	4atm	764	767	0.0	0.0	0.0	0.0
4a3a	4atm	765	768	0.0	0.0	0.0	0.0
4a3a	4atm	766	769	0.321	0.274	0.339	0.302
4a3a	4atm	767	770	0.136	0.166	0.175	0.164
4a3a	4atm	768	771	0.0	0.0	0.0	0.0
4a3a	4atm	769	772	0.0	0.0	0.0	0.008
4a3a	4atm	770	773	0.278	0.424	0.245	0.278
4a3a	4atm	771	774	0.491	0.629	0.483	0.562
4a3a	4atm	773	776	0.171	0.169	0.141	0.153
4a3a	4atm	774	777	0.044	0.043	0.044	0.043
4a3a	4atm	775	778	0.318	0.369	0.359	0.4
4a3a	4atm	776	779	0.0	0.0	0.0	0.0
4a3a	4atm	777	780	0.84	0.908	0.811	0.79
4a3a	4atm	778	781	0.0	0.0	0.0	0.0
4a3a	4atm	779	782	0.0	0.0	0.0	0.0
4a3a	4atm	780	783	0.054	0.022	0.048	0.016
4a3a	4atm	781	784	0.049	0.09	0.04	0.084
4a3a	4atm	782	785	0.0	0.057	0.0	0.006
4a3a	4atm	783	786	0.0	0.0	0.0	0.0
4a3a	4atm	785	788	0.0	0.0	0.0	0.0
4a3a	4atm	786	789	0.209	0.198	0.184	0.171
4a3a	4atm	787	790	0.088	0.225	0.097	0.178
4a3a	4atm	788	791	0.701	0.866	0.71	0.662
4a3a	4atm	789	792	0.064	0.059	0.058	0.059
4a3a	4atm	790	793	0.003	0.012	0.004	0.011
4a3a	4atm	791	794	0.333	0.304	0.359	0.375
4a3a	4atm	792	795	0.499	0.547	0.491	0.523
4a3a	4atm	793	796	0.637	0.658	0.646	0.651
4a3a	4atm	794	797	0.026	0.025	0.023	0.018
4a3a	4atm	796	799	0.0	0.0	0.0	0.0
4a3a	4atm	797	800	0.08	0.078	0.129	0.135
4a3a	4atm	798	801	0.133	0.134	0.217	0.235
4a3a	4atm	799	802	0.817	0.896	0.811	0.789
4a3a	4atm	800	803	0.311	0.331	0.315	0.365
4a3a	4atm	801	804	0.0	0.0	0.0	0.0
4a3a	4atm	802	805	0.064	0.047	0.064	0.059
4a3a	4atm	803	806	0.0	0.0	0.0	0.0
4a3a	4atm	804	807	0.638	0.79	0.634	0.79
4a3a	4atm	805	808	0.095	0.072	0.074	0.075
4a3a	4atm	806	809	0.0	0.0	0.0	0.0
4a3a	4atm	807	810	0.585	0.6	0.51	0.52
4a3a	4atm	808	811	0.0	0.0	0.0	0.0
4a3a	4atm	809	812	0.0	0.0	0.0	0.0
4a3a	4atm	810	813	0.0	0.0	0.0	0.0
4a3a	4atm	811	814	0.0	0.0	0.0	0.0
4a3a	4atm	812	815	0.061	0.159	0.058	0.187
4a3a	4atm	813	816	0.024	0.067	0.022	0.031
4a3a	4atm	814	817	0.026	0.042	0.015	0.047
4a3a	4atm	815	818	0.27	0.265	0.264	0.277
4a3a	4atm	816	819	0.005	0.012	0.0	0.003
4a3a	4atm	817	820	0.388	0.417	0.397	0.421
4a3a	4atm	822	825	0.0	0.0	0.0	0.0
4a3a	4atm	823	826	0.0	0.0	0.0	0.0
4a3a	4atm	824	827	0.0	0.0	0.0	0.0
4a3a	4atm	826	829	0.294	0.493	0.339	0.554
4a3a	4atm	827	830	0.737	0.887	0.759	0.852
4a3a	4atm	829	832	0.798	0.772	0.793	0.762
