pred	succ	p-cen	s-cen	p_q-score	p_s-score	s_q-score	s_s-score
2hq2	4cdp	12	13	0.401	0.354	0.438	0.392
2hq2	4cdp	13	14	1.0	0	1.0	0.9
2hq2	4cdp	14	15	0.0	0.0	0.0	0.0
2hq2	4cdp	15	16	0.696	0.573	0.71	0.856
2hq2	4cdp	16	17	0.015	0.035	0.018	0.017
2hq2	4cdp	17	18	1.0	0	1.0	0
2hq2	4cdp	18	19	0.0	0.0	0.004	0.004
2hq2	4cdp	19	20	0.0	0.0	0.0	0.0
2hq2	4cdp	21	22	0.0	0.0	0.0	0.0
2hq2	4cdp	22	23	0.0	0.0	0.0	0.0
2hq2	4cdp	23	24	0.027	0.046	0.036	0.113
2hq2	4cdp	24	25	0.69	0.731	0.693	0.731
2hq2	4cdp	25	26	0.015	0.013	0.058	0.089
2hq2	4cdp	26	27	0.0	0.0	0.0	0.0
2hq2	4cdp	28	29	0.952	0.991	0.951	0.992
2hq2	4cdp	29	30	0.0	0.0	0.0	0.0
2hq2	4cdp	30	31	0.0	0.0	0.0	0.0
2hq2	4cdp	31	32	0.0	0.0	0.0	0.0
2hq2	4cdp	32	33	0.16	0.154	0.104	0.117
2hq2	4cdp	33	34	0.006	0.007	0.014	0.023
2hq2	4cdp	34	35	0.022	0.014	0.0	0.0
2hq2	4cdp	35	36	0.0	0.0	0.0	0.0
2hq2	4cdp	40	41	0.0	0.0	0.0	0.0
2hq2	4cdp	41	42	0.265	0.29	0.28	0.336
2hq2	4cdp	42	43	0.247	0.279	0.357	0.3
2hq2	4cdp	43	44	0.245	0.236	0.221	0.284
2hq2	4cdp	46	47	0.049	0.012	0.061	0.09
2hq2	4cdp	47	48	0.807	0.768	0.8	0.663
2hq2	4cdp	48	49	0.78	0.593	0.776	0.561
2hq2	4cdp	50	51	0.0	0.0	0.0	0.0
2hq2	4cdp	53	54	0.0	0.0	0.0	0.0
2hq2	4cdp	54	55	0.0	0.01	0.0	0.0
2hq2	4cdp	64	65	0.069	0.084	0.0	0.001
2hq2	4cdp	65	66	0.204	0.175	0.008	0.017
2hq2	4cdp	68	69	0.597	0.556	0.634	0.773
2hq2	4cdp	69	70	0.815	0.687	0.818	0.942
2hq2	4cdp	70	71	0.8	0.5	0.85	1.0
2hq2	4cdp	71	72	1.0	0	1.0	0
2hq2	4cdp	72	73	0.487	0.427	0.478	0.338
2hq2	4cdp	73	74	0.744	0.95	0.759	0.951
2hq2	4cdp	74	75	0.106	0.099	0.166	0.165
2hq2	4cdp	75	76	0.442	0.552	0.465	0.569
2hq2	4cdp	76	77	0.524	0.54	0.537	0.633
2hq2	4cdp	77	78	0.804	0.877	0.887	0.939
2hq2	4cdp	81	82	0.147	0.154	0.26	0.244
2hq2	4cdp	83	84	0.005	0.003	0.0	0.001
2hq2	4cdp	84	85	0.388	0.444	0.293	0.475
2hq2	4cdp	86	87	0.756	0.741	0.795	0.911
2hq2	4cdp	87	88	0.499	0.62	0.294	0.261
2hq2	4cdp	89	90	0.006	0.002	0.0	0.0
2hq2	4cdp	90	91	0.0	0.0	0.0	0.0
2hq2	4cdp	94	95	0.295	0.291	0.275	0.272
2hq2	4cdp	95	96	0.055	0.053	0.037	0.05
2hq2	4cdp	96	97	0.268	0.365	0.233	0.385
2hq2	4cdp	97	98	0.745	0.759	0.737	0.828
2hq2	4cdp	98	99	0.006	0.008	0.014	0.007
2hq2	4cdp	99	100	0.793	0.772	0.864	0.868
2hq2	4cdp	100	101	0.436	0.427	0.501	0.52
2hq2	4cdp	101	102	0.072	0.04	0.083	0.073
2hq2	4cdp	102	103	0.0	0.001	0.0	0.0
2hq2	4cdp	103	104	0.328	0.316	0.31	0.391
2hq2	4cdp	104	105	0.264	0.416	0.253	0.252
2hq2	4cdp	105	106	0.741	0.79	0.728	0.79
2hq2	4cdp	106	107	0.214	0.278	0.197	0.27
2hq2	4cdp	108	109	0.484	0.511	0.504	0.548
2hq2	4cdp	109	110	0.739	0.64	0.739	0.631
2hq2	4cdp	110	111	0.0	0.0	0.0	0.0
2hq2	4cdp	112	113	0.812	0.697	0.836	0.832
2hq2	4cdp	113	114	0.339	0.307	0.35	0.413
2hq2	4cdp	114	115	0.009	0.011	0.0	0.006
2hq2	4cdp	115	116	0.77	0.943	0.786	0.769
2hq2	4cdp	116	117	0.0	0.0	0.0	0.0
2hq2	4cdp	117	118	0.06	0.066	0.079	0.047
2hq2	4cdp	118	119	0.201	0.264	0.197	0.259
2hq2	4cdp	119	120	0.785	0.758	0.788	0.745
2hq2	4cdp	120	121	0.18	0.23	0.242	0.25
2hq2	4cdp	121	122	0.0	0.0	0.0	0.0
2hq2	4cdp	125	126	0.449	0.454	0.409	0.436
2hq2	4cdp	126	127	0.513	0.743	0.508	0.743
2hq2	4cdp	127	128	0.708	0.694	0.757	0.832
2hq2	4cdp	130	131	0.535	0.587	0.509	0.487
2hq2	4cdp	132	133	0.364	0.422	0.257	0.28
2hq2	4cdp	133	134	0.149	0.223	0.091	0.119
2hq2	4cdp	134	135	0.316	0.376	0.336	0.4
2hq2	4cdp	135	136	0.85	0.817	0.85	0.817
2hq2	4cdp	136	137	0.15	0.166	0.185	0.226
2hq2	4cdp	137	138	0.255	0.246	0.252	0.458
2hq2	4cdp	138	139	0.617	0.817	0.639	0.476
2hq2	4cdp	139	140	0.552	0.644	0.517	0.72
2hq2	4cdp	140	141	0.0	0.0	0.0	0.0
2hq2	4cdp	141	142	0.782	0.685	0.787	0.683
2hq2	4cdp	142	143	0.678	0.571	0.68	0.576
2hq2	4cdp	143	144	0.578	0.472	0.577	0.506
2hq2	4cdp	144	145	0.365	0.448	0.361	0.335
2hq2	4cdp	146	147	0.676	0.734	0.669	0.636
2hq2	4cdp	147	148	0.897	0.812	0.903	0.952
2hq2	4cdp	148	149	0.49	0.573	0.488	0.52
2hq2	4cdp	149	150	0.311	0.249	0.29	0.229
2hq2	4cdp	150	151	0.594	0.772	0.608	0.666
2hq2	4cdp	151	152	0.579	0.652	0.576	0.831
2hq2	4cdp	152	153	0.197	0.231	0.181	0.239
2hq2	4cdp	153	154	1.0	0	1.0	0
2hq2	4cdp	154	155	0.03	0.09	0.024	0.017
2hq2	4cdp	155	156	0.307	0.3	0.35	0.528
2hq2	4cdp	156	157	0.832	0.907	0.839	0.77
2hq2	4cdp	158	159	0.57	0.535	0.559	0.581
2hq2	4cdp	159	160	0.0	0.002	0.0	0.0
2hq2	4cdp	160	161	0.274	0.391	0.235	0.327
2hq2	4cdp	161	162	0.374	0.357	0.365	0.405
2hq2	4cdp	162	163	0.634	0.509	0.64	0.531
2hq2	4cdp	163	164	0.508	0.663	0.509	0.664
2hq2	4cdp	164	165	0.907	0.848	0.902	0.845
2hq2	4cdp	165	166	0.419	0.409	0.429	0.435
2hq2	4cdp	166	167	0.3	0.279	0.377	0.381
2hq2	4cdp	167	168	0.228	0.223	0.19	0.193
2hq2	4cdp	168	169	0.096	0.098	0.117	0.137
2hq2	4cdp	169	170	0.38	0.488	0.398	0.514
2hq2	4cdp	170	171	0.136	0.223	0.13	0.215
2hq2	4cdp	171	172	0.447	0.465	0.448	0.533
2hq2	4cdp	172	173	0.317	0.425	0.309	0.268
2hq2	4cdp	173	174	0.127	0.126	0.172	0.12
2hq2	4cdp	174	175	0.73	0.685	0.791	0.719
2hq2	4cdp	175	176	0.27	0.305	0.272	0.286
2hq2	4cdp	176	177	0.534	0.59	0.506	0.554
2hq2	4cdp	177	178	0.499	0.495	0.47	0.496
2hq2	4cdp	178	179	0.019	0.015	0.01	0.007
2hq2	4cdp	179	180	0.796	0.689	0.8	0.69
2hq2	4cdp	181	182	0.054	0.047	0.066	0.061
2hq2	4cdp	182	183	0.0	0.002	0.0	0.005
2hq2	4cdp	183	184	0.0	0.0	0.0	0.0
2hq2	4cdp	184	185	0.688	0.762	0.7	0.675
2hq2	4cdp	185	186	0.689	0.589	0.678	0.426
2hq2	4cdp	186	187	0.88	0.885	0.915	0.89
2hq2	4cdp	187	188	0.0	0.0	0.0	0.0
2hq2	4cdp	188	189	0.015	0.013	0.0	0.0
2hq2	4cdp	189	190	0.215	0.24	0.068	0.117
2hq2	4cdp	190	191	0.3	0.374	0.309	0.363
2hq2	4cdp	191	192	0.746	0.549	0.754	0.561
2hq2	4cdp	192	193	0.119	0.162	0.117	0.162
2hq2	4cdp	193	194	0.767	0.883	0.732	0.746
2hq2	4cdp	194	195	0.207	0.333	0.219	0.281
2hq2	4cdp	195	196	0.051	0.196	0.059	0.263
2hq2	4cdp	196	197	0.004	0.012	0.002	0.012
2hq2	4cdp	197	198	0.04	0.063	0.046	0.066
2hq2	4cdp	198	199	0.104	0.125	0.147	0.146
2hq2	4cdp	199	200	0.034	0.07	0.033	0.062
2hq2	4cdp	200	201	0.0	0.001	0.002	0.0
2hq2	4cdp	201	202	0.453	0.607	0.445	0.627
2hq2	4cdp	202	203	0.185	0.234	0.19	0.155
2hq2	4cdp	203	204	0.249	0.19	0.228	0.189
2hq2	4cdp	204	205	0.461	0.483	0.415	0.42
2hq2	4cdp	205	206	0.125	0.428	0.136	0.038
2hq2	4cdp	206	207	0.464	0.56	0.557	0.537
2hq2	4cdp	207	208	0.586	0.804	0.594	0.678
2hq2	4cdp	208	209	0.608	0.538	0.647	0.732
2hq2	4cdp	209	210	0.471	0.52	0.482	0.574
2hq2	4cdp	210	211	0.255	0.213	0.215	0.359
2hq2	4cdp	211	212	0.906	0.985	0.878	0.666
2hq2	4cdp	212	213	0.475	0.477	0.455	0.504
2hq2	4cdp	213	214	0.334	0.4	0.348	0.265
2hq2	4cdp	215	216	0.869	0.965	0.861	0.967
2hq2	4cdp	216	217	0.055	0.078	0.009	0.011
2hq2	4cdp	217	218	0.253	0.272	0.251	0.272
2hq2	4cdp	218	219	0.185	0.323	0.207	0.371
2hq2	4cdp	219	220	0.507	0.586	0.516	0.584
2hq2	4cdp	220	221	0.375	0.413	0.353	0.34
2hq2	4cdp	221	222	0.0	0.019	0.0	0.01
2hq2	4cdp	222	223	0.056	0.069	0.051	0.051
2hq2	4cdp	223	224	0.108	0.229	0.091	0.143
2hq2	4cdp	224	225	0.143	0.258	0.112	0.142
2hq2	4cdp	226	227	0.44	0.432	0.442	0.432
2hq2	4cdp	227	228	0.768	0.728	0.774	0.728
2hq2	4cdp	228	229	0.593	0.746	0.601	0.747
2hq2	4cdp	229	230	0.065	0.069	0.064	0.074
2hq2	4cdp	230	231	0.006	0.003	0.0	0.004
2hq2	4cdp	231	232	0.0	0.0	0.0	0.0
2hq2	4cdp	232	233	0.317	0.271	0.333	0.34
2hq2	4cdp	233	234	0.451	0.38	0.454	0.383
2hq2	4cdp	234	235	0.006	0.019	0.017	0.021
2hq2	4cdp	235	236	0.505	0.554	0.501	0.554
2hq2	4cdp	236	237	0.289	0.295	0.274	0.129
2hq2	4cdp	237	238	0.338	0.231	0.347	0.265
2hq2	4cdp	239	240	0.401	0.422	0.442	0.566
2hq2	4cdp	240	241	0.779	0.78	0.782	0.78
2hq2	4cdp	241	242	0.329	0.309	0.291	0.382
2hq2	4cdp	242	243	0.887	0.934	0.877	0.923
2hq2	4cdp	243	244	0.569	0.579	0.563	0.574
2hq2	4cdp	244	245	0.0	0.006	0.0	0.0
2hq2	4cdp	245	246	0.191	0.297	0.188	0.237
2hq2	4cdp	246	247	0.626	0.564	0.702	0.731
2hq2	4cdp	247	248	0.887	0.954	0.929	0.906
2hq2	4cdp	248	249	0.858	0.835	0.888	0.744
2hq2	4cdp	249	250	0.274	0.341	0.275	0.299
2hq2	4cdp	250	251	0.234	0.183	0.283	0.252
2hq2	4cdp	251	252	0.83	0.626	0.83	0.626
2hq2	4cdp	252	253	0.566	0.604	0.604	0.634
2hq2	4cdp	253	254	0.495	0.639	0.516	0.688
2hq2	4cdp	254	255	0.523	0.505	0.504	0.569
2hq2	4cdp	256	257	0.457	0.34	0.44	0.64
2hq2	4cdp	257	258	0.264	0.242	0.338	0.343
2hq2	4cdp	258	259	0.855	0.849	0.802	0.872
2hq2	4cdp	259	260	0.779	0.779	0.779	0.779
2hq2	4cdp	260	261	0.372	0.412	0.447	0.462
2hq2	4cdp	261	262	0.554	0.555	0.532	0.575
2hq2	4cdp	262	263	0.156	0.186	0.131	0.158
2hq2	4cdp	263	264	0.538	0.496	0.531	0.494
2hq2	4cdp	264	265	0.165	0.154	0.143	0.161
2hq2	4cdp	265	266	0.4	0.48	0.373	0.53
2hq2	4cdp	266	267	0.649	0.629	0.602	0.587
2hq2	4cdp	267	268	0.82	0.867	0.844	0.926
2hq2	4cdp	268	269	0.265	0.094	0.274	0.315
2hq2	4cdp	269	270	0.0	0.0	0.0	0.0
2hq2	4cdp	270	271	0.157	0.242	0.149	0.257
2hq2	4cdp	271	272	0.193	0.253	0.223	0.214
2hq2	4cdp	272	273	0.45	0.371	0.534	0.45
2hq2	4cdp	273	274	0.009	0.019	0.0	0.0
2hq2	4cdp	274	275	0.389	0.491	0.42	0.536
2hq2	4cdp	276	277	0.019	0.063	0.013	0.056
2hq2	4cdp	277	278	0.49	0.568	0.486	0.504
2hq2	4cdp	278	279	0.721	0.667	0.763	0.742
2hq2	4cdp	279	280	0.96	1.0	0.96	1.0
2hq2	4cdp	280	281	0.205	0.451	0.185	0.289
2hq2	4cdp	281	282	0.183	0.161	0.177	0.161
2hq2	4cdp	282	283	0.013	0.028	0.0	0.024
2hq2	4cdp	283	284	0.19	0.335	0.188	0.335
2hq2	4cdp	284	285	0.146	0.239	0.151	0.156
2hq2	4cdp	285	286	0.838	0.899	0.848	0.902
2hq2	4cdp	286	287	0.64	0.765	0.653	0.761
2hq2	4cdp	287	288	0.712	0.709	0.7	0.69
2hq2	4cdp	288	289	0.237	0.285	0.212	0.309
2hq2	4cdp	289	290	0.291	0.437	0.299	0.489
2hq2	4cdp	290	291	0.681	0.543	0.7	0.824
2hq2	4cdp	291	292	0.259	0.305	0.241	0.299
2hq2	4cdp	292	293	0.797	0.849	0.815	0.864
2hq2	4cdp	293	294	0.015	0.008	0.041	0.051
2hq2	4cdp	294	295	0.0	0.003	0.0	0.022
2hq2	4cdp	295	296	0.043	0.148	0.054	0.07
2hq2	4cdp	296	297	0.109	0.158	0.139	0.182
2hq2	4cdp	297	298	0.172	0.216	0.219	0.363
2hq2	4cdp	299	300	0.879	0.85	0.831	0.899
2hq2	4cdp	300	301	0.888	0.836	0.888	0.837
2hq2	4cdp	301	302	0.99	0.83	1.0	0.9
2hq2	4cdp	302	303	0.947	0.5	0.944	0.507
2hq2	4cdp	304	305	0.717	0.889	0.64	0.813
2hq2	4cdp	307	308	0.072	0.082	0.083	0.05
2hq2	4cdp	308	309	0.0	0.204	0.0	0.203
2hq2	4cdp	309	310	0.275	0.213	0.258	0.409
2hq2	4cdp	310	311	0.456	0.562	0.407	0.435
2hq2	4cdp	311	312	0.269	0.237	0.254	0.208
2hq2	4cdp	312	313	0.18	0.119	0.167	0.12
2hq2	4cdp	313	314	0.0	0.001	0.0	0.001
2hq2	4cdp	316	317	0.302	0.383	0.287	0.298
2hq2	4cdp	317	318	0.026	0.024	0.044	0.061
2hq2	4cdp	318	319	0.002	0.099	0.014	0.084
2hq2	4cdp	319	320	0.091	0.237	0.073	0.21
2hq2	4cdp	320	321	0.283	0.241	0.237	0.188
2hq2	4cdp	321	322	0.253	0.239	0.277	0.346
2hq2	4cdp	322	323	0.43	0.557	0.439	0.501
2hq2	4cdp	323	324	0.614	0.665	0.624	0.693
2hq2	4cdp	324	325	0.411	0.653	0.394	0.554
2hq2	4cdp	325	326	0.674	0.754	0.655	0.743
2hq2	4cdp	326	327	0.744	0.5	0.65	0.425
2hq2	4cdp	327	328	0.436	0.402	0.472	0.601
2hq2	4cdp	328	329	0.387	0.382	0.426	0.42
2hq2	4cdp	329	330	0.759	0.737	0.76	0.74
2hq2	4cdp	330	331	0.658	0.696	0.68	0.776
2hq2	4cdp	332	333	0.272	0.294	0.233	0.186
2hq2	4cdp	333	334	0.0	0.007	0.0	0.001
2hq2	4cdp	334	335	0.06	0.07	0.063	0.067
2hq2	4cdp	335	336	0.23	0.2	0.216	0.358
2hq2	4cdp	336	337	0.408	0.513	0.409	0.515
2hq2	4cdp	337	338	0.0	0.0	0.0	0.0
2hq2	4cdp	338	339	0.572	0.641	0.57	0.654
2hq2	4cdp	339	340	0.702	0.775	0.696	0.771
2hq2	4cdp	340	341	0.0	0.001	0.0	0.003
2hq2	4cdp	341	342	0.008	0.022	0.006	0.01
2hq2	4cdp	342	343	0.0	0.0	0.0	0.0
2hq2	4cdp	343	344	0.0	0.022	0.0	0.047
2hq2	4cdp	344	345	0.279	0.37	0.267	0.346
2hq2	4cdp	345	346	0.0	0.0	0.0	0.0
2hq2	4cdp	347	348	0.794	0.75	0.77	0.829
2hq2	4cdp	348	349	0.854	0.918	0.84	0.92
2hq2	4cdp	349	350	0.0	0.0	0.0	0.0
2hq2	4cdp	350	351	0.0	0.0	0.0	0.0
2hq2	4cdp	351	352	0.0	0.066	0.0	0.081
2hq2	4cdp	353	354	0.282	0.432	0.297	0.358
2hq2	4cdp	354	355	0.272	0.291	0.282	0.182
2hq2	4cdp	355	356	0.526	0.625	0.45	0.521
2hq2	4cdp	356	357	0.558	0.583	0.548	0.583
2hq2	4cdp	357	358	0.0	0.0	0.0	0.0
2hq2	4cdp	358	359	0.0	0.0	0.0	0.0
2hq2	4cdp	359	360	0.0	0.0	0.0	0.0
2hq2	4cdp	360	361	0.216	0.283	0.225	0.336
2hq2	4cdp	361	362	0.295	0.423	0.291	0.418
2hq2	4cdp	362	363	0.044	0.045	0.068	0.074
2hq2	4cdp	363	364	0.632	0.596	0.688	0.667
2hq2	4cdp	364	365	0.647	0.648	0.674	0.915
2hq2	4cdp	367	368	0.574	0.736	0.628	0.746
2hq2	4cdp	368	369	0.59	0.792	0.625	0.671
2hq2	4cdp	369	370	0.657	0.657	0.634	0.38
2hq2	4cdp	370	371	0.735	0.778	0.698	0.811
2hq2	4cdp	371	372	0.865	0.897	0.875	0.896
2hq2	4cdp	372	373	0.543	0.617	0.574	0.547
2hq2	4cdp	373	374	0.665	0.648	0.649	0.648
2hq2	4cdp	374	375	0.02	0.052	0.028	0.039
2hq2	4cdp	376	377	0.528	0.565	0.28	0.289
2hq2	4cdp	378	379	0.304	0.259	0.358	0.426
2hq2	4cdp	379	380	0.698	0.824	0.668	0.788
2hq2	4cdp	380	381	0.086	0.103	0.102	0.166
2hq2	4cdp	381	382	0.837	0.873	0.893	0.894
2hq2	4cdp	382	383	0.443	0.459	0.451	0.511
2hq2	4cdp	383	384	0.886	0.471	0.9	0.471
2hq2	4cdp	384	385	0.584	0.574	0.55	0.551
2hq2	4cdp	385	386	0.383	0.59	0.392	0.465
2hq2	4cdp	386	387	0.033	0.041	0.058	0.061
2hq2	4cdp	387	388	0.287	0.33	0.233	0.268
2hq2	4cdp	388	389	0.064	0.158	0.076	0.094
2hq2	4cdp	389	390	0.025	0.053	0.07	0.085
2hq2	4cdp	390	391	0.723	0.787	0.704	0.79
2hq2	4cdp	391	392	0.175	0.155	0.156	0.221
2hq2	4cdp	392	393	0.015	0.037	0.008	0.109
2hq2	4cdp	393	394	0.219	0.33	0.232	0.486
2hq2	4cdp	394	395	0.16	0.284	0.132	0.238
2hq2	4cdp	395	396	0.136	0.175	0.162	0.271
2hq2	4cdp	396	397	0.224	0.32	0.228	0.285
2hq2	4cdp	398	399	0.466	0.561	0.465	0.626
2hq2	4cdp	399	400	0.296	0.417	0.28	0.283
2hq2	4cdp	401	402	0.0	0.0	0.0	0.0
2hq2	4cdp	403	404	0.582	0.412	0.504	0.324
2hq2	4cdp	404	405	0.163	0.162	0.166	0.174
2hq2	4cdp	405	406	0.117	0.27	0.076	0.317
2hq2	4cdp	406	407	0.097	0.096	0.082	0.119
2hq2	4cdp	407	408	0.082	0.084	0.272	0.258
2hq2	4cdp	408	409	0.858	0.894	0.842	0.896
2hq2	4cdp	409	410	0.91	0.871	0.826	0.848
2hq2	4cdp	410	411	0.798	0.826	0.766	0.78
2hq2	4cdp	411	412	0.77	0.67	0.795	0.66
2hq2	4cdp	412	413	0.463	0.683	0.468	0.691
2hq2	4cdp	413	414	1.0	1.0	1.0	0
2hq2	4cdp	415	416	0.0	0.014	0.0	0.0
2hq2	4cdp	419	420	0.092	0.134	0.035	0.071
2hq2	4cdp	420	421	0.707	0.372	0.682	0.547
2hq2	4cdp	421	422	0.177	0.167	0.13	0.152
2hq2	4cdp	422	423	0.625	0.578	0.638	0.639
2hq2	4cdp	423	424	0.278	0.238	0.209	0.244
2hq2	4cdp	424	425	0.752	0.76	0.748	0.76
2hq2	4cdp	425	426	0.0	0.015	0.0	0.008
2hq2	4cdp	426	427	0.82	0.68	0.82	0.68
2hq2	4cdp	428	429	0.474	0.471	0.415	0.652
2hq2	4cdp	429	430	0.871	0.986	0.887	0.988
2hq2	4cdp	430	431	0.0	0.0	0.0	0.0
2hq2	4cdp	431	432	0.286	0.309	0.288	0.309
2hq2	4cdp	432	433	0.0	0.007	0.003	0.007
2hq2	4cdp	433	434	0.391	0.452	0.41	0.438
2hq2	4cdp	434	435	0.138	0.211	0.127	0.219
2hq2	4cdp	435	436	0.0	0.0	0.0	0.0
2hq2	4cdp	436	437	0.272	0.349	0.289	0.386
2hq2	4cdp	437	438	0.354	0.467	0.371	0.423
2hq2	4cdp	438	439	0.572	0.724	0.57	0.726
2hq2	4cdp	439	440	0.285	0.277	0.246	0.236
2hq2	4cdp	440	441	0.276	0.299	0.274	0.262
2hq2	4cdp	441	442	0.285	0.319	0.308	0.328
2hq2	4cdp	442	443	0.458	0.579	0.338	0.387
2hq2	4cdp	443	444	0.178	0.239	0.192	0.302
2hq2	4cdp	444	445	0.669	0.771	0.636	0.66
2hq2	4cdp	445	446	0.488	0.542	0.426	0.434
2hq2	4cdp	449	450	0.755	0.741	0.815	0.646
2hq2	4cdp	450	451	0.486	0.395	0.438	0.206
2hq2	4cdp	454	455	0.576	0.394	0.875	0.875
2hq2	4cdp	458	459	0.555	0.623	0.581	0.605
2hq2	4cdp	459	460	0.477	0.438	0.477	0.438
2hq2	4cdp	460	461	0.625	0.755	0.638	0.492
2hq2	4cdp	461	462	0.0	0.0	0.0	0.0
2hq2	4cdp	465	466	0.0	0.005	0.0	0.0
2hq2	4cdp	466	467	0.316	0.339	0.339	0.545
2hq2	4cdp	467	468	0.224	0.274	0.223	0.352
2hq2	4cdp	468	469	0.162	0.228	0.203	0.268
2hq2	4cdp	469	470	0.423	0.561	0.428	0.507
2hq2	4cdp	470	471	0.616	0.612	0.685	0.641
2hq2	4cdp	471	472	0.146	0.159	0.159	0.152
2hq2	4cdp	472	473	0.0	0.009	0.0	0.0
2hq2	4cdp	473	474	0.486	0.667	0.468	0.675
2hq2	4cdp	474	475	0.233	0.314	0.257	0.367
2hq2	4cdp	475	476	0.738	0.863	0.707	0.853
2hq2	4cdp	476	477	0.068	0.067	0.043	0.023
2hq2	4cdp	477	478	0.655	0.633	0.658	0.659
2hq2	4cdp	478	479	0.596	0.623	0.598	0.62
2hq2	4cdp	479	480	0.031	0.03	0.036	0.029
2hq2	4cdp	480	481	0.795	0.797	0.875	0.987
2hq2	4cdp	481	482	0.48	0.596	0.444	0.541
2hq2	4cdp	482	483	0.635	0.717	0.61	0.669
2hq2	4cdp	483	484	0.9	0.0	0.9	0.0
2hq2	4cdp	484	485	0.086	0.094	0.125	0.15
2hq2	4cdp	485	486	0.98	1.0	0.983	1.0
2hq2	4cdp	486	487	0.171	0.165	0.125	0.12
2hq2	4cdp	487	488	0.081	0.13	0.075	0.111
2hq2	4cdp	488	489	0.458	0.529	0.514	0.6
2hq2	4cdp	489	490	0.29	0.258	0.299	0.288
2hq2	4cdp	490	491	0.17	0.185	0.146	0.163
2hq2	4cdp	491	492	0.548	0.534	0.487	0.487
2hq2	4cdp	492	493	0.471	0.452	0.467	0.452
2hq2	4cdp	493	494	0.051	0.039	0.052	0.046
2hq2	4cdp	494	495	0.61	0.599	0.624	0.661
2hq2	4cdp	495	496	0.621	0.595	0.602	0.614
2hq2	4cdp	496	497	0.203	0.179	0.191	0.205
2hq2	4cdp	497	498	0.091	0.085	0.065	0.052
2hq2	4cdp	498	499	0.362	0.374	0.374	0.607
2hq2	4cdp	499	500	0.466	0.379	0.458	0.425
2hq2	4cdp	500	501	0.1	0.11	0.138	0.143
2hq2	4cdp	501	502	0.806	0.707	0.78	0.912
2hq2	4cdp	502	503	0.088	0.091	0.084	0.088
2hq2	4cdp	503	504	0.06	0.057	0.0	0.0
2hq2	4cdp	504	505	0.487	0.503	0.469	0.527
2hq2	4cdp	505	506	0.074	0.123	0.072	0.154
2hq2	4cdp	506	507	0.482	0.671	0.478	0.726
2hq2	4cdp	508	509	0.211	0.211	0.211	0.212
2hq2	4cdp	509	510	0.054	0.057	0.028	0.018
2hq2	4cdp	510	511	0.819	0.902	0.822	0.901
2hq2	4cdp	511	512	0.63	0.601	0.593	0.586
2hq2	4cdp	512	513	0.659	0.686	0.663	0.691
2hq2	4cdp	513	514	0.847	0.865	0.846	0.862
2hq2	4cdp	514	515	0.015	0.016	0.0	0.0
2hq2	4cdp	515	516	0.069	0.067	0.038	0.028
2hq2	4cdp	516	517	0.587	0.482	0.688	0.676
2hq2	4cdp	517	518	0.095	0.096	0.188	0.178
2hq2	4cdp	518	519	0.0	0.0	0.0	0.0
2hq2	4cdp	519	520	0.16	0.152	0.136	0.139
2hq2	4cdp	520	521	0.098	0.108	0.031	0.033
2hq2	4cdp	521	522	0.0	0.0	0.0	0.0
2hq2	4cdp	522	523	0.0	0.0	0.0	0.0
2hq2	4cdp	523	524	0.702	0.65	0.702	0.513
2hq2	4cdp	524	525	0.317	0.442	0.339	0.427
2hq2	4cdp	525	526	0.191	0.149	0.217	0.338
2hq2	4cdp	526	527	0.646	0.827	0.649	0.683
2hq2	4cdp	527	528	0.0	0.0	0.0	0.0
2hq2	4cdp	528	529	0.011	0.024	0.019	0.035
2hq2	4cdp	530	531	0.795	0.834	0.793	0.832
2hq2	4cdp	532	533	0.0	0.0	0.0	0.0
2hq2	4cdp	533	534	0.0	0.0	0.0	0.0
2hq2	4cdp	534	535	0.0	0.0	0.0	0.0
2hq2	4cdp	535	536	0.017	0.03	0.02	0.031
2hq2	4cdp	537	538	0.418	0.288	0.42	0.392
2hq2	4cdp	538	539	0.591	0.564	0.612	0.722
2hq2	4cdp	539	540	0.093	0.16	0.086	0.108
2hq2	4cdp	540	541	0.0	0.0	0.0	0.0
2hq2	4cdp	541	542	0.138	0.143	0.22	0.213
2hq2	4cdp	542	543	0.337	0.356	0.35	0.425
2hq2	4cdp	543	544	0.268	0.257	0.291	0.253
2hq2	4cdp	544	545	0.581	0.64	0.574	0.692
2hq2	4cdp	545	546	0.164	0.208	0.149	0.221
2hq2	4cdp	546	547	0.252	0.314	0.235	0.293
2hq2	4cdp	547	548	0.104	0.123	0.028	0.035
2hq2	4cdp	548	549	0.167	0.159	0.165	0.16
2hq2	4cdp	549	550	0.172	0.182	0.302	0.325
2hq2	4cdp	550	551	0.626	0.574	0.587	0.559
2hq2	4cdp	551	552	0.727	0.588	0.756	0.784
2hq2	4cdp	552	553	0.631	0.574	0.691	0.719
2hq2	4cdp	553	554	0.401	0.609	0.439	0.325
2hq2	4cdp	554	555	0.0	0.033	0.0	0.003
2hq2	4cdp	555	556	0.724	0.642	0.76	0.82
2hq2	4cdp	556	557	0.0	0.0	0.0	0.0
2hq2	4cdp	557	558	0.642	0.626	0.653	0.71
2hq2	4cdp	558	559	0.777	0.663	0.78	0.658
2hq2	4cdp	560	561	0.503	0.509	0.508	0.509
2hq2	4cdp	562	563	0.397	0.559	0.405	0.559
2hq2	4cdp	564	565	0.197	0.164	0.089	0.124
2hq2	4cdp	565	566	0.136	0.133	0.142	0.091
2hq2	4cdp	570	571	0.42	0.31	0.412	0.595
2hq2	4cdp	572	573	0.664	0.72	0.656	0.764
2hq2	4cdp	573	574	0.06	0.072	0.027	0.028
2hq2	4cdp	576	577	0.031	0.077	0.052	0.134
2hq2	4cdp	577	578	0.426	0.287	0.461	0.475
2hq2	4cdp	578	579	0.591	0.692	0.591	0.643
2hq2	4cdp	579	580	0.073	0.111	0.106	0.128
2hq2	4cdp	580	581	0.0	0.005	0.0	0.0
2hq2	4cdp	581	582	0.0	0.016	0.0	0.011
2hq2	4cdp	582	583	0.146	0.228	0.158	0.153
2hq2	4cdp	583	584	0.0	0.008	0.0	0.004
2hq2	4cdp	587	588	0.978	0.756	0.731	0.73
2hq2	4cdp	594	598	0.757	0.687	0.839	0.806
2hq2	4cdp	597	601	0.745	0.662	0.203	0.191
2hq2	4cdp	598	602	0.431	0.439	0.424	0.453
2hq2	4cdp	599	603	0.882	0.857	0.921	0.911
2hq2	4cdp	601	605	0.0	0.0	0.0	0.0
2hq2	4cdp	602	606	0.73	0.708	0.697	0.654
2hq2	4cdp	603	607	0.019	0.018	0.039	0.039
2hq2	4cdp	604	608	0.321	0.306	0.249	0.241
2hq2	4cdp	605	609	0.0	0.0	0.0	0.0
2hq2	4cdp	606	610	0.095	0.083	0.079	0.076
2hq2	4cdp	608	612	0.106	0.108	0.104	0.099
2hq2	4cdp	609	613	0.091	0.127	0.118	0.115
2hq2	4cdp	610	614	0.0	0.0	0.0	0.0
2hq2	4cdp	611	615	0.0	0.027	0.035	0.104
2hq2	4cdp	612	616	0.077	0.136	0.079	0.107
2hq2	4cdp	613	617	0.0	0.0	0.0	0.0
2hq2	4cdp	614	618	0.176	0.164	0.147	0.173
2hq2	4cdp	615	619	0.476	0.297	0.482	0.29
2hq2	4cdp	617	621	0.094	0.084	0.106	0.104
2hq2	4cdp	618	622	0.0	0.0	0.0	0.0
2hq2	4cdp	619	623	0.425	0.406	0.323	0.334
2hq2	4cdp	621	625	0.022	0.014	0.005	0.013
2hq2	4cdp	623	627	0.365	0.386	0.289	0.279
2hq2	4cdp	624	628	0.6	0.512	0.618	0.541
2hq2	4cdp	625	629	0.469	0.273	0.449	0.463
2hq2	4cdp	626	630	0.075	0.101	0.091	0.098
2hq2	4cdp	627	631	0.774	0.794	0.776	0.794
2hq2	4cdp	628	632	0.045	0.045	0.0	0.0
2hq2	4cdp	631	635	0.464	0.595	0.475	0.569
2hq2	4cdp	632	636	0.015	0.008	0.038	0.045
2hq2	4cdp	633	637	0.173	0.174	0.166	0.175
2hq2	4cdp	634	638	0.011	0.006	0.014	0.016
2hq2	4cdp	635	639	0.417	0.357	0.36	0.387
2hq2	4cdp	636	640	0.381	0.39	0.343	0.387
2hq2	4cdp	637	641	0.652	0.78	0.678	0.752
2hq2	4cdp	638	642	0.185	0.22	0.161	0.227
2hq2	4cdp	639	643	0.149	0.396	0.157	0.391
2hq2	4cdp	640	644	0.436	0.443	0.396	0.401
2hq2	4cdp	641	645	0.105	0.111	0.1	0.112
2hq2	4cdp	642	646	0.111	0.104	0.114	0.099
2hq2	4cdp	643	647	0.827	0.851	0.795	0.84
2hq2	4cdp	644	648	0.467	0.44	0.464	0.44
2hq2	4cdp	645	649	0.568	0.566	0.558	0.603
2hq2	4cdp	646	650	0.66	0.707	0.647	0.691
2hq2	4cdp	647	651	0.616	0.671	0.634	0.776
2hq2	4cdp	648	652	0.69	0.776	0.686	0.776
2hq2	4cdp	650	654	0.499	0.509	0.493	0.509
2hq2	4cdp	651	655	0.011	0.001	0.0	0.002
2hq2	4cdp	652	656	0.091	0.1	0.083	0.106
2hq2	4cdp	653	657	0.247	0.201	0.205	0.236
2hq2	4cdp	654	658	0.281	0.239	0.29	0.249
2hq2	4cdp	655	659	0.0	0.0	0.0	0.0
2hq2	4cdp	656	660	0.561	0.473	0.554	0.66
2hq2	4cdp	657	661	0.144	0.116	0.22	0.222
2hq2	4cdp	658	662	0.0	0.0	0.0	0.0
2hq2	4cdp	660	664	0.744	0.72	0.786	0.629
2hq2	4cdp	661	665	0.018	0.019	0.014	0.016
2hq2	4cdp	664	668	0.0	0.035	0.0	0.05
2hq2	4cdp	666	670	0.0	0.0	0.0	0.0
2hq2	4cdp	667	671	0.578	0.418	0.564	0.48
2hq2	4cdp	668	672	0.414	0.46	0.363	0.428
2hq2	4cdp	669	673	0.123	0.135	0.101	0.084
2hq2	4cdp	670	674	0.0	0.0	0.0	0.0
2hq2	4cdp	671	675	0.04	0.044	0.028	0.048
2hq2	4cdp	672	676	0.0	0.0	0.0	0.0
2hq2	4cdp	673	677	0.621	0.538	0.622	0.542
2hq2	4cdp	674	678	0.741	0.642	0.692	0.757
2hq2	4cdp	675	679	0.313	0.339	0.354	0.374
2hq2	4cdp	676	680	0.0	0.0	0.0	0.0
2hq2	4cdp	677	681	0.0	0.0	0.0	0.0
2hq2	4cdp	682	686	0.0	0.0	0.0	0.0
2hq2	4cdp	683	687	0.0	0.0	0.0	0.0
2hq2	4cdp	685	689	0.579	0.701	0.508	0.512
2hq2	4cdp	687	691	0.0	0.0	0.0	0.004
2hq2	4cdp	688	692	0.315	0.475	0.33	0.489
2hq2	4cdp	692	696	0.0	0.0	0.0	0.0
2hq2	4cdp	693	697	0.0	0.103	0.0	0.038
2hq2	4cdp	694	698	0.241	0.181	0.298	0.412
2hq2	4cdp	695	699	0.153	0.154	0.178	0.17
2hq2	4cdp	696	700	0.022	0.026	0.017	0.026
2hq2	4cdp	697	701	0.0	0.0	0.0	0.0
2hq2	4cdp	698	702	0.0	0.0	0.0	0.0
2hq2	4cdp	699	703	0.503	0.413	0.554	0.551
2hq2	4cdp	700	704	0.646	0.656	0.644	0.661
2hq2	4cdp	701	705	0.483	0.544	0.484	0.411
2hq2	4cdp	702	706	1.0	0	1.0	0
2hq2	4cdp	703	707	0.0	0.0	0.0	0.0
2hq2	4cdp	704	708	0.374	0.28	0.379	0.286
2hq2	4cdp	705	709	0.683	0.787	0.764	0.769
2hq2	4cdp	708	712	0.02	0.023	0.015	0.017
2hq2	4cdp	709	713	0.0	0.0	0.0	0.0
2hq2	4cdp	710	714	0.0	0.0	0.0	0.0
2hq2	4cdp	711	715	0.0	0.0	0.0	0.0
2hq2	4cdp	712	716	0.34	0.476	0.312	0.264
2hq2	4cdp	713	717	0.651	0.655	0.688	0.712
2hq2	4cdp	714	718	0.038	0.068	0.038	0.028
2hq2	4cdp	715	719	0.856	0.811	0.864	0.807
2hq2	4cdp	716	720	0.0	0.0	0.0	0.0
2hq2	4cdp	717	721	0.0	0.0	0.0	0.0
2hq2	4cdp	718	722	0.944	0.975	0.953	0.975
2hq2	4cdp	719	723	0.116	0.068	0.105	0.174
2hq2	4cdp	720	724	0.0	0.0	0.0	0.0
2hq2	4cdp	721	725	0.019	0.031	0.053	0.046
2hq2	4cdp	722	726	0.0	0.029	0.0	0.033
2hq2	4cdp	724	728	0.0	0.002	0.0	0.002
2hq2	4cdp	725	729	0.517	0.7	0.503	0.558
2hq2	4cdp	728	732	0.462	0.411	0.456	0.702
2hq2	4cdp	729	733	0.9	0.5	0.9	0.5
2hq2	4cdp	730	734	0.267	0.659	0.293	0.337
2hq2	4cdp	731	735	0.785	0.722	0.784	0.945
2hq2	4cdp	732	736	0.459	0.337	0.463	0.338
2hq2	4cdp	733	737	0.034	0.035	0.039	0.038
2hq2	4cdp	734	738	0.521	0.465	0.511	0.394
2hq2	4cdp	735	739	0.222	0.289	0.232	0.286
2hq2	4cdp	736	740	0.299	0.344	0.364	0.275
2hq2	4cdp	737	741	0.0	0.0	0.0	0.0
2hq2	4cdp	738	742	0.0	0.0	0.0	0.0
2hq2	4cdp	739	743	0.732	0.819	0.739	0.819
2hq2	4cdp	740	744	0.323	0.305	0.305	0.29
2hq2	4cdp	742	746	0.793	0.8	0.82	0.824
2hq2	4cdp	743	747	0.39	0.403	0.344	0.375
2hq2	4cdp	746	750	0.0	0.0	0.0	0.0
2hq2	4cdp	747	751	0.0	0.0	0.0	0.0
2hq2	4cdp	749	753	0.076	0.09	0.115	0.132
2hq2	4cdp	750	754	0.0	0.003	0.0	0.0
2hq2	4cdp	751	755	0.0	0.0	0.0	0.0
2hq2	4cdp	752	756	0.15	0.171	0.191	0.224
2hq2	4cdp	753	757	0.537	0.624	0.496	0.676
2hq2	4cdp	755	759	0.335	0.358	0.343	0.364
2hq2	4cdp	756	760	0.175	0.198	0.188	0.173
2hq2	4cdp	757	761	0.334	0.384	0.357	0.445
2hq2	4cdp	758	762	0.071	0.071	0.043	0.063
2hq2	4cdp	759	763	0.1	0.103	0.25	0.246
2hq2	4cdp	760	764	0.873	0.716	0.865	0.682
2hq2	4cdp	761	765	0.402	0.57	0.433	0.539
2hq2	4cdp	762	766	0.615	0.788	0.597	0.763
2hq2	4cdp	763	767	0.25	0.343	0.228	0.173
2hq2	4cdp	764	768	0.233	0.346	0.215	0.285
2hq2	4cdp	766	770	0.03	0.178	0.037	0.067
2hq2	4cdp	767	771	0.07	0.084	0.061	0.065
2hq2	4cdp	768	772	0.006	0.026	0.0	0.012
2hq2	4cdp	769	773	0.0	0.004	0.0	0.0
2hq2	4cdp	770	774	0.338	0.423	0.37	0.634
2hq2	4cdp	771	775	0.0	0.043	0.004	0.027
2hq2	4cdp	775	779	0.0	0.0	0.0	0.0
2hq2	4cdp	776	780	0.256	0.288	0.275	0.228
2hq2	4cdp	779	783	0.002	0.032	0.0	0.01
2hq2	4cdp	780	784	0.004	0.043	0.01	0.008
2hq2	4cdp	782	786	0.332	0.37	0.317	0.393
2hq2	4cdp	783	787	0.036	0.043	0.038	0.046
2hq2	4cdp	784	788	0.0	0.0	0.0	0.0
2hq2	4cdp	785	789	0.0	0.0	0.0	0.0
2hq2	4cdp	786	790	0.432	0.465	0.423	0.305
2hq2	4cdp	787	791	0.013	0.1	0.009	0.067
2hq2	4cdp	788	792	0.14	0.144	0.123	0.136
2hq2	4cdp	790	794	0.415	0.418	0.398	0.403
2hq2	4cdp	792	796	0.531	0.524	0.608	0.671
2hq2	4cdp	793	797	0.758	0.737	0.792	0.897
2hq2	4cdp	794	798	0.279	0.213	0.277	0.238
2hq2	4cdp	795	799	0.311	0.44	0.242	0.187
2hq2	4cdp	796	800	0.484	0.542	0.491	0.507
2hq2	4cdp	797	801	0.034	0.044	0.02	0.032
2hq2	4cdp	798	802	0.143	0.218	0.112	0.112
2hq2	4cdp	799	803	0.595	0.539	0.583	0.563
2hq2	4cdp	800	804	0.615	0.417	0.617	0.44
2hq2	4cdp	801	805	0.0	0.0	0.0	0.0
2hq2	4cdp	802	806	0.242	0.296	0.218	0.264
2hq2	4cdp	803	807	0.0	0.0	0.0	0.0
2hq2	4cdp	804	808	0.008	0.005	0.016	0.014
2hq2	4cdp	805	809	0.19	0.218	0.148	0.087
2hq2	4cdp	806	810	0.76	0.79	0.729	0.771
2hq2	4cdp	807	811	0.743	0.929	0.715	0.915
2hq2	4cdp	808	812	0.397	0.215	0.387	0.228
2hq2	4cdp	809	813	0.115	0.092	0.118	0.219
2hq2	4cdp	810	814	0.745	0.878	0.803	0.712
2hq2	4cdp	812	816	0.392	0.43	0.385	0.382
2hq2	4cdp	813	817	0.204	0.381	0.225	0.477
2hq2	4cdp	814	818	0.457	0.725	0.489	0.616
2hq2	4cdp	815	819	0.821	0.91	0.814	0.91
2hq2	4cdp	816	820	0.034	0.038	0.053	0.04
2hq2	4cdp	817	821	0.0	0.0	0.0	0.0
2hq2	4cdp	818	822	0.0	0.048	0.0	0.062
2hq2	4cdp	819	823	0.286	0.294	0.294	0.432
2hq2	4cdp	820	824	0.0	0.05	0.0	0.047
2hq2	4cdp	821	825	0.35	0.369	0.307	0.334
2hq2	4cdp	822	826	0.222	0.247	0.247	0.286
2hq2	4cdp	823	827	0.362	0.403	0.386	0.389
2hq2	4cdp	824	828	0.86	0.87	0.86	0.87
2hq2	4cdp	825	829	0.003	0.005	0.036	0.042
2hq2	4cdp	826	830	0.487	0.448	0.397	0.358
2hq2	4cdp	828	832	0.519	0.562	0.58	0.58
2hq2	4cdp	829	833	0.484	0.412	0.498	0.582
2hq2	4cdp	830	834	0.598	0.709	0.664	0.657
2hq2	4cdp	832	836	0.157	0.143	0.155	0.143
2hq2	4cdp	833	837	0.189	0.245	0.185	0.242
2hq2	4cdp	834	838	0.604	0.834	0.654	0.675
2hq2	4cdp	835	839	0.0	0.0	0.0	0.01
2hq2	4cdp	837	841	0.443	0.418	0.381	0.392
2hq2	4cdp	838	842	0.892	0.913	0.939	0.945
2hq2	4cdp	839	843	0.665	0.821	0.636	0.8
2hq2	4cdp	840	844	0.442	0.478	0.451	0.553
2hq2	4cdp	844	848	0.828	0.673	0.818	0.905
2hq2	4cdp	845	849	0.0	0.0	0.0	0.0
2hq2	4cdp	846	850	0.869	0.831	0.872	0.831
2hq2	4cdp	847	851	0.694	0.294	0.698	0.294
2hq2	4cdp	848	852	0.0	0.001	0.0	0.0
2hq2	4cdp	849	853	0.58	0.537	0.542	0.523
2hq2	4cdp	850	854	0.434	0.487	0.43	0.44
2hq2	4cdp	851	855	0.489	0.457	0.561	0.483
2hq2	4cdp	852	856	0.267	0.293	0.319	0.343
2hq2	4cdp	853	857	0.531	0.554	0.531	0.554
2hq2	4cdp	854	858	0.84	0.82	0.84	0.82
2hq2	4cdp	855	859	0.666	0.682	0.64	0.672
2hq2	4cdp	856	860	0.337	0.305	0.407	0.418
2hq2	4cdp	857	861	0.0	0.004	0.0	0.007
2hq2	4cdp	858	862	0.0	0.004	0.0	0.005
2hq2	4cdp	859	863	0.726	0.737	0.705	0.677
2hq2	4cdp	860	864	0.371	0.415	0.374	0.397
2hq2	4cdp	861	865	0.139	0.14	0.192	0.22
2hq2	4cdp	863	867	0.814	1.0	0.814	1.0
2hq2	4cdp	864	868	0.826	0.855	0.734	0.768
2hq2	4cdp	865	869	0.009	0.008	0.009	0.01
2hq2	4cdp	866	870	0.303	0.274	0.304	0.275
2hq2	4cdp	867	871	0.282	0.267	0.286	0.268
2hq2	4cdp	868	872	0.713	0.574	0.702	0.796
2hq2	4cdp	869	873	0.0	0.0	0.0	0.0
2hq2	4cdp	870	874	0.572	0.577	0.553	0.504
2hq2	4cdp	871	875	0.558	0.545	0.58	0.71
2hq2	4cdp	872	876	0.204	0.215	0.193	0.285
2hq2	4cdp	873	877	0.0	0.0	0.0	0.0
2hq2	4cdp	874	878	0.468	0.436	0.482	0.559
2hq2	4cdp	875	879	0.621	0.787	0.61	0.731
2hq2	4cdp	876	880	0.289	0.367	0.262	0.277
2hq2	4cdp	878	882	0.446	0.492	0.39	0.435
2hq2	4cdp	879	883	0.453	0.515	0.421	0.462
2hq2	4cdp	880	884	0.838	0.786	0.86	0.816
2hq2	4cdp	881	885	0.432	0.433	0.373	0.387
2hq2	4cdp	882	886	0.0	0.0	0.0	0.0
2hq2	4cdp	883	887	0.042	0.063	0.078	0.109
2hq2	4cdp	884	888	0.027	0.049	0.098	0.081
2hq2	4cdp	887	891	0.0	0.0	0.0	0.0
2hq2	4cdp	888	892	0.72	0.806	0.726	0.819
2hq2	4cdp	889	893	0.561	0.626	0.548	0.578
2hq2	4cdp	890	894	0.539	0.678	0.466	0.619
2hq2	4cdp	891	895	0.285	0.354	0.205	0.299
2hq2	4cdp	892	896	0.518	0.596	0.453	0.464
2hq2	4cdp	896	900	0.685	0.175	0.656	0.871
2hq2	4cdp	897	901	0.813	0.7	0.741	0.712
2hq2	4cdp	899	903	0.155	0.16	0.183	0.109
2hq2	4cdp	900	904	0.635	0.636	0.638	0.565
2hq2	4cdp	901	905	0.071	0.111	0.098	0.151
2hq2	4cdp	902	906	0.031	0.117	0.031	0.046
2hq2	4cdp	903	907	0.081	0.092	0.059	0.117
2hq2	4cdp	904	908	0.218	0.253	0.141	0.163
2hq2	4cdp	905	909	0.92	0.917	0.955	0.917
2hq2	4cdp	907	911	0.731	0.561	0.692	0.727
2hq2	4cdp	908	912	0.377	0.502	0.374	0.498
2hq2	4cdp	909	913	0.561	0.588	0.561	0.572
2hq2	4cdp	910	914	0.0	0.0	0.0	0.0
2hq2	4cdp	911	915	0.036	0.06	0.034	0.019
2hq2	4cdp	912	916	0.003	0.01	0.021	0.066
2hq2	4cdp	913	917	0.266	0.248	0.277	0.253
2hq2	4cdp	914	918	0.335	0.337	0.362	0.454
2hq2	4cdp	915	919	0.039	0.038	0.024	0.019
2hq2	4cdp	916	920	0.406	0.494	0.398	0.491
2hq2	4cdp	917	921	0.728	0.904	0.745	0.845
2hq2	4cdp	918	922	0.0	0.0	0.0	0.0
2hq2	4cdp	919	923	0.104	0.119	0.106	0.396
2hq2	4cdp	920	924	0.017	0.049	0.093	0.152
2hq2	4cdp	921	925	0.342	0.382	0.311	0.318
2hq2	4cdp	922	926	0.224	0.433	0.26	0.4
2hq2	4cdp	923	927	0.498	0.607	0.574	0.847
2hq2	4cdp	924	928	0.111	0.121	0.109	0.053
2hq2	4cdp	925	929	0.88	0.869	0.861	0.951
2hq2	4cdp	926	930	0.326	0.358	0.38	0.545
2hq2	4cdp	927	931	0.646	0.791	0.636	0.759
2hq2	4cdp	928	932	0.634	0.806	0.623	0.639
2hq2	4cdp	929	933	0.708	0.735	0.744	0.101
2hq2	4cdp	930	934	0.25	0.255	0.258	0.265
2hq2	4cdp	932	936	0.256	0.331	0.257	0.329
2hq2	4cdp	933	937	0.9	1.0	0.9	1.0
2hq2	4cdp	934	938	0.131	0.172	0.143	0.13
2hq2	4cdp	935	939	0.762	0.61	0.762	0.61
2hq2	4cdp	936	940	0.769	0.777	0.769	0.777
2hq2	4cdp	937	941	0.0	0.0	0.0	0.0
2hq2	4cdp	938	942	0.003	0.005	0.012	0.011
2hq2	4cdp	940	944	0.146	0.137	0.178	0.196
2hq2	4cdp	941	945	0.135	0.107	0.144	0.111
2hq2	4cdp	942	946	0.0	0.0	0.0	0.009
2hq2	4cdp	943	947	0.199	0.289	0.177	0.212
2hq2	4cdp	944	948	0.123	0.281	0.152	0.121
2hq2	4cdp	945	949	0.311	0.447	0.319	0.361
2hq2	4cdp	946	950	0.089	0.077	0.082	0.074
2hq2	4cdp	948	952	0.195	0.202	0.157	0.209
2hq2	4cdp	949	953	0.352	0.566	0.0	0.048
2hq2	4cdp	950	954	0.017	0.028	0.035	0.159
2hq2	4cdp	951	955	0.008	0.025	0.0	0.023
2hq2	4cdp	952	956	0.086	0.189	0.066	0.153
2hq2	4cdp	953	957	0.55	0.609	0.466	0.631
2hq2	4cdp	954	958	0.007	0.154	0.0	0.003
2hq2	4cdp	959	963	0.369	0.355	0.305	0.402
2hq2	4cdp	960	964	0.53	0.584	0.497	0.555
2hq2	4cdp	961	965	0.506	0.534	0.504	0.698
2hq2	4cdp	965	969	0.114	0.183	0.031	0.131
2hq2	4cdp	966	970	0.494	0.607	0.499	0.578
2hq2	4cdp	969	973	0.723	0.754	0.73	0.693
2hq2	4cdp	970	974	0.181	0.127	0.21	0.14
2hq2	4cdp	971	975	0.0	0.002	0.0	0.0
2hq2	4cdp	972	976	0.491	0.447	0.465	0.52
2hq2	4cdp	974	978	0.746	0.755	0.731	0.783
2hq2	4cdp	976	980	0.621	0.53	0.686	0.695
2hq2	4cdp	979	983	0.25	0.207	0.22	0.218
2hq2	4cdp	980	984	0.586	0.622	0.619	0.611
2hq2	4cdp	981	985	0.232	0.188	0.227	0.157
2hq2	4cdp	982	986	0.3	0.555	0.262	0.25
2hq2	4cdp	983	987	0.78	0.804	0.777	0.826
2hq2	4cdp	985	989	0.0	0.0	0.0	0.0
2hq2	4cdp	988	992	0.001	0.04	0.068	0.091
2hq2	4cdp	989	993	0.085	0.103	0.064	0.052
2hq2	4cdp	990	994	0.088	0.21	0.089	0.206
2hq2	4cdp	991	995	0.743	0.797	0.754	0.821
2hq2	4cdp	992	996	0.375	0.436	0.375	0.436
2hq2	4cdp	993	997	0.248	0.202	0.144	0.179
2hq2	4cdp	994	998	0.389	0.373	0.362	0.418
2hq2	4cdp	995	999	0.006	0.006	0.0	0.0
2hq2	4cdp	996	1000	0.886	0.864	0.8	0.82
2hq2	4cdp	998	1002	0.0	0.053	0.001	0.064
2hq2	4cdp	1000	1004	0.364	0.361	0.373	0.302
2hq2	4cdp	1002	1006	0.536	0.596	0.531	0.591
2hq2	4cdp	1003	1007	0.828	0.944	0.833	0.928
2hq2	4cdp	1004	1008	0.244	0.111	0.266	0.319
2hq2	4cdp	1006	1010	0.399	0.451	0.412	0.451
2hq2	4cdp	1007	1011	0.101	0.083	0.082	0.089
2hq2	4cdp	1008	1012	0.392	0.452	0.418	0.429
2hq2	4cdp	1009	1013	0.397	0.582	0.394	0.2
2hq2	4cdp	1010	1014	0.72	0.813	0.788	0.793
2hq2	4cdp	1011	1015	0.67	0.667	0.615	0.654
2hq2	4cdp	1014	1018	0.486	0.463	0.512	0.269
2hq2	4cdp	1015	1019	0.0	0.0	0.0	0.0
2hq2	4cdp	1016	1020	0.369	0.389	0.395	0.447
2hq2	4cdp	1017	1021	0.82	0.757	0.814	0.754
2hq2	4cdp	1018	1022	1.0	1.0	1.0	0.5
2hq2	4cdp	1019	1023	0.29	0.268	0.29	0.267
2hq2	4cdp	1020	1024	0.249	0.19	0.227	0.209
2hq2	4cdp	1021	1025	0.495	0.499	0.532	0.365
2hq2	4cdp	1022	1026	0.347	0.412	0.332	0.425
2hq2	4cdp	1023	1027	0.698	0.654	0.651	0.616
2hq2	4cdp	1024	1028	0.603	0.747	0.6	0.717
2hq2	4cdp	1025	1029	0.411	0.507	0.51	0.501
2hq2	4cdp	1026	1030	0.595	0.308	0.602	0.536
2hq2	4cdp	1027	1031	0.451	0.476	0.532	0.716
2hq2	4cdp	1028	1032	0.553	0.578	0.55	0.578
2hq2	4cdp	1030	1034	0.0	0.0	0.0	0.0
2hq2	4cdp	1031	1035	0.0	0.0	0.0	0.0
2hq2	4cdp	1032	1036	0.0	0.0	0.0	0.005
2hq2	4cdp	1033	1037	0.023	0.044	0.005	0.065
2hq2	4cdp	1034	1038	0.632	0.596	0.587	0.72
2hq2	4cdp	1037	1041	0.275	0.356	0.291	0.375
2hq2	4cdp	1038	1042	0.0	0	0.0	0
2hq2	4cdp	1039	1043	0.0	0.0	0.0	0.0
2hq2	4cdp	1040	1044	0.041	0.021	0.0	0.002
2hq2	4cdp	1044	1048	0.658	0.72	0.702	0.794
2hq2	4cdp	1045	1049	0.692	0.818	0.678	0.859
2hq2	4cdp	1046	1050	0.669	0.847	0.66	0.835
2hq2	4cdp	1047	1051	0.79	0.748	0.798	0.875
2hq2	4cdp	1048	1052	0.945	0.474	0.94	0.161
2hq2	4cdp	1049	1053	0.866	0.831	0.866	0.831
2hq2	4cdp	1050	1054	0.929	0.94	0.928	0.94
2hq2	4cdp	1051	1055	0.0	0.0	0.0	0.0
2hq2	4cdp	1052	1056	0.398	0.529	0.414	0.532
2hq2	4cdp	1053	1057	0.558	0.618	0.561	0.623
2hq2	4cdp	1055	1059	0.394	0.327	0.403	0.302
2hq2	4cdp	1056	1060	0.283	0.314	0.25	0.279
2hq2	4cdp	1057	1061	0.301	0.346	0.263	0.362
2hq2	4cdp	1058	1062	0.055	0.093	0.073	0.11
2hq2	4cdp	1059	1063	0.209	0.129	0.252	0.222
2hq2	4cdp	1060	1064	0.195	0.162	0.149	0.123
2hq2	4cdp	1061	1065	0.173	0.183	0.126	0.084
2hq2	4cdp	1062	1066	1.0	0.95	1.0	0.95
2hq2	4cdp	1063	1067	0.775	0.792	0.737	0.712
2hq2	4cdp	1064	1068	0.0	0.0	0.0	0.0
2hq2	4cdp	1065	1069	0.017	0.014	0.045	0.043
2hq2	4cdp	1066	1070	0.182	0.302	0.153	0.204
2hq2	4cdp	1069	1073	0.168	0.25	0.139	0.097
2hq2	4cdp	1070	1074	0.0	0.002	0.0	0.0
2hq2	4cdp	1071	1075	0.684	0.672	0.716	0.705
2hq2	4cdp	1072	1076	0.174	0.252	0.158	0.168
2hq2	4cdp	1073	1077	0.88	0.86	0.88	0.86
2hq2	4cdp	1074	1078	0.572	0.797	0.568	0.511
2hq2	4cdp	1075	1079	0.048	0.06	0.049	0.083
2hq2	4cdp	1076	1080	0.029	0.065	0.065	0.17
2hq2	4cdp	1078	1082	0.0	0.006	0.0	0.025
2hq2	4cdp	1079	1083	0.798	0.575	0.818	0.589
2hq2	4cdp	1080	1084	0.469	0.506	0.426	0.468
2hq2	4cdp	1081	1085	0.694	0.765	0.605	0.557
2hq2	4cdp	1082	1086	0.805	0.805	0.804	0.803
2hq2	4cdp	1084	1088	0.19	0.174	0.235	0.245
2hq2	4cdp	1085	1089	0.404	0.282	0.428	0.432
2hq2	4cdp	1086	1090	0.495	0.619	0.494	0.616
2hq2	4cdp	1090	1094	0.709	0.763	0.627	0.765
2hq2	4cdp	1091	1095	0.792	0.896	0.813	0.891
2hq2	4cdp	1092	1096	0.374	0.461	0.221	0.179
2hq2	4cdp	1093	1097	0.133	0.142	0.133	0.123
2hq2	4cdp	1094	1098	0.203	0.218	0.297	0.316
2hq2	4cdp	1100	1104	0.724	0.571	0.748	0.865
2hq2	4cdp	1102	1106	0.296	0.234	0.278	0.264
2hq2	4cdp	1105	1109	0.314	0.3	0.24	0.293
2hq2	4cdp	1106	1110	0.869	0.929	0.886	0.873
2hq2	4cdp	1107	1111	0.713	0.679	0.781	0.607
2hq2	4cdp	1108	1112	0.518	0.535	0.675	0.666
2hq2	4cdp	1109	1113	0.484	0.478	0.526	0.506
2hq2	4cdp	1111	1115	0.736	0.837	0.72	0.883
2hq2	4cdp	1113	1117	0.464	0.471	0.486	0.492
2hq2	4cdp	1114	1118	0.481	0.507	0.483	0.706
2hq2	4cdp	1115	1119	0.433	0.401	0.426	0.419
2hq2	4cdp	1116	1120	0.449	0.349	0.443	0.33
2hq2	4cdp	1117	1121	0.456	0.553	0.458	0.592
2hq2	4cdp	1118	1122	0.404	0.431	0.416	0.444
2hq2	4cdp	1119	1123	0.0	0.0	0.0	0.0
2hq2	4cdp	1120	1124	0.414	0.553	0.396	0.527
2hq2	4cdp	1121	1125	0.816	0.878	0.824	0.788
2hq2	4cdp	1122	1126	0.4	0.209	0.405	0.219
2hq2	4cdp	1124	1128	0.538	0.549	0.57	0.63
2hq2	4cdp	1125	1129	0.798	0.853	0.798	0.853
2hq2	4cdp	1126	1130	0.186	0.217	0.092	0.094
2hq2	4cdp	1127	1131	0.106	0.149	0.093	0.241
2hq2	4cdp	1129	1133	0.684	0.848	0.706	0.872
2hq2	4cdp	1130	1134	0.0	0.0	0.0	0.0
2hq2	4cdp	1131	1135	0.204	0.199	0.171	0.197
2hq2	4cdp	1132	1136	0.014	0.019	0.0	0.004
2hq2	4cdp	1133	1137	0.0	0.0	0.0	0.002
2hq2	4cdp	1134	1138	0.207	0.182	0.237	0.183
2hq2	4cdp	1136	1140	0.166	0.134	0.203	0.169
2hq2	4cdp	1137	1141	0.413	0.411	0.373	0.358
2hq2	4cdp	1138	1142	0.507	0.463	0.497	0.458
2hq2	4cdp	1139	1143	0.853	0.86	0.839	0.883
2hq2	4cdp	1140	1144	0.409	0.395	0.5	0.477
2hq2	4cdp	1141	1145	0.0	0.027	0.0	0.0
2hq2	4cdp	1142	1146	0.255	0.263	0.231	0.192
2hq2	4cdp	1143	1147	0.07	0.102	0.091	0.112
2hq2	4cdp	1144	1148	0.306	0.39	0.299	0.433
2hq2	4cdp	1147	1151	0.266	0.257	0.261	0.257
2hq2	4cdp	1148	1152	0.0	0.0	0.0	0.0
2hq2	4cdp	1149	1153	0.303	0.294	0.295	0.304
2hq2	4cdp	1150	1154	0.124	0.163	0.129	0.139
2hq2	4cdp	1151	1155	0.0	0.0	0.0	0.0
2hq2	4cdp	1152	1156	0.0	0.0	0.0	0.0
2hq2	4cdp	1153	1157	0.212	0.211	0.199	0.278
2hq2	4cdp	1154	1158	0.211	0.239	0.249	0.412
2hq2	4cdp	1157	1161	0.0	0.0	0.0	0.0
