pred	succ	p-cen	s-cen	p_q-score	p_s-score	s_q-score	s_s-score
2p92	4peo	2	2	0.319	0.289	0.486	0.446
2p92	4peo	6	6	0.0	0.0	0.0	0.0
2p92	4peo	7	7	0.0	0.568	0.0	0.0
2p92	4peo	14	14	0.011	0.015	0.013	0.011
2p92	4peo	15	15	0.38	0.276	0.406	0.645
2p92	4peo	17	17	0.384	0.319	0.501	0.682
2p92	4peo	20	20	0.494	0.591	0.518	0.619
2p92	4peo	21	21	0.348	0.696	0.359	0.416
2p92	4peo	22	22	0.0	0.0	0.0	0.0
2p92	4peo	25	25	0.139	0.153	0.115	0.116
2p92	4peo	27	27	0.0	0.0	0.0	0.0
2p92	4peo	28	28	0.24	0.242	0.235	0.272
2p92	4peo	30	30	0.136	0.25	0.125	0.136
2p92	4peo	31	31	0.0	0.0	0.0	0.0
2p92	4peo	32	32	0.0	0.0	0.0	0.0
2p92	4peo	33	33	0.0	0.0	0.0	0.0
2p92	4peo	34	34	0.027	0.1	0.077	0.108
2p92	4peo	37	37	0.534	0.54	0.528	0.545
2p92	4peo	38	38	0.0	0.0	0.0	0.0
2p92	4peo	39	39	0.51	0.58	0.488	0.485
2p92	4peo	40	40	0.726	0.682	0.8	0.752
2p92	4peo	41	41	0.312	0.351	0.351	0.391
2p92	4peo	42	42	0.486	0.516	0.478	0.538
2p92	4peo	43	43	0.512	0.67	0.505	0.397
2p92	4peo	44	44	0.129	0.131	0.178	0.188
2p92	4peo	45	45	0.661	0.694	0.645	0.617
2p92	4peo	46	46	0.665	0.804	0.338	0.368
2p92	4peo	48	48	0.037	0.062	0.049	0.075
2p92	4peo	49	49	0.188	0.192	0.208	0.2
2p92	4peo	50	50	0.088	0.145	0.099	0.116
2p92	4peo	52	52	0.0	0.0	0.0	0.0
2p92	4peo	53	53	0.44	0.661	0.443	0.496
2p92	4peo	54	54	0.473	0.542	0.439	0.46
2p92	4peo	55	55	0.06	0.155	0.052	0.142
2p92	4peo	56	56	0.025	0.026	0.043	0.091
2p92	4peo	58	58	0.326	0.399	0.255	0.297
2p92	4peo	59	59	0.047	0.051	0.053	0.056
2p92	4peo	60	60	0.061	0.045	0.055	0.043
2p92	4peo	61	61	0.655	0.78	0.683	0.761
2p92	4peo	62	62	0.146	0.18	0.156	0.183
2p92	4peo	63	63	0.0	0.0	0.0	0.0
2p92	4peo	64	64	0.132	0.145	0.129	0.098
2p92	4peo	67	67	0.074	0.05	0.036	0.016
2p92	4peo	68	68	0.098	0.142	0.077	0.092
2p92	4peo	69	69	0.0	0.568	0.0	0.0
2p92	4peo	70	70	0.477	0.568	0.442	0.493
2p92	4peo	71	71	0.638	0.568	0.594	0.752
2p92	4peo	72	72	0.431	0.568	0.442	0.432
2p92	4peo	73	73	0.109	0.568	0.12	0.109
2p92	4peo	74	74	0.092	0.568	0.129	0.174
2p92	4peo	75	75	0.811	0.568	0.791	0.743
2p92	4peo	76	76	0.937	0.568	0.911	0.689
2p92	4peo	77	77	0.354	0.568	0.339	0.494
2p92	4peo	78	78	0.752	0.568	0.743	0.762
2p92	4peo	95	83	0.884	0.568	0.9	0.939
2p92	4peo	100	88	0.604	0.572	0.522	0.461
2p92	4peo	101	89	0.585	0.818	0.575	0.88
2p92	4peo	102	90	0.007	0.017	0.051	0.056
2p92	4peo	103	91	0.357	0.36	0.369	0.332
2p92	4peo	104	92	0.504	0.499	0.508	0.609
2p92	4peo	105	93	0.511	0.637	0.495	0.521
2p92	4peo	107	95	0.041	0.091	0.024	0.047
2p92	4peo	108	96	0.102	0.121	0.122	0.174
2p92	4peo	109	97	0.025	0.057	0.017	0.101
2p92	4peo	111	99	0.75	0.357	0.823	0.205
2p92	4peo	112	100	0.442	0.43	0.399	0.383
2p92	4peo	114	102	0.155	0.042	0.123	0.028
2p92	4peo	115	103	0.634	0.608	0.66	0.68
2p92	4peo	116	104	0.777	0.832	0.818	0.87
2p92	4peo	117	105	0.432	0.532	0.417	0.429
2p92	4peo	118	106	0.03	0.028	0.094	0.089
2p92	4peo	119	107	0.0	0.0	0.0	0.0
2p92	4peo	120	108	0.646	0.751	0.686	0.751
2p92	4peo	121	109	0.332	0.366	0.359	0.461
2p92	4peo	122	110	0.161	0.163	0.123	0.116
2p92	4peo	123	111	0.153	0.183	0.132	0.157
2p92	4peo	124	112	0.309	0.285	0.291	0.283
2p92	4peo	125	113	0.678	0.923	0.646	0.824
2p92	4peo	127	115	0.115	0.134	0.184	0.203
2p92	4peo	128	116	0.022	0.064	0.022	0.043
2p92	4peo	129	117	0.0	0.0	0.0	0.0
2p92	4peo	130	118	0.182	0.232	0.228	0.286
2p92	4peo	132	120	0.233	0.335	0.222	0.198
2p92	4peo	133	121	0.085	0.046	0.11	0.081
2p92	4peo	134	122	0.0	0.0	0.0	0.0
2p92	4peo	135	123	0.43	0.535	0.444	0.449
2p92	4peo	136	124	0.223	0.201	0.255	0.255
2p92	4peo	137	125	0.143	0.146	0.148	0.162
2p92	4peo	138	126	0.1	0.101	0.059	0.06
2p92	4peo	139	127	0.0	0.0	0.0	0.0
2p92	4peo	140	128	0.0	0.0	0.0	0.0
2p92	4peo	141	129	0.515	0.684	0.491	0.566
2p92	4peo	142	130	0.411	0.348	0.4	0.441
2p92	4peo	143	131	0.035	0.039	0.049	0.074
2p92	4peo	144	132	0.377	0.547	0.376	0.597
2p92	4peo	145	133	0.505	0.55	0.51	0.54
2p92	4peo	146	134	0.247	0.342	0.304	0.357
2p92	4peo	147	135	0.159	0.141	0.157	0.142
2p92	4peo	148	136	0.679	0.625	0.679	0.631
2p92	4peo	149	137	0.206	0.083	0.206	0.081
2p92	4peo	150	138	0.148	0.173	0.133	0.195
2p92	4peo	151	139	0.514	0.543	0.501	0.807
2p92	4peo	152	140	0.653	0.576	0.646	0.547
2p92	4peo	153	141	0.642	0.945	0.654	0.601
2p92	4peo	154	142	0.772	0.716	0.801	0.849
2p92	4peo	155	143	0.691	0.391	0.717	0.422
2p92	4peo	156	144	0.57	0.334	0.627	0.453
2p92	4peo	157	145	0.364	0.285	0.433	0.351
2p92	4peo	158	146	0.905	0.455	0.886	0.495
2p92	4peo	159	147	0.049	0.167	0.045	0.049
2p92	4peo	160	148	0.866	0.893	0.853	0.887
2p92	4peo	161	149	0.625	0.751	0.541	0.534
2p92	4peo	162	150	0.0	0.0	0.0	0.0
2p92	4peo	163	151	0.119	0.149	0.102	0.113
2p92	4peo	164	152	0.31	0.431	0.294	0.377
2p92	4peo	165	153	0.261	0.291	0.275	0.314
2p92	4peo	167	155	0.414	0.409	0.378	0.383
2p92	4peo	168	156	0.796	0.7	0.8	0.7
2p92	4peo	169	157	0.526	0.453	0.546	0.469
2p92	4peo	170	158	0.005	0.012	0.0	0.009
2p92	4peo	171	159	0.459	0.387	0.503	0.425
2p92	4peo	172	160	0.439	0.328	0.406	0.188
2p92	4peo	174	162	0.274	0.245	0.244	0.215
2p92	4peo	175	163	0.552	0.851	0.561	0.841
2p92	4peo	176	164	0.499	0.62	0.51	0.599
2p92	4peo	177	165	0.274	0.39	0.383	0.242
2p92	4peo	178	166	0.586	0.596	0.669	0.805
2p92	4peo	180	168	0.499	0.536	0.581	0.532
2p92	4peo	181	169	0.895	0.885	0.861	0.793
2p92	4peo	183	171	0.911	0.896	0.933	0.874
2p92	4peo	184	172	0.924	0.617	0.918	0.874
2p92	4peo	185	173	0.452	0.544	0.479	0.541
2p92	4peo	186	174	0.845	0.936	0.836	0.936
2p92	4peo	187	175	0.188	0.204	0.188	0.098
2p92	4peo	188	176	0.591	0.564	0.568	0.804
2p92	4peo	189	177	0.632	0.929	0.662	0.818
2p92	4peo	191	179	0.287	0.359	0.293	0.558
2p92	4peo	192	180	0.043	0.035	0.044	0.041
2p92	4peo	193	181	0.157	0.174	0.129	0.146
2p92	4peo	194	182	0.0	0.001	0.0	0.003
2p92	4peo	195	183	0.279	0.271	0.278	0.205
2p92	4peo	196	184	0.566	0.71	0.58	0.743
2p92	4peo	197	185	0.129	0.193	0.117	0.135
2p92	4peo	198	186	0.536	0.585	0.554	0.601
2p92	4peo	199	187	0.594	0.628	0.632	0.744
2p92	4peo	200	188	0.887	0.956	0.896	0.957
2p92	4peo	201	189	0.586	0.564	0.634	0.653
2p92	4peo	202	190	0.333	0.411	0.367	0.434
2p92	4peo	203	191	0.272	0.459	0.294	0.367
2p92	4peo	204	192	0.119	0.046	0.103	0.123
2p92	4peo	205	193	0.689	0.831	0.691	0.718
2p92	4peo	206	194	0.791	0.923	0.783	0.68
2p92	4peo	207	195	0.246	0.177	0.211	0.325
2p92	4peo	208	196	0.0	0.0	0.0	0.0
2p92	4peo	210	198	0.344	0.359	0.393	0.375
2p92	4peo	211	199	0.0	0.0	0.0	0.0
2p92	4peo	212	200	0.221	0.313	0.191	0.293
2p92	4peo	213	201	0.682	0.764	0.668	0.731
2p92	4peo	214	202	0.525	0.472	0.528	0.866
2p92	4peo	215	203	0.0	0.031	0.0	0.007
2p92	4peo	216	204	0.49	0.497	0.498	0.496
2p92	4peo	217	205	0.313	0.229	0.301	0.196
2p92	4peo	219	207	0.763	0.843	0.821	0.837
2p92	4peo	220	208	0.936	0.959	0.96	0.853
2p92	4peo	221	209	0.039	0.044	0.012	0.011
2p92	4peo	222	210	0.776	0.711	0.787	0.808
2p92	4peo	223	211	0.797	0.675	0.586	0.547
2p92	4peo	224	212	0.087	0.104	0.087	0.109
2p92	4peo	225	213	0.312	0.311	0.384	0.39
2p92	4peo	227	215	0.825	0.876	0.841	0.693
2p92	4peo	229	217	0.73	0.761	0.733	0.771
2p92	4peo	230	218	0.0	0.0	0.0	0.0
2p92	4peo	231	219	0.31	0.425	0.368	0.507
2p92	4peo	232	220	0.531	0.372	0.556	0.525
2p92	4peo	233	221	0.444	0.475	0.44	0.459
2p92	4peo	234	222	0.203	0.194	0.205	0.206
2p92	4peo	235	223	0.0	0.0	0.0	0.0
2p92	4peo	237	225	0.147	0.167	0.177	0.288
2p92	4peo	238	226	0.404	0.485	0.382	0.401
2p92	4peo	239	227	0.0	0.0	0.0	0.0
2p92	4peo	240	228	0.0	0.0	0.0	0.0
2p92	4peo	241	229	0.015	0.007	0.024	0.04
2p92	4peo	242	230	0.266	0.431	0.278	0.259
2p92	4peo	244	232	0.0	0.0	0.013	0.012
2p92	4peo	245	233	0.0	0.0	0.0	0.0
2p92	4peo	246	234	0.0	0.0	0.0	0.0
2p92	4peo	247	235	0.597	0.534	0.608	0.532
2p92	4peo	248	236	0.089	0.126	0.192	0.237
2p92	4peo	249	237	0.121	0.099	0.149	0.084
2p92	4peo	250	238	0.0	0.023	0.0	0.018
2p92	4peo	251	239	0.0	0.022	0.0	0.007
2p92	4peo	253	241	0.001	0.001	0.023	0.02
2p92	4peo	254	242	0.219	0.271	0.195	0.251
2p92	4peo	256	244	0.197	0.319	0.2	0.324
2p92	4peo	257	245	0.0	0.0	0.0	0.0
2p92	4peo	258	246	0.287	0.382	0.257	0.438
2p92	4peo	259	247	0.852	0.891	0.772	0.746
2p92	4peo	260	248	0.633	0.531	0.611	0.606
2p92	4peo	262	250	0.0	0.0	0.0	0.0
2p92	4peo	263	251	0.016	0.022	0.016	0.015
2p92	4peo	264	252	0.208	0.18	0.198	0.281
2p92	4peo	265	253	0.265	0.423	0.642	0.706
2p92	4peo	266	254	0.036	0.035	0.036	0.039
2p92	4peo	267	255	0.0	0.0	0.0	0.0
2p92	4peo	268	256	0.732	0.777	0.719	0.694
2p92	4peo	269	257	0.004	0.004	0.022	0.014
2p92	4peo	271	259	0.394	0.563	0.393	0.583
2p92	4peo	272	260	0.448	0.733	0.466	0.677
2p92	4peo	273	261	0.233	0.162	0.26	0.254
2p92	4peo	274	262	0.0	0.0	0.0	0.0
2p92	4peo	275	263	0.0	0.01	0.0	0.008
2p92	4peo	277	265	0.036	0.067	0.08	0.127
2p92	4peo	279	267	0.0	0.0	0.0	0.0
2p92	4peo	280	268	0.391	0.426	0.452	0.444
2p92	4peo	281	269	0.858	0.82	0.826	0.929
2p92	4peo	282	270	0.0	0.0	0.282	0.281
2p92	4peo	283	271	0.012	0.011	0.005	0.002
2p92	4peo	285	273	0.142	0.154	0.129	0.137
2p92	4peo	287	275	0.0	0.0	0.0	0.0
2p92	4peo	288	276	0.0	0.0	0.0	0.0
2p92	4peo	290	278	0.365	0.479	0.363	0.522
2p92	4peo	291	279	0.171	0.188	0.181	0.266
2p92	4peo	294	282	0.395	0.629	0.411	0.622
2p92	4peo	297	285	0.0	0.0	0.0	0.0
2p92	4peo	301	289	0.0	0.0	0.262	0.333
2p92	4peo	319	303	0.004	0.018	0.193	0.159
2p92	4peo	321	305	0.007	0.065	0.0	0.053
2p92	4peo	322	306	0.0	0.0	0.0	0.0
2p92	4peo	332	316	0.552	0.63	0.501	0.552
2p92	4peo	334	318	0.448	0.382	0.406	0.155
2p92	4peo	335	319	0.723	0.759	0.732	0.748
2p92	4peo	336	320	0.549	0.482	0.603	0.528
2p92	4peo	337	321	0.353	0.588	0.376	0.585
2p92	4peo	339	323	0.063	0.075	0.04	0.012
2p92	4peo	340	324	0.279	0.219	0.343	0.258
2p92	4peo	341	325	0.076	0.098	0.066	0.049
2p92	4peo	342	326	0.024	0.087	0.0	0.013
2p92	4peo	343	327	0.038	0.115	0.036	0.05
2p92	4peo	372	332	0.0	0.0	0.0	0.0
2p92	4peo	373	333	0.0	0.0	0.0	0.0
2p92	4peo	375	335	0.217	0.235	0.131	0.159
2p92	4peo	377	337	0.0	0.0	0.0	0.0
2p92	4peo	378	338	0.028	0.037	0.023	0.022
2p92	4peo	380	340	0.026	0.055	0.023	0.038
2p92	4peo	381	341	0.0	0.0	0.0	0.0
2p92	4peo	382	342	0.0	0.0	0.0	0.0
2p92	4peo	383	343	0.321	0.477	0.324	0.432
2p92	4peo	384	344	0.01	0.05	0.018	0.065
2p92	4peo	388	348	0.0	0.0	0.0	0.0
2p92	4peo	389	349	0.086	0.131	0.073	0.111
2p92	4peo	390	350	0.0	0.0	0.0	0.0
2p92	4peo	391	351	0.11	0.104	0.113	0.129
2p92	4peo	392	352	0.245	0.347	0.311	0.416
2p92	4peo	393	353	0.0	0.0	0.0	0.0
2p92	4peo	397	357	0.0	0.0	0.0	0.0
2p92	4peo	398	358	0.0	0.0	0.0	0.0
2p92	4peo	399	359	0.0	0.0	0.0	0.0
2p92	4peo	400	360	0.036	0.094	0.044	0.082
2p92	4peo	401	361	0.172	0.171	0.149	0.154
2p92	4peo	402	362	0.426	0.426	0.432	0.449
2p92	4peo	403	363	0.449	0.476	0.507	0.53
2p92	4peo	404	364	0.496	0.492	0.528	0.557
2p92	4peo	405	365	0.632	0.723	0.625	0.655
2p92	4peo	406	366	0.796	0.786	0.842	0.755
2p92	4peo	407	367	0.375	0.426	0.315	0.307
2p92	4peo	408	368	0.374	0.431	0.292	0.285
2p92	4peo	409	369	0.488	0.703	0.423	0.385
2p92	4peo	410	370	0.642	0.499	0.649	0.706
2p92	4peo	412	372	0.401	0.434	0.374	0.467
2p92	4peo	414	374	0.0	0.049	0.0	0.056
2p92	4peo	415	375	0.151	0.154	0.144	0.193
2p92	4peo	416	376	0.086	0.142	0.119	0.099
2p92	4peo	417	377	0.0	0.005	0.0	0.004
2p92	4peo	418	378	0.0	0.0	0.0	0.0
2p92	4peo	419	379	0.435	0.661	0.425	0.557
2p92	4peo	420	380	0.488	0.63	0.49	0.515
2p92	4peo	422	382	0.029	0.031	0.056	0.069
2p92	4peo	424	384	0.28	0.33	0.295	0.337
2p92	4peo	425	385	0.049	0.049	0.053	0.057
2p92	4peo	426	386	0.123	0.057	0.074	0.025
2p92	4peo	427	387	0.309	0.471	0.326	0.49
2p92	4peo	428	388	0.296	0.401	0.295	0.405
2p92	4peo	429	389	0.0	0.0	0.0	0.0
2p92	4peo	430	390	0.128	0.105	0.137	0.096
2p92	4peo	431	391	0.061	0.053	0.083	0.057
2p92	4peo	432	392	0.0	0.004	0.0	0.006
2p92	4peo	433	393	0.066	0.083	0.056	0.054
2p92	4peo	434	394	0.103	0.195	0.096	0.124
2p92	4peo	435	395	0.002	0.01	0.012	0.017
2p92	4peo	436	396	0.027	0.027	0.055	0.044
2p92	4peo	437	397	0.541	0.543	0.561	0.561
2p92	4peo	438	398	0.326	0.307	0.31	0.252
2p92	4peo	441	401	0.421	0.379	0.427	0.394
2p92	4peo	442	402	0.749	0.872	0.735	0.822
2p92	4peo	444	404	0.811	0.753	0.821	0.75
2p92	4peo	460	411	0.787	0.793	0.757	0.771
2p92	4peo	461	412	0.377	0.403	0.394	0.404
2p92	4peo	462	413	0.201	0.208	0.219	0.212
2p92	4peo	465	416	0.055	0.023	0.38	0.344
2p92	4peo	466	417	0.563	0.906	0.579	0.715
2p92	4peo	467	418	0.0	0.001	0.001	0.003
2p92	4peo	468	419	0.121	0.16	0.114	0.133
2p92	4peo	469	420	0.705	0.823	0.683	0.746
2p92	4peo	470	421	0.633	0.678	0.654	0.746
2p92	4peo	471	422	0.0	0.002	0.0	0.0
2p92	4peo	472	423	0.0	0.0	0.0	0.006
2p92	4peo	473	424	0.195	0.291	0.228	0.285
2p92	4peo	476	427	0.645	0.89	0.689	0.701
2p92	4peo	479	430	0.139	0.062	0.114	0.019
2p92	4peo	480	431	0.651	0.648	0.672	0.699
2p92	4peo	481	432	0.378	0.447	0.417	0.405
2p92	4peo	482	433	0.397	0.554	0.458	0.467
2p92	4peo	483	434	0.0	0.0	0.0	0.0
2p92	4peo	484	435	0.008	0.01	0.0	0.0
2p92	4peo	485	436	0.707	0.777	0.685	0.849
2p92	4peo	487	438	0.135	0.155	0.136	0.139
2p92	4peo	488	439	0.116	0.133	0.131	0.146
2p92	4peo	489	440	0.322	0.293	0.332	0.324
2p92	4peo	490	441	0.865	0.779	0.689	0.873
2p92	4peo	491	442	0.584	0.561	0.632	0.88
2p92	4peo	492	443	0.146	0.16	0.123	0.094
2p92	4peo	493	444	0.044	0.032	0.013	0.012
2p92	4peo	494	445	0.0	0.0	0.0	0.0
2p92	4peo	495	446	0.156	0.178	0.211	0.262
2p92	4peo	497	448	0.198	0.269	0.246	0.224
2p92	4peo	498	449	0.119	0.093	0.103	0.089
2p92	4peo	499	450	0.0	0.001	0.001	0.001
2p92	4peo	500	451	0.433	0.556	0.455	0.455
2p92	4peo	501	452	0.273	0.239	0.259	0.243
2p92	4peo	502	453	0.142	0.182	0.137	0.153
2p92	4peo	503	454	0.061	0.056	0.159	0.151
2p92	4peo	504	455	0.0	0.0	0.0	0.0
2p92	4peo	505	456	0.0	0.0	0.0	0.0
2p92	4peo	506	457	0.487	0.547	0.512	0.71
2p92	4peo	507	458	0.419	0.441	0.377	0.467
2p92	4peo	508	459	0.031	0.037	0.026	0.04
2p92	4peo	509	460	0.386	0.464	0.335	0.51
2p92	4peo	510	461	0.499	0.548	0.52	0.573
2p92	4peo	511	462	0.245	0.34	0.245	0.247
2p92	4peo	512	463	0.154	0.141	0.159	0.142
2p92	4peo	513	464	0.692	0.622	0.681	0.631
2p92	4peo	514	465	0.212	0.081	0.206	0.081
2p92	4peo	515	466	0.162	0.183	0.138	0.139
2p92	4peo	516	467	0.501	0.673	0.474	0.749
2p92	4peo	517	468	0.637	0.673	0.667	0.632
2p92	4peo	518	469	0.662	0.942	0.644	0.948
2p92	4peo	519	470	0.786	0.746	0.759	0.816
2p92	4peo	520	471	0.566	0.49	0.515	0.535
2p92	4peo	521	472	0.607	0.467	0.58	0.306
2p92	4peo	522	473	0.406	0.46	0.384	0.363
2p92	4peo	523	474	0.892	0.517	0.911	0.539
2p92	4peo	524	475	0.026	0.013	0.023	0.026
2p92	4peo	525	476	0.878	0.993	0.89	0.956
2p92	4peo	526	477	0.831	0.844	0.838	0.708
2p92	4peo	527	478	0.0	0.0	0.0	0.0
2p92	4peo	528	479	0.129	0.115	0.13	0.158
2p92	4peo	529	480	0.318	0.382	0.28	0.366
2p92	4peo	530	481	0.267	0.304	0.258	0.419
2p92	4peo	532	483	0.078	0.19	0.018	0.039
2p92	4peo	533	484	0.823	0.852	0.805	0.9
2p92	4peo	534	485	0.301	0.31	0.305	0.346
2p92	4peo	535	486	0.254	0.128	0.253	0.047
2p92	4peo	536	487	0.395	0.569	0.379	0.38
2p92	4peo	538	489	0.794	0.798	0.813	0.807
2p92	4peo	539	490	0.0	0.0	0.0	0.0
2p92	4peo	541	492	0.237	0.24	0.247	0.244
2p92	4peo	542	493	0.0	0.0	0.0	0.0
2p92	4peo	543	494	0.603	0.63	0.576	0.705
2p92	4peo	544	495	0.631	0.613	0.613	0.613
2p92	4peo	546	497	0.645	0.675	0.648	0.636
2p92	4peo	547	498	0.076	0.1	0.084	0.092
2p92	4peo	549	500	0.812	0.571	0.8	0.571
2p92	4peo	550	501	0.596	0.766	0.636	0.83
2p92	4peo	551	502	0.936	0.868	0.926	0.874
2p92	4peo	552	503	0.229	0.207	0.235	0.317
2p92	4peo	555	506	0.341	0.321	0.324	0.289
2p92	4peo	557	508	0.031	0.027	0.092	0.076
2p92	4peo	558	509	0.22	0.213	0.184	0.171
2p92	4peo	559	510	0.0	0.004	0.0	0.026
2p92	4peo	560	511	0.26	0.294	0.287	0.317
2p92	4peo	562	513	0.113	0.17	0.12	0.131
2p92	4peo	563	514	0.364	0.483	0.364	0.494
2p92	4peo	564	515	0.733	0.72	0.732	0.676
2p92	4peo	565	516	0.72	0.577	0.716	0.572
2p92	4peo	567	518	0.371	0.466	0.342	0.455
2p92	4peo	568	519	0.284	0.513	0.284	0.549
2p92	4peo	569	520	0.116	0.047	0.084	0.159
2p92	4peo	570	521	0.609	0.645	0.674	0.404
2p92	4peo	571	522	0.765	0.8	0.789	0.622
2p92	4peo	572	523	0.876	0.694	0.83	0.764
2p92	4peo	573	524	0.0	0.0	0.0	0.0
2p92	4peo	574	525	0.587	0.927	0.61	0.927
2p92	4peo	575	526	0.348	0.359	0.35	0.337
2p92	4peo	576	527	0.0	0.0	0.0	0.0
2p92	4peo	577	528	0.197	0.213	0.195	0.247
2p92	4peo	578	529	0.715	0.8	0.663	0.879
2p92	4peo	579	530	0.568	0.696	0.515	0.44
2p92	4peo	580	531	0.0	0.002	0.0	0.0
2p92	4peo	581	532	0.789	0.644	0.767	0.644
2p92	4peo	582	533	0.703	0.602	0.701	0.594
2p92	4peo	584	535	0.763	0.841	0.776	0.75
2p92	4peo	586	537	0.013	0.01	0.003	0.004
2p92	4peo	587	538	0.773	0.705	0.805	0.686
2p92	4peo	588	539	0.66	0.552	0.85	0.721
2p92	4peo	589	540	0.084	0.101	0.087	0.109
2p92	4peo	590	541	0.352	0.354	0.35	0.366
2p92	4peo	591	542	0.132	0.173	0.137	0.167
2p92	4peo	592	543	0.497	0.372	0.838	0.716
2p92	4peo	594	545	0.736	0.766	0.734	0.771
2p92	4peo	595	546	0.0	0.0	0.0	0.0
2p92	4peo	597	548	0.484	0.731	0.552	0.526
2p92	4peo	599	550	0.201	0.174	0.217	0.231
2p92	4peo	600	551	0.0	0.0	0.0	0.0
2p92	4peo	601	552	0.154	0.194	0.119	0.118
2p92	4peo	603	554	0.394	0.48	0.392	0.491
2p92	4peo	604	555	0.0	0.0	0.0	0.0
2p92	4peo	605	556	0.0	0.0	0.0	0.0
2p92	4peo	606	557	0.025	0.012	0.02	0.026
2p92	4peo	607	558	0.265	0.43	0.285	0.355
2p92	4peo	610	561	0.0	0.0	0.0	0.0
2p92	4peo	611	562	0.0	0.0	0.0	0.0
2p92	4peo	612	563	0.606	0.531	0.611	0.531
2p92	4peo	613	564	0.274	0.211	0.103	0.153
2p92	4peo	614	565	0.099	0.115	0.121	0.333
2p92	4peo	615	566	0.005	0.041	0.0	0.046
2p92	4peo	616	567	0.0	0.017	0.0	0.038
2p92	4peo	618	569	0.157	0.153	0.203	0.198
2p92	4peo	620	571	0.546	0.647	0.595	0.506
2p92	4peo	621	572	0.199	0.319	0.198	0.324
2p92	4peo	622	573	0.0	0.0	0.0	0.0
2p92	4peo	623	574	0.225	0.222	0.231	0.266
2p92	4peo	625	576	0.195	0.227	0.214	0.236
2p92	4peo	626	577	0.451	0.421	0.445	0.412
2p92	4peo	627	578	0.0	0.0	0.0	0.0
2p92	4peo	628	579	0.022	0.025	0.013	0.032
2p92	4peo	629	580	0.183	0.116	0.205	0.226
2p92	4peo	630	581	0.301	0.332	0.238	0.212
2p92	4peo	631	582	0.052	0.059	0.028	0.025
2p92	4peo	632	583	0.0	0.0	0.0	0.0
2p92	4peo	633	584	0.796	0.876	0.787	0.734
2p92	4peo	634	585	0.004	0.054	0.009	0.016
2p92	4peo	636	587	0.408	0.545	0.43	0.508
2p92	4peo	637	588	0.523	0.564	0.474	0.441
2p92	4peo	639	590	0.0	0.0	0.0	0.0
2p92	4peo	640	591	0.0	0.0	0.0	0.0
2p92	4peo	641	592	0.18	0.284	0.188	0.218
2p92	4peo	643	594	0.0	0.0	0.0	0.0
2p92	4peo	644	595	0.0	0.0	0.0	0.0
2p92	4peo	645	596	0.361	0.415	0.429	0.47
2p92	4peo	647	598	0.0	0.0	0.0	0.0
2p92	4peo	648	599	0.0	0.0	0.01	0.007
2p92	4peo	649	600	0.726	0.743	0.784	0.754
2p92	4peo	650	601	0.173	0.233	0.124	0.137
2p92	4peo	651	602	0.119	0.122	0.109	0.116
2p92	4peo	652	603	0.0	0.0	0.0	0.0
2p92	4peo	653	604	0.0	0.002	0.0	0.0
2p92	4peo	655	606	0.367	0.365	0.394	0.442
2p92	4peo	657	608	0.092	0.078	0.128	0.078
2p92	4peo	658	609	0.924	0.959	0.896	0.982
2p92	4peo	659	610	0.376	0.492	0.392	0.52
2p92	4peo	661	612	0.0	0.0	0.0	0.0
2p92	4peo	662	613	0.0	0.0	0.0	0.0
2p92	4peo	682	629	0.236	0.189	0.556	0.534
2p92	4peo	684	631	0.207	0.24	0.02	0.056
2p92	4peo	686	633	0.0	0.073	0.0	0.08
2p92	4peo	687	634	0.0	0.0	0.0	0.0
2p92	4peo	688	635	0.287	0.35	0.335	0.438
2p92	4peo	691	638	0.335	0.568	0.314	0.3
2p92	4peo	692	639	0.0	0.568	0.0	0.005
2p92	4peo	695	642	0.325	0.568	0.349	0.422
2p92	4peo	696	643	0.016	0.568	0.033	0.021
2p92	4peo	701	648	0.239	0.568	0.21	0.218
2p92	4peo	702	649	0.806	0.568	0.806	0.851
