pred	succ	p-cen	s-cen	p_q-score	p_s-score	s_q-score	s_s-score
5aje	5fjd	1	1	0.5	0.3	0.5	0.3
5aje	5fjd	2	2	1.0	0	1.0	0
5aje	5fjd	3	3	1.0	0	1.0	0
5aje	5fjd	4	4	0.957	0.8	0.957	0.8
5aje	5fjd	5	5	0.834	0.806	0.834	0.806
5aje	5fjd	6	6	0.864	0.59	0.864	0.59
5aje	5fjd	7	7	0.324	0.265	0.332	0.312
5aje	5fjd	8	8	0.082	0.076	0.082	0.104
5aje	5fjd	9	9	0.0	0.035	0.0	0.01
5aje	5fjd	10	10	0.178	0.178	0.195	0.194
5aje	5fjd	11	11	0.0	0.007	0.0	0.004
5aje	5fjd	12	12	0.0	0.0	0.0	0.001
5aje	5fjd	13	13	0.477	0.398	0.453	0.357
5aje	5fjd	14	14	0.441	0.287	0.456	0.244
5aje	5fjd	15	15	0.195	0.275	0.19	0.249
5aje	5fjd	16	16	0.1	0.054	0.1	0.054
5aje	5fjd	17	17	0.24	0.241	0.258	0.257
5aje	5fjd	18	18	0.101	0.237	0.081	0.178
5aje	5fjd	19	19	0.042	0.064	0.044	0.058
5aje	5fjd	20	20	0.032	0.064	0.067	0.181
5aje	5fjd	21	21	0.137	0.177	0.189	0.207
5aje	5fjd	22	22	0.0	0.0	0.0	0.0
5aje	5fjd	23	23	0.192	0.198	0.245	0.246
5aje	5fjd	24	24	0.803	0.792	0.784	0.733
5aje	5fjd	25	25	0.076	0.077	0.093	0.082
5aje	5fjd	26	26	0.0	0.0	0.0	0.0
5aje	5fjd	27	27	0.001	0.007	0.017	0.02
5aje	5fjd	28	28	0.497	0.502	0.519	0.552
5aje	5fjd	29	29	0.0	0.014	0.0	0.04
5aje	5fjd	30	30	0.057	0.052	0.053	0.064
5aje	5fjd	31	31	0.0	0.0	0.0	0.0
5aje	5fjd	32	32	0.771	0.734	0.771	0.734
5aje	5fjd	33	33	0.62	0.753	0.609	0.765
5aje	5fjd	34	34	0.557	0.521	0.526	0.694
5aje	5fjd	35	35	0.0	0.0	0.0	0.0
5aje	5fjd	36	36	0.45	0.445	0.469	0.492
5aje	5fjd	37	37	0.038	0.046	0.064	0.07
5aje	5fjd	38	38	0.536	0.576	0.541	0.507
5aje	5fjd	39	39	0.243	0.249	0.242	0.275
5aje	5fjd	40	40	0.507	0.587	0.49	0.506
5aje	5fjd	41	41	0.003	0.001	0.003	0.003
5aje	5fjd	42	42	0.478	0.567	0.478	0.567
5aje	5fjd	43	43	0.76	0.54	0.76	0.54
5aje	5fjd	44	44	0.288	0.287	0.27	0.269
5aje	5fjd	45	45	0.055	0.083	0.044	0.1
5aje	5fjd	46	46	0.007	0.065	0.0	0.043
5aje	5fjd	47	47	0.303	0.313	0.37	0.349
5aje	5fjd	48	48	0.797	0.877	0.799	0.887
5aje	5fjd	49	49	0.0	0.0	0.013	0.009
5aje	5fjd	50	50	0.0	0.0	0.0	0.0
5aje	5fjd	51	51	0.616	0.707	0.608	0.35
5aje	5fjd	52	52	0.212	0.203	0.18	0.177
5aje	5fjd	53	53	0.364	0.53	0.378	0.357
5aje	5fjd	54	54	0.216	0.162	0.205	0.158
5aje	5fjd	55	55	0.215	0.196	0.202	0.254
5aje	5fjd	56	56	0.454	0.485	0.485	0.544
5aje	5fjd	57	57	0.842	0.897	0.815	0.744
5aje	5fjd	58	58	0.381	0.409	0.396	0.388
5aje	5fjd	59	59	0.0	0.0	0.0	0.0
5aje	5fjd	60	60	0.743	0.781	0.781	0.852
5aje	5fjd	61	61	0.027	0.027	0.033	0.031
5aje	5fjd	62	62	0.251	0.264	0.292	0.401
5aje	5fjd	63	63	0.434	0.596	0.458	0.514
5aje	5fjd	64	64	0.225	0.569	0.185	0.175
5aje	5fjd	65	65	0.18	0.169	0.197	0.306
5aje	5fjd	66	66	0.335	0.169	0.316	0.161
5aje	5fjd	67	67	0.133	0.175	0.144	0.267
5aje	5fjd	68	68	0.584	0.666	0.587	0.578
5aje	5fjd	69	69	0.899	0.806	0.891	0.673
5aje	5fjd	70	70	0.163	0.116	0.175	0.155
5aje	5fjd	71	71	0.324	0.437	0.296	0.426
5aje	5fjd	72	72	0.583	0.283	0.583	0.283
5aje	5fjd	73	73	0.0	0.0	0.0	0.0
5aje	5fjd	74	74	0.0	0.0	0.0	0.0
5aje	5fjd	75	75	0.0	0.0	0.0	0.0
5aje	5fjd	76	76	0.162	0.283	0.159	0.116
5aje	5fjd	77	77	0.125	0.072	0.117	0.122
5aje	5fjd	78	78	0.473	0.472	0.46	0.469
5aje	5fjd	79	79	0.255	0.535	0.251	0.498
5aje	5fjd	80	80	0.61	0.375	0.643	0.648
5aje	5fjd	81	81	0.833	0.787	0.833	0.787
5aje	5fjd	82	82	0.0	0.0	0.0	0.0
5aje	5fjd	83	83	1.0	0	1.0	0
5aje	5fjd	84	84	0.0	0.0	0.0	0.0
5aje	5fjd	85	85	0.024	0.037	0.024	0.037
5aje	5fjd	86	86	1.0	0	1.0	0
5aje	5fjd	87	87	0.445	0.48	0.436	0.397
5aje	5fjd	88	88	0.156	0.156	0.172	0.206
5aje	5fjd	89	89	0.7	0.63	0.641	0.746
5aje	5fjd	90	90	0.184	0.197	0.116	0.13
5aje	5fjd	91	91	0.0	0.0	0.0	0.0
5aje	5fjd	92	92	0.0	0.0	0.0	0.0
5aje	5fjd	93	93	0.895	0.715	0.926	0.895
5aje	5fjd	94	94	0.0	0.0	0.0	0.0
5aje	5fjd	95	95	0.288	0.302	0.265	0.287
5aje	5fjd	96	96	0.12	0.117	0.116	0.14
5aje	5fjd	97	97	0.671	0.76	0.671	0.76
5aje	5fjd	98	98	0.313	0.344	0.318	0.334
5aje	5fjd	100	100	0.024	0.036	0.027	0.044
5aje	5fjd	101	101	0.156	0.116	0.171	0.214
5aje	5fjd	103	103	0.002	0.002	0.01	0.009
5aje	5fjd	104	104	0.0	0.0	0.0	0.0
5aje	5fjd	105	105	0.326	0.378	0.275	0.298
5aje	5fjd	106	106	0.0	0.025	0.005	0.06
5aje	5fjd	107	107	0.066	0.108	0.054	0.078
5aje	5fjd	108	108	0.674	0.726	0.674	0.726
5aje	5fjd	113	113	0.554	0.654	0.563	0.648
5aje	5fjd	122	121	0.843	0.846	0.843	0.846
5aje	5fjd	123	122	0.703	0.573	0.703	0.573
5aje	5fjd	124	123	1.0	0	1.0	0
5aje	5fjd	125	124	0.58	0.744	0.561	0.718
5aje	5fjd	126	125	0.594	0.595	0.597	0.784
5aje	5fjd	127	126	0.552	0.678	0.544	0.565
5aje	5fjd	128	127	0.097	0.094	0.097	0.094
5aje	5fjd	129	128	0.68	0.376	0.702	0.822
5aje	5fjd	130	129	0.0	0	0.0	0
5aje	5fjd	131	130	0.105	0.101	0.096	0.07
5aje	5fjd	132	131	0.094	0.117	0.095	0.119
5aje	5fjd	133	132	0.776	0.645	0.787	0.653
5aje	5fjd	134	133	0.0	0.01	0.003	0.015
5aje	5fjd	135	134	0.0	0.0	0.0	0.0
5aje	5fjd	136	135	0.0	0.0	0.0	0.0
5aje	5fjd	137	136	0.035	0.092	0.036	0.081
5aje	5fjd	138	137	0.022	0.064	0.018	0.045
5aje	5fjd	139	138	0.705	0.753	0.747	0.835
5aje	5fjd	140	139	0.044	0.083	0.076	0.158
5aje	5fjd	141	140	0.804	0.785	0.689	0.663
5aje	5fjd	142	141	0.437	0.404	0.451	0.497
5aje	5fjd	143	142	0.0	0.002	0.0	0.007
5aje	5fjd	144	143	0.74	0.804	0.74	0.804
5aje	5fjd	145	144	0.514	0.625	0.455	0.465
5aje	5fjd	146	145	0.1	0	0.1	0
5aje	5fjd	147	146	0.0	0.0	0.007	0.011
5aje	5fjd	148	147	0.0	0.0	0.0	0.0
5aje	5fjd	149	148	0.627	0.617	0.637	0.611
5aje	5fjd	150	149	0.532	0.575	0.54	0.569
5aje	5fjd	151	150	0.088	0.065	0.08	0.074
5aje	5fjd	152	151	0.465	0.601	0.431	0.392
5aje	5fjd	153	152	0.765	0.681	0.755	0.854
5aje	5fjd	154	153	0.0	0.0	0.0	0.0
5aje	5fjd	155	154	0.0	0.001	0.009	0.011
5aje	5fjd	156	155	0.03	0	0.158	0
5aje	5fjd	157	156	0.638	0.654	0.638	0.654
5aje	5fjd	158	157	1.0	0	1.0	0
5aje	5fjd	159	158	0.0	0.0	0.0	0.0
5aje	5fjd	160	159	0.847	0.731	0.847	0.731
5aje	5fjd	161	160	0.519	0.604	0.529	0.655
5aje	5fjd	162	161	0.853	0.912	0.853	0.912
5aje	5fjd	163	162	0.0	0.0	0.0	0.001
5aje	5fjd	164	163	0.316	0.364	0.326	0.373
5aje	5fjd	165	164	0.184	0.197	0.193	0.199
5aje	5fjd	166	165	0.451	0.548	0.403	0.339
5aje	5fjd	167	166	0.428	0.454	0.409	0.491
5aje	5fjd	168	167	0.108	0.141	0.098	0.048
5aje	5fjd	169	168	0.818	0.255	0.818	0.255
5aje	5fjd	170	169	0.517	0.511	0.543	0.508
5aje	5fjd	171	170	0.592	0.544	0.603	0.521
5aje	5fjd	172	171	0.332	0.25	0.268	0.233
5aje	5fjd	173	172	0.066	0.064	0.08	0.078
5aje	5fjd	174	173	0.078	0.095	0.07	0.114
5aje	5fjd	175	174	0.02	0.142	0.033	0.011
5aje	5fjd	176	175	0.176	0.179	0.151	0.258
5aje	5fjd	177	176	0.789	0.808	0.789	0.808
5aje	5fjd	178	177	0.124	0.093	0.158	0.201
5aje	5fjd	179	178	0.655	0.666	0.677	0.686
5aje	5fjd	180	179	0.185	0.255	0.111	0.135
5aje	5fjd	181	180	0.0	0.021	0.0	0.016
5aje	5fjd	182	181	0.0	0.008	0.0	0.045
5aje	5fjd	183	182	0.269	0.265	0.322	0.399
5aje	5fjd	184	183	0.524	0.617	0.524	0.617
5aje	5fjd	185	184	0.309	0.414	0.309	0.414
5aje	5fjd	186	185	0.742	0.767	0.787	0.85
5aje	5fjd	187	186	0.071	0.112	0.083	0.161
5aje	5fjd	188	187	0.117	0.153	0.102	0.099
5aje	5fjd	189	188	0.427	0.468	0.432	0.582
5aje	5fjd	190	189	0.178	0.189	0.141	0.147
5aje	5fjd	191	190	0.871	0.893	0.872	0.943
5aje	5fjd	192	191	0.879	0.893	0.872	0.96
5aje	5fjd	193	192	0.495	0.686	0.475	0.515
5aje	5fjd	194	193	0.26	0.268	0.257	0.275
5aje	5fjd	195	194	0.639	0.689	0.643	0.721
5aje	5fjd	196	195	0.231	0.392	0.233	0.365
5aje	5fjd	197	196	0.0	0.0	0.0	0.005
5aje	5fjd	198	197	0.277	0.411	0.283	0.419
5aje	5fjd	199	198	1.0	0	1.0	0
5aje	5fjd	200	199	0.646	0.671	0.642	0.705
5aje	5fjd	201	200	0.701	0.734	0.76	0.648
5aje	5fjd	202	201	0.834	0.873	0.81	0.876
5aje	5fjd	203	202	0.359	0.369	0.396	0.402
5aje	5fjd	204	203	0.476	0.509	0.489	0.488
5aje	5fjd	205	204	0.54	0.572	0.532	0.561
5aje	5fjd	206	205	0.145	0.159	0.145	0.159
5aje	5fjd	207	206	0.318	0.32	0.362	0.308
5aje	5fjd	208	207	0.849	0.74	0.865	0.86
5aje	5fjd	209	208	0.712	0.739	0.754	0.777
5aje	5fjd	210	209	0.079	0.079	0.07	0.076
5aje	5fjd	211	210	0.208	0.27	0.258	0.3
5aje	5fjd	212	211	0.501	0.653	0.489	0.604
5aje	5fjd	213	212	0.917	0.662	0.915	0.662
5aje	5fjd	214	213	0.082	0.064	0.082	0.064
5aje	5fjd	215	214	0.863	0.893	0.932	0.932
5aje	5fjd	216	215	0.531	0.628	0.55	0.592
5aje	5fjd	217	216	0.324	0.358	0.255	0.4
5aje	5fjd	218	217	0.725	0.885	0.715	0.873
5aje	5fjd	219	218	0.921	0.636	0.86	0.733
5aje	5fjd	220	219	0.377	0.468	0.377	0.468
5aje	5fjd	221	220	0.513	0.36	0.521	0.418
5aje	5fjd	222	221	0.053	0.19	0.055	0.253
5aje	5fjd	223	222	0.0	0.116	0.0	0.074
5aje	5fjd	224	223	0.094	0.135	0.077	0.16
5aje	5fjd	225	224	0.207	0.345	0.216	0.239
5aje	5fjd	226	225	0.116	0.236	0.091	0.212
5aje	5fjd	227	226	0.083	0.104	0.059	0.067
5aje	5fjd	228	227	0.342	0.413	0.345	0.533
5aje	5fjd	229	228	0.575	0.627	0.537	0.561
5aje	5fjd	230	229	0.395	0.356	0.406	0.471
5aje	5fjd	231	230	0.35	0.351	0.328	0.325
5aje	5fjd	232	231	0.0	0.0	0.0	0.0
5aje	5fjd	233	232	1.0	0	1.0	0
5aje	5fjd	234	233	0.582	0.528	0.555	0.439
5aje	5fjd	235	234	0.371	0.381	0.357	0.371
5aje	5fjd	236	235	0.76	0.68	0.76	0.68
5aje	5fjd	237	236	0.139	0.144	0.077	0.071
5aje	5fjd	238	237	0.0	0.0	0.0	0.0
5aje	5fjd	239	238	0.107	0.063	0.1	0.042
5aje	5fjd	240	239	0.0	0.0	0.0	0.0
5aje	5fjd	241	240	0.02	0.023	0.047	0.06
5aje	5fjd	242	241	0.768	0.762	0.736	0.783
5aje	5fjd	243	242	0.533	0.428	0.6	0.654
5aje	5fjd	244	243	0.49	0.457	0.503	0.471
5aje	5fjd	245	244	0.042	0.044	0.022	0.029
5aje	5fjd	246	245	0.73	0.692	0.73	0.692
5aje	5fjd	247	246	0.0	0.0	0.0	0.0
5aje	5fjd	248	247	0.0	0.0	0.0	0.0
5aje	5fjd	249	248	0.01	0.008	0.001	0.021
5aje	5fjd	250	249	0.128	0.164	0.144	0.171
5aje	5fjd	251	250	0.272	0.301	0.284	0.312
5aje	5fjd	252	251	0.653	0.563	0.652	0.617
5aje	5fjd	253	252	0.967	0.0	0.967	0.0
5aje	5fjd	254	253	0.031	0.062	0.026	0.048
5aje	5fjd	255	254	0.0	0.0	0.0	0.0
5aje	5fjd	256	255	0.246	0.217	0.291	0.281
5aje	5fjd	257	256	0.296	0.274	0.317	0.239
5aje	5fjd	258	257	0.57	0.791	0.563	0.713
5aje	5fjd	259	258	0.202	0.316	0.136	0.127
5aje	5fjd	260	259	0.0	0.0	0.0	0.0
5aje	5fjd	261	260	0.0	0.0	0.0	0.0
5aje	5fjd	262	261	0.0	0.018	0.0	0.02
5aje	5fjd	263	262	0.118	0.098	0.101	0.16
5aje	5fjd	264	263	0.0	0.0	0.0	0.0
5aje	5fjd	265	264	0.0	0.0	0.0	0.0
5aje	5fjd	266	265	0.0	0.0	0.0	0.0
5aje	5fjd	267	266	0.797	0.77	0.705	0.748
5aje	5fjd	268	267	0.574	0.661	0.606	0.73
5aje	5fjd	269	268	0.469	0.563	0.499	0.583
5aje	5fjd	270	269	0.099	0.191	0.089	0.072
5aje	5fjd	271	270	0.0	0.0	0.0	0.0
5aje	5fjd	272	271	0.491	0.493	0.491	0.493
5aje	5fjd	273	272	0.239	0.26	0.212	0.209
5aje	5fjd	274	273	0.0	0.0	0.0	0.0
5aje	5fjd	275	274	0.0	0.0	0.0	0.0
5aje	5fjd	276	275	0.0	0.0	0.0	0.0
5aje	5fjd	277	276	0.0	0.0	0.0	0.001
5aje	5fjd	278	277	0.0	0.0	0.0	0.0
5aje	5fjd	279	278	0.062	0.064	0.057	0.052
5aje	5fjd	280	279	0.193	0.179	0.191	0.23
5aje	5fjd	281	280	0.197	0.286	0.187	0.224
5aje	5fjd	282	281	0.503	0.547	0.568	0.601
5aje	5fjd	283	282	0.422	0.518	0.422	0.518
5aje	5fjd	284	283	0.634	0.681	0.634	0.681
5aje	5fjd	285	284	0.023	0.04	0.005	0.016
5aje	5fjd	286	285	0.22	0.216	0.168	0.169
5aje	5fjd	287	286	0.485	0.487	0.485	0.487
5aje	5fjd	288	287	0.424	0.48	0.405	0.407
5aje	5fjd	289	288	0.515	0.485	0.555	0.56
5aje	5fjd	290	289	0.0	0.0	0.0	0.0
5aje	5fjd	291	290	0.13	0.168	0.175	0.189
5aje	5fjd	292	291	0.65	0.65	0.65	0.65
5aje	5fjd	293	292	0.706	0.825	0.706	0.825
5aje	5fjd	294	293	0.132	0.133	0.17	0.164
5aje	5fjd	295	294	0.473	0.507	0.47	0.51
5aje	5fjd	296	295	0.198	0.179	0.253	0.236
5aje	5fjd	297	296	0.723	0.87	0.749	0.67
5aje	5fjd	298	297	0.485	0.636	0.482	0.473
5aje	5fjd	299	298	0.646	0.848	0.646	0.848
5aje	5fjd	300	299	0.097	0.09	0.081	0.072
5aje	5fjd	301	300	0.926	0.939	0.926	0.939
5aje	5fjd	302	301	0.836	0.887	0.836	0.887
5aje	5fjd	303	302	0.505	0.473	0.567	0.518
5aje	5fjd	304	303	0.0	0.0	0.0	0.0
5aje	5fjd	305	304	0.0	0.0	0.0	0.0
5aje	5fjd	306	305	0.0	0.0	0.0	0.0
5aje	5fjd	307	306	0.0	0.0	0.0	0.0
5aje	5fjd	308	307	0.0	0.0	0.0	0.0
5aje	5fjd	309	308	0.012	0.011	0.005	0.009
5aje	5fjd	310	309	0.114	0.061	0.108	0.084
5aje	5fjd	311	310	0.607	0.738	0.607	0.738
5aje	5fjd	312	311	0.479	0.657	0.516	0.674
5aje	5fjd	313	312	0.843	0.581	0.843	0.581
5aje	5fjd	314	313	0.113	0.001	0.122	0.001
5aje	5fjd	315	314	0.0	0.0	0.0	0.0
5aje	5fjd	316	315	0.0	0.0	0.0	0.0
5aje	5fjd	317	316	0.009	0.006	0.03	0.024
5aje	5fjd	318	317	0.0	0.0	0.0	0.0
5aje	5fjd	319	318	0.489	0.505	0.51	0.488
5aje	5fjd	320	319	0.536	0.568	0.542	0.579
5aje	5fjd	321	320	0.147	0.167	0.166	0.143
5aje	5fjd	322	321	0.0	0.001	0.003	0.016
5aje	5fjd	323	322	0.773	0.696	0.773	0.696
5aje	5fjd	324	323	0.308	0.301	0.308	0.309
5aje	5fjd	325	324	0.296	0.537	0.297	0.4
5aje	5fjd	326	325	0.664	0.658	0.664	0.658
5aje	5fjd	327	326	0.631	0.63	0.636	0.63
5aje	5fjd	328	327	0.334	0.384	0.327	0.371
5aje	5fjd	329	328	0.0	0.129	0.0	0.12
5aje	5fjd	330	329	0.311	0.35	0.26	0.302
5aje	5fjd	331	330	0.585	0.57	0.585	0.57
5aje	5fjd	332	331	0.773	0.389	0.773	0.389
5aje	5fjd	333	332	0.604	0.625	0.651	0.643
5aje	5fjd	334	333	0.41	0.366	0.366	0.339
5aje	5fjd	335	334	0.0	0.0	0.0	0.0
5aje	5fjd	336	335	0.0	0.0	0.0	0.0
5aje	5fjd	337	336	0.176	0.185	0.116	0.106
5aje	5fjd	338	337	0.0	0.0	0.0	0.0
5aje	5fjd	339	338	0.0	0.0	0.0	0.0
5aje	5fjd	340	339	0.417	0.62	0.435	0.436
5aje	5fjd	341	340	0.305	0.288	0.335	0.327
5aje	5fjd	342	341	0.055	0.086	0.056	0.096
5aje	5fjd	343	342	0.519	0.832	0.51	0.825
5aje	5fjd	344	343	0.127	0.193	0.105	0.108
5aje	5fjd	345	344	0.353	0.416	0.358	0.439
5aje	5fjd	346	345	0.291	0.267	0.377	0.342
5aje	5fjd	347	346	0.525	0.541	0.525	0.541
5aje	5fjd	348	347	0.253	0.25	0.263	0.26
5aje	5fjd	349	348	0.0	0.0	0.0	0.0
5aje	5fjd	350	349	0.0	0.0	0.0	0.0
5aje	5fjd	351	350	0.105	0.106	0.08	0.075
5aje	5fjd	352	351	0.058	0.074	0.056	0.087
5aje	5fjd	353	352	0.0	0.0	0.0	0.001
5aje	5fjd	354	353	0.483	0.514	0.459	0.463
5aje	5fjd	355	354	0.599	0.785	0.605	0.748
5aje	5fjd	356	355	0.851	0.775	0.839	0.686
5aje	5fjd	357	356	0.096	0.161	0.097	0.153
5aje	5fjd	358	357	0.284	0.418	0.297	0.237
5aje	5fjd	359	358	0.447	0.55	0.476	0.589
5aje	5fjd	360	359	1.0	0	1.0	0
5aje	5fjd	361	360	1.0	0	1.0	0
5aje	5fjd	362	361	1.0	0.5	1.0	0.5
5aje	5fjd	363	362	0.748	0.764	0.743	0.77
5aje	5fjd	364	363	0.864	0.609	0.864	0.609
5aje	5fjd	365	364	0.0	0.0	0.0	0.0
5aje	5fjd	366	365	0.099	0.1	0.068	0.088
5aje	5fjd	367	366	0.0	0.003	0.0	0.001
5aje	5fjd	368	367	0.173	0.261	0.201	0.197
5aje	5fjd	369	368	0.169	0.127	0.178	0.118
5aje	5fjd	370	369	0.166	0.073	0.182	0.086
5aje	5fjd	371	370	0.517	0.441	0.482	0.523
5aje	5fjd	372	371	0.453	0.253	0.482	0.532
5aje	5fjd	373	372	0.239	0.277	0.213	0.253
5aje	5fjd	374	373	0.773	0.827	0.729	0.744
5aje	5fjd	375	374	0.247	0.254	0.26	0.256
5aje	5fjd	376	375	0.096	0.107	0.085	0.087
5aje	5fjd	377	376	0.092	0.06	0.071	0.04
5aje	5fjd	378	377	0.029	0.078	0.025	0.127
5aje	5fjd	379	378	0.028	0.071	0.037	0.136
5aje	5fjd	380	379	0.0	0.0	0.0	0.0
5aje	5fjd	381	380	0.573	0.813	0.608	0.592
5aje	5fjd	382	381	0.644	0.753	0.63	0.712
5aje	5fjd	383	382	0.124	0.063	0.063	0.074
5aje	5fjd	384	383	0.061	0.059	0.026	0.03
5aje	5fjd	385	384	0.029	0.033	0.01	0.017
5aje	5fjd	386	385	0.463	0.526	0.485	0.567
5aje	5fjd	387	386	0.0	0.01	0.0	0.024
5aje	5fjd	388	387	0.043	0.047	0.049	0.048
5aje	5fjd	389	388	0.0	0.0	0.0	0.0
5aje	5fjd	390	389	0.699	0.767	0.699	0.767
5aje	5fjd	391	390	0.608	0.776	0.616	0.695
5aje	5fjd	392	391	0.606	0.789	0.633	0.876
5aje	5fjd	393	392	0.046	0.029	0.069	0.034
5aje	5fjd	394	393	0.252	0.246	0.194	0.198
5aje	5fjd	395	394	0.0	0.0	0.0	0.0
5aje	5fjd	396	395	0.305	0.31	0.268	0.314
5aje	5fjd	397	396	0.61	0.609	0.622	0.72
5aje	5fjd	398	397	0.67	0.827	0.67	0.827
5aje	5fjd	399	398	0.018	0.017	0.003	0.006
5aje	5fjd	400	399	0.482	0.573	0.476	0.569
5aje	5fjd	401	400	0.669	0.615	0.669	0.615
5aje	5fjd	402	401	0.254	0.26	0.317	0.316
5aje	5fjd	403	402	0.063	0.134	0.064	0.108
5aje	5fjd	404	403	0.001	0.029	0.001	0.03
5aje	5fjd	405	404	0.275	0.296	0.297	0.318
5aje	5fjd	406	405	0.607	0.607	0.607	0.607
5aje	5fjd	407	406	0.331	0.321	0.313	0.299
5aje	5fjd	408	407	0.33	0.344	0.337	0.319
5aje	5fjd	409	408	0.817	0.751	0.817	0.751
5aje	5fjd	410	409	0.139	0.218	0.158	0.223
5aje	5fjd	411	410	0.0	0.0	0.0	0.0
5aje	5fjd	412	411	0.204	0.166	0.233	0.191
5aje	5fjd	413	412	0.217	0.179	0.197	0.213
5aje	5fjd	414	413	0.382	0.618	0.35	0.374
5aje	5fjd	415	414	0.892	0.891	0.875	0.939
5aje	5fjd	416	415	0.372	0.393	0.419	0.453
5aje	5fjd	417	416	0.485	0.64	0.493	0.752
5aje	5fjd	418	417	0.306	0.405	0.315	0.224
5aje	5fjd	419	418	0.027	0.076	0.027	0.047
5aje	5fjd	420	419	0.304	0.292	0.311	0.306
5aje	5fjd	421	420	0.0	0.0	0.0	0.0
5aje	5fjd	422	421	0.232	0.429	0.245	0.319
5aje	5fjd	423	422	0.57	0.639	0.593	0.597
5aje	5fjd	424	423	0.629	0.736	0.629	0.736
5aje	5fjd	425	424	0.096	0.157	0.091	0.124
5aje	5fjd	426	425	0.859	0.655	0.855	0.907
5aje	5fjd	427	426	0.906	0.806	0.913	0.752
5aje	5fjd	428	427	0.037	0.281	0.037	0.281
5aje	5fjd	429	428	0.317	0.357	0.294	0.433
5aje	5fjd	430	429	0.9	0.85	0.9	0.85
5aje	5fjd	431	430	0.0	0.0	0.0	0.0
5aje	5fjd	432	431	0.0	0.0	0.0	0.0
5aje	5fjd	433	432	0.0	0.0	0.0	0.0
5aje	5fjd	434	433	0.738	0.832	0.724	0.831
5aje	5fjd	435	434	0.111	0.105	0.112	0.124
5aje	5fjd	436	435	0.589	0.52	0.595	0.622
5aje	5fjd	437	436	0.248	0.409	0.239	0.49
5aje	5fjd	438	437	0.624	0.605	0.609	0.443
5aje	5fjd	439	438	0.825	0.794	0.825	0.794
5aje	5fjd	440	439	0.0	0.0	0.0	0.0
5aje	5fjd	441	440	1.0	0	1.0	0
5aje	5fjd	442	441	0.0	0.0	0.0	0.0
5aje	5fjd	443	442	0.033	0.036	0.033	0.036
5aje	5fjd	444	443	0.883	0.83	0.883	0.83
5aje	5fjd	445	444	0.378	0.426	0.383	0.375
5aje	5fjd	446	445	0.2	0.209	0.219	0.244
5aje	5fjd	447	446	0.768	0.789	0.781	0.751
5aje	5fjd	448	447	0.0	0.0	0.0	0.0
5aje	5fjd	449	448	0.112	0.107	0.085	0.082
5aje	5fjd	450	449	0.0	0.0	0.0	0.0
5aje	5fjd	451	450	0.869	0.65	0.832	0.824
5aje	5fjd	452	451	0.0	0.0	0.0	0.0
5aje	5fjd	453	452	0.301	0.454	0.271	0.303
5aje	5fjd	454	453	0.433	0.548	0.433	0.548
5aje	5fjd	455	454	0.854	0.923	0.854	0.923
5aje	5fjd	459	458	0.421	0.471	0.44	0.461
5aje	5fjd	461	460	0.021	0.027	0.047	0.027
5aje	5fjd	462	461	0.0	0.0	0.0	0.0
5aje	5fjd	463	462	0.272	0.27	0.245	0.25
5aje	5fjd	464	463	0.019	0.054	0.015	0.045
5aje	5fjd	465	464	0.0	0.03	0.0	0.036
5aje	5fjd	466	465	0.65	0.717	0.65	0.717
5aje	5fjd	471	470	0.471	0.494	0.507	0.693
5aje	5fjd	479	477	0.275	0.186	0.257	0.103
5aje	5fjd	480	478	0.861	0.849	0.861	0.849
5aje	5fjd	481	479	0.659	0.719	0.653	0.716
5aje	5fjd	482	480	1.0	0	1.0	0
5aje	5fjd	483	481	0.619	0.711	0.625	0.796
5aje	5fjd	484	482	0.774	0.759	0.814	0.764
5aje	5fjd	485	483	0.66	0.684	0.677	0.642
5aje	5fjd	486	484	0.095	0.094	0.095	0.094
5aje	5fjd	487	485	0.669	0.424	0.68	0.497
5aje	5fjd	488	486	0.0	0	0.0	0
5aje	5fjd	489	487	0.091	0.128	0.147	0.217
5aje	5fjd	490	488	0.098	0.118	0.097	0.115
5aje	5fjd	491	489	0.763	0.644	0.763	0.64
5aje	5fjd	492	490	0.0	0.009	0.0	0.014
5aje	5fjd	493	491	0.007	0.009	0.007	0.009
5aje	5fjd	494	492	0.0	0.0	0.0	0.0
5aje	5fjd	495	493	0.032	0.054	0.032	0.094
5aje	5fjd	496	494	0.018	0.041	0.03	0.034
5aje	5fjd	497	495	0.766	0.739	0.768	0.828
5aje	5fjd	498	496	0.186	0.345	0.193	0.176
5aje	5fjd	499	497	0.779	0.747	0.792	0.679
5aje	5fjd	500	498	0.483	0.4	0.495	0.399
5aje	5fjd	501	499	0.012	0.012	0.002	0.007
5aje	5fjd	502	500	0.738	0.706	0.738	0.706
5aje	5fjd	503	501	0.482	0.466	0.434	0.474
5aje	5fjd	504	502	0.1	0	0.1	0
5aje	5fjd	505	503	0.0	0.0	0.0	0.0
5aje	5fjd	506	504	0.0	0.006	0.002	0.004
5aje	5fjd	507	505	0.805	0.74	0.834	0.717
5aje	5fjd	508	506	0.657	0.659	0.657	0.659
5aje	5fjd	509	507	0.144	0.169	0.163	0.193
5aje	5fjd	510	508	0.441	0.406	0.453	0.42
5aje	5fjd	511	509	0.81	0.866	0.732	0.731
5aje	5fjd	512	510	0.0	0.0	0.0	0.0
5aje	5fjd	513	511	0.0	0.002	0.0	0.005
5aje	5fjd	514	512	0.655	0.766	0.655	0.766
5aje	5fjd	515	513	0.638	0.654	0.638	0.654
5aje	5fjd	516	514	0.81	0.785	0.81	0.785
5aje	5fjd	517	515	0.0	0.0	0.0	0.0
5aje	5fjd	518	516	0.205	0.21	0.225	0.181
5aje	5fjd	519	517	0.637	0.52	0.702	0.627
5aje	5fjd	520	518	0.647	0.646	0.596	0.611
5aje	5fjd	521	519	0.0	0.0	0.0	0.0
5aje	5fjd	522	520	0.816	0.837	0.867	0.899
5aje	5fjd	523	521	0.014	0.016	0.014	0.034
5aje	5fjd	524	522	0.557	0.533	0.635	0.646
5aje	5fjd	525	523	0.348	0.353	0.485	0.551
5aje	5fjd	526	524	0.445	0.506	0.449	0.452
5aje	5fjd	527	525	1.0	0	1.0	0
5aje	5fjd	528	526	0.554	0.546	0.521	0.523
5aje	5fjd	529	527	0.0	0.003	0.0	0.0
5aje	5fjd	530	528	0.187	0.08	0.172	0.155
5aje	5fjd	531	529	0.154	0.162	0.151	0.148
5aje	5fjd	532	530	0.095	0.159	0.067	0.109
5aje	5fjd	533	531	0.034	0.008	0.038	0.011
5aje	5fjd	534	532	0.175	0.303	0.157	0.258
5aje	5fjd	535	533	0.473	0.666	0.473	0.666
5aje	5fjd	536	534	0.747	0.662	0.766	0.815
5aje	5fjd	537	535	0.9	0.854	0.9	0.854
5aje	5fjd	538	536	0.602	0.629	0.554	0.572
5aje	5fjd	539	537	0.002	0.033	0.0	0.022
5aje	5fjd	540	538	0.153	0.24	0.174	0.214
5aje	5fjd	541	539	0.387	0.152	0.359	0.166
5aje	5fjd	542	540	0.578	0.653	0.549	0.551
5aje	5fjd	543	541	0.036	0.223	0.036	0.223
5aje	5fjd	544	542	0.94	0.575	0.79	0.77
5aje	5fjd	545	543	0.087	0.085	0.072	0.065
5aje	5fjd	546	544	0.136	0.108	0.088	0.107
5aje	5fjd	547	545	0.364	0.519	0.353	0.29
5aje	5fjd	548	546	0.162	0.169	0.148	0.148
5aje	5fjd	549	547	0.87	0.701	0.863	0.932
5aje	5fjd	550	548	0.912	0.564	0.89	0.952
5aje	5fjd	551	549	0.568	0.455	0.584	0.643
5aje	5fjd	552	550	0.306	0.333	0.324	0.371
5aje	5fjd	553	551	0.535	0.678	0.509	0.528
5aje	5fjd	554	552	0.371	0.517	0.392	0.57
5aje	5fjd	555	553	0.059	0.102	0.042	0.071
5aje	5fjd	556	554	0.278	0.404	0.284	0.411
5aje	5fjd	557	555	1.0	0	1.0	0
5aje	5fjd	558	556	0.519	0.715	0.529	0.519
5aje	5fjd	559	557	0.388	0.394	0.396	0.412
5aje	5fjd	560	558	0.862	0.912	0.854	0.861
5aje	5fjd	561	559	0.452	0.555	0.468	0.393
5aje	5fjd	562	560	0.795	0.827	0.806	0.772
5aje	5fjd	563	561	0.601	0.534	0.573	0.528
5aje	5fjd	564	562	0.322	0.182	0.316	0.168
5aje	5fjd	565	563	0.663	0.746	0.661	0.662
5aje	5fjd	566	564	0.644	0.679	0.647	0.686
5aje	5fjd	567	565	0.461	0.481	0.451	0.457
5aje	5fjd	568	566	0.081	0.082	0.084	0.079
5aje	5fjd	569	567	0.205	0.262	0.265	0.334
5aje	5fjd	570	568	0.488	0.549	0.52	0.615
5aje	5fjd	571	569	0.84	0.646	0.84	0.646
5aje	5fjd	572	570	0.084	0.064	0.084	0.064
5aje	5fjd	573	571	0.898	0.878	0.854	0.775
5aje	5fjd	574	572	0.671	0.856	0.664	0.593
5aje	5fjd	575	573	0.066	0.074	0.061	0.059
5aje	5fjd	576	574	0.517	0.547	0.546	0.562
5aje	5fjd	577	575	0.863	0.592	0.909	0.812
5aje	5fjd	578	576	0.382	0.464	0.382	0.464
5aje	5fjd	579	577	0.594	0.609	0.578	0.566
5aje	5fjd	580	578	0.0	0.0	0.0	0.0
5aje	5fjd	581	579	0.015	0.059	0.003	0.038
5aje	5fjd	582	580	0.297	0.532	0.335	0.232
5aje	5fjd	583	581	0.413	0.54	0.444	0.297
5aje	5fjd	584	582	0.335	0.51	0.323	0.454
5aje	5fjd	585	583	0.0	0.0	0.0	0.0
5aje	5fjd	586	584	0.0	0.001	0.0	0.006
5aje	5fjd	587	585	0.834	0.924	0.821	0.774
5aje	5fjd	588	586	0.396	0.601	0.379	0.384
5aje	5fjd	589	587	0.288	0.279	0.37	0.372
5aje	5fjd	590	588	0.0	0.0	0.0	0.0
5aje	5fjd	591	589	1.0	0	1.0	0
5aje	5fjd	592	590	0.639	0.79	0.655	0.814
5aje	5fjd	593	591	0.27	0.271	0.443	0.471
5aje	5fjd	594	592	0.78	0.68	0.78	0.68
5aje	5fjd	595	593	0.088	0.076	0.079	0.071
5aje	5fjd	596	594	0.33	0.328	0.34	0.345
5aje	5fjd	597	595	0.0	0.001	0.003	0.003
5aje	5fjd	598	596	0.0	0.0	0.0	0.0
5aje	5fjd	599	597	0.034	0.037	0.044	0.033
5aje	5fjd	600	598	0.711	0.831	0.722	0.686
5aje	5fjd	601	599	0.577	0.523	0.544	0.431
5aje	5fjd	602	600	0.508	0.479	0.516	0.49
5aje	5fjd	603	601	0.006	0.007	0.047	0.042
5aje	5fjd	604	602	0.738	0.705	0.738	0.705
5aje	5fjd	605	603	0.0	0.0	0.0	0.0
5aje	5fjd	606	604	0.0	0.0	0.0	0.0
5aje	5fjd	607	605	0.0	0.0	0.0	0.0
5aje	5fjd	608	606	0.126	0.154	0.138	0.162
5aje	5fjd	609	607	0.343	0.437	0.343	0.437
5aje	5fjd	610	608	0.635	0.875	0.644	0.885
5aje	5fjd	611	609	0.967	0.0	0.967	0.0
5aje	5fjd	612	610	0.013	0.023	0.028	0.048
5aje	5fjd	613	611	0.0	0.001	0.0	0.0
5aje	5fjd	614	612	0.285	0.191	0.295	0.279
5aje	5fjd	615	613	0.345	0.334	0.354	0.34
5aje	5fjd	616	614	0.556	0.679	0.564	0.726
5aje	5fjd	617	615	0.0	0.0	0.0	0.0
5aje	5fjd	618	616	0.0	0.0	0.0	0.0
5aje	5fjd	619	617	0.0	0.0	0.0	0.0
5aje	5fjd	620	618	0.035	0.029	0.025	0.049
5aje	5fjd	621	619	0.1	0.129	0.08	0.149
5aje	5fjd	622	620	0.124	0.076	0.148	0.445
5aje	5fjd	623	621	0.0	0.0	0.0	0.0
5aje	5fjd	624	622	0.0	0.0	0.0	0.0
5aje	5fjd	625	623	0.657	0.745	0.715	0.853
5aje	5fjd	626	624	0.62	0.613	0.633	0.727
5aje	5fjd	627	625	0.83	0.936	0.843	0.96
5aje	5fjd	628	626	0.068	0.067	0.082	0.078
5aje	5fjd	629	627	0.0	0.0	0.0	0.0
5aje	5fjd	630	628	0.458	0.491	0.458	0.491
5aje	5fjd	631	629	0.0	0.0	0.0	0.0
5aje	5fjd	632	630	0.0	0.0	0.0	0.0
5aje	5fjd	633	631	0.0	0.0	0.0	0.0
5aje	5fjd	634	632	0.0	0.0	0.0	0.0
5aje	5fjd	635	633	0.0	0.013	0.0	0.008
5aje	5fjd	636	634	0.0	0.0	0.0	0.0
5aje	5fjd	637	635	0.074	0.121	0.1	0.085
5aje	5fjd	638	636	0.278	0.241	0.334	0.3
5aje	5fjd	639	637	0.295	0.097	0.31	0.272
5aje	5fjd	640	638	0.53	0.557	0.552	0.604
5aje	5fjd	641	639	0.424	0.522	0.424	0.522
5aje	5fjd	642	640	0.827	0.894	0.827	0.894
5aje	5fjd	643	641	0.65	0.624	0.628	0.681
5aje	5fjd	644	642	0.17	0.19	0.195	0.207
5aje	5fjd	645	643	0.503	0.509	0.503	0.509
5aje	5fjd	646	644	0.797	0.837	0.797	0.837
5aje	5fjd	647	645	0.532	0.718	0.541	0.551
5aje	5fjd	648	646	0.0	0.0	0.0	0.0
5aje	5fjd	649	647	0.196	0.248	0.213	0.324
5aje	5fjd	650	648	0.42	0.498	0.42	0.498
5aje	5fjd	651	649	0.706	0.825	0.706	0.825
5aje	5fjd	652	650	0.502	0.496	0.499	0.495
5aje	5fjd	653	651	0.486	0.476	0.509	0.551
5aje	5fjd	654	652	0.168	0.159	0.311	0.304
5aje	5fjd	655	653	0.762	0.791	0.755	0.721
5aje	5fjd	656	654	0.462	0.548	0.464	0.47
5aje	5fjd	657	655	0.65	0.863	0.65	0.863
5aje	5fjd	658	656	0.034	0.034	0.067	0.071
5aje	5fjd	659	657	0.707	0.719	0.707	0.719
5aje	5fjd	660	658	0.823	0.885	0.823	0.885
5aje	5fjd	661	659	0.427	0.414	0.433	0.472
5aje	5fjd	662	660	0.0	0.0	0.0	0.0
5aje	5fjd	663	661	0.0	0.0	0.0	0.0
5aje	5fjd	664	662	0.0	0.0	0.0	0.0
5aje	5fjd	665	663	0.0	0.0	0.0	0.0
5aje	5fjd	666	664	0.0	0.0	0.0	0.0
5aje	5fjd	667	665	0.0	0.0	0.0	0.0
5aje	5fjd	668	666	0.112	0.089	0.09	0.015
5aje	5fjd	669	667	0.728	0.669	0.728	0.669
5aje	5fjd	670	668	0.0	0.0	0.0	0.0
5aje	5fjd	671	669	0.835	0.575	0.835	0.575
5aje	5fjd	672	670	0.129	0.0	0.138	0.0
5aje	5fjd	673	671	0.018	0.021	0.0	0.0
5aje	5fjd	674	672	0.0	0.0	0.0	0.0
5aje	5fjd	675	673	0.15	0.14	0.143	0.13
5aje	5fjd	676	674	0.0	0.0	0.0	0.0
5aje	5fjd	677	675	0.356	0.439	0.398	0.467
5aje	5fjd	678	676	0.733	0.967	0.733	0.967
5aje	5fjd	679	677	0.08	0.038	0.1	0.146
5aje	5fjd	680	678	0.0	0.002	0.0	0.001
5aje	5fjd	681	679	0.401	0.184	0.425	0.472
5aje	5fjd	682	680	0.327	0.306	0.386	0.361
5aje	5fjd	683	681	0.312	0.555	0.308	0.632
5aje	5fjd	684	682	0.462	0.494	0.508	0.586
5aje	5fjd	685	683	0.545	0.64	0.593	0.68
5aje	5fjd	686	684	0.11	0.285	0.122	0.239
5aje	5fjd	687	685	0.018	0.199	0.008	0.119
5aje	5fjd	688	686	0.833	0.66	0.833	0.66
5aje	5fjd	689	687	0.825	0.807	0.825	0.807
5aje	5fjd	690	688	0.0	0	0.0	0
5aje	5fjd	691	689	0.557	0.565	0.641	0.646
5aje	5fjd	692	690	0.419	0.391	0.397	0.386
5aje	5fjd	693	691	0.0	0.0	0.0	0.0
5aje	5fjd	694	692	0.0	0.0	0.0	0.0
5aje	5fjd	695	693	0.122	0.131	0.14	0.132
5aje	5fjd	696	694	0.487	0.396	0.487	0.396
5aje	5fjd	697	695	0.0	0.0	0.0	0.0
5aje	5fjd	698	696	0.506	0.577	0.549	0.599
5aje	5fjd	699	697	0.764	0.637	0.749	0.739
5aje	5fjd	700	698	0.058	0.088	0.08	0.165
5aje	5fjd	701	699	0.537	0.681	0.538	0.662
5aje	5fjd	702	700	0.106	0.116	0.095	0.086
5aje	5fjd	703	701	0.879	0.906	0.879	0.906
5aje	5fjd	704	702	0.351	0.333	0.407	0.407
5aje	5fjd	705	703	0.815	0.858	0.815	0.858
5aje	5fjd	706	704	0.282	0.268	0.269	0.261
5aje	5fjd	707	705	0.0	0.0	0.0	0.0
5aje	5fjd	708	706	0.0	0.0	0.0	0.0
5aje	5fjd	709	707	0.063	0.09	0.078	0.082
5aje	5fjd	710	708	0.041	0.036	0.052	0.09
5aje	5fjd	711	709	0.125	0.04	0.122	0.08
5aje	5fjd	712	710	0.0	0.0	0.0	0.0
5aje	5fjd	713	711	0.546	0.63	0.57	0.748
5aje	5fjd	714	712	0.843	0.698	0.812	0.781
5aje	5fjd	715	713	0.061	0.178	0.102	0.145
5aje	5fjd	716	714	0.753	0.576	0.771	0.59
5aje	5fjd	717	715	0.416	0.382	0.46	0.464
5aje	5fjd	718	716	0.565	0.562	0.568	0.511
5aje	5fjd	719	717	1.0	0.0	1.0	0.0
5aje	5fjd	720	718	1.0	0	1.0	0
5aje	5fjd	721	719	1.0	0	1.0	0
5aje	5fjd	722	720	1.0	0.955	1.0	0.955
5aje	5fjd	723	721	0.838	0.594	0.838	0.594
5aje	5fjd	724	722	0.889	0.587	0.889	0.587
5aje	5fjd	725	723	0.324	0.257	0.278	0.32
5aje	5fjd	726	724	0.09	0.091	0.087	0.093
5aje	5fjd	727	725	0.0	0.068	0.0	0.016
5aje	5fjd	728	726	0.205	0.181	0.199	0.126
5aje	5fjd	729	727	0.053	0.076	0.053	0.076
5aje	5fjd	730	728	0.186	0.076	0.186	0.076
5aje	5fjd	731	729	0.466	0.475	0.485	0.416
5aje	5fjd	732	730	0.454	0.506	0.425	0.754
5aje	5fjd	733	731	0.193	0.276	0.155	0.216
5aje	5fjd	734	732	0.105	0.057	0.105	0.057
5aje	5fjd	735	733	0.227	0.231	0.221	0.258
5aje	5fjd	736	734	0.078	0.07	0.062	0.05
5aje	5fjd	737	735	0.014	0.016	0.012	0.015
5aje	5fjd	738	736	0.0	0.001	0.0	0.0
5aje	5fjd	739	737	0.0	0.0	0.0	0.0
5aje	5fjd	740	738	0.0	0.0	0.0	0.0
5aje	5fjd	741	739	0.639	0.695	0.617	0.597
5aje	5fjd	742	740	0.64	0.75	0.686	0.893
5aje	5fjd	743	741	0.167	0.146	0.104	0.073
5aje	5fjd	744	742	0.069	0.076	0.054	0.065
5aje	5fjd	745	743	0.005	0.005	0.0	0.006
5aje	5fjd	746	744	0.434	0.534	0.504	0.661
5aje	5fjd	747	745	0.0	0.01	0.0	0.022
5aje	5fjd	748	746	0.089	0.096	0.017	0.033
5aje	5fjd	749	747	0.0	0.0	0.0	0.0
5aje	5fjd	750	748	0.671	0.768	0.671	0.768
5aje	5fjd	751	749	0.628	0.704	0.612	0.7
5aje	5fjd	752	750	0.549	0.647	0.527	0.484
5aje	5fjd	753	751	0.082	0.056	0.077	0.038
5aje	5fjd	754	752	0.29	0.283	0.347	0.358
5aje	5fjd	755	753	0.068	0.132	0.066	0.085
5aje	5fjd	756	754	0.191	0.182	0.159	0.117
5aje	5fjd	757	755	0.61	0.661	0.624	0.687
5aje	5fjd	758	756	0.7	0.45	0.7	0.45
5aje	5fjd	759	757	0.024	0.021	0.007	0.017
5aje	5fjd	760	758	0.477	0.574	0.477	0.571
5aje	5fjd	761	759	0.786	0.869	0.786	0.869
5aje	5fjd	762	760	0.266	0.275	0.219	0.226
5aje	5fjd	763	761	0.051	0.096	0.035	0.109
5aje	5fjd	764	762	0.006	0.033	0.013	0.054
5aje	5fjd	765	763	0.002	0.0	0.0	0.0
5aje	5fjd	766	764	0.664	0.623	0.664	0.623
5aje	5fjd	767	765	0.003	0.004	0.005	0.004
5aje	5fjd	768	766	0.304	0.286	0.326	0.515
5aje	5fjd	769	767	0.607	0.373	0.595	0.364
5aje	5fjd	770	768	0.172	0.122	0.211	0.218
5aje	5fjd	771	769	0.168	0.182	0.168	0.182
5aje	5fjd	772	770	0.232	0.238	0.224	0.223
5aje	5fjd	773	771	0.213	0.346	0.2	0.201
5aje	5fjd	774	772	0.47	0.456	0.487	0.55
5aje	5fjd	775	773	0.869	0.9	0.874	0.948
5aje	5fjd	776	774	0.416	0.403	0.445	0.39
5aje	5fjd	777	775	0.0	0.0	0.0	0.0
5aje	5fjd	778	776	0.724	0.764	0.812	0.824
5aje	5fjd	779	777	0.027	0.031	0.015	0.016
5aje	5fjd	780	778	0.313	0.31	0.247	0.272
5aje	5fjd	781	779	0.0	0.0	0.0	0.0
5aje	5fjd	782	780	0.333	0.314	0.302	0.298
5aje	5fjd	783	781	0.202	0.167	0.159	0.184
5aje	5fjd	784	782	0.292	0.159	0.3	0.166
5aje	5fjd	785	783	0.113	0.145	0.106	0.223
5aje	5fjd	786	784	0.839	0.529	0.872	0.563
5aje	5fjd	787	785	0.922	0.711	0.921	0.666
5aje	5fjd	788	786	0.025	0.286	0.025	0.286
5aje	5fjd	789	787	0.275	0.425	0.308	0.413
5aje	5fjd	790	788	0.66	0.14	0.66	0.14
5aje	5fjd	791	789	0.0	0.0	0.0	0.0
5aje	5fjd	792	790	0.0	0.0	0.0	0.0
5aje	5fjd	793	791	0.0	0.0	0.0	0.0
5aje	5fjd	794	792	0.163	0.3	0.146	0.111
5aje	5fjd	795	793	0.109	0.095	0.125	0.119
5aje	5fjd	796	794	0.597	0.655	0.61	0.502
5aje	5fjd	797	795	0.224	0.26	0.256	0.274
5aje	5fjd	798	796	0.671	0.709	0.685	0.467
5aje	5fjd	799	797	0.827	0.793	0.827	0.793
5aje	5fjd	800	798	0.0	0.0	0.0	0.0
5aje	5fjd	801	799	1.0	0	1.0	0
5aje	5fjd	802	800	0.0	0.0	0.0	0.0
5aje	5fjd	803	801	0.03	0.037	0.03	0.037
5aje	5fjd	804	802	1.0	0	1.0	0
5aje	5fjd	805	803	0.444	0.485	0.44	0.481
5aje	5fjd	806	804	0.193	0.192	0.222	0.217
5aje	5fjd	807	805	0.715	0.681	0.742	0.673
5aje	5fjd	808	806	0.0	0.0	0.0	0.0
5aje	5fjd	809	807	0.006	0.0	0.0	0.0
5aje	5fjd	810	808	0.0	0.0	0.0	0.0
5aje	5fjd	811	809	0.876	0.936	0.842	0.667
5aje	5fjd	812	810	0.0	0.0	0.0	0.0
5aje	5fjd	813	811	0.423	0.623	0.421	0.599
5aje	5fjd	814	812	0.219	0.21	0.209	0.226
5aje	5fjd	815	813	0.9	1.0	0.9	1.0
5aje	5fjd	819	817	0.104	0.154	0.107	0.169
5aje	5fjd	821	819	0.075	0.066	0.01	0.005
5aje	5fjd	822	820	0.0	0.0	0.0	0.0
5aje	5fjd	823	821	0.28	0.298	0.267	0.277
5aje	5fjd	824	822	0.219	0.232	0.216	0.373
5aje	5fjd	825	823	0.0	0.0	0.0	0.001
5aje	5fjd	826	824	0.646	0.754	0.646	0.754
5aje	5fjd	831	829	0.492	0.534	0.495	0.546
5aje	5fjd	839	836	0.272	0.098	0.292	0.125
5aje	5fjd	840	837	0.849	0.853	0.849	0.853
5aje	5fjd	841	838	0.55	0.458	0.533	0.457
5aje	5fjd	842	839	1.0	0	1.0	0
5aje	5fjd	843	840	0.616	0.659	0.61	0.694
5aje	5fjd	844	841	0.429	0.448	0.434	0.438
5aje	5fjd	845	842	0.562	0.432	0.531	0.554
5aje	5fjd	846	843	0.095	0.095	0.095	0.095
5aje	5fjd	847	844	0.693	0.658	0.691	0.526
5aje	5fjd	848	845	0.0	0	0.0	0
5aje	5fjd	849	846	0.112	0.078	0.083	0.045
5aje	5fjd	850	847	0.087	0.115	0.1	0.131
5aje	5fjd	851	848	0.784	0.649	0.792	0.693
5aje	5fjd	852	849	0.003	0.015	0.0	0.012
5aje	5fjd	853	850	0.333	0.32	0.286	0.276
5aje	5fjd	854	851	0.0	0.0	0.0	0.0
5aje	5fjd	855	852	0.018	0.066	0.016	0.078
5aje	5fjd	856	853	0.024	0.068	0.03	0.082
5aje	5fjd	857	854	0.766	0.829	0.773	0.689
5aje	5fjd	858	855	0.18	0.262	0.208	0.243
5aje	5fjd	859	856	0.739	0.639	0.887	0.893
5aje	5fjd	860	857	0.451	0.415	0.484	0.443
5aje	5fjd	861	858	0.001	0.002	0.011	0.005
5aje	5fjd	862	859	0.742	0.801	0.742	0.801
5aje	5fjd	863	860	0.488	0.521	0.503	0.562
5aje	5fjd	864	861	0.333	0	0.333	0
5aje	5fjd	865	862	0.0	0.0	0.0	0.0
5aje	5fjd	866	863	0.002	0.005	0.003	0.0
5aje	5fjd	867	864	0.622	0.634	0.575	0.563
5aje	5fjd	868	865	0.583	0.603	0.577	0.595
5aje	5fjd	869	866	0.075	0.077	0.036	0.045
5aje	5fjd	870	867	0.457	0.619	0.461	0.437
5aje	5fjd	871	868	0.723	0.695	0.693	0.635
5aje	5fjd	872	869	0.0	0.0	0.0	0.0
5aje	5fjd	873	870	0.0	0.004	0.0	0.001
5aje	5fjd	874	871	0.3	0	0.409	0
5aje	5fjd	875	872	0.638	0.654	0.638	0.654
5aje	5fjd	876	873	1.0	0	1.0	0
5aje	5fjd	877	874	0.0	0.0	0.0	0.0
5aje	5fjd	878	875	0.833	0.848	0.833	0.848
5aje	5fjd	879	876	0.57	0.678	0.573	0.72
5aje	5fjd	880	877	0.865	0.912	0.865	0.912
5aje	5fjd	881	878	0.0	0.0	0.0	0.0
5aje	5fjd	882	879	0.313	0.353	0.289	0.344
5aje	5fjd	883	880	0.21	0.164	0.212	0.222
5aje	5fjd	884	881	0.568	0.572	0.568	0.499
5aje	5fjd	885	882	0.504	0.508	0.383	0.499
5aje	5fjd	886	883	0.096	0.158	0.1	0.132
5aje	5fjd	887	884	0.818	0.255	0.818	0.255
5aje	5fjd	888	885	0.489	0.49	0.544	0.54
5aje	5fjd	889	886	0.577	0.571	0.593	0.552
5aje	5fjd	890	887	0.343	0.323	0.34	0.45
5aje	5fjd	891	888	0.049	0.056	0.098	0.093
5aje	5fjd	892	889	0.095	0.158	0.093	0.121
5aje	5fjd	893	890	0.021	0.004	0.04	0.014
5aje	5fjd	894	891	0.191	0.279	0.182	0.274
5aje	5fjd	895	892	0.781	0.809	0.781	0.809
5aje	5fjd	896	893	0.013	0.037	0.017	0.027
5aje	5fjd	897	894	0.679	0.657	0.704	0.694
5aje	5fjd	898	895	0.189	0.208	0.13	0.15
5aje	5fjd	899	896	0.028	0.102	0.03	0.062
5aje	5fjd	900	897	0.116	0.118	0.149	0.215
5aje	5fjd	901	898	0.358	0.426	0.332	0.378
5aje	5fjd	902	899	0.535	0.63	0.535	0.63
5aje	5fjd	903	900	0.309	0.533	0.309	0.533
5aje	5fjd	904	901	0.787	0.84	0.805	0.8
5aje	5fjd	905	902	0.075	0.062	0.063	0.191
5aje	5fjd	906	903	0.096	0.082	0.142	0.137
5aje	5fjd	907	904	0.429	0.524	0.441	0.516
5aje	5fjd	908	905	0.15	0.154	0.164	0.168
5aje	5fjd	909	906	0.869	0.69	0.916	0.531
5aje	5fjd	910	907	0.93	0.774	0.935	0.912
5aje	5fjd	911	908	0.508	0.556	0.451	0.624
5aje	5fjd	912	909	0.314	0.357	0.297	0.3
5aje	5fjd	913	910	0.244	0.253	0.229	0.211
5aje	5fjd	914	911	0.227	0.303	0.231	0.352
5aje	5fjd	915	912	0.0	0.011	0.0	0.0
5aje	5fjd	916	913	0.279	0.426	0.285	0.434
5aje	5fjd	917	914	0.933	0.567	0.85	0.65
5aje	5fjd	918	915	0.666	0.792	0.628	0.639
5aje	5fjd	919	916	0.727	0.77	0.751	0.774
5aje	5fjd	920	917	0.856	0.866	0.851	0.898
5aje	5fjd	921	918	0.363	0.339	0.381	0.582
5aje	5fjd	922	919	0.497	0.448	0.47	0.469
5aje	5fjd	923	920	0.55	0.561	0.586	0.594
5aje	5fjd	924	921	0.141	0.159	0.141	0.159
5aje	5fjd	925	922	0.346	0.345	0.381	0.449
5aje	5fjd	926	923	0.856	0.892	0.865	0.94
5aje	5fjd	927	924	0.453	0.499	0.401	0.408
5aje	5fjd	928	925	0.112	0.112	0.092	0.09
5aje	5fjd	929	926	0.254	0.293	0.236	0.277
5aje	5fjd	930	927	0.514	0.59	0.517	0.601
5aje	5fjd	931	928	0.323	0.325	0.317	0.364
5aje	5fjd	932	929	0.085	0.064	0.085	0.064
5aje	5fjd	933	930	0.876	0.922	0.894	0.95
5aje	5fjd	934	931	0.541	0.586	0.565	0.657
5aje	5fjd	935	932	0.091	0.077	0.077	0.074
5aje	5fjd	936	933	0.526	0.528	0.57	0.563
5aje	5fjd	937	934	0.703	0.608	0.745	0.676
5aje	5fjd	938	935	0.384	0.458	0.384	0.458
5aje	5fjd	939	936	0.797	0.882	0.838	0.935
5aje	5fjd	940	937	0.397	0.138	0.415	0.313
5aje	5fjd	941	938	0.457	0.251	0.465	0.226
5aje	5fjd	942	939	0.311	0.246	0.324	0.175
5aje	5fjd	943	940	0.407	0.421	0.443	0.444
5aje	5fjd	944	941	0.378	0.353	0.389	0.259
5aje	5fjd	945	942	0.11	0.074	0.11	0.08
5aje	5fjd	946	943	0.253	0.479	0.233	0.321
5aje	5fjd	947	944	0.868	0.774	0.842	0.802
5aje	5fjd	948	945	0.503	0.446	0.483	0.369
5aje	5fjd	949	946	0.36	0.351	0.364	0.355
5aje	5fjd	950	947	0.0	0.0	0.0	0.0
5aje	5fjd	951	948	1.0	0	1.0	0
5aje	5fjd	952	949	0.53	0.52	0.533	0.508
5aje	5fjd	953	950	0.411	0.425	0.398	0.393
5aje	5fjd	954	951	0.172	0.151	0.156	0.145
5aje	5fjd	955	952	0.147	0.139	0.077	0.071
5aje	5fjd	956	953	0.336	0.329	0.347	0.345
5aje	5fjd	957	954	0.0	0.0	0.0	0.0
5aje	5fjd	958	955	0.0	0.0	0.0	0.0
5aje	5fjd	959	956	0.037	0.022	0.022	0.019
5aje	5fjd	960	957	0.706	0.804	0.8	0.843
5aje	5fjd	961	958	0.52	0.433	0.525	0.567
5aje	5fjd	962	959	0.49	0.465	0.475	0.414
5aje	5fjd	963	960	0.045	0.045	0.027	0.032
5aje	5fjd	964	961	0.742	0.7	0.742	0.7
5aje	5fjd	965	962	0.0	0.0	0.0	0.0
5aje	5fjd	966	963	0.0	0.0	0.0	0.0
5aje	5fjd	967	964	0.0	0.0	0.0	0.0
5aje	5fjd	968	965	0.384	0.375	0.347	0.338
5aje	5fjd	969	966	0.271	0.3	0.261	0.293
5aje	5fjd	970	967	0.651	0.888	0.654	0.88
5aje	5fjd	971	968	0.967	0.0	0.967	0.0
5aje	5fjd	972	969	0.021	0.017	0.037	0.079
5aje	5fjd	973	970	0.0	0.0	0.0	0.001
5aje	5fjd	974	971	0.283	0.418	0.316	0.244
5aje	5fjd	975	972	0.293	0.633	0.292	0.283
5aje	5fjd	976	973	0.545	0.729	0.542	0.534
5aje	5fjd	977	974	0.0	0.0	0.0	0.0
5aje	5fjd	978	975	0.0	0.0	0.0	0.0
5aje	5fjd	979	976	0.0	0.0	0.0	0.0
5aje	5fjd	980	977	0.017	0.045	0.0	0.057
5aje	5fjd	981	978	0.264	0.337	0.244	0.245
5aje	5fjd	982	979	0.102	0.087	0.092	0.152
5aje	5fjd	983	980	0.113	0.196	0.113	0.196
5aje	5fjd	984	981	0.0	0.0	0.0	0.0
5aje	5fjd	985	982	0.322	0.41	0.328	0.398
5aje	5fjd	986	983	0.613	0.428	0.602	0.854
5aje	5fjd	987	984	0.255	0.23	0.253	0.21
5aje	5fjd	988	985	0.097	0.146	0.137	0.215
5aje	5fjd	989	986	0.0	0.0	0.0	0.0
5aje	5fjd	990	987	0.5	0.48	0.5	0.48
5aje	5fjd	991	988	0.0	0.0	0.0	0.0
5aje	5fjd	992	989	0.0	0.0	0.0	0.0
5aje	5fjd	993	990	0.0	0.0	0.0	0.0
5aje	5fjd	994	991	0.0	0.0	0.0	0.0
5aje	5fjd	995	992	0.0	0.001	0.0	0.0
5aje	5fjd	996	993	0.0	0.011	0.0	0.0
5aje	5fjd	997	994	0.033	0.011	0.046	0.058
5aje	5fjd	998	995	0.241	0.011	0.203	0.195
5aje	5fjd	999	996	0.172	0.011	0.185	0.255
5aje	5fjd	1000	997	0.534	0.566	0.545	0.578
5aje	5fjd	1001	998	0.424	0.518	0.424	0.518
5aje	5fjd	1002	999	0.661	0.679	0.661	0.679
5aje	5fjd	1003	1000	0.034	0.025	0.03	0.022
5aje	5fjd	1004	1001	0.218	0.235	0.191	0.204
5aje	5fjd	1005	1002	0.51	0.495	0.51	0.495
5aje	5fjd	1006	1003	0.579	0.296	0.579	0.296
5aje	5fjd	1007	1004	0.543	0.616	0.543	0.824
5aje	5fjd	1008	1005	0.0	0.0	0.0	0.0
5aje	5fjd	1009	1006	0.116	0.129	0.099	0.129
5aje	5fjd	1010	1007	0.522	0.601	0.522	0.601
5aje	5fjd	1011	1008	0.694	0.825	0.694	0.825
5aje	5fjd	1012	1009	0.596	0.581	0.518	0.582
5aje	5fjd	1013	1010	0.418	0.407	0.402	0.391
5aje	5fjd	1014	1011	0.272	0.262	0.196	0.19
5aje	5fjd	1015	1012	0.722	0.831	0.72	0.616
5aje	5fjd	1016	1013	0.482	0.405	0.482	0.494
5aje	5fjd	1017	1014	0.662	0.846	0.662	0.846
5aje	5fjd	1018	1015	0.058	0.049	0.07	0.056
5aje	5fjd	1019	1016	0.691	0.731	0.691	0.731
5aje	5fjd	1020	1017	0.921	0.902	0.921	0.902
5aje	5fjd	1021	1018	0.485	0.46	0.522	0.506
5aje	5fjd	1022	1019	0.0	0.0	0.0	0.0
5aje	5fjd	1023	1020	0.0	0.0	0.0	0.0
5aje	5fjd	1024	1021	0.0	0.0	0.0	0.0
5aje	5fjd	1025	1022	0.0	0.0	0.0	0.0
5aje	5fjd	1026	1023	0.0	0.0	0.0	0.0
5aje	5fjd	1027	1024	0.008	0.006	0.041	0.031
5aje	5fjd	1028	1025	0.096	0.045	0.148	0.117
5aje	5fjd	1029	1026	0.618	0.738	0.618	0.738
5aje	5fjd	1030	1027	0.515	0.563	0.507	0.65
5aje	5fjd	1031	1028	0.842	0.575	0.842	0.575
5aje	5fjd	1032	1029	0.131	0.0	0.132	0.001
5aje	5fjd	1033	1030	0.014	0.011	0.005	0.007
5aje	5fjd	1034	1031	0.0	0.0	0.0	0.0
5aje	5fjd	1035	1032	0.0	0.0	0.0	0.0
5aje	5fjd	1036	1033	0.015	0.018	0.039	0.039
5aje	5fjd	1037	1034	0.394	0.385	0.419	0.433
5aje	5fjd	1038	1035	0.683	0.737	0.64	0.606
5aje	5fjd	1039	1036	0.081	0.107	0.094	0.119
5aje	5fjd	1040	1037	0.0	0.006	0.0	0.001
5aje	5fjd	1041	1038	0.75	0.65	0.75	0.65
5aje	5fjd	1042	1039	0.357	0.322	0.368	0.438
5aje	5fjd	1043	1040	0.326	0.477	0.306	0.423
5aje	5fjd	1044	1041	0.707	0.651	0.707	0.651
5aje	5fjd	1045	1042	0.669	0.639	0.697	0.675
5aje	5fjd	1046	1043	0.0	0.0	0.0	0.0
5aje	5fjd	1047	1044	0.028	0.185	0.018	0.025
5aje	5fjd	1048	1045	0.827	0.659	0.827	0.659
5aje	5fjd	1049	1046	0.508	0.45	0.508	0.45
5aje	5fjd	1050	1047	0.0	0	0.0	0
5aje	5fjd	1051	1048	0.206	0.209	0.139	0.139
5aje	5fjd	1052	1049	0.381	0.388	0.364	0.338
5aje	5fjd	1053	1050	0.0	0.0	0.0	0.0
5aje	5fjd	1054	1051	0.0	0.0	0.0	0.0
5aje	5fjd	1055	1052	0.0	0.0	0.0	0.0
5aje	5fjd	1056	1053	0.103	0.115	0.123	0.146
5aje	5fjd	1057	1054	0.0	0.0	0.0	0.0
5aje	5fjd	1058	1055	0.416	0.416	0.362	0.4
5aje	5fjd	1059	1056	0.729	0.741	0.684	0.69
5aje	5fjd	1060	1057	0.521	0.505	0.507	0.468
5aje	5fjd	1061	1058	0.585	0.606	0.605	0.702
5aje	5fjd	1062	1059	0.143	0.144	0.162	0.198
5aje	5fjd	1063	1060	0.886	0.908	0.886	0.908
5aje	5fjd	1064	1061	0.295	0.295	0.306	0.337
5aje	5fjd	1065	1062	0.792	0.789	0.79	0.796
5aje	5fjd	1066	1063	0.262	0.255	0.284	0.29
5aje	5fjd	1067	1064	0.0	0.0	0.0	0.0
5aje	5fjd	1068	1065	0.0	0.0	0.0	0.0
5aje	5fjd	1069	1066	0.132	0.186	0.124	0.125
5aje	5fjd	1070	1067	0.133	0.134	0.107	0.13
5aje	5fjd	1071	1068	0.177	0.336	0.191	0.301
5aje	5fjd	1072	1069	0.523	0.591	0.502	0.592
5aje	5fjd	1073	1070	0.127	0.077	0.125	0.289
5aje	5fjd	1074	1071	0.762	0.811	0.78	0.803
5aje	5fjd	1075	1072	0.088	0.157	0.109	0.194
5aje	5fjd	1076	1073	0.625	0.634	0.63	0.686
5aje	5fjd	1077	1074	0.824	0.892	0.825	0.892
5aje	5fjd	1078	1075	1.0	0	1.0	0
5aje	5fjd	1079	1076	1.0	0	1.0	0
5aje	5fjd	1080	1077	1.0	0.875	1.0	0.875
5aje	5fjd	1081	1078	0.821	0.8	0.821	0.8
5aje	5fjd	1082	1079	0.983	0.967	0.983	0.967
5aje	5fjd	1083	1080	0.0	0.0	0.0	0.0
5aje	5fjd	1084	1081	0.132	0.128	0.094	0.07
5aje	5fjd	1085	1082	0.0	0.04	0.0	0.009
5aje	5fjd	1086	1083	0.058	0.128	0.054	0.082
5aje	5fjd	1087	1084	0.29	0.369	0.311	0.267
5aje	5fjd	1088	1085	0.192	0.262	0.172	0.192
5aje	5fjd	1089	1086	0.502	0.42	0.461	0.362
5aje	5fjd	1090	1087	0.435	0.58	0.48	0.3
5aje	5fjd	1091	1088	0.165	0.212	0.182	0.244
5aje	5fjd	1092	1089	0.515	0.317	0.515	0.317
5aje	5fjd	1093	1090	0.254	0.26	0.245	0.23
5aje	5fjd	1094	1091	0.083	0.138	0.077	0.134
5aje	5fjd	1095	1092	0.08	0.186	0.074	0.126
5aje	5fjd	1096	1093	0.034	0.119	0.012	0.073
5aje	5fjd	1097	1094	0.0	0.022	0.0	0.064
5aje	5fjd	1098	1095	0.015	0.095	0.023	0.101
5aje	5fjd	1099	1096	0.651	0.557	0.618	0.675
5aje	5fjd	1100	1097	0.707	0.757	0.676	0.599
5aje	5fjd	1101	1098	0.104	0.057	0.098	0.053
5aje	5fjd	1102	1099	0.0	0.003	0.0	0.0
5aje	5fjd	1103	1100	0.011	0.011	0.008	0.013
5aje	5fjd	1104	1101	0.53	0.704	0.526	0.746
5aje	5fjd	1105	1102	0.0	0.022	0.0	0.09
5aje	5fjd	1106	1103	0.038	0.038	0.022	0.012
5aje	5fjd	1107	1104	0.0	0.0	0.0	0.0
5aje	5fjd	1108	1105	0.876	0.902	0.866	0.918
5aje	5fjd	1109	1106	0.62	0.782	0.608	0.661
5aje	5fjd	1110	1107	0.216	0.364	0.241	0.385
5aje	5fjd	1111	1108	0.165	0.134	0.085	0.063
5aje	5fjd	1112	1109	0.0	0.0	0.004	0.005
5aje	5fjd	1113	1110	0.101	0.102	0.094	0.048
5aje	5fjd	1114	1111	0.541	0.502	0.537	0.496
5aje	5fjd	1115	1112	0.587	0.571	0.587	0.571
5aje	5fjd	1116	1113	0.686	0.4	0.686	0.4
5aje	5fjd	1117	1114	0.007	0.014	0.024	0.039
5aje	5fjd	1118	1115	0.485	0.569	0.486	0.567
5aje	5fjd	1119	1116	0.662	0.615	0.662	0.615
5aje	5fjd	1120	1117	0.278	0.27	0.337	0.334
5aje	5fjd	1121	1118	0.058	0.121	0.041	0.095
5aje	5fjd	1122	1119	0.006	0.073	0.0	0.054
5aje	5fjd	1123	1120	0.14	0.118	0.139	0.114
5aje	5fjd	1124	1121	0.666	0.615	0.666	0.615
5aje	5fjd	1125	1122	0.0	0.0	0.0	0.0
5aje	5fjd	1126	1123	0.351	0.322	0.362	0.362
5aje	5fjd	1127	1124	0.809	0.754	0.809	0.754
5aje	5fjd	1128	1125	0.002	0.004	0.029	0.027
5aje	5fjd	1129	1126	0.395	0.403	0.393	0.421
5aje	5fjd	1130	1127	0.112	0.145	0.103	0.111
5aje	5fjd	1131	1128	0.197	0.238	0.221	0.249
5aje	5fjd	1132	1129	0.441	0.423	0.341	0.361
5aje	5fjd	1133	1130	0.882	0.837	0.89	0.889
5aje	5fjd	1134	1131	0.395	0.382	0.436	0.416
5aje	5fjd	1135	1132	0.0	0.0	0.0	0.0
5aje	5fjd	1136	1133	0.765	0.816	0.787	0.833
5aje	5fjd	1137	1134	0.035	0.06	0.018	0.018
5aje	5fjd	1138	1135	0.252	0.375	0.29	0.276
5aje	5fjd	1139	1136	0.0	0.0	0.0	0.0
5aje	5fjd	1140	1137	0.192	0.212	0.195	0.239
5aje	5fjd	1141	1138	0.381	0.308	0.444	0.526
5aje	5fjd	1142	1139	0.808	0.836	0.817	0.845
5aje	5fjd	1143	1140	0.119	0.205	0.128	0.254
5aje	5fjd	1144	1141	0.534	0.508	0.534	0.555
5aje	5fjd	1145	1142	0.927	0.761	0.892	0.771
5aje	5fjd	1146	1143	0.151	0.07	0.161	0.069
5aje	5fjd	1147	1144	0.348	0.322	0.297	0.152
5aje	5fjd	1148	1145	0.66	0.14	0.66	0.14
5aje	5fjd	1149	1146	0.0	0.0	0.0	0.0
5aje	5fjd	1150	1147	0.0	0.0	0.0	0.0
5aje	5fjd	1151	1148	0.0	0.0	0.0	0.0
5aje	5fjd	1152	1149	0.732	0.753	0.747	0.696
5aje	5fjd	1153	1150	0.547	0.625	0.581	0.638
5aje	5fjd	1154	1151	0.508	0.539	0.537	0.496
5aje	5fjd	1155	1152	0.243	0.306	0.261	0.323
5aje	5fjd	1156	1153	0.546	0.328	0.543	0.656
5aje	5fjd	1157	1154	0.838	0.925	0.838	0.925
5aje	5fjd	1158	1155	0.001	0.002	0.064	0.059
5aje	5fjd	1159	1156	1.0	0	1.0	0
5aje	5fjd	1160	1157	0.267	0.245	0.318	0.307
5aje	5fjd	1161	1158	0.035	0.034	0.035	0.034
5aje	5fjd	1162	1159	1.0	0	1.0	0
5aje	5fjd	1163	1160	0.364	0.362	0.405	0.425
5aje	5fjd	1164	1161	0.206	0.228	0.187	0.191
5aje	5fjd	1165	1162	0.7	0.686	0.651	0.634
5aje	5fjd	1166	1163	0.0	0.0	0.0	0.0
5aje	5fjd	1167	1164	0.028	0.036	0.039	0.089
5aje	5fjd	1168	1165	0.369	0.38	0.369	0.382
5aje	5fjd	1169	1166	1.0	0.478	1.0	0.478
5aje	5fjd	1170	1167	0.428	0.302	0.414	0.389
5aje	5fjd	1171	1168	0.292	0.29	0.323	0.347
5aje	5fjd	1172	1169	0.178	0.233	0.19	0.176
5aje	5fjd	1173	1170	0.95	1.0	0.95	1.0
5aje	5fjd	1174	1171	0.296	0.298	0.275	0.292
5aje	5fjd	1176	1173	0.025	0.056	0.035	0.042
5aje	5fjd	1177	1174	0.179	0.185	0.186	0.21
5aje	5fjd	1179	1176	0.003	0.005	0.0	0.0
5aje	5fjd	1180	1177	0.0	0.0	0.0	0.0
5aje	5fjd	1181	1178	0.289	0.269	0.274	0.272
5aje	5fjd	1182	1179	0.0	0.018	0.0	0.0
5aje	5fjd	1183	1180	0.0	0.0	0.0	0.0
5aje	5fjd	1184	1181	0.2	0.4	0.2	0.4
5aje	5fjd	1189	1186	0.508	0.628	0.484	0.531
5aje	5fjd	1197	1193	0.264	0.153	0.223	0.059
5aje	5fjd	1198	1194	0.847	0.851	0.847	0.851
5aje	5fjd	1199	1195	0.555	0.468	0.559	0.464
5aje	5fjd	1200	1196	1.0	0	1.0	0
5aje	5fjd	1201	1197	0.843	0.703	0.792	0.665
5aje	5fjd	1202	1198	0.779	0.736	0.745	0.786
5aje	5fjd	1203	1199	0.577	0.605	0.551	0.628
5aje	5fjd	1204	1200	0.095	0.094	0.095	0.094
5aje	5fjd	1205	1201	0.677	0.636	0.655	0.763
5aje	5fjd	1206	1202	0.0	0	0.0	0
5aje	5fjd	1207	1203	0.098	0.073	0.151	0.154
5aje	5fjd	1208	1204	0.107	0.128	0.095	0.113
5aje	5fjd	1209	1205	0.744	0.62	0.763	0.648
5aje	5fjd	1210	1206	0.0	0.01	0.0	0.01
5aje	5fjd	1211	1207	0.0	0.0	0.0	0.0
5aje	5fjd	1212	1208	0.0	0.0	0.0	0.0
5aje	5fjd	1213	1209	0.035	0.065	0.026	0.078
5aje	5fjd	1214	1210	0.025	0.078	0.025	0.028
5aje	5fjd	1215	1211	0.738	0.713	0.767	0.779
5aje	5fjd	1216	1212	0.168	0.326	0.186	0.299
5aje	5fjd	1217	1213	0.823	0.81	0.796	0.757
5aje	5fjd	1218	1214	0.467	0.515	0.437	0.43
5aje	5fjd	1219	1215	0.012	0.009	0.007	0.011
5aje	5fjd	1220	1216	0.733	0.804	0.733	0.804
5aje	5fjd	1221	1217	0.487	0.48	0.486	0.744
5aje	5fjd	1222	1218	0.4	0	0.1	0
5aje	5fjd	1223	1219	0.0	0.0	0.0	0.0
5aje	5fjd	1224	1220	0.0	0.005	0.025	0.033
5aje	5fjd	1225	1221	0.374	0.392	0.337	0.354
5aje	5fjd	1226	1222	0.719	0.71	0.719	0.71
5aje	5fjd	1227	1223	0.09	0.095	0.102	0.106
5aje	5fjd	1228	1224	0.415	0.558	0.469	0.561
5aje	5fjd	1229	1225	0.737	0.734	0.773	0.713
5aje	5fjd	1230	1226	0.0	0.0	0.0	0.0
5aje	5fjd	1231	1227	0.0	0.0	0.0	0.003
5aje	5fjd	1232	1228	0.95	1.0	0.95	1.0
5aje	5fjd	1233	1229	0.646	0.654	0.646	0.654
5aje	5fjd	1234	1230	0.81	0.785	0.81	0.785
5aje	5fjd	1235	1231	0.0	0.0	0.0	0.0
5aje	5fjd	1236	1232	0.0	0.0	0.0	0.0
5aje	5fjd	1237	1233	0.823	0.697	0.784	0.676
5aje	5fjd	1238	1234	0.514	0.574	0.571	0.573
5aje	5fjd	1239	1235	0.0	0.0	0.0	0.0
5aje	5fjd	1240	1236	0.226	0.233	0.261	0.31
5aje	5fjd	1241	1237	0.005	0.004	0.006	0.004
5aje	5fjd	1242	1238	0.409	0.395	0.446	0.523
5aje	5fjd	1243	1239	0.407	0.432	0.479	0.565
5aje	5fjd	1244	1240	0.496	0.575	0.454	0.458
5aje	5fjd	1245	1241	0.67	0.788	0.67	0.788
5aje	5fjd	1246	1242	0.475	0.446	0.492	0.493
5aje	5fjd	1247	1243	0.635	0.579	0.643	0.57
5aje	5fjd	1248	1244	0.499	0.506	0.488	0.508
5aje	5fjd	1249	1245	0.139	0.146	0.123	0.132
5aje	5fjd	1250	1246	0.094	0.131	0.079	0.098
5aje	5fjd	1251	1247	0.028	0.003	0.03	0.031
5aje	5fjd	1252	1248	0.194	0.269	0.162	0.138
5aje	5fjd	1253	1249	0.471	0.663	0.471	0.663
5aje	5fjd	1254	1250	0.262	0.328	0.136	0.171
5aje	5fjd	1255	1251	0.672	0.679	0.69	0.708
5aje	5fjd	1256	1252	0.087	0.083	0.161	0.183
5aje	5fjd	1257	1253	0.011	0.01	0.0	0.049
5aje	5fjd	1258	1254	0.159	0.203	0.168	0.181
5aje	5fjd	1259	1255	0.475	0.308	0.507	0.51
5aje	5fjd	1260	1256	0.546	0.596	0.584	0.621
5aje	5fjd	1261	1257	0.06	0.216	0.06	0.216
5aje	5fjd	1262	1258	0.786	0.859	0.864	0.912
5aje	5fjd	1263	1259	0.106	0.147	0.08	0.26
5aje	5fjd	1264	1260	0.12	0.113	0.127	0.12
5aje	5fjd	1265	1261	0.378	0.389	0.393	0.487
5aje	5fjd	1266	1262	0.151	0.154	0.159	0.156
5aje	5fjd	1267	1263	0.889	0.77	0.919	0.75
5aje	5fjd	1268	1264	0.944	0.968	0.872	0.922
5aje	5fjd	1269	1265	0.807	0.769	0.804	0.511
5aje	5fjd	1270	1266	0.275	0.338	0.287	0.282
5aje	5fjd	1271	1267	0.598	0.694	0.624	0.703
5aje	5fjd	1272	1268	0.434	0.657	0.424	0.623
5aje	5fjd	1273	1269	0.0	0.0	0.0	0.0
5aje	5fjd	1274	1270	0.28	0.406	0.293	0.415
5aje	5fjd	1275	1271	0.88	0.93	0.88	0.93
5aje	5fjd	1276	1272	0.622	0.617	0.677	0.736
5aje	5fjd	1277	1273	0.759	0.725	0.727	0.766
5aje	5fjd	1278	1274	0.843	0.845	0.862	0.915
5aje	5fjd	1279	1275	0.32	0.549	0.362	0.373
5aje	5fjd	1280	1276	0.511	0.487	0.436	0.433
5aje	5fjd	1281	1277	0.603	0.626	0.558	0.575
5aje	5fjd	1282	1278	0.134	0.159	0.134	0.159
5aje	5fjd	1283	1279	0.312	0.297	0.327	0.301
5aje	5fjd	1284	1280	0.869	0.935	0.838	0.954
5aje	5fjd	1285	1281	0.668	0.655	0.749	0.739
5aje	5fjd	1286	1282	0.108	0.137	0.096	0.096
5aje	5fjd	1287	1283	0.221	0.234	0.231	0.224
5aje	5fjd	1288	1284	0.531	0.695	0.495	0.611
5aje	5fjd	1289	1285	0.784	0.944	0.784	0.944
5aje	5fjd	1290	1286	0.08	0.064	0.08	0.064
5aje	5fjd	1292	1288	0.369	0.368	0.358	0.36
5aje	5fjd	1293	1289	0.0	0.006	0.0	0.013
5aje	5fjd	1294	1290	0.897	0.913	0.897	0.913
5aje	5fjd	1295	1291	0.877	0.785	0.887	0.981
5aje	5fjd	1296	1292	0.382	0.475	0.382	0.475
5aje	5fjd	1297	1293	0.64	0.638	0.667	0.662
5aje	5fjd	1298	1294	0.0	0.0	0.0	0.0
5aje	5fjd	1299	1295	0.0	0.001	0.0	0.003
5aje	5fjd	1303	1299	0.0	0.0	0.0	0.0
5aje	5fjd	1304	1300	0.0	0.003	0.0	0.001
5aje	5fjd	1305	1301	0.832	0.834	0.813	0.761
5aje	5fjd	1306	1302	0.365	0.332	0.405	0.507
5aje	5fjd	1307	1303	0.365	0.37	0.273	0.268
5aje	5fjd	1308	1304	0.0	0.0	0.0	0.0
5aje	5fjd	1309	1305	1.0	0	1.0	0
5aje	5fjd	1310	1306	0.627	0.656	0.639	0.557
5aje	5fjd	1311	1307	0.388	0.396	0.436	0.442
5aje	5fjd	1312	1308	0.675	0.675	0.675	0.675
5aje	5fjd	1313	1309	0.128	0.131	0.139	0.136
5aje	5fjd	1314	1310	0.317	0.322	0.345	0.354
5aje	5fjd	1315	1311	0.346	0.317	0.277	0.316
5aje	5fjd	1316	1312	0.0	0.0	0.0	0.0
5aje	5fjd	1317	1313	0.009	0.013	0.055	0.042
5aje	5fjd	1318	1314	0.704	0.659	0.661	0.743
5aje	5fjd	1319	1315	0.554	0.457	0.547	0.405
5aje	5fjd	1320	1316	0.504	0.473	0.489	0.455
5aje	5fjd	1321	1317	0.044	0.047	0.017	0.02
5aje	5fjd	1322	1318	0.725	0.7	0.725	0.7
5aje	5fjd	1323	1319	0.0	0.0	0.0	0.0
5aje	5fjd	1324	1320	0.0	0.0	0.0	0.0
5aje	5fjd	1325	1321	0.0	0.0	0.0	0.0
5aje	5fjd	1326	1322	0.284	0.222	0.279	0.201
5aje	5fjd	1327	1323	0.268	0.303	0.255	0.291
5aje	5fjd	1328	1324	0.644	0.882	0.648	0.534
5aje	5fjd	1329	1325	0.967	0.0	0.967	0.0
5aje	5fjd	1330	1326	0.027	0.056	0.048	0.084
5aje	5fjd	1331	1327	0.0	0.002	0.0	0.001
5aje	5fjd	1332	1328	0.307	0.384	0.239	0.293
5aje	5fjd	1333	1329	0.271	0.474	0.313	0.315
5aje	5fjd	1334	1330	0.154	0.119	0.169	0.199
5aje	5fjd	1335	1331	0.191	0.239	0.195	0.209
5aje	5fjd	1336	1332	0.0	0.0	0.0	0.0
5aje	5fjd	1337	1333	0.0	0.0	0.0	0.0
5aje	5fjd	1338	1334	0.005	0.043	0.0	0.013
5aje	5fjd	1339	1335	0.13	0.199	0.12	0.169
5aje	5fjd	1340	1336	0.0	0.0	0.0	0.0
5aje	5fjd	1341	1337	0.0	0.0	0.0	0.0
5aje	5fjd	1342	1338	0.0	0.0	0.0	0.0
5aje	5fjd	1343	1339	0.777	0.748	0.794	0.876
5aje	5fjd	1344	1340	0.617	0.345	0.589	0.793
5aje	5fjd	1345	1341	0.538	0.568	0.55	0.593
5aje	5fjd	1346	1342	0.103	0.188	0.074	0.069
5aje	5fjd	1347	1343	0.0	0.0	0.0	0.0
5aje	5fjd	1348	1344	0.465	0.494	0.465	0.494
5aje	5fjd	1349	1345	0.0	0.0	0.0	0.0
5aje	5fjd	1350	1346	0.0	0.0	0.0	0.0
5aje	5fjd	1351	1347	0.0	0.0	0.0	0.0
5aje	5fjd	1352	1348	0.0	0.0	0.0	0.0
5aje	5fjd	1353	1349	0.0	0.0	0.0	0.0
5aje	5fjd	1354	1350	0.0	0.0	0.0	0.0
5aje	5fjd	1355	1351	0.051	0.062	0.047	0.057
5aje	5fjd	1356	1352	0.187	0.23	0.212	0.227
5aje	5fjd	1357	1353	0.2	0.299	0.178	0.428
5aje	5fjd	1358	1354	0.596	0.614	0.55	0.581
5aje	5fjd	1359	1355	0.415	0.512	0.415	0.512
5aje	5fjd	1360	1356	1.0	0	1.0	0
5aje	5fjd	1361	1357	0.016	0.015	0.011	0.007
5aje	5fjd	1362	1358	0.2	0.214	0.186	0.189
5aje	5fjd	1363	1359	0.48	0.489	0.48	0.489
5aje	5fjd	1364	1360	0.43	0.369	0.454	0.45
5aje	5fjd	1365	1361	0.554	0.59	0.587	0.753
5aje	5fjd	1366	1362	0.0	0.0	0.0	0.0
5aje	5fjd	1367	1363	0.167	0.376	0.189	0.415
5aje	5fjd	1368	1364	0.423	0.511	0.423	0.511
5aje	5fjd	1369	1365	0.669	0.825	0.669	0.825
5aje	5fjd	1370	1366	0.525	0.548	0.529	0.538
5aje	5fjd	1371	1367	0.463	0.499	0.42	0.452
5aje	5fjd	1372	1368	0.258	0.258	0.232	0.231
5aje	5fjd	1373	1369	0.74	0.709	0.726	0.633
5aje	5fjd	1374	1370	0.609	0.677	0.628	0.493
5aje	5fjd	1375	1371	0.778	0.767	0.778	0.767
5aje	5fjd	1376	1372	0.249	0.334	0.242	0.27
5aje	5fjd	1377	1373	0.699	0.731	0.699	0.731
5aje	5fjd	1378	1374	0.83	0.891	0.83	0.891
5aje	5fjd	1379	1375	0.534	0.524	0.569	0.599
5aje	5fjd	1380	1376	0.0	0.0	0.0	0.0
5aje	5fjd	1381	1377	0.0	0.0	0.0	0.0
5aje	5fjd	1382	1378	0.0	0.0	0.0	0.0
5aje	5fjd	1383	1379	0.0	0.0	0.0	0.0
5aje	5fjd	1384	1380	0.0	0.0	0.0	0.0
5aje	5fjd	1385	1381	0.013	0.006	0.002	0.004
5aje	5fjd	1386	1382	0.117	0.131	0.102	0.093
5aje	5fjd	1387	1383	0.619	0.738	0.619	0.738
5aje	5fjd	1388	1384	0.552	0.629	0.466	0.528
5aje	5fjd	1389	1385	0.835	0.582	0.835	0.582
5aje	5fjd	1390	1386	0.089	0.0	0.097	0.013
5aje	5fjd	1391	1387	0.0	0.0	0.024	0.03
5aje	5fjd	1392	1388	0.0	0.0	0.0	0.0
5aje	5fjd	1393	1389	0.0	0.0	0.0	0.0
5aje	5fjd	1394	1390	0.019	0.025	0.018	0.018
5aje	5fjd	1395	1391	0.547	0.49	0.547	0.49
5aje	5fjd	1396	1392	0.523	0.561	0.551	0.516
5aje	5fjd	1397	1393	0.078	0.126	0.079	0.05
5aje	5fjd	1398	1394	0.0	0.012	0.0	0.015
5aje	5fjd	1399	1395	0.736	0.65	0.736	0.65
5aje	5fjd	1400	1396	0.355	0.345	0.344	0.356
5aje	5fjd	1401	1397	0.27	0.287	0.245	0.364
5aje	5fjd	1402	1398	0.652	0.496	0.652	0.496
5aje	5fjd	1403	1399	0.267	0.355	0.286	0.243
5aje	5fjd	1404	1400	0.0	0.0	0.0	0.0
5aje	5fjd	1405	1401	0.013	0.012	0.0	0.077
5aje	5fjd	1406	1402	0.413	0.414	0.413	0.414
5aje	5fjd	1407	1403	0.825	0.782	0.825	0.782
5aje	5fjd	1408	1404	0.0	0	0.0	0
5aje	5fjd	1409	1405	0.161	0.168	0.242	0.243
5aje	5fjd	1410	1406	0.399	0.52	0.372	0.346
5aje	5fjd	1411	1407	0.0	0.0	0.0	0.0
5aje	5fjd	1412	1408	0.0	0.0	0.0	0.0
5aje	5fjd	1413	1409	0.0	0.0	0.0	0.0
5aje	5fjd	1414	1410	0.102	0.127	0.159	0.163
5aje	5fjd	1415	1411	0.0	0.0	0.0	0.0
5aje	5fjd	1416	1412	0.427	0.504	0.361	0.365
5aje	5fjd	1417	1413	0.722	0.678	0.739	0.812
5aje	5fjd	1418	1414	0.054	0.105	0.053	0.065
5aje	5fjd	1419	1415	0.565	0.765	0.578	0.777
5aje	5fjd	1420	1416	0.137	0.128	0.117	0.131
5aje	5fjd	1421	1417	0.178	0.264	0.178	0.264
5aje	5fjd	1422	1418	0.043	0.031	0.046	0.036
5aje	5fjd	1423	1419	0.541	0.545	0.541	0.545
5aje	5fjd	1424	1420	0.245	0.247	0.27	0.255
5aje	5fjd	1425	1421	0.0	0.0	0.0	0.0
5aje	5fjd	1426	1422	0.0	0.0	0.0	0.0
5aje	5fjd	1427	1423	0.08	0.066	0.12	0.113
5aje	5fjd	1428	1424	0.059	0.082	0.072	0.127
5aje	5fjd	1429	1425	0.0	0.004	0.0	0.0
5aje	5fjd	1430	1426	0.499	0.713	0.474	0.765
5aje	5fjd	1431	1427	0.601	0.572	0.603	0.813
5aje	5fjd	1432	1428	0.851	0.972	0.839	0.763
5aje	5fjd	1433	1429	0.088	0.2	0.079	0.148
5aje	5fjd	1435	1431	0.424	0.505	0.407	0.435
